{
  "main": {
    "kk-Cyrl": {
      "identity": {
        "version": {
          "_cldrVersion": "26",
          "_number": "$Revision: 10669 $"
        },
        "generation": {
          "_date": "$Date: 2014-07-23 16:10:33 -0500 (Wed, 23 Jul 2014) $"
        },
        "language": "kk",
        "script": "Cyrl"
      },
      "dates": {
        "calendars": {
          "islamic-civil": {
            "months": {
              "format": {
                "abbreviated": {
                  "1": "Muh.",
                  "2": "Saf.",
                  "3": "Rab. I",
                  "4": "Rab. II",
                  "5": "Jum. I",
                  "6": "Jum. II",
                  "7": "Raj.",
                  "8": "Sha.",
                  "9": "Ram.",
                  "10": "Shaw.",
                  "11": "Dhuʻl-Q.",
                  "12": "Dhuʻl-H."
                },
                "narrow": {
                  "1": "1",
                  "2": "2",
                  "3": "3",
                  "4": "4",
                  "5": "5",
                  "6": "6",
                  "7": "7",
                  "8": "8",
                  "9": "9",
                  "10": "10",
                  "11": "11",
                  "12": "12"
                },
                "wide": {
                  "1": "Muharram",
                  "2": "Safar",
                  "3": "Rabiʻ I",
                  "4": "Rabiʻ II",
                  "5": "Jumada I",
                  "6": "Jumada II",
                  "7": "Rajab",
                  "8": "Shaʻban",
                  "9": "Ramadan",
                  "10": "Shawwal",
                  "11": "Dhuʻl-Qiʻdah",
                  "12": "Dhuʻl-Hijjah"
                }
              },
              "stand-alone": {
                "abbreviated": {
                  "1": "Muh.",
                  "2": "Saf.",
                  "3": "Rab. I",
                  "4": "Rab. II",
                  "5": "Jum. I",
                  "6": "Jum. II",
                  "7": "Raj.",
                  "8": "Sha.",
                  "9": "Ram.",
                  "10": "Shaw.",
                  "11": "Dhuʻl-Q.",
                  "12": "Dhuʻl-H."
                },
                "narrow": {
                  "1": "1",
                  "2": "2",
                  "3": "3",
                  "4": "4",
                  "5": "5",
                  "6": "6",
                  "7": "7",
                  "8": "8",
                  "9": "9",
                  "10": "10",
                  "11": "11",
                  "12": "12"
                },
                "wide": {
                  "1": "Muharram",
                  "2": "Safar",
                  "3": "Rabiʻ I",
                  "4": "Rabiʻ II",
                  "5": "Jumada I",
                  "6": "Jumada II",
                  "7": "Rajab",
                  "8": "Shaʻban",
                  "9": "Ramadan",
                  "10": "Shawwal",
                  "11": "Dhuʻl-Qiʻdah",
                  "12": "Dhuʻl-Hijjah"
                }
              }
            },
            "days": {
              "format": {
                "abbreviated": {
                  "sun": "жек",
                  "mon": "дүй",
                  "tue": "сей",
                  "wed": "сәр",
                  "thu": "бей",
                  "fri": "жұма",
                  "sat": "сен"
                },
                "narrow": {
                  "sun": "Ж",
                  "mon": "Д",
                  "tue": "С",
                  "wed": "С",
                  "thu": "Б",
                  "fri": "Ж",
                  "sat": "С"
                },
                "short": {
                  "sun": "жс",
                  "mon": "дс",
                  "tue": "сс",
                  "wed": "ср",
                  "thu": "бс",
                  "fri": "жм",
                  "sat": "сб"
                },
                "wide": {
                  "sun": "жексенбі",
                  "mon": "дүйсенбі",
                  "tue": "сейсенбі",
                  "wed": "сәрсенбі",
                  "thu": "бейсенбі",
                  "fri": "жұма",
                  "sat": "сенбі"
                }
              },
              "stand-alone": {
                "abbreviated": {
                  "sun": "жек",
                  "mon": "дүй",
                  "tue": "сей",
                  "wed": "сәр",
                  "thu": "бей",
                  "fri": "жұма",
                  "sat": "сб."
                },
                "narrow": {
                  "sun": "Ж",
                  "mon": "Д",
                  "tue": "С",
                  "wed": "С",
                  "thu": "Б",
                  "fri": "Ж",
                  "sat": "С"
                },
                "short": {
                  "sun": "жс",
                  "mon": "дс",
                  "tue": "сс",
                  "wed": "ср",
                  "thu": "бс",
                  "fri": "жм",
                  "sat": "сб"
                },
                "wide": {
                  "sun": "жексенбі",
                  "mon": "дүйсенбі",
                  "tue": "сейсенбі",
                  "wed": "сәрсенбі",
                  "thu": "бейсенбі",
                  "fri": "жұма",
                  "sat": "сенбі"
                }
              }
            },
            "quarters": {
              "format": {
                "abbreviated": {
                  "1": "Т1",
                  "2": "Т2",
                  "3": "Т3",
                  "4": "Т4"
                },
                "narrow": {
                  "1": "1",
                  "2": "2",
                  "3": "3",
                  "4": "4"
                },
                "wide": {
                  "1": "1-інші тоқсан",
                  "2": "2-інші тоқсан",
                  "3": "3-інші тоқсан",
                  "4": "4-інші тоқсан"
                }
              },
              "stand-alone": {
                "abbreviated": {
                  "1": "Т1",
                  "2": "Т2",
                  "3": "Т3",
                  "4": "Т4"
                },
                "narrow": {
                  "1": "1",
                  "2": "2",
                  "3": "3",
                  "4": "4"
                },
                "wide": {
                  "1": "1-інші тоқсан",
                  "2": "2-інші тоқсан",
                  "3": "3-інші тоқсан",
                  "4": "4-інші тоқсан"
                }
              }
            },
            "dayPeriods": {
              "format": {
                "abbreviated": {
                  "am": "таңертеңгі",
                  "noon": "түскі",
                  "pm": "түстен кейінгі"
                },
                "narrow": {
                  "am": "тт",
                  "noon": "тс",
                  "pm": "кш"
                },
                "wide": {
                  "am": "таңертеңгі",
                  "noon": "түскі",
                  "pm": "түстен кейінгі"
                }
              },
              "stand-alone": {
                "abbreviated": {
                  "am": "таңертеңгі",
                  "noon": "түскі",
                  "pm": "түстен кейінгі"
                },
                "narrow": {
                  "am": "тт",
                  "noon": "тс",
                  "pm": "кш"
                },
                "wide": {
                  "am": "таңертеңгі",
                  "noon": "түскі",
                  "pm": "түстен кейінгі"
                }
              }
            },
            "eras": {
              "eraNames": {
                "0": "AH"
              },
              "eraAbbr": {
                "0": "AH"
              },
              "eraNarrow": {
                "0": "AH"
              }
            },
            "dateFormats": {
              "full": "EEEE, d MMMM y 'ж'. G",
              "long": "d MMMM y 'ж'. G",
              "medium": "dd.MM.y G",
              "short": "dd.MM.y GGGGG"
            },
            "timeFormats": {
              "full": "HH:mm:ss zzzz",
              "long": "HH:mm:ss z",
              "medium": "HH:mm:ss",
              "short": "HH:mm"
            },
            "dateTimeFormats": {
              "full": "{1} {0}",
              "long": "{1} {0}",
              "medium": "{1} {0}",
              "short": "{1} {0}",
              "availableFormats": {
                "E": "ccc",
                "EHm": "E HH:mm",
                "EHms": "E HH:mm:ss",
                "Ed": "d, E",
                "Ehm": "E h:mm a",
                "Ehms": "E h:mm:ss a",
                "Gy": "G y",
                "GyMMM": "G y MMM",
                "GyMMMEd": "G y MMM d, E",
                "GyMMMd": "G y MMM d",
                "H": "HH",
                "Hm": "HH:mm",
                "Hms": "HH:mm:ss",
                "M": "L",
                "MEd": "MM-dd, E",
                "MMM": "LLL",
                "MMMEd": "MMM d, E",
                "MMMd": "MMM d",
                "Md": "MM-dd",
                "d": "d",
                "h": "h a",
                "hm": "h:mm a",
                "hms": "h:mm:ss a",
                "ms": "mm:ss",
                "y": "G y",
                "yyyy": "G y",
                "yyyyM": "GGGGG y-MM",
                "yyyyMEd": "GGGGG y-MM-dd, E",
                "yyyyMMM": "G y MMM",
                "yyyyMMMEd": "G y MMM d, E",
                "yyyyMMMd": "G y MMM d",
                "yyyyMd": "GGGGG y-MM-dd",
                "yyyyQQQ": "G y QQQ",
                "yyyyQQQQ": "G y QQQQ"
              },
              "appendItems": {
                "Day": "{0} ({2}: {1})",
                "Day-Of-Week": "{0} {1}",
                "Era": "{1} {0}",
                "Hour": "{0} ({2}: {1})",
                "Minute": "{0} ({2}: {1})",
                "Month": "{0} ({2}: {1})",
                "Quarter": "{0} ({2}: {1})",
                "Second": "{0} ({2}: {1})",
                "Timezone": "{0} {1}",
                "Week": "{0} ({2}: {1})",
                "Year": "{1} {0}"
              },
              "intervalFormats": {
                "intervalFormatFallback": "{0} - {1}",
                "H": {
                  "H": "HH-HH"
                },
                "Hm": {
                  "H": "HH:mm-HH:mm",
                  "m": "HH:mm-HH:mm"
                },
                "Hmv": {
                  "H": "HH:mm-HH:mm v",
                  "m": "HH:mm-HH:mm v"
                },
                "Hv": {
                  "H": "HH-HH v"
                },
                "M": {
                  "M": "M-M"
                },
                "MEd": {
                  "M": "E, dd.MM - E, dd.MM",
                  "d": "E, dd.MM - E, dd.MM"
                },
                "MMM": {
                  "M": "MMM-MMM"
                },
                "MMMEd": {
                  "M": "E, d MMM - E, d MMM",
                  "d": "E, d - E, d MMM"
                },
                "MMMd": {
                  "M": "d MMM - d MMM",
                  "d": "d-d MMM"
                },
                "Md": {
                  "M": "dd.MM - dd.MM",
                  "d": "dd.MM - dd.MM"
                },
                "d": {
                  "d": "d-d"
                },
                "h": {
                  "a": "h a – h a",
                  "h": "h-h a"
                },
                "hm": {
                  "a": "h:mm a – h:mm a",
                  "h": "h:mm-h:mm a",
                  "m": "h:mm-h:mm a"
                },
                "hmv": {
                  "a": "h:mm a – h:mm a v",
                  "h": "h:mm-h:mm a v",
                  "m": "h:mm-h:mm a v"
                },
                "hv": {
                  "a": "h a – h a v",
                  "h": "h-h a v"
                },
                "y": {
                  "y": "y-y G"
                },
                "yM": {
                  "M": "MM.y - MM.y G",
                  "y": "MM.y - MM.y G"
                },
                "yMEd": {
                  "M": "E, dd.MM.y - E, dd.MM.y G",
                  "d": "E, dd.MM.y - E, dd.MM.y G",
                  "y": "E, dd.MM.y - E, dd.MM.y G"
                },
                "yMMM": {
                  "M": "MMM-MMM y 'ж'. G",
                  "y": "MMM y 'ж'. - MMM y 'ж'. G"
                },
                "yMMMEd": {
                  "M": "E, d MMM - E, d MMM y 'ж'. G",
                  "d": "E, d - E, d MMM y 'ж'. G",
                  "y": "E, d MMM y 'ж'. - E, d MMM y 'ж'. G"
                },
                "yMMMM": {
                  "M": "MMMM - MMMM y G",
                  "y": "MMMM y - MMMM y G"
                },
                "yMMMd": {
                  "M": "d MMM - d MMM y 'ж'. G",
                  "d": "d-d MMM y 'ж'. G",
                  "y": "d MMM y 'ж'. - d MMM y 'ж'. G"
                },
                "yMd": {
                  "M": "dd.MM.y - dd.MM.y G",
                  "d": "dd.MM.y - dd.MM.y G",
                  "y": "dd.MM.y - dd.MM.y G"
                }
              }
            }
          }
        }
      }
    }
  }
}
