{
  "main": {
    "ta-MY": {
      "identity": {
        "version": {
          "_cldrVersion": "26",
          "_number": "$Revision: 10669 $"
        },
        "generation": {
          "_date": "$Date: 2014-07-23 16:10:33 -0500 (Wed, 23 Jul 2014) $"
        },
        "language": "root",
        "territory": "MY"
      },
      "characters": {
        "exemplarCharacters": "[அ ஆ இ ஈ உ ஊ எ ஏ ஐ ஒ ஓ ஔ ஃ க ங ச ஞ ட ண த ந ப ம ய ர ல வ ழ ள ற ன ஜ ஷ ஸ ஹ ா ி \u0BC0 ு ூ ெ ே ை ொ ோ ௌ \u0BCD]",
        "auxiliary": "[\u200C\u200D]",
        "punctuation": "[\\- ‐ – — , ; \\: ! ? . … ' ‘ ’ \" “ ” ( ) \\[ \\] § @ * / \\& # † ‡ ′ ″]",
        "index": "[அ ஆ இ ஈ உ ஊ எ ஏ ஐ ஒ ஓ ஔ க ங ச ஞ ட ண த ந ப ம ய ர ல வ ழ ள ற ன ஜ ஶ ஷ ஸ ஹ {க\u0BCDஷ}]",
        "ellipsis": {
          "initial": "…{0}",
          "medial": "{0}…{1}",
          "final": "{0}…",
          "word-initial": "… {0}",
          "word-medial": "{0} … {1}",
          "word-final": "{0} …"
        },
        "moreInformation": "?"
      }
    }
  }
}
