{
  "main": {
    "bs-Latn": {
      "identity": {
        "version": {
          "_cldrVersion": "26",
          "_number": "$Revision: 10669 $"
        },
        "generation": {
          "_date": "$Date: 2014-07-23 16:10:33 -0500 (Wed, 23 Jul 2014) $"
        },
        "language": "bs",
        "script": "Latn"
      },
      "dates": {
        "calendars": {
          "indian": {
            "months": {
              "format": {
                "abbreviated": {
                  "1": "Chaitra",
                  "2": "Vaisakha",
                  "3": "Jyaistha",
                  "4": "Asadha",
                  "5": "Sravana",
                  "6": "Bhadra",
                  "7": "Asvina",
                  "8": "Kartika",
                  "9": "Agrahayana",
                  "10": "Pausa",
                  "11": "Magha",
                  "12": "Phalguna"
                },
                "narrow": {
                  "1": "1",
                  "2": "2",
                  "3": "3",
                  "4": "4",
                  "5": "5",
                  "6": "6",
                  "7": "7",
                  "8": "8",
                  "9": "9",
                  "10": "10",
                  "11": "11",
                  "12": "12"
                },
                "wide": {
                  "1": "Chaitra",
                  "2": "Vaisakha",
                  "3": "Jyaistha",
                  "4": "Asadha",
                  "5": "Sravana",
                  "6": "Bhadra",
                  "7": "Asvina",
                  "8": "Kartika",
                  "9": "Agrahayana",
                  "10": "Pausa",
                  "11": "Magha",
                  "12": "Phalguna"
                }
              },
              "stand-alone": {
                "abbreviated": {
                  "1": "Chaitra",
                  "2": "Vaisakha",
                  "3": "Jyaistha",
                  "4": "Asadha",
                  "5": "Sravana",
                  "6": "Bhadra",
                  "7": "Asvina",
                  "8": "Kartika",
                  "9": "Agrahayana",
                  "10": "Pausa",
                  "11": "Magha",
                  "12": "Phalguna"
                },
                "narrow": {
                  "1": "1",
                  "2": "2",
                  "3": "3",
                  "4": "4",
                  "5": "5",
                  "6": "6",
                  "7": "7",
                  "8": "8",
                  "9": "9",
                  "10": "10",
                  "11": "11",
                  "12": "12"
                },
                "wide": {
                  "1": "Chaitra",
                  "2": "Vaisakha",
                  "3": "Jyaistha",
                  "4": "Asadha",
                  "5": "Sravana",
                  "6": "Bhadra",
                  "7": "Asvina",
                  "8": "Kartika",
                  "9": "Agrahayana",
                  "10": "Pausa",
                  "11": "Magha",
                  "12": "Phalguna"
                }
              }
            },
            "days": {
              "format": {
                "abbreviated": {
                  "sun": "ned",
                  "mon": "pon",
                  "tue": "uto",
                  "wed": "sri",
                  "thu": "čet",
                  "fri": "pet",
                  "sat": "sub"
                },
                "narrow": {
                  "sun": "N",
                  "mon": "P",
                  "tue": "U",
                  "wed": "S",
                  "thu": "Č",
                  "fri": "P",
                  "sat": "S"
                },
                "short": {
                  "sun": "ned",
                  "mon": "pon",
                  "tue": "uto",
                  "wed": "sri",
                  "thu": "čet",
                  "fri": "pet",
                  "sat": "sub"
                },
                "wide": {
                  "sun": "nedjelja",
                  "mon": "ponedjeljak",
                  "tue": "utorak",
                  "wed": "srijeda",
                  "thu": "četvrtak",
                  "fri": "petak",
                  "sat": "subota"
                }
              },
              "stand-alone": {
                "abbreviated": {
                  "sun": "ned",
                  "mon": "pon",
                  "tue": "uto",
                  "wed": "sri",
                  "thu": "čet",
                  "fri": "pet",
                  "sat": "sub"
                },
                "narrow": {
                  "sun": "n",
                  "mon": "p",
                  "tue": "u",
                  "wed": "s",
                  "thu": "č",
                  "fri": "p",
                  "sat": "s"
                },
                "short": {
                  "sun": "ned",
                  "mon": "pon",
                  "tue": "uto",
                  "wed": "sri",
                  "thu": "čet",
                  "fri": "pet",
                  "sat": "sub"
                },
                "wide": {
                  "sun": "nedjelja",
                  "mon": "ponedjeljak",
                  "tue": "utorak",
                  "wed": "srijeda",
                  "thu": "četvrtak",
                  "fri": "petak",
                  "sat": "subota"
                }
              }
            },
            "quarters": {
              "format": {
                "abbreviated": {
                  "1": "K1",
                  "2": "K2",
                  "3": "K3",
                  "4": "K4"
                },
                "narrow": {
                  "1": "1.",
                  "2": "2.",
                  "3": "3.",
                  "4": "4."
                },
                "wide": {
                  "1": "Prvi kvartal",
                  "2": "Drugi kvartal",
                  "3": "Treći kvartal",
                  "4": "Četvrti kvartal"
                }
              },
              "stand-alone": {
                "abbreviated": {
                  "1": "K1",
                  "2": "K2",
                  "3": "K3",
                  "4": "K4"
                },
                "narrow": {
                  "1": "1.",
                  "2": "2.",
                  "3": "3.",
                  "4": "4."
                },
                "wide": {
                  "1": "Prvi kvartal",
                  "2": "Drugi kvartal",
                  "3": "Treći kvartal",
                  "4": "Četvrti kvartal"
                }
              }
            },
            "dayPeriods": {
              "format": {
                "abbreviated": {
                  "afternoon": "popodne",
                  "am": "prije podne",
                  "earlyMorning": "ujutro",
                  "evening": "navečer",
                  "morning": "prijepodne",
                  "night": "noću",
                  "noon": "podne",
                  "pm": "popodne"
                },
                "narrow": {
                  "afternoon": "popodne",
                  "am": "prijepodne",
                  "earlyMorning": "ujutro",
                  "evening": "navečer",
                  "morning": "prijepodne",
                  "night": "noću",
                  "noon": "podne",
                  "pm": "poslijepodne"
                },
                "wide": {
                  "am": "prije podne",
                  "noon": "podne",
                  "pm": "popodne"
                }
              },
              "stand-alone": {
                "abbreviated": {
                  "afternoon": "popodne",
                  "am": "prije podne",
                  "earlyMorning": "ujutro",
                  "evening": "navečer",
                  "morning": "prijepodne",
                  "night": "noću",
                  "noon": "podne",
                  "pm": "popodne"
                },
                "narrow": {
                  "afternoon": "popodne",
                  "am": "prijepodne",
                  "earlyMorning": "ujutro",
                  "evening": "navečer",
                  "morning": "prijepodne",
                  "night": "noću",
                  "noon": "podne",
                  "pm": "poslijepodne"
                },
                "wide": {
                  "am": "prije podne",
                  "noon": "podne",
                  "pm": "popodne"
                }
              }
            },
            "eras": {
              "eraNames": {
                "0": "Saka"
              },
              "eraAbbr": {
                "0": "Saka"
              },
              "eraNarrow": {
                "0": "Saka"
              }
            },
            "dateFormats": {
              "full": "EEEE, dd. MMMM y. G",
              "long": "dd. MMMM y. G",
              "medium": "dd.MM.y. G",
              "short": "dd.MM.y. GGGGG"
            },
            "timeFormats": {
              "full": "HH:mm:ss zzzz",
              "long": "HH:mm:ss z",
              "medium": "HH:mm:ss",
              "short": "HH:mm"
            },
            "dateTimeFormats": {
              "full": "{1} u {0}",
              "long": "{1} u {0}",
              "medium": "{1}, {0}",
              "short": "{1}, {0}",
              "availableFormats": {
                "E": "ccc",
                "EHm": "E HH:mm",
                "EHms": "E HH:mm:ss",
                "Ed": "E, dd.",
                "Ehm": "E h:mm a",
                "Ehms": "E h:mm:ss a",
                "Gy": "y. G",
                "GyMMM": "MMM y. G",
                "GyMMMEd": "E, dd. MMM y. G",
                "GyMMMd": "dd. MMM y. G",
                "H": "HH",
                "Hm": "HH:mm",
                "Hms": "HH:mm:ss",
                "M": "L",
                "MEd": "E, dd.MM.",
                "MMM": "LLL",
                "MMMEd": "E, dd. MMM",
                "MMMMEd": "E, d. MMMM",
                "MMMMd": "d. MMMM",
                "MMMd": "dd. MMM",
                "Md": "dd.MM.",
                "d": "d",
                "h": "hh a",
                "hm": "hh:mm a",
                "hms": "hh:mm:ss a",
                "ms": "mm:ss",
                "y": "y. G",
                "yyyy": "y. G",
                "yyyyM": "MM.y. G",
                "yyyyMEd": "E, dd.MM.y. G",
                "yyyyMMM": "MMM y. G",
                "yyyyMMMEd": "E, dd. MMM y. G",
                "yyyyMMMM": "LLLL y. G",
                "yyyyMMMd": "dd. MMM y. G",
                "yyyyMd": "dd.MM.y. G",
                "yyyyQQQ": "G y QQQ",
                "yyyyQQQQ": "G y QQQQ"
              },
              "appendItems": {
                "Day": "{0} ({2}: {1})",
                "Day-Of-Week": "{0} {1}",
                "Era": "{1} {0}",
                "Hour": "{0} ({2}: {1})",
                "Minute": "{0} ({2}: {1})",
                "Month": "{0} ({2}: {1})",
                "Quarter": "{0} ({2}: {1})",
                "Second": "{0} ({2}: {1})",
                "Timezone": "{0} {1}",
                "Week": "{0} ({2}: {1})",
                "Year": "{1} {0}"
              },
              "intervalFormats": {
                "intervalFormatFallback": "{0} – {1}",
                "H": {
                  "H": "HH - HH'h'"
                },
                "Hm": {
                  "H": "HH:mm-HH:mm",
                  "m": "HH:mm-HH:mm"
                },
                "Hmv": {
                  "H": "HH:mm-HH:mm v",
                  "m": "HH:mm-HH:mm v"
                },
                "Hv": {
                  "H": "HH - HH 'h' v"
                },
                "M": {
                  "M": "MM. - MM."
                },
                "MEd": {
                  "M": "E, dd.MM. - E, dd.MM.",
                  "d": "E, dd.MM. - E, dd.MM."
                },
                "MMM": {
                  "M": "LLL-LLL"
                },
                "MMMEd": {
                  "M": "E, dd. MMM - E, dd. MMM",
                  "d": "E, dd. - E, dd. MMM"
                },
                "MMMd": {
                  "M": "dd. MMM - dd. MMM",
                  "d": "dd. - dd. MMM"
                },
                "Md": {
                  "M": "dd.MM. - dd.MM.",
                  "d": "dd.MM. - dd.MM."
                },
                "d": {
                  "d": "dd. - dd."
                },
                "h": {
                  "a": "h a - h a",
                  "h": "h - h'h' a"
                },
                "hm": {
                  "a": "h:mm a - h:mm a",
                  "h": "h:mm-h:mm a",
                  "m": "h:mm-h:mm a"
                },
                "hmv": {
                  "a": "h:mm a - h:mm a v",
                  "h": "h:mm-h:mm a v",
                  "m": "h:mm-h:mm a v"
                },
                "hv": {
                  "a": "h a - h a v",
                  "h": "h - h 'h' a v"
                },
                "y": {
                  "y": "y. - y. G"
                },
                "yM": {
                  "M": "MM.y. - MM.y. G",
                  "y": "MM.y. - MM.y. G"
                },
                "yMEd": {
                  "M": "E, dd.MM.y. - E, dd.MM.y. G",
                  "d": "E, dd.MM.y. - E, dd.MM.y. G",
                  "y": "E, dd.MM.y. - E, dd.MM.y. G"
                },
                "yMMM": {
                  "M": "LLL-LLL y. G",
                  "y": "LLL y. - LLL y. G"
                },
                "yMMMEd": {
                  "M": "E, dd. MMM - E, dd. MMM y. G",
                  "d": "E, dd. - E, dd. MMM y. G",
                  "y": "E, dd. MMM y. - E, dd. MMM y. G"
                },
                "yMMMM": {
                  "M": "LLLL - LLLL y. G",
                  "y": "LLLL y. - LLLL y. G"
                },
                "yMMMd": {
                  "M": "dd. MMM - dd. MMM y. G",
                  "d": "dd. - dd. MMM y. G",
                  "y": "dd. MMM y. - dd. MMM y. G"
                },
                "yMd": {
                  "M": "dd.MM.y. - dd.MM.y. G",
                  "d": "dd.MM.y. - dd.MM.y. G",
                  "y": "dd.MM.y. - dd.MM.y. G"
                }
              }
            }
          }
        }
      }
    }
  }
}
