{
  "main": {
    "rm-CH": {
      "identity": {
        "version": {
          "_cldrVersion": "26",
          "_number": "$Revision: 10669 $"
        },
        "generation": {
          "_date": "$Date: 2014-07-23 16:10:33 -0500 (Wed, 23 Jul 2014) $"
        },
        "language": "rm",
        "territory": "CH"
      },
      "localeDisplayNames": {
        "scripts": {
          "Afak": "Afak",
          "Aghb": "Aghb",
          "Arab": "arab",
          "Armi": "arameic imperial",
          "Armn": "armen",
          "Avst": "avestic",
          "Bali": "balinais",
          "Bamu": "Bamu",
          "Bass": "Bass",
          "Batk": "batak",
          "Beng": "bengal",
          "Blis": "simbols da Bliss",
          "Bopo": "bopomofo",
          "Brah": "brahmi",
          "Brai": "scrittira da Braille",
          "Bugi": "buginais",
          "Buhd": "buhid",
          "Cakm": "chakma",
          "Cans": "simbols autoctons canadais unifitgads",
          "Cari": "carian",
          "Cham": "cham",
          "Cher": "cherokee",
          "Cirt": "cirth",
          "Copt": "coptic",
          "Cprt": "cipriot",
          "Cyrl": "cirillic",
          "Cyrs": "slav da baselgia vegl",
          "Deva": "devanagari",
          "Dsrt": "deseret",
          "Dupl": "Dupl",
          "Egyd": "egipzian demotic",
          "Egyh": "egipzian ieratic",
          "Egyp": "ieroglifas egipzianas",
          "Elba": "Elba",
          "Ethi": "etiopic",
          "Geok": "kutsuri",
          "Geor": "georgian",
          "Glag": "glagolitic",
          "Goth": "gotic",
          "Gran": "Gran",
          "Grek": "grec",
          "Gujr": "gujarati",
          "Guru": "gurmukhi",
          "Hang": "hangul",
          "Hani": "han",
          "Hano": "hanunoo",
          "Hans": "scrittira chinaisa simplifitgada",
          "Hans-alt-stand-alone": "Hans",
          "Hant": "scrittira chinaisa tradiziunala",
          "Hant-alt-stand-alone": "Hant",
          "Hebr": "ebraic",
          "Hira": "hiragana",
          "Hluw": "Hluw",
          "Hmng": "pahawn hmong",
          "Hrkt": "katanaka u hiragana",
          "Hung": "ungarais vegl",
          "Inds": "indus",
          "Ital": "italic vegl",
          "Java": "javanais",
          "Jpan": "giapunais",
          "Jurc": "Jurc",
          "Kali": "kayah li",
          "Kana": "katakana",
          "Khar": "kharoshthi",
          "Khmr": "khmer/cambodschan",
          "Khoj": "Khoj",
          "Knda": "kannada",
          "Kore": "corean",
          "Kpel": "Kpel",
          "Kthi": "kaithi",
          "Lana": "lanna",
          "Laoo": "laot",
          "Latf": "latin (scrittira gotica)",
          "Latg": "latin (scrittira gaelica)",
          "Latn": "latin",
          "Lepc": "lepcha",
          "Limb": "limbu",
          "Lina": "linear A",
          "Linb": "linear B",
          "Lisu": "Lisu",
          "Loma": "Loma",
          "Lyci": "lichic",
          "Lydi": "lidic",
          "Mahj": "Mahj",
          "Mand": "mandaic",
          "Mani": "manicheic",
          "Maya": "ieroglifas maya",
          "Mend": "Mend",
          "Merc": "Merc",
          "Mero": "meroitic",
          "Mlym": "malaisian",
          "Modi": "Modi",
          "Mong": "mongolic",
          "Moon": "moon",
          "Mroo": "Mroo",
          "Mtei": "meetei mayek",
          "Mymr": "burmais",
          "Narb": "Narb",
          "Nbat": "Nbat",
          "Nkgb": "Nkgb",
          "Nkoo": "n’ko",
          "Nshu": "Nshu",
          "Ogam": "ogham",
          "Olck": "ol chiki",
          "Orkh": "orkhon",
          "Orya": "oriya",
          "Osma": "osman",
          "Palm": "Palm",
          "Pauc": "Pauc",
          "Perm": "permic vegl",
          "Phag": "phags-pa",
          "Phli": "pahlavi dad inscripziuns",
          "Phlp": "pahlavi da psalms",
          "Phlv": "pahlavi da cudeschs",
          "Phnx": "fenizian",
          "Plrd": "fonetica da Pollard",
          "Prti": "partic dad inscripziuns",
          "Qaaa": "Qaaa",
          "Qaab": "Qaab",
          "Qaac": "Qaac",
          "Qaad": "Qaad",
          "Qaae": "Qaae",
          "Qaaf": "Qaaf",
          "Qaag": "Qaag",
          "Qaah": "Qaah",
          "Qaaj": "Qaaj",
          "Qaak": "Qaak",
          "Qaal": "Qaal",
          "Qaam": "Qaam",
          "Qaan": "Qaan",
          "Qaao": "Qaao",
          "Qaap": "Qaap",
          "Qaaq": "Qaaq",
          "Qaar": "Qaar",
          "Qaas": "Qaas",
          "Qaat": "Qaat",
          "Qaau": "Qaau",
          "Qaav": "Qaav",
          "Qaaw": "Qaaw",
          "Qaax": "Qaax",
          "Qaay": "Qaay",
          "Qaaz": "Qaaz",
          "Qaba": "Qaba",
          "Qabb": "Qabb",
          "Qabc": "Qabc",
          "Qabd": "Qabd",
          "Qabe": "Qabe",
          "Qabf": "Qabf",
          "Qabg": "Qabg",
          "Qabh": "Qabh",
          "Qabi": "Qabi",
          "Qabj": "Qabj",
          "Qabk": "Qabk",
          "Qabl": "Qabl",
          "Qabm": "Qabm",
          "Qabn": "Qabn",
          "Qabo": "Qabo",
          "Qabp": "Qabp",
          "Qabq": "Qabq",
          "Qabr": "Qabr",
          "Qabs": "Qabs",
          "Qabt": "Qabt",
          "Qabu": "Qabu",
          "Qabv": "Qabv",
          "Qabw": "Qabw",
          "Qabx": "Qabx",
          "Rjng": "rejang",
          "Roro": "rongorongo",
          "Runr": "runic",
          "Samr": "samaritan",
          "Sara": "sarati",
          "Sarb": "Sarb",
          "Saur": "saurashtra",
          "Sgnw": "lingua da segns",
          "Shaw": "shavian",
          "Shrd": "Shrd",
          "Sidd": "Sidd",
          "Sind": "Sind",
          "Sinh": "singalais",
          "Sora": "Sora",
          "Sund": "sundanais",
          "Sylo": "syloti nagri",
          "Syrc": "siric",
          "Syre": "siric estrangelo",
          "Syrj": "siric dal vest",
          "Syrn": "siric da l’ost",
          "Tagb": "tagbanwa",
          "Takr": "Takr",
          "Tale": "tai le",
          "Talu": "tai lue",
          "Taml": "tamil",
          "Tang": "Tang",
          "Tavt": "tai viet",
          "Telu": "telugu",
          "Teng": "tengwar",
          "Tfng": "tifinagh",
          "Tglg": "tagalog",
          "Thaa": "thaana",
          "Thai": "tailandais",
          "Tibt": "tibetan",
          "Tirh": "Tirh",
          "Ugar": "ugaritic",
          "Vaii": "vaii",
          "Visp": "alfabet visibel",
          "Wara": "Wara",
          "Wole": "Wole",
          "Xpeo": "persian vegl",
          "Xsux": "scrittira a cugn sumeric-accadica",
          "Yiii": "yi",
          "Zinh": "ertà",
          "Zmth": "notaziun matematica",
          "Zsym": "simbols",
          "Zxxx": "linguas na scrittas",
          "Zyyy": "betg determinà",
          "Zzzz": "scrittira nunenconuschenta u nunvalaivla"
        }
      }
    }
  }
}
