{
  "main": {
    "mk-MK": {
      "identity": {
        "version": {
          "_cldrVersion": "26",
          "_number": "$Revision: 10669 $"
        },
        "generation": {
          "_date": "$Date: 2014-07-23 16:10:33 -0500 (Wed, 23 Jul 2014) $"
        },
        "language": "mk",
        "territory": "MK"
      },
      "characters": {
        "exemplarCharacters": "[а б в г д ѓ е ж з ѕ и ј к л љ м н њ о п р с т ќ у ф х ц ч џ ш]",
        "auxiliary": "[ѐ ѝ]",
        "punctuation": "[\\- ‐ – — , ; \\: ! ? . … ‘ ‚ “ „ ( ) \\[ \\] \\{ \\}]",
        "index": "[А Б В Г Д Ѓ Е Ж З Ѕ И Ј К Л Љ М Н Њ О П Р С Т Ќ У Ф Х Ц Ч Џ Ш]",
        "ellipsis": {
          "initial": "…{0}",
          "medial": "{0}…{1}",
          "final": "{0}…",
          "word-initial": "…{0}",
          "word-medial": "{0}… {1}",
          "word-final": "{0}…"
        },
        "moreInformation": "?"
      }
    }
  }
}
