{
  "main": {
    "yav-CM": {
      "identity": {
        "version": {
          "_cldrVersion": "26",
          "_number": "$Revision: 10669 $"
        },
        "generation": {
          "_date": "$Date: 2014-07-23 16:10:33 -0500 (Wed, 23 Jul 2014) $"
        },
        "language": "root",
        "territory": "CM"
      },
      "localeDisplayNames": {
        "territories": {
          "001": "001",
          "002": "002",
          "003": "003",
          "005": "005",
          "009": "009",
          "011": "011",
          "013": "013",
          "014": "014",
          "015": "015",
          "017": "017",
          "018": "018",
          "019": "019",
          "021": "021",
          "029": "029",
          "030": "030",
          "034": "034",
          "035": "035",
          "039": "039",
          "053": "053",
          "054": "054",
          "057": "057",
          "061": "061",
          "142": "142",
          "143": "143",
          "145": "145",
          "150": "150",
          "151": "151",
          "154": "154",
          "155": "155",
          "419": "419",
          "AC": "AC",
          "AD": "Aŋtúla",
          "AE": "imiláat i paaláap",
          "AF": "Afkanistáŋ",
          "AG": "Aŋtíka na Palpúta",
          "AI": "Aŋkíla",
          "AL": "Alpaní",
          "AM": "Almanía",
          "AN": "andíiy u nitililáand",
          "AO": "Aŋkúla",
          "AQ": "AQ",
          "AR": "Alsaŋtín",
          "AS": "Sámua u Amelíka",
          "AT": "Otilís",
          "AU": "Otalalí",
          "AW": "Alúpa",
          "AX": "AX",
          "AZ": "Asɛlpaisáŋ",
          "BA": "Pusiní-ɛlkofína",
          "BB": "Palpatós",
          "BD": "Paŋkalatɛs",
          "BE": "Pɛlsíik",
          "BF": "Pulikínafásó",
          "BG": "Pulukalíi",
          "BH": "Palɛŋ",
          "BI": "Púlúndí",
          "BJ": "Penɛŋ",
          "BL": "BL",
          "BM": "Pɛlmúta",
          "BN": "Pulunéy",
          "BO": "Polífia",
          "BQ": "BQ",
          "BR": "Pilesíl",
          "BS": "Pahámas",
          "BT": "Putaŋ",
          "BV": "BV",
          "BW": "Posuána",
          "BY": "Pelalús",
          "BZ": "Pelíse",
          "CA": "Kánáta",
          "CC": "CC",
          "CD": "kitɔŋ kí kongó",
          "CD-alt-variant": "CD",
          "CF": "Santalafilíik",
          "CG": "Kongó",
          "CG-alt-variant": "CG",
          "CH": "suwíis",
          "CI": "Kótifualɛ",
          "CI-alt-variant": "CI",
          "CK": "Kúuke",
          "CL": "Silí",
          "CM": "Kemelún",
          "CN": "Síine",
          "CO": "Kɔlɔ́mbía",
          "CP": "CP",
          "CR": "Kóstálíka",
          "CU": "kúpa",
          "CV": "Kápfɛl",
          "CW": "CW",
          "CX": "CX",
          "CY": "síplɛ",
          "CZ": "kitɔŋ kí cɛ́k",
          "DE": "nsáman",
          "DG": "DG",
          "DJ": "síputí",
          "DK": "tanemálk",
          "DM": "túmúnéke",
          "DO": "kitɔŋ kí tumunikɛ́ŋ",
          "DZ": "Alselí",
          "EA": "EA",
          "EC": "ekuatɛ́l",
          "EE": "ɛstoni",
          "EG": "isípit",
          "EH": "EH",
          "ER": "elitée",
          "ES": "panyá",
          "ET": "etiopí",
          "EU": "EU",
          "FI": "fɛnlánd",
          "FJ": "físi",
          "FK": "maluwín",
          "FK-alt-variant": "FK",
          "FM": "mikolonesí",
          "FO": "FO",
          "FR": "felensí",
          "GA": "kapɔ́ŋ",
          "GB": "ingilíís",
          "GB-alt-short": "GB",
          "GD": "kelenáat",
          "GE": "sɔlsíi",
          "GF": "kuyáan u felensí",
          "GG": "GG",
          "GH": "kaná",
          "GI": "sílpalatáal",
          "GL": "kuluɛnlánd",
          "GM": "kambíi",
          "GN": "kiiné",
          "GP": "kuatelúup",
          "GQ": "kinéekuatolial",
          "GR": "kilɛ́ɛk",
          "GS": "GS",
          "GT": "kuatemalá",
          "GU": "kuamiɛ",
          "GW": "kiinépisaó",
          "GY": "kuyáan",
          "HK": "HK",
          "HK-alt-short": "HK",
          "HM": "HM",
          "HN": "ɔndúlas",
          "HR": "Kolowasíi",
          "HT": "ayíti",
          "HU": "ɔngilí",
          "IC": "IC",
          "ID": "ɛndonesí",
          "IE": "ililánd",
          "IL": "ísilayɛ́l",
          "IM": "IM",
          "IN": "ɛ́ɛnd",
          "IO": "Kɔɔ́m kí ndián yi ngilís",
          "IQ": "ilák",
          "IR": "iláŋ",
          "IS": "isláand",
          "IT": "italí",
          "JE": "JE",
          "JM": "samayíik",
          "JO": "sɔltaní",
          "JP": "sapɔ́ɔŋ",
          "KE": "kénia",
          "KG": "kilikisistáŋ",
          "KH": "Kámbóse",
          "KI": "kilipatí",
          "KM": "Kɔmɔ́ɔl",
          "KN": "sɛ́ŋkilistɔ́f eniɛ́f",
          "KP": "kɔlé u muɛnɛ́",
          "KR": "kɔlé wu mbát",
          "KW": "kowéet",
          "KY": "Káyímanɛ",
          "KZ": "kasaksitáŋ",
          "LA": "lawós",
          "LB": "lipáŋ",
          "LC": "sɛ́ŋtɛ́lusí",
          "LI": "lístɛ́nsitáyin",
          "LK": "silíláŋka",
          "LR": "lipélia",
          "LS": "lesotó",
          "LT": "litiyaní",
          "LU": "liksambúul",
          "LV": "letoní",
          "LY": "lipíi",
          "MA": "malóok",
          "MC": "monakó",
          "MD": "moltafí",
          "ME": "ME",
          "MF": "MF",
          "MG": "matakaskáal",
          "MH": "ílmalasáal",
          "MK": "masetuán",
          "MK-alt-variant": "MK",
          "ML": "malí",
          "MM": "miaŋmáal",
          "MN": "mongolí",
          "MO": "MO",
          "MO-alt-short": "MO",
          "MP": "il maliyanɛ u muɛnɛ́",
          "MQ": "maltiníik",
          "MR": "molitaní",
          "MS": "mɔŋsilá",
          "MT": "málɛ́t",
          "MU": "molís",
          "MV": "maletíif",
          "MW": "malawí",
          "MX": "mɛksíik",
          "MY": "malesí",
          "MZ": "mosambík",
          "NA": "namipí",
          "NC": "nufɛ́l kaletoní",
          "NE": "nisɛ́ɛl",
          "NF": "il nɔ́lfɔ́lɔk",
          "NG": "nisélia",
          "NI": "nikalaká",
          "NL": "nitililáand",
          "NO": "nɔlfɛ́ɛs",
          "NP": "nepáal",
          "NR": "nawulú",
          "NU": "niyuwé",
          "NZ": "nufɛ́l seláand",
          "OM": "omáŋ",
          "PA": "panamá",
          "PE": "pelú",
          "PF": "polinesí u felensí",
          "PG": "papuasí nufɛ́l kiiné",
          "PH": "filipíin",
          "PK": "pakistáŋ",
          "PL": "pɔlɔ́ɔny",
          "PM": "sɛ́ŋpiɛ́l e mikelɔ́ŋ",
          "PN": "pitikɛ́ɛlínɛ́",
          "PR": "pólótolíko",
          "PS": "kitɔŋ ki palɛstíin",
          "PS-alt-short": "PS",
          "PT": "pɔltukáal",
          "PW": "palawú",
          "PY": "palakúé",
          "QA": "katáal",
          "QO": "QO",
          "RE": "elewuniɔ́ŋ",
          "RO": "ulumaní",
          "RS": "RS",
          "RU": "ulusí",
          "RW": "uluándá",
          "SA": "alapísawutíit",
          "SB": "il salomɔ́ŋ",
          "SC": "sesɛ́ɛl",
          "SD": "sutáaŋ",
          "SE": "suɛ́t",
          "SG": "singapúul",
          "SH": "sɛ́ŋtɛ́ elɛ́ɛnɛ",
          "SI": "silofení",
          "SJ": "SJ",
          "SK": "silofakí",
          "SL": "sieláleyɔ́ɔn",
          "SM": "san malíno",
          "SN": "senekáal",
          "SO": "somalí",
          "SR": "sulináam",
          "SS": "SS",
          "ST": "sáwó tomé e pelensípe",
          "SV": "salfatɔ́ɔl",
          "SX": "SX",
          "SY": "SY",
          "SZ": "suasiláand",
          "TA": "TA",
          "TC": "túluk na káyiik",
          "TD": "Sáat",
          "TF": "TF",
          "TG": "tokó",
          "TH": "tayiláand",
          "TJ": "tasikistáaŋ",
          "TK": "tokeló",
          "TL": "timɔ́ɔl u nipálɛ́n",
          "TL-alt-variant": "TL",
          "TM": "tulukmenisitáaŋ",
          "TN": "tunusí",
          "TO": "tɔ́ŋka",
          "TR": "tulukíi",
          "TT": "tilinitáat na tupákɔ",
          "TV": "tufalú",
          "TW": "tayiwáan",
          "TZ": "taŋsaní",
          "UA": "ukilɛ́ɛn",
          "UG": "ukánda",
          "UM": "UM",
          "US": "amálíka",
          "US-alt-short": "US",
          "UY": "ulukuéy",
          "UZ": "usupekistáaŋ",
          "VA": "fatikáaŋ",
          "VC": "sɛ́ŋ fɛŋsáŋ elekelenatíin",
          "VE": "fenesuwelá",
          "VG": "Filisíin ungilís",
          "VI": "pindisúlɛ́ pi amálíka",
          "VN": "fiɛtnáam",
          "VU": "fanuatú",
          "WF": "walíis na futúna",
          "WS": "samowá",
          "XK": "XK",
          "YE": "yémɛn",
          "YT": "mayɔ́ɔt",
          "ZA": "afilí mbátɛ́",
          "ZM": "saambíi",
          "ZW": "simbapuwé",
          "ZZ": "ZZ"
        }
      }
    }
  }
}
