{
  "main": {
    "ug": {
      "identity": {
        "version": {
          "_cldrVersion": "26",
          "_number": "$Revision: 10739 $"
        },
        "generation": {
          "_date": "$Date: 2014-08-07 12:54:13 -0500 (Thu, 07 Aug 2014) $"
        },
        "language": "root"
      },
      "dates": {
        "fields": {
          "era": {
            "displayName": "مىلادىيە"
          },
          "year": {
            "displayName": "يىل",
            "relative-type--1": "ئۆتكەن يىل",
            "relative-type-0": "بۇ يىل",
            "relative-type-1": "كېلەر يىل",
            "relativeTime-type-future": {
              "relativeTimePattern-count-one": "{0} يىلدىن كېيىن",
              "relativeTimePattern-count-other": "{0} يىلدىن كېيىن"
            },
            "relativeTime-type-past": {
              "relativeTimePattern-count-one": "{0} يىل ئىلگىرى",
              "relativeTimePattern-count-other": "{0} يىل ئىلگىرى"
            }
          },
          "year-short": {
            "displayName": "يىل",
            "relative-type--1": "ئۆتكەن يىل",
            "relative-type-0": "بۇ يىل",
            "relative-type-1": "كېلەر يىل",
            "relativeTime-type-future": {
              "relativeTimePattern-count-one": "{0} يىلدىن كېيىن",
              "relativeTimePattern-count-other": "{0} يىلدىن كېيىن"
            },
            "relativeTime-type-past": {
              "relativeTimePattern-count-one": "{0} يىل ئىلگىرى",
              "relativeTimePattern-count-other": "{0} يىل ئىلگىرى"
            }
          },
          "year-narrow": {
            "displayName": "يىل",
            "relative-type--1": "ئۆتكەن يىل",
            "relative-type-0": "بۇ يىل",
            "relative-type-1": "كېلەر يىل",
            "relativeTime-type-future": {
              "relativeTimePattern-count-one": "{0} يىلدىن كېيىن",
              "relativeTimePattern-count-other": "{0} يىلدىن كېيىن"
            },
            "relativeTime-type-past": {
              "relativeTimePattern-count-one": "{0} يىل ئىلگىرى",
              "relativeTimePattern-count-other": "{0} يىل ئىلگىرى"
            }
          },
          "quarter": {
            "displayName": "Quarter",
            "relative-type--1": "last quarter",
            "relative-type-0": "this quarter",
            "relative-type-1": "next quarter",
            "relativeTime-type-future": {
              "relativeTimePattern-count-other": "+{0} Q"
            },
            "relativeTime-type-past": {
              "relativeTimePattern-count-other": "-{0} Q"
            }
          },
          "quarter-short": {
            "displayName": "Quarter",
            "relative-type--1": "last quarter",
            "relative-type-0": "this quarter",
            "relative-type-1": "next quarter",
            "relativeTime-type-future": {
              "relativeTimePattern-count-other": "+{0} Q"
            },
            "relativeTime-type-past": {
              "relativeTimePattern-count-other": "-{0} Q"
            }
          },
          "quarter-narrow": {
            "displayName": "Quarter",
            "relative-type--1": "last quarter",
            "relative-type-0": "this quarter",
            "relative-type-1": "next quarter",
            "relativeTime-type-future": {
              "relativeTimePattern-count-other": "+{0} Q"
            },
            "relativeTime-type-past": {
              "relativeTimePattern-count-other": "-{0} Q"
            }
          },
          "month": {
            "displayName": "ئاي",
            "relative-type--1": "ئۆتكەن ئاي",
            "relative-type-0": "بۇ ئاي",
            "relative-type-1": "كېلەر ئاي",
            "relativeTime-type-future": {
              "relativeTimePattern-count-one": "{0} ئايدىن كېيىن",
              "relativeTimePattern-count-other": "{0} ئايدىن كېيىن"
            },
            "relativeTime-type-past": {
              "relativeTimePattern-count-one": "{0} ئاي ئىلگىرى",
              "relativeTimePattern-count-other": "{0} ئاي ئىلگىرى"
            }
          },
          "month-short": {
            "displayName": "ئاي",
            "relative-type--1": "ئۆتكەن ئاي",
            "relative-type-0": "بۇ ئاي",
            "relative-type-1": "كېلەر ئاي",
            "relativeTime-type-future": {
              "relativeTimePattern-count-one": "{0} ئايدىن كېيىن",
              "relativeTimePattern-count-other": "{0} ئايدىن كېيىن"
            },
            "relativeTime-type-past": {
              "relativeTimePattern-count-one": "{0} ئاي ئىلگىرى",
              "relativeTimePattern-count-other": "{0} ئاي ئىلگىرى"
            }
          },
          "month-narrow": {
            "displayName": "ئاي",
            "relative-type--1": "ئۆتكەن ئاي",
            "relative-type-0": "بۇ ئاي",
            "relative-type-1": "كېلەر ئاي",
            "relativeTime-type-future": {
              "relativeTimePattern-count-one": "{0} ئايدىن كېيىن",
              "relativeTimePattern-count-other": "{0} ئايدىن كېيىن"
            },
            "relativeTime-type-past": {
              "relativeTimePattern-count-one": "{0} ئاي ئىلگىرى",
              "relativeTimePattern-count-other": "{0} ئاي ئىلگىرى"
            }
          },
          "week": {
            "displayName": "ھەپتە",
            "relative-type--1": "ئۆتكەن ھەپتە",
            "relative-type-0": "بۇ ھەپتە",
            "relative-type-1": "كېلەر ھەپتە",
            "relativeTime-type-future": {
              "relativeTimePattern-count-one": "{0} ھەپتىدىن كېيىن",
              "relativeTimePattern-count-other": "{0} ھەپتىدىن كېيىن"
            },
            "relativeTime-type-past": {
              "relativeTimePattern-count-one": "{0} ھەپتە ئىلگىرى",
              "relativeTimePattern-count-other": "{0} ھەپتە ئىلگىرى"
            }
          },
          "week-short": {
            "displayName": "ھەپتە",
            "relative-type--1": "ئۆتكەن ھەپتە",
            "relative-type-0": "بۇ ھەپتە",
            "relative-type-1": "كېلەر ھەپتە",
            "relativeTime-type-future": {
              "relativeTimePattern-count-one": "{0} ھەپتىدىن كېيىن",
              "relativeTimePattern-count-other": "{0} ھەپتىدىن كېيىن"
            },
            "relativeTime-type-past": {
              "relativeTimePattern-count-one": "{0} ھەپتە ئىلگىرى",
              "relativeTimePattern-count-other": "{0} ھەپتە ئىلگىرى"
            }
          },
          "week-narrow": {
            "displayName": "ھەپتە",
            "relative-type--1": "ئۆتكەن ھەپتە",
            "relative-type-0": "بۇ ھەپتە",
            "relative-type-1": "كېلەر ھەپتە",
            "relativeTime-type-future": {
              "relativeTimePattern-count-one": "{0} ھەپتىدىن كېيىن",
              "relativeTimePattern-count-other": "{0} ھەپتىدىن كېيىن"
            },
            "relativeTime-type-past": {
              "relativeTimePattern-count-one": "{0} ھەپتە ئىلگىرى",
              "relativeTimePattern-count-other": "{0} ھەپتە ئىلگىرى"
            }
          },
          "day": {
            "displayName": "كۈن",
            "relative-type--1": "تۈنۈگۈن",
            "relative-type-0": "بۈگۈن",
            "relative-type-1": "ئەتە",
            "relativeTime-type-future": {
              "relativeTimePattern-count-one": "{0} كۈندىن كېيىن",
              "relativeTimePattern-count-other": "{0} كۈندىن كېيىن"
            },
            "relativeTime-type-past": {
              "relativeTimePattern-count-one": "{0} كۈن ئىلگىرى",
              "relativeTimePattern-count-other": "{0} كۈن ئىلگىرى"
            }
          },
          "day-short": {
            "displayName": "كۈن",
            "relative-type--1": "تۈنۈگۈن",
            "relative-type-0": "بۈگۈن",
            "relative-type-1": "ئەتە",
            "relativeTime-type-future": {
              "relativeTimePattern-count-one": "{0} كۈندىن كېيىن",
              "relativeTimePattern-count-other": "{0} كۈندىن كېيىن"
            },
            "relativeTime-type-past": {
              "relativeTimePattern-count-one": "{0} كۈن ئىلگىرى",
              "relativeTimePattern-count-other": "{0} كۈن ئىلگىرى"
            }
          },
          "day-narrow": {
            "displayName": "كۈن",
            "relative-type--1": "تۈنۈگۈن",
            "relative-type-0": "بۈگۈن",
            "relative-type-1": "ئەتە",
            "relativeTime-type-future": {
              "relativeTimePattern-count-one": "{0} كۈندىن كېيىن",
              "relativeTimePattern-count-other": "{0} كۈندىن كېيىن"
            },
            "relativeTime-type-past": {
              "relativeTimePattern-count-one": "{0} كۈن ئىلگىرى",
              "relativeTimePattern-count-other": "{0} كۈن ئىلگىرى"
            }
          },
          "weekday": {
            "displayName": "ھەپتە كۈنلىرى"
          },
          "sun": {
            "relative-type--1": "ئۆتكەن يەكشەنبە",
            "relative-type-0": "بۇ يەكشەنبە",
            "relative-type-1": "كېلەر يەكشەنبە"
          },
          "sun-short": {
            "relative-type--1": "ئۆتكەن يەكشەنبە",
            "relative-type-0": "بۇ يەكشەنبە",
            "relative-type-1": "كېلەر يەكشەنبە"
          },
          "sun-narrow": {
            "relative-type--1": "ئۆتكەن يەكشەنبە",
            "relative-type-0": "بۇ يەكشەنبە",
            "relative-type-1": "كېلەر يەكشەنبە"
          },
          "mon": {
            "relative-type--1": "ئۆتكەن دۈشەنبە",
            "relative-type-0": "بۇ دۈشەنبە",
            "relative-type-1": "كېلەر دۈشەنبە"
          },
          "mon-short": {
            "relative-type--1": "ئۆتكەن دۈشەنبە",
            "relative-type-0": "بۇ دۈشەنبە",
            "relative-type-1": "كېلەر دۈشەنبە"
          },
          "mon-narrow": {
            "relative-type--1": "ئۆتكەن دۈشەنبە",
            "relative-type-0": "بۇ دۈشەنبە",
            "relative-type-1": "كېلەر دۈشەنبە"
          },
          "tue": {
            "relative-type--1": "ئۆتكەن سەيشەنبە",
            "relative-type-0": "بۇ سەيشەنبە",
            "relative-type-1": "كېلەر سەيشەنبە"
          },
          "tue-short": {
            "relative-type--1": "ئۆتكەن سەيشەنبە",
            "relative-type-0": "بۇ سەيشەنبە",
            "relative-type-1": "كېلەر سەيشەنبە"
          },
          "tue-narrow": {
            "relative-type--1": "ئۆتكەن سەيشەنبە",
            "relative-type-0": "بۇ سەيشەنبە",
            "relative-type-1": "كېلەر سەيشەنبە"
          },
          "wed": {
            "relative-type--1": "ئۆتكەن چارشەنبە",
            "relative-type-0": "بۇ چارشەنبە",
            "relative-type-1": "كېلەر چارشەنبە"
          },
          "wed-short": {
            "relative-type--1": "ئۆتكەن چارشەنبە",
            "relative-type-0": "بۇ چارشەنبە",
            "relative-type-1": "كېلەر چارشەنبە"
          },
          "wed-narrow": {
            "relative-type--1": "ئۆتكەن چارشەنبە",
            "relative-type-0": "بۇ چارشەنبە",
            "relative-type-1": "كېلەر چارشەنبە"
          },
          "thu": {
            "relative-type--1": "ئۆتكەن پەيشەنبە",
            "relative-type-0": "بۇ پەيشەنبە",
            "relative-type-1": "كېلەر پەيشەنبە"
          },
          "thu-short": {
            "relative-type--1": "ئۆتكەن پەيشەنبە",
            "relative-type-0": "بۇ پەيشەنبە",
            "relative-type-1": "كېلەر پەيشەنبە"
          },
          "thu-narrow": {
            "relative-type--1": "ئۆتكەن پەيشەنبە",
            "relative-type-0": "بۇ پەيشەنبە",
            "relative-type-1": "كېلەر پەيشەنبە"
          },
          "fri": {
            "relative-type--1": "ئۆتكەن جۈمە",
            "relative-type-0": "بۇ جۈمە",
            "relative-type-1": "كېلەر جۈمە"
          },
          "fri-short": {
            "relative-type--1": "ئۆتكەن جۈمە",
            "relative-type-0": "بۇ جۈمە",
            "relative-type-1": "كېلەر جۈمە"
          },
          "fri-narrow": {
            "relative-type--1": "ئۆتكەن جۈمە",
            "relative-type-0": "بۇ جۈمە",
            "relative-type-1": "كېلەر جۈمە"
          },
          "sat": {
            "relative-type--1": "ئۆتكەن شەنبە",
            "relative-type-0": "بۇ شەنبە",
            "relative-type-1": "كېلەر شەنبە"
          },
          "sat-short": {
            "relative-type--1": "ئۆتكەن شەنبە",
            "relative-type-0": "بۇ شەنبە",
            "relative-type-1": "كېلەر شەنبە"
          },
          "sat-narrow": {
            "relative-type--1": "ئۆتكەن شەنبە",
            "relative-type-0": "بۇ شەنبە",
            "relative-type-1": "كېلەر شەنبە"
          },
          "dayperiod": {
            "displayName": "چۈشتىن بۇرۇن/چۈشتىن كېيىن"
          },
          "hour": {
            "displayName": "سائەت",
            "relativeTime-type-future": {
              "relativeTimePattern-count-one": "{0} سائەتتىن كېيىن",
              "relativeTimePattern-count-other": "{0} سائەتتىن كېيىن"
            },
            "relativeTime-type-past": {
              "relativeTimePattern-count-one": "{0} سائەت ئىلگىرى",
              "relativeTimePattern-count-other": "{0} سائەت ئىلگىرى"
            }
          },
          "hour-short": {
            "displayName": "سائەت",
            "relativeTime-type-future": {
              "relativeTimePattern-count-one": "{0} سائەتتىن كېيىن",
              "relativeTimePattern-count-other": "{0} سائەتتىن كېيىن"
            },
            "relativeTime-type-past": {
              "relativeTimePattern-count-one": "{0} سائەت ئىلگىرى",
              "relativeTimePattern-count-other": "{0} سائەت ئىلگىرى"
            }
          },
          "hour-narrow": {
            "displayName": "سائەت",
            "relativeTime-type-future": {
              "relativeTimePattern-count-one": "{0} سائەتتىن كېيىن",
              "relativeTimePattern-count-other": "{0} سائەتتىن كېيىن"
            },
            "relativeTime-type-past": {
              "relativeTimePattern-count-one": "{0} سائەت ئىلگىرى",
              "relativeTimePattern-count-other": "{0} سائەت ئىلگىرى"
            }
          },
          "minute": {
            "displayName": "مىنۇت",
            "relativeTime-type-future": {
              "relativeTimePattern-count-one": "{0} مىنۇتتىن كېيىن",
              "relativeTimePattern-count-other": "{0} مىنۇتتىن كېيىن"
            },
            "relativeTime-type-past": {
              "relativeTimePattern-count-one": "{0} مىنۇت ئىلگىرى",
              "relativeTimePattern-count-other": "{0} مىنۇت ئىلگىرى"
            }
          },
          "minute-short": {
            "displayName": "مىنۇت",
            "relativeTime-type-future": {
              "relativeTimePattern-count-one": "{0} مىنۇتتىن كېيىن",
              "relativeTimePattern-count-other": "{0} مىنۇتتىن كېيىن"
            },
            "relativeTime-type-past": {
              "relativeTimePattern-count-one": "{0} مىنۇت ئىلگىرى",
              "relativeTimePattern-count-other": "{0} مىنۇت ئىلگىرى"
            }
          },
          "minute-narrow": {
            "displayName": "مىنۇت",
            "relativeTime-type-future": {
              "relativeTimePattern-count-one": "{0} مىنۇتتىن كېيىن",
              "relativeTimePattern-count-other": "{0} مىنۇتتىن كېيىن"
            },
            "relativeTime-type-past": {
              "relativeTimePattern-count-one": "{0} مىنۇت ئىلگىرى",
              "relativeTimePattern-count-other": "{0} مىنۇت ئىلگىرى"
            }
          },
          "second": {
            "displayName": "سېكۇنت",
            "relative-type-0": "now",
            "relativeTime-type-future": {
              "relativeTimePattern-count-one": "{0} سېكۇنتتىن كېيىن",
              "relativeTimePattern-count-other": "{0} سېكۇنتتىن كېيىن"
            },
            "relativeTime-type-past": {
              "relativeTimePattern-count-one": "{0} سېكۇنت ئىلگىرى",
              "relativeTimePattern-count-other": "{0} سېكۇنت ئىلگىرى"
            }
          },
          "second-short": {
            "displayName": "سېكۇنت",
            "relative-type-0": "now",
            "relativeTime-type-future": {
              "relativeTimePattern-count-one": "{0} سېكۇنتتىن كېيىن",
              "relativeTimePattern-count-other": "{0} سېكۇنتتىن كېيىن"
            },
            "relativeTime-type-past": {
              "relativeTimePattern-count-one": "{0} سېكۇنت ئىلگىرى",
              "relativeTimePattern-count-other": "{0} سېكۇنت ئىلگىرى"
            }
          },
          "second-narrow": {
            "displayName": "سېكۇنت",
            "relative-type-0": "now",
            "relativeTime-type-future": {
              "relativeTimePattern-count-one": "{0} سېكۇنتتىن كېيىن",
              "relativeTimePattern-count-other": "{0} سېكۇنتتىن كېيىن"
            },
            "relativeTime-type-past": {
              "relativeTimePattern-count-one": "{0} سېكۇنت ئىلگىرى",
              "relativeTimePattern-count-other": "{0} سېكۇنت ئىلگىرى"
            }
          },
          "zone": {
            "displayName": "ۋاقىت رايونى"
          }
        }
      }
    }
  }
}
