{
  "main": {
    "ksh": {
      "identity": {
        "version": {
          "_cldrVersion": "26",
          "_number": "$Revision: 10753 $"
        },
        "generation": {
          "_date": "$Date: 2014-08-11 11:10:03 -0500 (Mon, 11 Aug 2014) $"
        },
        "language": "ksh"
      },
      "dates": {
        "calendars": {
          "buddhist": {
            "months": {
              "format": {
                "abbreviated": {
                  "1": "Jan",
                  "2": "Fäb",
                  "3": "Mäz",
                  "4": "Apr",
                  "5": "Mäi",
                  "6": "Jun",
                  "7": "Jul",
                  "8": "Ouj",
                  "9": "Säp",
                  "10": "Okt",
                  "11": "Nov",
                  "12": "Dez"
                },
                "narrow": {
                  "1": "J",
                  "2": "F",
                  "3": "M",
                  "4": "A",
                  "5": "M",
                  "6": "J",
                  "7": "J",
                  "8": "A",
                  "9": "S",
                  "10": "O",
                  "11": "N",
                  "12": "D"
                },
                "wide": {
                  "1": "Jannewa",
                  "2": "Fäbrowa",
                  "3": "Määz",
                  "4": "Aprell",
                  "5": "Mäi",
                  "6": "Juuni",
                  "7": "Juuli",
                  "8": "Oujoß",
                  "9": "Septämber",
                  "10": "Oktoober",
                  "11": "Novämber",
                  "12": "Dezämber"
                }
              },
              "stand-alone": {
                "abbreviated": {
                  "1": "Jan.",
                  "2": "Fäb.",
                  "3": "Mäz.",
                  "4": "Apr.",
                  "5": "Mäi",
                  "6": "Jun.",
                  "7": "Jul.",
                  "8": "Ouj.",
                  "9": "Säp.",
                  "10": "Okt.",
                  "11": "Nov.",
                  "12": "Dez."
                },
                "narrow": {
                  "1": "J",
                  "2": "F",
                  "3": "M",
                  "4": "A",
                  "5": "M",
                  "6": "J",
                  "7": "J",
                  "8": "A",
                  "9": "S",
                  "10": "O",
                  "11": "N",
                  "12": "D"
                },
                "wide": {
                  "1": "Jannewa",
                  "2": "Fäbrowa",
                  "3": "Määz",
                  "4": "Aprell",
                  "5": "Mäi",
                  "6": "Juuni",
                  "7": "Juuli",
                  "8": "Oujoß",
                  "9": "Septämber",
                  "10": "Oktoober",
                  "11": "Novämber",
                  "12": "Dezämber"
                }
              }
            },
            "days": {
              "format": {
                "abbreviated": {
                  "sun": "Su.",
                  "mon": "Mo.",
                  "tue": "Di.",
                  "wed": "Me.",
                  "thu": "Du.",
                  "fri": "Fr.",
                  "sat": "Sa."
                },
                "narrow": {
                  "sun": "S",
                  "mon": "M",
                  "tue": "D",
                  "wed": "M",
                  "thu": "D",
                  "fri": "F",
                  "sat": "S"
                },
                "short": {
                  "sun": "Su",
                  "mon": "Mo",
                  "tue": "Di",
                  "wed": "Me",
                  "thu": "Du",
                  "fri": "Fr",
                  "sat": "Sa"
                },
                "wide": {
                  "sun": "Sunndaach",
                  "mon": "Moondaach",
                  "tue": "Dinnsdaach",
                  "wed": "Metwoch",
                  "thu": "Dunnersdaach",
                  "fri": "Friidaach",
                  "sat": "Samsdaach"
                }
              },
              "stand-alone": {
                "abbreviated": {
                  "sun": "Su.",
                  "mon": "Mo.",
                  "tue": "Di.",
                  "wed": "Me.",
                  "thu": "Du.",
                  "fri": "Fr.",
                  "sat": "Sa."
                },
                "narrow": {
                  "sun": "S",
                  "mon": "M",
                  "tue": "D",
                  "wed": "M",
                  "thu": "D",
                  "fri": "F",
                  "sat": "S"
                },
                "short": {
                  "sun": "Su",
                  "mon": "Mo",
                  "tue": "Di",
                  "wed": "Me",
                  "thu": "Du",
                  "fri": "Fr",
                  "sat": "Sa"
                },
                "wide": {
                  "sun": "Sunndaach",
                  "mon": "Moondaach",
                  "tue": "Dinnsdaach",
                  "wed": "Metwoch",
                  "thu": "Dunnersdaach",
                  "fri": "Friidaach",
                  "sat": "Samsdaach"
                }
              }
            },
            "quarters": {
              "format": {
                "abbreviated": {
                  "1": "1.Q.",
                  "2": "2.Q.",
                  "3": "3.Q.",
                  "4": "4.Q."
                },
                "narrow": {
                  "1": "1",
                  "2": "2",
                  "3": "3",
                  "4": "4"
                },
                "wide": {
                  "1": "1. Quattaal",
                  "2": "2. Quattaal",
                  "3": "3. Quattaal",
                  "4": "4. Quattaal"
                }
              },
              "stand-alone": {
                "abbreviated": {
                  "1": "1.Q.",
                  "2": "2.Q.",
                  "3": "3.Q.",
                  "4": "4.Q."
                },
                "narrow": {
                  "1": "1",
                  "2": "2",
                  "3": "3",
                  "4": "4"
                },
                "wide": {
                  "1": "1. Quattaal",
                  "2": "2. Quattaal",
                  "3": "3. Quattaal",
                  "4": "4. Quattaal"
                }
              }
            },
            "dayPeriods": {
              "format": {
                "abbreviated": {
                  "am": "v.m.",
                  "noon": "noon",
                  "pm": "n.m."
                },
                "narrow": {
                  "am": "a",
                  "noon": "n",
                  "pm": "p"
                },
                "wide": {
                  "am": "Uhr vörmiddaachs",
                  "noon": "noon",
                  "pm": "Uhr nommendaachs"
                }
              },
              "stand-alone": {
                "abbreviated": {
                  "am": "v.m.",
                  "noon": "noon",
                  "pm": "n.m."
                },
                "narrow": {
                  "am": "a",
                  "noon": "n",
                  "pm": "p"
                },
                "wide": {
                  "am": "Vormittag",
                  "noon": "noon",
                  "pm": "Nachmittag"
                }
              }
            },
            "eras": {
              "eraNames": {
                "0": "BE"
              },
              "eraAbbr": {
                "0": "BE"
              },
              "eraNarrow": {
                "0": "BE"
              }
            },
            "dateFormats": {
              "full": "EEEE, d. MMMM y G",
              "long": "d. MMMM y G",
              "medium": "d. MMM. y G",
              "short": "d. M. y GGGGG"
            },
            "timeFormats": {
              "full": "HH:mm:ss zzzz",
              "long": "HH:mm:ss z",
              "medium": "HH:mm:ss",
              "short": "HH:mm"
            },
            "dateTimeFormats": {
              "full": "{1} {0}",
              "long": "{1} {0}",
              "medium": "{1} {0}",
              "short": "{1} {0}",
              "availableFormats": {
                "E": "ccc",
                "EHm": "E HH:mm",
                "EHms": "E HH:mm:ss",
                "Ed": "E 'dä' d.",
                "Ehm": "E h:mm a",
                "Ehms": "E h:mm:ss a",
                "Gy": "G y",
                "GyMMM": "G y MMM",
                "GyMMMEd": "G y MMM d, E",
                "GyMMMd": "G y MMM d",
                "H": "HH",
                "Hm": "H:mm",
                "Hms": "H:mm:ss",
                "M": "L",
                "MEd": "E d. M.",
                "MMM": "LLL",
                "MMMEd": "E d. MMM",
                "MMMMd": "d. MMMM",
                "MMMd": "d. MMM",
                "Md": "MM-dd",
                "d": "d",
                "h": "h a",
                "hm": "h:mm a",
                "hms": "h:mm:ss a",
                "ms": "mm:ss",
                "y": "y",
                "yM": "Y-MM",
                "yMEd": "E y-MM-dd",
                "yMMM": "MMM y",
                "yMMMEd": "E d. MMM. y",
                "yMMMM": "MMMM y",
                "yMMMd": "d. MMM. y",
                "yMd": "y-MM-dd",
                "yQQQ": "QQQy",
                "yQQQQ": "QQQQ y",
                "yyyy": "G y",
                "yyyyM": "GGGGG y-MM",
                "yyyyMEd": "GGGGG y-MM-dd, E",
                "yyyyMMM": "G y MMM",
                "yyyyMMMEd": "G y MMM d, E",
                "yyyyMMMd": "G y MMM d",
                "yyyyMd": "GGGGG y-MM-dd",
                "yyyyQQQ": "G y QQQ",
                "yyyyQQQQ": "G y QQQQ"
              },
              "appendItems": {
                "Day": "{0} ({2}: {1})",
                "Day-Of-Week": "{0} {1}",
                "Era": "{1} {0}",
                "Hour": "{0} ({2}: {1})",
                "Minute": "{0} ({2}: {1})",
                "Month": "{0} ({2}: {1})",
                "Quarter": "{0} ({2}: {1})",
                "Second": "{0} ({2}: {1})",
                "Timezone": "{0} {1}",
                "Week": "{0} ({2}: {1})",
                "Year": "{1} {0}"
              },
              "intervalFormats": {
                "intervalFormatFallback": "{0} – {1}",
                "H": {
                  "H": "HH–HH"
                },
                "Hm": {
                  "H": "HH:mm–HH:mm",
                  "m": "HH:mm–HH:mm"
                },
                "Hmv": {
                  "H": "HH:mm–HH:mm v",
                  "m": "HH:mm–HH:mm v"
                },
                "Hv": {
                  "H": "HH–HH v"
                },
                "M": {
                  "M": "M–M"
                },
                "MEd": {
                  "M": "MM-dd, E – MM-dd, E",
                  "d": "MM-dd, E – MM-dd, E"
                },
                "MMM": {
                  "M": "LLL–LLL"
                },
                "MMMEd": {
                  "M": "MMM d, E – MMM d, E",
                  "d": "MMM d, E – MMM d, E"
                },
                "MMMd": {
                  "M": "MMM d – MMM d",
                  "d": "MMM d–d"
                },
                "Md": {
                  "M": "MM-dd – MM-dd",
                  "d": "dd. – dd. MM."
                },
                "d": {
                  "d": "d–d"
                },
                "h": {
                  "a": "h a – h a",
                  "h": "h–h a"
                },
                "hm": {
                  "a": "h:mm a – h:mm a",
                  "h": "h:mm–h:mm a",
                  "m": "h:mm–h:mm a"
                },
                "hmv": {
                  "a": "h:mm a – h:mm a v",
                  "h": "h:mm–h:mm a v",
                  "m": "h:mm–h:mm a v"
                },
                "hv": {
                  "a": "h a – h a v",
                  "h": "h–h a v"
                },
                "y": {
                  "y": "y–y"
                },
                "yM": {
                  "M": "GGGGG y-MM – y-MM",
                  "y": "GGGGG y-MM – y-MM"
                },
                "yMEd": {
                  "M": "E y-MM-dd – E y-MM-dd",
                  "d": "E y-MM-dd – E y-MM-dd",
                  "y": "E y-MM-dd – E y-MM-dd"
                },
                "yMMM": {
                  "M": "MMM–MMM y",
                  "y": "MMM. y – MMM. y"
                },
                "yMMMEd": {
                  "M": "E y-MM-dd – E y-MM-dd",
                  "d": "E y-MM-dd – E y-MM-dd",
                  "y": "E y-MM-dd – E y-MM-dd"
                },
                "yMMMM": {
                  "M": "MMMM–MMMM y",
                  "y": "MMMM y – MMMM y"
                },
                "yMMMd": {
                  "M": "G y MMM d – MMM d",
                  "d": "G y MMM d–d",
                  "y": "G y MMM d – y MMM d"
                },
                "yMd": {
                  "M": "GGGGG y-MM-dd – y-MM-dd",
                  "d": "GGGGG y-MM-dd – y-MM-dd",
                  "y": "GGGGG y-MM-dd – y-MM-dd"
                }
              }
            }
          }
        }
      }
    }
  }
}
