{
  "main": {
    "mr-IN": {
      "identity": {
        "version": {
          "_cldrVersion": "26",
          "_number": "$Revision: 10669 $"
        },
        "generation": {
          "_date": "$Date: 2014-07-23 16:10:33 -0500 (Wed, 23 Jul 2014) $"
        },
        "language": "mr",
        "territory": "IN"
      },
      "localeDisplayNames": {
        "scripts": {
          "Afak": "Afak",
          "Aghb": "Aghb",
          "Arab": "अरबी",
          "Arab-alt-variant": "फारसी-अरबी",
          "Armi": "इम्पिरियल आर्मेनिक",
          "Armn": "अर्मेनियन",
          "Avst": "अवेस्तान",
          "Bali": "बाली",
          "Bamu": "Bamu",
          "Bass": "Bass",
          "Batk": "बटाक",
          "Beng": "बंगाली",
          "Blis": "ब्लिसिम्बॉल्स",
          "Bopo": "बोपोमोफो",
          "Brah": "ब्रह्मी",
          "Brai": "ब्रेल",
          "Bugi": "बूगी",
          "Buhd": "बुहिद",
          "Cakm": "चकमा",
          "Cans": "यूनिफाइड कॅनेडियन अ‍ॅबोरिदनल सिलॅबिक्स",
          "Cari": "कॅरियन",
          "Cham": "चाम",
          "Cher": "चेरोकी",
          "Cirt": "किर्थ",
          "Copt": "कॉप्टिक",
          "Cprt": "सायप्रिऑट",
          "Cyrl": "सीरिलिक",
          "Cyrs": "पुरातन चर्च स्लाव्होनिक सिरिलिक",
          "Deva": "देवनागरी",
          "Dsrt": "डेसर्ट",
          "Dupl": "Dupl",
          "Egyd": "इजिप्शियन डेमोटिक",
          "Egyh": "इजिप्शियन हायरेटिक",
          "Egyp": "इजिप्शियन हायरोग्लिफ्स",
          "Elba": "Elba",
          "Ethi": "ईथिओपिक",
          "Geok": "जॉर्जियन खुत्सुरी",
          "Geor": "जॉर्जियन",
          "Glag": "ग्लॅगोलिटिक",
          "Goth": "गोथिक",
          "Gran": "Gran",
          "Grek": "ग्रीक",
          "Gujr": "गुजराती",
          "Guru": "गुरुमुखी",
          "Hang": "हंगुल",
          "Hani": "हान",
          "Hano": "हनुनू",
          "Hans": "सरलीकृत",
          "Hans-alt-stand-alone": "सरलीकृत हान",
          "Hant": "पारंपारिक",
          "Hant-alt-stand-alone": "पारंपारिक हान",
          "Hebr": "हिब्रू",
          "Hira": "हिरागाना",
          "Hluw": "Hluw",
          "Hmng": "पहाउ मंग",
          "Hrkt": "कॅटाकना आणि हिरागाना",
          "Hung": "पुरातन हंगेरियन",
          "Inds": "सिन्धु",
          "Ital": "जुनी इटालिक",
          "Java": "जावानीस",
          "Jpan": "जपानी",
          "Jurc": "Jurc",
          "Kali": "कायाह ली",
          "Kana": "कॅटाकाना",
          "Khar": "खारोश्थी",
          "Khmr": "ख्मेर",
          "Khoj": "Khoj",
          "Knda": "कन्नड",
          "Kore": "कोरियन",
          "Kpel": "Kpel",
          "Kthi": "काइथी",
          "Lana": "लाना",
          "Laoo": "लाओ",
          "Latf": "फ्रॅक्तुर लॅटिन",
          "Latg": "गाएलिक लेटिन",
          "Latn": "लॅटिन",
          "Lepc": "लेपचा",
          "Limb": "लिम्बू",
          "Lina": "लीनियार अ",
          "Linb": "लीनियर बी",
          "Lisu": "Lisu",
          "Loma": "Loma",
          "Lyci": "लायशियान",
          "Lydi": "लायडियान",
          "Mahj": "Mahj",
          "Mand": "मान्डायीन",
          "Mani": "मानीचायीन",
          "Maya": "मायान हाइरोग्लिफ्स",
          "Mend": "Mend",
          "Merc": "Merc",
          "Mero": "मेरोइटिक",
          "Mlym": "मल्याळम",
          "Modi": "Modi",
          "Mong": "मंगोलियन",
          "Moon": "मून",
          "Mroo": "Mroo",
          "Mtei": "मेइतेइ मायेक",
          "Mymr": "म्यानमार",
          "Narb": "Narb",
          "Nbat": "Nbat",
          "Nkgb": "Nkgb",
          "Nkoo": "एन्‘को",
          "Nshu": "Nshu",
          "Ogam": "ओघाम",
          "Olck": "ओल चिकि",
          "Orkh": "ओर्खोन",
          "Orya": "उडिया",
          "Osma": "उस्मानिया",
          "Palm": "Palm",
          "Pauc": "Pauc",
          "Perm": "पुरातन पर्मिक",
          "Phag": "फाग्स-पा",
          "Phli": "इन्स्क्रिप्शनल पाहलवी",
          "Phlp": "सॉल्टर पाहलवी",
          "Phlv": "बुक पाहलवी",
          "Phnx": "फोनिशियन",
          "Plrd": "पोलार्ड फोनेटिक",
          "Prti": "इन्स्क्रिप्शनल पर्थियन",
          "Qaaa": "Qaaa",
          "Qaab": "Qaab",
          "Qaac": "Qaac",
          "Qaad": "Qaad",
          "Qaae": "Qaae",
          "Qaaf": "Qaaf",
          "Qaag": "Qaag",
          "Qaah": "Qaah",
          "Qaaj": "Qaaj",
          "Qaak": "Qaak",
          "Qaal": "Qaal",
          "Qaam": "Qaam",
          "Qaan": "Qaan",
          "Qaao": "Qaao",
          "Qaap": "Qaap",
          "Qaaq": "Qaaq",
          "Qaar": "Qaar",
          "Qaas": "Qaas",
          "Qaat": "Qaat",
          "Qaau": "Qaau",
          "Qaav": "Qaav",
          "Qaaw": "Qaaw",
          "Qaax": "Qaax",
          "Qaay": "Qaay",
          "Qaaz": "Qaaz",
          "Qaba": "Qaba",
          "Qabb": "Qabb",
          "Qabc": "Qabc",
          "Qabd": "Qabd",
          "Qabe": "Qabe",
          "Qabf": "Qabf",
          "Qabg": "Qabg",
          "Qabh": "Qabh",
          "Qabi": "Qabi",
          "Qabj": "Qabj",
          "Qabk": "Qabk",
          "Qabl": "Qabl",
          "Qabm": "Qabm",
          "Qabn": "Qabn",
          "Qabo": "Qabo",
          "Qabp": "Qabp",
          "Qabq": "Qabq",
          "Qabr": "Qabr",
          "Qabs": "Qabs",
          "Qabt": "Qabt",
          "Qabu": "Qabu",
          "Qabv": "Qabv",
          "Qabw": "Qabw",
          "Qabx": "Qabx",
          "Rjng": "रीजांग",
          "Roro": "रोन्गोरोन्गो",
          "Runr": "रूनिक",
          "Samr": "समरिटान",
          "Sara": "सराती",
          "Sarb": "Sarb",
          "Saur": "सौराष्ट्र",
          "Sgnw": "संकेत लिपी",
          "Shaw": "शॅव्हियन",
          "Shrd": "Shrd",
          "Sidd": "Sidd",
          "Sind": "Sind",
          "Sinh": "सिंहला",
          "Sora": "Sora",
          "Sund": "सूदानी",
          "Sylo": "सिलोती नागरी",
          "Syrc": "सिरीयाक",
          "Syre": "एस्त्ट्रेन्जेलो सिरियाक",
          "Syrj": "पश्चिमी सिरियाक",
          "Syrn": "पूर्वी सिरियाक",
          "Tagb": "तगोआन्वा",
          "Takr": "Takr",
          "Tale": "ताई ली",
          "Talu": "नवीन ताई लू",
          "Taml": "तामिळ",
          "Tang": "Tang",
          "Tavt": "ताई विएत",
          "Telu": "तेलगु",
          "Teng": "तेन्गवार",
          "Tfng": "तिफिनाघ",
          "Tglg": "टागालोग",
          "Thaa": "थाना",
          "Thai": "थाई",
          "Tibt": "तिबेटी",
          "Tirh": "Tirh",
          "Ugar": "युगारिटिक",
          "Vaii": "वाई",
          "Visp": "दृश्य संवाद",
          "Wara": "Wara",
          "Wole": "Wole",
          "Xpeo": "पुरातन फारसी",
          "Xsux": "दृश्यमान भाषा",
          "Yiii": "यी",
          "Zinh": "वंशपरंपरागत",
          "Zmth": "गणिती संकेतलिपी",
          "Zsym": "प्रतीक",
          "Zxxx": "अलिखित",
          "Zyyy": "सामान्य",
          "Zzzz": "अज्ञात लिपी"
        }
      }
    }
  }
}
