{
  "main": {
    "es-VE": {
      "identity": {
        "version": {
          "_cldrVersion": "26",
          "_number": "$Revision: 10669 $"
        },
        "generation": {
          "_date": "$Date: 2014-07-23 16:10:33 -0500 (Wed, 23 Jul 2014) $"
        },
        "language": "es",
        "territory": "419"
      },
      "dates": {
        "calendars": {
          "roc": {
            "months": {
              "format": {
                "abbreviated": {
                  "1": "ene.",
                  "2": "feb.",
                  "3": "mar.",
                  "4": "abr.",
                  "5": "may.",
                  "6": "jun.",
                  "7": "jul.",
                  "8": "ago.",
                  "9": "set.",
                  "10": "oct.",
                  "11": "nov.",
                  "12": "dic."
                },
                "narrow": {
                  "1": "e",
                  "2": "f",
                  "3": "m",
                  "4": "a",
                  "5": "m",
                  "6": "j",
                  "7": "j",
                  "8": "a",
                  "9": "s",
                  "10": "o",
                  "11": "n",
                  "12": "d"
                },
                "wide": {
                  "1": "enero",
                  "2": "febrero",
                  "3": "marzo",
                  "4": "abril",
                  "5": "mayo",
                  "6": "junio",
                  "7": "julio",
                  "8": "agosto",
                  "9": "setiembre",
                  "10": "octubre",
                  "11": "noviembre",
                  "12": "diciembre"
                }
              },
              "stand-alone": {
                "abbreviated": {
                  "1": "Ene.",
                  "2": "Feb.",
                  "3": "Mar.",
                  "4": "Abr.",
                  "5": "May.",
                  "6": "Jun.",
                  "7": "Jul.",
                  "8": "Ago.",
                  "9": "Set.",
                  "10": "Oct.",
                  "11": "Nov.",
                  "12": "Dic."
                },
                "narrow": {
                  "1": "E",
                  "2": "F",
                  "3": "M",
                  "4": "A",
                  "5": "M",
                  "6": "J",
                  "7": "J",
                  "8": "A",
                  "9": "S",
                  "10": "O",
                  "11": "N",
                  "12": "D"
                },
                "wide": {
                  "1": "Enero",
                  "2": "Febrero",
                  "3": "Marzo",
                  "4": "Abril",
                  "5": "Mayo",
                  "6": "Junio",
                  "7": "Julio",
                  "8": "Agosto",
                  "9": "Setiembre",
                  "10": "Octubre",
                  "11": "Noviembre",
                  "12": "Diciembre"
                }
              }
            },
            "days": {
              "format": {
                "abbreviated": {
                  "sun": "dom.",
                  "mon": "lun.",
                  "tue": "mar.",
                  "wed": "mié.",
                  "thu": "jue.",
                  "fri": "vie.",
                  "sat": "sáb."
                },
                "narrow": {
                  "sun": "d",
                  "mon": "l",
                  "tue": "m",
                  "wed": "m",
                  "thu": "j",
                  "fri": "v",
                  "sat": "s"
                },
                "short": {
                  "sun": "dom.",
                  "mon": "lun.",
                  "tue": "mar.",
                  "wed": "mié.",
                  "thu": "jue.",
                  "fri": "vie.",
                  "sat": "sáb."
                },
                "wide": {
                  "sun": "domingo",
                  "mon": "lunes",
                  "tue": "martes",
                  "wed": "miércoles",
                  "thu": "jueves",
                  "fri": "viernes",
                  "sat": "sábado"
                }
              },
              "stand-alone": {
                "abbreviated": {
                  "sun": "Dom.",
                  "mon": "Lun.",
                  "tue": "Mar.",
                  "wed": "Mié.",
                  "thu": "Jue.",
                  "fri": "Vie.",
                  "sat": "Sáb."
                },
                "narrow": {
                  "sun": "D",
                  "mon": "L",
                  "tue": "M",
                  "wed": "M",
                  "thu": "J",
                  "fri": "V",
                  "sat": "S"
                },
                "short": {
                  "sun": "Dom.",
                  "mon": "Lun.",
                  "tue": "Mar.",
                  "wed": "Mié.",
                  "thu": "Jue.",
                  "fri": "Vie.",
                  "sat": "Sáb."
                },
                "wide": {
                  "sun": "Domingo",
                  "mon": "Lunes",
                  "tue": "Martes",
                  "wed": "Miércoles",
                  "thu": "Jueves",
                  "fri": "Viernes",
                  "sat": "Sábado"
                }
              }
            },
            "quarters": {
              "format": {
                "abbreviated": {
                  "1": "1.er trim.",
                  "2": "2.º trim.",
                  "3": "3.er trim.",
                  "4": "4.º trim."
                },
                "narrow": {
                  "1": "1",
                  "2": "2",
                  "3": "3",
                  "4": "4"
                },
                "wide": {
                  "1": "1.er trimestre",
                  "2": "2.º trimestre",
                  "3": "3.er trimestre",
                  "4": "4.º trimestre"
                }
              },
              "stand-alone": {
                "abbreviated": {
                  "1": "1.er trim.",
                  "2": "2.º trim.",
                  "3": "3.er trim.",
                  "4": "4.º trim."
                },
                "narrow": {
                  "1": "1",
                  "2": "2",
                  "3": "3",
                  "4": "4"
                },
                "wide": {
                  "1": "1.er trimestre",
                  "2": "2.º trimestre",
                  "3": "3.er trimestre",
                  "4": "4.º trimestre"
                }
              }
            },
            "dayPeriods": {
              "format": {
                "abbreviated": {
                  "am": "a. m.",
                  "noon": "mediodía",
                  "pm": "p. m."
                },
                "narrow": {
                  "am": "a. m.",
                  "noon": "m.",
                  "pm": "p. m."
                },
                "wide": {
                  "am": "a. m.",
                  "noon": "mediodía",
                  "pm": "p. m."
                }
              },
              "stand-alone": {
                "abbreviated": {
                  "am": "a. m.",
                  "noon": "mediodía",
                  "pm": "p. m."
                },
                "narrow": {
                  "am": "a. m.",
                  "noon": "m.",
                  "pm": "p. m."
                },
                "wide": {
                  "am": "a. m.",
                  "noon": "mediodía",
                  "pm": "p. m."
                }
              }
            },
            "eras": {
              "eraNames": {
                "0": "antes de R.O.C.",
                "1": "R.O.C."
              },
              "eraAbbr": {
                "0": "antes de R.O.C.",
                "1": "R.O.C."
              },
              "eraNarrow": {
                "0": "antes de R.O.C.",
                "1": "R.O.C."
              }
            },
            "dateFormats": {
              "full": "EEEE, d 'de' MMMM 'de' y G",
              "long": "d 'de' MMMM 'de' y G",
              "medium": "dd/MM/y G",
              "short": "dd/MM/yy GGGGG"
            },
            "timeFormats": {
              "full": "h:mm:ss a zzzz",
              "long": "h:mm:ss a z",
              "medium": "h:mm:ss a",
              "short": "h:mm a"
            },
            "dateTimeFormats": {
              "full": "{1}, {0}",
              "long": "{1}, {0}",
              "medium": "{1} {0}",
              "short": "{1} {0}",
              "availableFormats": {
                "E": "ccc",
                "EHm": "E HH:mm",
                "EHms": "E HH:mm:ss",
                "Ed": "E d",
                "Ehm": "E h:mm a",
                "Ehms": "E h:mm:ss a",
                "Gy": "y G",
                "GyMMM": "MMM 'de' y G",
                "GyMMMEd": "E, d 'de' MMMM 'de' y G",
                "GyMMMd": "d 'de' MMM 'de' y G",
                "H": "HH",
                "Hm": "HH:mm",
                "Hms": "HH:mm:ss",
                "M": "L",
                "MEd": "E, d/M",
                "MMM": "LLL",
                "MMMEd": "E, d 'de' MMM",
                "MMMMd": "d 'de' MMMM",
                "MMMd": "d 'de' MMM",
                "MMMdd": "dd-MMM",
                "Md": "d/M",
                "d": "d",
                "h": "hh a",
                "hm": "hh:mm a",
                "hms": "hh:mm:ss a",
                "ms": "mm:ss",
                "y": "y G",
                "yMEd": "E d/M/y G",
                "yyyy": "y G",
                "yyyyM": "M/y GGGGG",
                "yyyyMEd": "E, d/M/y GGGGG",
                "yyyyMMM": "MMM 'de' y G",
                "yyyyMMMEd": "E, d 'de' MMMM 'de' y G",
                "yyyyMMMM": "MMMM 'de' y G",
                "yyyyMMMd": "d 'de' MMM 'de' y G",
                "yyyyMd": "d/M/y GGGGG",
                "yyyyQQQ": "QQQ y G",
                "yyyyQQQQ": "QQQQ 'de' y G"
              },
              "appendItems": {
                "Day": "{0} ({2}: {1})",
                "Day-Of-Week": "{0} {1}",
                "Era": "{1} {0}",
                "Hour": "{0} ({2}: {1})",
                "Minute": "{0} ({2}: {1})",
                "Month": "{0} ({2}: {1})",
                "Quarter": "{0} ({2}: {1})",
                "Second": "{0} ({2}: {1})",
                "Timezone": "{0} {1}",
                "Week": "{0} ({2}: {1})",
                "Year": "{1} {0}"
              },
              "intervalFormats": {
                "intervalFormatFallback": "{0}–{1}",
                "H": {
                  "H": "HH–HH"
                },
                "Hm": {
                  "H": "HH:mm – HH:mm",
                  "m": "HH:mm – HH:mm"
                },
                "Hmv": {
                  "H": "HH:mm – HH:mm v",
                  "m": "HH:mm – HH:mm v"
                },
                "Hv": {
                  "H": "HH–HH v"
                },
                "M": {
                  "M": "M–M"
                },
                "MEd": {
                  "M": "E, d/M–E, d/M",
                  "d": "E, d/M–E, d/M"
                },
                "MMM": {
                  "M": "MMM–MMM"
                },
                "MMMEd": {
                  "M": "E, d 'de' MMM–E, d 'de' MMM",
                  "d": "E, d 'de' MMM–E, d 'de' MMM"
                },
                "MMMd": {
                  "M": "d 'de' MMM–d 'de' MMM",
                  "d": "d-d 'de' MMM"
                },
                "Md": {
                  "M": "d/M–d/M",
                  "d": "d/M–d/M"
                },
                "d": {
                  "d": "d–d"
                },
                "h": {
                  "a": "h a – h a",
                  "h": "h–h a"
                },
                "hm": {
                  "a": "h:mm a – h:mm a",
                  "h": "h:mm – h:mm a",
                  "m": "h:mm – h:mm a"
                },
                "hmv": {
                  "a": "h:mm a – h:mm a v",
                  "h": "h:mm – h:mm a v",
                  "m": "h:mm – h:mm a v"
                },
                "hv": {
                  "a": "h a – h a v",
                  "h": "h–h a v"
                },
                "y": {
                  "y": "y–y G"
                },
                "yM": {
                  "M": "M/y–M/y GGGGG",
                  "y": "M/y–M/y GGGGG"
                },
                "yMEd": {
                  "M": "E, d/M/y–E, d/M/y GGGGG",
                  "d": "E, d/M/y–E, d/M/y GGGGG",
                  "y": "E, d/M/y–E, d/M/y GGGGG"
                },
                "yMMM": {
                  "M": "MMM–MMM 'de' y G",
                  "y": "MMM 'de' y–MMM 'de' y G"
                },
                "yMMMEd": {
                  "M": "E, d 'de' MMM–E, d 'de' MMM 'de' y G",
                  "d": "E, d 'de' MMM–E, d 'de' MMM 'de' y G",
                  "y": "E, d 'de' MMM 'de' y–E, d 'de' MMM 'de' y G"
                },
                "yMMMM": {
                  "M": "MMMM–MMMM 'de' y G",
                  "y": "MMMM 'de' y–MMMM 'de' y G"
                },
                "yMMMd": {
                  "M": "d 'de' MMM–d 'de' MMM y G",
                  "d": "d–d 'de' MMM 'de' y G",
                  "y": "d 'de' MMM 'de' y–d 'de' MMM 'de' y G"
                },
                "yMd": {
                  "M": "d/M/y–d/M/y GGGGG",
                  "d": "d/M/y–d/M/y GGGGG",
                  "y": "d/M/y–d/M/y GGGGG"
                }
              }
            }
          }
        }
      }
    }
  }
}
