{
  "main": {
    "en-RW": {
      "identity": {
        "version": {
          "_cldrVersion": "26",
          "_number": "$Revision: 10669 $"
        },
        "generation": {
          "_date": "$Date: 2014-07-23 16:10:33 -0500 (Wed, 23 Jul 2014) $"
        },
        "language": "en",
        "territory": "001"
      },
      "contextTransforms": {
        "calendar-field": {
          "uiListOrMenu": "titlecase-firstword",
          "stand-alone": "titlecase-firstword"
        },
        "keyValue": {
          "uiListOrMenu": "titlecase-firstword",
          "stand-alone": "titlecase-firstword"
        },
        "number-spellout": {
          "uiListOrMenu": "titlecase-firstword",
          "stand-alone": "titlecase-firstword"
        },
        "relative": {
          "uiListOrMenu": "titlecase-firstword",
          "stand-alone": "titlecase-firstword"
        }
      }
    }
  }
}
