{
  "main": {
    "ti-ET": {
      "identity": {
        "version": {
          "_cldrVersion": "26",
          "_number": "$Revision: 10669 $"
        },
        "generation": {
          "_date": "$Date: 2014-07-23 16:10:33 -0500 (Wed, 23 Jul 2014) $"
        },
        "language": "root",
        "territory": "ET"
      },
      "dates": {
        "calendars": {
          "gregorian": {
            "months": {
              "format": {
                "abbreviated": {
                  "1": "ጃንዩ",
                  "2": "ፌብሩ",
                  "3": "ማርች",
                  "4": "ኤፕረ",
                  "5": "ሜይ",
                  "6": "ጁን",
                  "7": "ጁላይ",
                  "8": "ኦገስ",
                  "9": "ሴፕቴ",
                  "10": "ኦክተ",
                  "11": "ኖቬም",
                  "12": "ዲሴም"
                },
                "narrow": {
                  "1": "ጃ",
                  "2": "ፌ",
                  "3": "ማ",
                  "4": "ኤ",
                  "5": "ሜ",
                  "6": "ጁ",
                  "7": "ጁ",
                  "8": "ኦ",
                  "9": "ሴ",
                  "10": "ኦ",
                  "11": "ኖ",
                  "12": "ዲ"
                },
                "wide": {
                  "1": "ጃንዩወሪ",
                  "2": "ፌብሩወሪ",
                  "3": "ማርች",
                  "4": "ኤፕረል",
                  "5": "ሜይ",
                  "6": "ጁን",
                  "7": "ጁላይ",
                  "8": "ኦገስት",
                  "9": "ሴፕቴምበር",
                  "10": "ኦክተውበር",
                  "11": "ኖቬምበር",
                  "12": "ዲሴምበር"
                }
              },
              "stand-alone": {
                "abbreviated": {
                  "1": "ጃንዩ",
                  "2": "ፌብሩ",
                  "3": "ማርች",
                  "4": "ኤፕረ",
                  "5": "ሜይ",
                  "6": "ጁን",
                  "7": "ጁላይ",
                  "8": "ኦገስ",
                  "9": "ሴፕቴ",
                  "10": "ኦክተ",
                  "11": "ኖቬም",
                  "12": "ዲሴም"
                },
                "narrow": {
                  "1": "ጃ",
                  "2": "ፌ",
                  "3": "ማ",
                  "4": "ኤ",
                  "5": "ሜ",
                  "6": "ጁ",
                  "7": "ጁ",
                  "8": "ኦ",
                  "9": "ሴ",
                  "10": "ኦ",
                  "11": "ኖ",
                  "12": "ዲ"
                },
                "wide": {
                  "1": "ጃንዩወሪ",
                  "2": "ፌብሩወሪ",
                  "3": "ማርች",
                  "4": "ኤፕረል",
                  "5": "ሜይ",
                  "6": "ጁን",
                  "7": "ጁላይ",
                  "8": "ኦገስት",
                  "9": "ሴፕቴምበር",
                  "10": "ኦክተውበር",
                  "11": "ኖቬምበር",
                  "12": "ዲሴምበር"
                }
              }
            },
            "days": {
              "format": {
                "abbreviated": {
                  "sun": "ሰንበት",
                  "mon": "ሰኑይ",
                  "tue": "ሠሉስ",
                  "wed": "ረቡዕ",
                  "thu": "ኃሙስ",
                  "fri": "ዓርቢ",
                  "sat": "ቀዳም"
                },
                "narrow": {
                  "sun": "ሰ",
                  "mon": "ሰ",
                  "tue": "ሠ",
                  "wed": "ረ",
                  "thu": "ኃ",
                  "fri": "ዓ",
                  "sat": "ቀ"
                },
                "short": {
                  "sun": "ሰንበት",
                  "mon": "ሰኑይ",
                  "tue": "ሠሉስ",
                  "wed": "ረቡዕ",
                  "thu": "ኃሙስ",
                  "fri": "ዓርቢ",
                  "sat": "ቀዳም"
                },
                "wide": {
                  "sun": "ሰንበት",
                  "mon": "ሰኑይ",
                  "tue": "ሠሉስ",
                  "wed": "ረቡዕ",
                  "thu": "ኃሙስ",
                  "fri": "ዓርቢ",
                  "sat": "ቀዳም"
                }
              },
              "stand-alone": {
                "abbreviated": {
                  "sun": "ሰንበት",
                  "mon": "ሰኑይ",
                  "tue": "ሠሉስ",
                  "wed": "ረቡዕ",
                  "thu": "ኃሙስ",
                  "fri": "ዓርቢ",
                  "sat": "ቀዳም"
                },
                "narrow": {
                  "sun": "ሰ",
                  "mon": "ሰ",
                  "tue": "ሠ",
                  "wed": "ረ",
                  "thu": "ኃ",
                  "fri": "ዓ",
                  "sat": "ቀ"
                },
                "short": {
                  "sun": "ሰንበት",
                  "mon": "ሰኑይ",
                  "tue": "ሠሉስ",
                  "wed": "ረቡዕ",
                  "thu": "ኃሙስ",
                  "fri": "ዓርቢ",
                  "sat": "ቀዳም"
                },
                "wide": {
                  "sun": "ሰንበት",
                  "mon": "ሰኑይ",
                  "tue": "ሠሉስ",
                  "wed": "ረቡዕ",
                  "thu": "ኃሙስ",
                  "fri": "ዓርቢ",
                  "sat": "ቀዳም"
                }
              }
            },
            "quarters": {
              "format": {
                "abbreviated": {
                  "1": "Q1",
                  "2": "Q2",
                  "3": "Q3",
                  "4": "Q4"
                },
                "narrow": {
                  "1": "1",
                  "2": "2",
                  "3": "3",
                  "4": "4"
                },
                "wide": {
                  "1": "Q1",
                  "2": "Q2",
                  "3": "Q3",
                  "4": "Q4"
                }
              },
              "stand-alone": {
                "abbreviated": {
                  "1": "Q1",
                  "2": "Q2",
                  "3": "Q3",
                  "4": "Q4"
                },
                "narrow": {
                  "1": "1",
                  "2": "2",
                  "3": "3",
                  "4": "4"
                },
                "wide": {
                  "1": "Q1",
                  "2": "Q2",
                  "3": "Q3",
                  "4": "Q4"
                }
              }
            },
            "dayPeriods": {
              "format": {
                "abbreviated": {
                  "am": "ንጉሆ ሰዓተ",
                  "noon": "noon",
                  "pm": "ድሕር ሰዓት"
                },
                "narrow": {
                  "am": "a",
                  "noon": "n",
                  "pm": "p"
                },
                "wide": {
                  "am": "ንጉሆ ሰዓተ",
                  "noon": "noon",
                  "pm": "ድሕር ሰዓት"
                }
              },
              "stand-alone": {
                "abbreviated": {
                  "am": "ንጉሆ ሰዓተ",
                  "noon": "noon",
                  "pm": "ድሕር ሰዓት"
                },
                "narrow": {
                  "am": "a",
                  "noon": "n",
                  "pm": "p"
                },
                "wide": {
                  "am": "ንጉሆ ሰዓተ",
                  "noon": "noon",
                  "pm": "ድሕር ሰዓት"
                }
              }
            },
            "eras": {
              "eraNames": {
                "0": "ዓ/ዓ",
                "0-alt-variant": "BCE",
                "1": "ዓ/ም",
                "1-alt-variant": "CE"
              },
              "eraAbbr": {
                "0": "ዓ/ዓ",
                "0-alt-variant": "BCE",
                "1": "ዓ/ም",
                "1-alt-variant": "CE"
              },
              "eraNarrow": {
                "0": "ዓ/ዓ",
                "0-alt-variant": "BCE",
                "1": "ዓ/ም",
                "1-alt-variant": "CE"
              }
            },
            "dateFormats": {
              "full": "EEEE፣ dd MMMM መዓልቲ y G",
              "long": "dd MMMM y",
              "medium": "dd-MMM-y",
              "short": "dd/MM/yy"
            },
            "timeFormats": {
              "full": "h:mm:ss a zzzz",
              "long": "h:mm:ss a z",
              "medium": "h:mm:ss a",
              "short": "h:mm a"
            },
            "dateTimeFormats": {
              "full": "{1} {0}",
              "long": "{1} {0}",
              "medium": "{1} {0}",
              "short": "{1} {0}",
              "availableFormats": {
                "E": "ccc",
                "EHm": "E HH:mm",
                "EHms": "E HH:mm:ss",
                "Ed": "d, E",
                "Ehm": "E h:mm a",
                "Ehms": "E h:mm:ss a",
                "Gy": "G y",
                "GyMMM": "G y MMM",
                "GyMMMEd": "G y MMM d, E",
                "GyMMMd": "G y MMM d",
                "H": "HH",
                "Hm": "HH:mm",
                "Hms": "HH:mm:ss",
                "M": "L",
                "MEd": "MM-dd, E",
                "MMM": "LLL",
                "MMMEd": "MMM d, E",
                "MMMMdd": "dd MMMM",
                "MMMd": "MMM d",
                "MMdd": "dd/MM",
                "Md": "MM-dd",
                "d": "d",
                "h": "h a",
                "hm": "h:mm a",
                "hms": "h:mm:ss a",
                "ms": "mm:ss",
                "y": "y",
                "yM": "y-MM",
                "yMEd": "y-MM-dd, E",
                "yMM": "MM/y",
                "yMMM": "y MMM",
                "yMMMEd": "y MMM d, E",
                "yMMMM": "MMMM y",
                "yMMMd": "y MMM d",
                "yMd": "y-MM-dd",
                "yQQQ": "QQQ y",
                "yQQQQ": "y QQQQ"
              },
              "appendItems": {
                "Day": "{0} ({2}: {1})",
                "Day-Of-Week": "{0} {1}",
                "Era": "{1} {0}",
                "Hour": "{0} ({2}: {1})",
                "Minute": "{0} ({2}: {1})",
                "Month": "{0} ({2}: {1})",
                "Quarter": "{0} ({2}: {1})",
                "Second": "{0} ({2}: {1})",
                "Timezone": "{0} {1}",
                "Week": "{0} ({2}: {1})",
                "Year": "{1} {0}"
              },
              "intervalFormats": {
                "intervalFormatFallback": "{0} – {1}",
                "H": {
                  "H": "HH–HH"
                },
                "Hm": {
                  "H": "HH:mm–HH:mm",
                  "m": "HH:mm–HH:mm"
                },
                "Hmv": {
                  "H": "HH:mm–HH:mm v",
                  "m": "HH:mm–HH:mm v"
                },
                "Hv": {
                  "H": "HH–HH v"
                },
                "M": {
                  "M": "MM–MM"
                },
                "MEd": {
                  "M": "MM-dd, E – MM-dd, E",
                  "d": "MM-dd, E – MM-dd, E"
                },
                "MMM": {
                  "M": "LLL–LLL"
                },
                "MMMEd": {
                  "M": "MMM d, E – MMM d, E",
                  "d": "MMM d, E – MMM d, E"
                },
                "MMMd": {
                  "M": "MMM d – MMM d",
                  "d": "MMM d–d"
                },
                "Md": {
                  "M": "MM-dd – MM-dd",
                  "d": "MM-dd – MM-dd"
                },
                "d": {
                  "d": "d–d"
                },
                "h": {
                  "a": "h a – h a",
                  "h": "h–h a"
                },
                "hm": {
                  "a": "h:mm a – h:mm a",
                  "h": "h:mm–h:mm a",
                  "m": "h:mm–h:mm a"
                },
                "hmv": {
                  "a": "h:mm a – h:mm a v",
                  "h": "h:mm–h:mm a v",
                  "m": "h:mm–h:mm a v"
                },
                "hv": {
                  "a": "h a – h a v",
                  "h": "h–h a v"
                },
                "y": {
                  "y": "y–y"
                },
                "yM": {
                  "M": "y-MM – y-MM",
                  "y": "y-MM – y-MM"
                },
                "yMEd": {
                  "M": "y-MM-dd, E – y-MM-dd, E",
                  "d": "y-MM-dd, E – y-MM-dd, E",
                  "y": "y-MM-dd, E – y-MM-dd, E"
                },
                "yMMM": {
                  "M": "y MMM–MMM",
                  "y": "y MMM – y MMM"
                },
                "yMMMEd": {
                  "M": "y MMM d, E – MMM d, E",
                  "d": "y MMM d, E – MMM d, E",
                  "y": "y MMM d, E – y MMM d, E"
                },
                "yMMMM": {
                  "M": "y MMMM–MMMM",
                  "y": "y MMMM – y MMMM"
                },
                "yMMMd": {
                  "M": "y MMM d – MMM d",
                  "d": "y MMM d–d",
                  "y": "y MMM d – y MMM d"
                },
                "yMd": {
                  "M": "y-MM-dd – y-MM-dd",
                  "d": "y-MM-dd – y-MM-dd",
                  "y": "y-MM-dd – y-MM-dd"
                }
              }
            }
          }
        }
      }
    }
  }
}
