{
  "main": {
    "rof": {
      "identity": {
        "version": {
          "_cldrVersion": "26",
          "_number": "$Revision: 10739 $"
        },
        "generation": {
          "_date": "$Date: 2014-08-07 12:54:13 -0500 (Thu, 07 Aug 2014) $"
        },
        "language": "rof"
      },
      "dates": {
        "calendars": {
          "gregorian": {
            "months": {
              "format": {
                "abbreviated": {
                  "1": "M1",
                  "2": "M2",
                  "3": "M3",
                  "4": "M4",
                  "5": "M5",
                  "6": "M6",
                  "7": "M7",
                  "8": "M8",
                  "9": "M9",
                  "10": "M10",
                  "11": "M11",
                  "12": "M12"
                },
                "narrow": {
                  "1": "K",
                  "2": "K",
                  "3": "K",
                  "4": "K",
                  "5": "T",
                  "6": "S",
                  "7": "S",
                  "8": "N",
                  "9": "T",
                  "10": "I",
                  "11": "I",
                  "12": "I"
                },
                "wide": {
                  "1": "Mweri wa kwanza",
                  "2": "Mweri wa kaili",
                  "3": "Mweri wa katatu",
                  "4": "Mweri wa kaana",
                  "5": "Mweri wa tanu",
                  "6": "Mweri wa sita",
                  "7": "Mweri wa saba",
                  "8": "Mweri wa nane",
                  "9": "Mweri wa tisa",
                  "10": "Mweri wa ikumi",
                  "11": "Mweri wa ikumi na moja",
                  "12": "Mweri wa ikumi na mbili"
                }
              },
              "stand-alone": {
                "abbreviated": {
                  "1": "M1",
                  "2": "M2",
                  "3": "M3",
                  "4": "M4",
                  "5": "M5",
                  "6": "M6",
                  "7": "M7",
                  "8": "M8",
                  "9": "M9",
                  "10": "M10",
                  "11": "M11",
                  "12": "M12"
                },
                "narrow": {
                  "1": "K",
                  "2": "K",
                  "3": "K",
                  "4": "K",
                  "5": "T",
                  "6": "S",
                  "7": "S",
                  "8": "N",
                  "9": "T",
                  "10": "I",
                  "11": "I",
                  "12": "I"
                },
                "wide": {
                  "1": "Mweri wa kwanza",
                  "2": "Mweri wa kaili",
                  "3": "Mweri wa katatu",
                  "4": "Mweri wa kaana",
                  "5": "Mweri wa tanu",
                  "6": "Mweri wa sita",
                  "7": "Mweri wa saba",
                  "8": "Mweri wa nane",
                  "9": "Mweri wa tisa",
                  "10": "Mweri wa ikumi",
                  "11": "Mweri wa ikumi na moja",
                  "12": "Mweri wa ikumi na mbili"
                }
              }
            },
            "days": {
              "format": {
                "abbreviated": {
                  "sun": "Ijp",
                  "mon": "Ijt",
                  "tue": "Ijn",
                  "wed": "Ijtn",
                  "thu": "Alh",
                  "fri": "Iju",
                  "sat": "Ijm"
                },
                "narrow": {
                  "sun": "2",
                  "mon": "3",
                  "tue": "4",
                  "wed": "5",
                  "thu": "6",
                  "fri": "7",
                  "sat": "1"
                },
                "short": {
                  "sun": "Ijp",
                  "mon": "Ijt",
                  "tue": "Ijn",
                  "wed": "Ijtn",
                  "thu": "Alh",
                  "fri": "Iju",
                  "sat": "Ijm"
                },
                "wide": {
                  "sun": "Ijumapili",
                  "mon": "Ijumatatu",
                  "tue": "Ijumanne",
                  "wed": "Ijumatano",
                  "thu": "Alhamisi",
                  "fri": "Ijumaa",
                  "sat": "Ijumamosi"
                }
              },
              "stand-alone": {
                "abbreviated": {
                  "sun": "Ijp",
                  "mon": "Ijt",
                  "tue": "Ijn",
                  "wed": "Ijtn",
                  "thu": "Alh",
                  "fri": "Iju",
                  "sat": "Ijm"
                },
                "narrow": {
                  "sun": "2",
                  "mon": "3",
                  "tue": "4",
                  "wed": "5",
                  "thu": "6",
                  "fri": "7",
                  "sat": "1"
                },
                "short": {
                  "sun": "Ijp",
                  "mon": "Ijt",
                  "tue": "Ijn",
                  "wed": "Ijtn",
                  "thu": "Alh",
                  "fri": "Iju",
                  "sat": "Ijm"
                },
                "wide": {
                  "sun": "Ijumapili",
                  "mon": "Ijumatatu",
                  "tue": "Ijumanne",
                  "wed": "Ijumatano",
                  "thu": "Alhamisi",
                  "fri": "Ijumaa",
                  "sat": "Ijumamosi"
                }
              }
            },
            "quarters": {
              "format": {
                "abbreviated": {
                  "1": "R1",
                  "2": "R2",
                  "3": "R3",
                  "4": "R4"
                },
                "narrow": {
                  "1": "1",
                  "2": "2",
                  "3": "3",
                  "4": "4"
                },
                "wide": {
                  "1": "Robo ya kwanza",
                  "2": "Robo ya kaili",
                  "3": "Robo ya katatu",
                  "4": "Robo ya kaana"
                }
              },
              "stand-alone": {
                "abbreviated": {
                  "1": "R1",
                  "2": "R2",
                  "3": "R3",
                  "4": "R4"
                },
                "narrow": {
                  "1": "1",
                  "2": "2",
                  "3": "3",
                  "4": "4"
                },
                "wide": {
                  "1": "Robo ya kwanza",
                  "2": "Robo ya kaili",
                  "3": "Robo ya katatu",
                  "4": "Robo ya kaana"
                }
              }
            },
            "dayPeriods": {
              "format": {
                "abbreviated": {
                  "am": "kang’ama",
                  "noon": "noon",
                  "pm": "kingoto"
                },
                "narrow": {
                  "am": "a",
                  "noon": "n",
                  "pm": "p"
                },
                "wide": {
                  "am": "kang’ama",
                  "noon": "noon",
                  "pm": "kingoto"
                }
              },
              "stand-alone": {
                "abbreviated": {
                  "am": "kang’ama",
                  "noon": "noon",
                  "pm": "kingoto"
                },
                "narrow": {
                  "am": "a",
                  "noon": "n",
                  "pm": "p"
                },
                "wide": {
                  "am": "kang’ama",
                  "noon": "noon",
                  "pm": "kingoto"
                }
              }
            },
            "eras": {
              "eraNames": {
                "0": "Kabla ya Mayesu",
                "0-alt-variant": "BCE",
                "1": "Baada ya Mayesu",
                "1-alt-variant": "CE"
              },
              "eraAbbr": {
                "0": "KM",
                "0-alt-variant": "BCE",
                "1": "BM",
                "1-alt-variant": "CE"
              },
              "eraNarrow": {
                "0": "KM",
                "0-alt-variant": "BCE",
                "1": "BM",
                "1-alt-variant": "CE"
              }
            },
            "dateFormats": {
              "full": "EEEE, d MMMM y",
              "long": "d MMMM y",
              "medium": "d MMM y",
              "short": "dd/MM/y"
            },
            "timeFormats": {
              "full": "h:mm:ss a zzzz",
              "long": "h:mm:ss a z",
              "medium": "h:mm:ss a",
              "short": "h:mm a"
            },
            "dateTimeFormats": {
              "full": "{1} {0}",
              "long": "{1} {0}",
              "medium": "{1} {0}",
              "short": "{1} {0}",
              "availableFormats": {
                "E": "ccc",
                "EHm": "E HH:mm",
                "EHms": "E HH:mm:ss",
                "Ed": "d, E",
                "Ehm": "E h:mm a",
                "Ehms": "E h:mm:ss a",
                "Gy": "G y",
                "GyMMM": "G y MMM",
                "GyMMMEd": "G y MMM d, E",
                "GyMMMd": "G y MMM d",
                "H": "HH",
                "Hm": "HH:mm",
                "Hms": "HH:mm:ss",
                "M": "L",
                "MEd": "E, M/d",
                "MMM": "LLL",
                "MMMEd": "E, MMM d",
                "MMMMEd": "E, MMMM d",
                "MMMMd": "MMMM d",
                "MMMd": "MMM d",
                "Md": "M/d",
                "d": "d",
                "h": "h a",
                "hm": "h:mm a",
                "hms": "h:mm:ss a",
                "ms": "mm:ss",
                "y": "y",
                "yM": "M/y",
                "yMEd": "E, M/d/y",
                "yMMM": "MMM y",
                "yMMMEd": "E, MMM d, y",
                "yMMMM": "MMMM y",
                "yMMMd": "y MMM d",
                "yMd": "y-MM-dd",
                "yQQQ": "QQQ y",
                "yQQQQ": "QQQQ y"
              },
              "appendItems": {
                "Day": "{0} ({2}: {1})",
                "Day-Of-Week": "{0} {1}",
                "Era": "{1} {0}",
                "Hour": "{0} ({2}: {1})",
                "Minute": "{0} ({2}: {1})",
                "Month": "{0} ({2}: {1})",
                "Quarter": "{0} ({2}: {1})",
                "Second": "{0} ({2}: {1})",
                "Timezone": "{0} {1}",
                "Week": "{0} ({2}: {1})",
                "Year": "{1} {0}"
              },
              "intervalFormats": {
                "intervalFormatFallback": "{0} – {1}",
                "H": {
                  "H": "HH–HH"
                },
                "Hm": {
                  "H": "HH:mm–HH:mm",
                  "m": "HH:mm–HH:mm"
                },
                "Hmv": {
                  "H": "HH:mm–HH:mm v",
                  "m": "HH:mm–HH:mm v"
                },
                "Hv": {
                  "H": "HH–HH v"
                },
                "M": {
                  "M": "MM–MM"
                },
                "MEd": {
                  "M": "MM-dd, E – MM-dd, E",
                  "d": "MM-dd, E – MM-dd, E"
                },
                "MMM": {
                  "M": "LLL–LLL"
                },
                "MMMEd": {
                  "M": "MMM d, E – MMM d, E",
                  "d": "MMM d, E – MMM d, E"
                },
                "MMMd": {
                  "M": "MMM d – MMM d",
                  "d": "MMM d–d"
                },
                "Md": {
                  "M": "MM-dd – MM-dd",
                  "d": "MM-dd – MM-dd"
                },
                "d": {
                  "d": "d–d"
                },
                "h": {
                  "a": "h a – h a",
                  "h": "h–h a"
                },
                "hm": {
                  "a": "h:mm a – h:mm a",
                  "h": "h:mm–h:mm a",
                  "m": "h:mm–h:mm a"
                },
                "hmv": {
                  "a": "h:mm a – h:mm a v",
                  "h": "h:mm–h:mm a v",
                  "m": "h:mm–h:mm a v"
                },
                "hv": {
                  "a": "h a – h a v",
                  "h": "h–h a v"
                },
                "y": {
                  "y": "y–y"
                },
                "yM": {
                  "M": "y-MM – y-MM",
                  "y": "y-MM – y-MM"
                },
                "yMEd": {
                  "M": "y-MM-dd, E – y-MM-dd, E",
                  "d": "y-MM-dd, E – y-MM-dd, E",
                  "y": "y-MM-dd, E – y-MM-dd, E"
                },
                "yMMM": {
                  "M": "y MMM–MMM",
                  "y": "y MMM – y MMM"
                },
                "yMMMEd": {
                  "M": "y MMM d, E – MMM d, E",
                  "d": "y MMM d, E – MMM d, E",
                  "y": "y MMM d, E – y MMM d, E"
                },
                "yMMMM": {
                  "M": "y MMMM–MMMM",
                  "y": "y MMMM – y MMMM"
                },
                "yMMMd": {
                  "M": "y MMM d – MMM d",
                  "d": "y MMM d–d",
                  "y": "y MMM d – y MMM d"
                },
                "yMd": {
                  "M": "y-MM-dd – y-MM-dd",
                  "d": "y-MM-dd – y-MM-dd",
                  "y": "y-MM-dd – y-MM-dd"
                }
              }
            }
          }
        }
      }
    }
  }
}
