{
  "main": {
    "wae-CH": {
      "identity": {
        "version": {
          "_cldrVersion": "26",
          "_number": "$Revision: 10669 $"
        },
        "generation": {
          "_date": "$Date: 2014-07-23 16:10:33 -0500 (Wed, 23 Jul 2014) $"
        },
        "language": "root",
        "territory": "CH"
      },
      "dates": {
        "calendars": {
          "gregorian": {
            "months": {
              "format": {
                "abbreviated": {
                  "1": "Jen",
                  "2": "Hor",
                  "3": "Mär",
                  "4": "Abr",
                  "5": "Mei",
                  "6": "Brá",
                  "7": "Hei",
                  "8": "Öig",
                  "9": "Her",
                  "10": "Wím",
                  "11": "Win",
                  "12": "Chr"
                },
                "narrow": {
                  "1": "J",
                  "2": "H",
                  "3": "M",
                  "4": "A",
                  "5": "M",
                  "6": "B",
                  "7": "H",
                  "8": "Ö",
                  "9": "H",
                  "10": "W",
                  "11": "W",
                  "12": "C"
                },
                "wide": {
                  "1": "Jenner",
                  "2": "Hornig",
                  "3": "Märze",
                  "4": "Abrille",
                  "5": "Meije",
                  "6": "Bráčet",
                  "7": "Heiwet",
                  "8": "Öigšte",
                  "9": "Herbštmánet",
                  "10": "Wímánet",
                  "11": "Wintermánet",
                  "12": "Chrištmánet"
                }
              },
              "stand-alone": {
                "abbreviated": {
                  "1": "Jen",
                  "2": "Hor",
                  "3": "Mär",
                  "4": "Abr",
                  "5": "Mei",
                  "6": "Brá",
                  "7": "Hei",
                  "8": "Öig",
                  "9": "Her",
                  "10": "Wím",
                  "11": "Win",
                  "12": "Chr"
                },
                "narrow": {
                  "1": "J",
                  "2": "H",
                  "3": "M",
                  "4": "A",
                  "5": "M",
                  "6": "B",
                  "7": "H",
                  "8": "Ö",
                  "9": "H",
                  "10": "W",
                  "11": "W",
                  "12": "C"
                },
                "wide": {
                  "1": "Jenner",
                  "2": "Hornig",
                  "3": "Märze",
                  "4": "Abrille",
                  "5": "Meije",
                  "6": "Bráčet",
                  "7": "Heiwet",
                  "8": "Öigšte",
                  "9": "Herbštmánet",
                  "10": "Wímánet",
                  "11": "Wintermánet",
                  "12": "Chrištmánet"
                }
              }
            },
            "days": {
              "format": {
                "abbreviated": {
                  "sun": "Sun",
                  "mon": "Män",
                  "tue": "Ziš",
                  "wed": "Mit",
                  "thu": "Fró",
                  "fri": "Fri",
                  "sat": "Sam"
                },
                "narrow": {
                  "sun": "S",
                  "mon": "M",
                  "tue": "Z",
                  "wed": "M",
                  "thu": "F",
                  "fri": "F",
                  "sat": "S"
                },
                "short": {
                  "sun": "Sun",
                  "mon": "Män",
                  "tue": "Ziš",
                  "wed": "Mit",
                  "thu": "Fró",
                  "fri": "Fri",
                  "sat": "Sam"
                },
                "wide": {
                  "sun": "Sunntag",
                  "mon": "Mäntag",
                  "tue": "Zištag",
                  "wed": "Mittwuč",
                  "thu": "Fróntag",
                  "fri": "Fritag",
                  "sat": "Samštag"
                }
              },
              "stand-alone": {
                "abbreviated": {
                  "sun": "Sun",
                  "mon": "Män",
                  "tue": "Ziš",
                  "wed": "Mit",
                  "thu": "Fró",
                  "fri": "Fri",
                  "sat": "Sam"
                },
                "narrow": {
                  "sun": "S",
                  "mon": "M",
                  "tue": "Z",
                  "wed": "M",
                  "thu": "F",
                  "fri": "F",
                  "sat": "S"
                },
                "short": {
                  "sun": "Sun",
                  "mon": "Män",
                  "tue": "Ziš",
                  "wed": "Mit",
                  "thu": "Fró",
                  "fri": "Fri",
                  "sat": "Sam"
                },
                "wide": {
                  "sun": "Sunntag",
                  "mon": "Mäntag",
                  "tue": "Zištag",
                  "wed": "Mittwuč",
                  "thu": "Fróntag",
                  "fri": "Fritag",
                  "sat": "Samštag"
                }
              }
            },
            "quarters": {
              "format": {
                "abbreviated": {
                  "1": "Q1",
                  "2": "Q2",
                  "3": "Q3",
                  "4": "Q4"
                },
                "narrow": {
                  "1": "1",
                  "2": "2",
                  "3": "3",
                  "4": "4"
                },
                "wide": {
                  "1": "1. quartal",
                  "2": "2. quartal",
                  "3": "3. quartal",
                  "4": "4. quartal"
                }
              },
              "stand-alone": {
                "abbreviated": {
                  "1": "Q1",
                  "2": "Q2",
                  "3": "Q3",
                  "4": "Q4"
                },
                "narrow": {
                  "1": "1",
                  "2": "2",
                  "3": "3",
                  "4": "4"
                },
                "wide": {
                  "1": "1. quartal",
                  "2": "2. quartal",
                  "3": "3. quartal",
                  "4": "4. quartal"
                }
              }
            },
            "dayPeriods": {
              "format": {
                "abbreviated": {
                  "am": "AM",
                  "noon": "noon",
                  "pm": "PM"
                },
                "narrow": {
                  "am": "a",
                  "noon": "n",
                  "pm": "p"
                },
                "wide": {
                  "am": "AM",
                  "noon": "noon",
                  "pm": "PM"
                }
              },
              "stand-alone": {
                "abbreviated": {
                  "am": "AM",
                  "noon": "noon",
                  "pm": "PM"
                },
                "narrow": {
                  "am": "a",
                  "noon": "n",
                  "pm": "p"
                },
                "wide": {
                  "am": "AM",
                  "noon": "noon",
                  "pm": "PM"
                }
              }
            },
            "eras": {
              "eraNames": {
                "0": "v. Chr.",
                "0-alt-variant": "BCE",
                "1": "n. Chr",
                "1-alt-variant": "CE"
              },
              "eraAbbr": {
                "0": "v. Chr.",
                "0-alt-variant": "BCE",
                "1": "n. Chr",
                "1-alt-variant": "CE"
              },
              "eraNarrow": {
                "0": "v. Chr.",
                "0-alt-variant": "BCE",
                "1": "n. Chr",
                "1-alt-variant": "CE"
              }
            },
            "dateFormats": {
              "full": "EEEE, d. MMMM y",
              "long": "d. MMMM y",
              "medium": "d. MMM y",
              "short": "y-MM-dd"
            },
            "timeFormats": {
              "full": "HH:mm:ss zzzz",
              "long": "HH:mm:ss z",
              "medium": "HH:mm:ss",
              "short": "HH:mm"
            },
            "dateTimeFormats": {
              "full": "{1} {0}",
              "long": "{1} {0}",
              "medium": "{1} {0}",
              "short": "{1} {0}",
              "availableFormats": {
                "E": "ccc",
                "EHm": "E HH:mm",
                "EHms": "E HH:mm:ss",
                "Ed": "E d.",
                "Ehm": "E h:mm a",
                "Ehms": "E h:mm:ss a",
                "Gy": "G y",
                "GyMMM": "G y MMM",
                "GyMMMEd": "G y MMM d, E",
                "GyMMMd": "G y MMM d",
                "H": "HH",
                "Hm": "HH:mm",
                "Hms": "HH:mm:ss",
                "M": "LLL",
                "MEd": "E, d. MMM",
                "MMM": "LLL",
                "MMMEd": "E, d. MMM",
                "MMMd": "d. MMM",
                "Md": "d. MMM",
                "d": "d",
                "h": "h a",
                "hm": "h:mm a",
                "hms": "h:mm:ss a",
                "ms": "mm:ss",
                "y": "y",
                "yM": "y-MM",
                "yMEd": "y-MM-dd, E",
                "yMMM": "MMM y",
                "yMMMEd": "E, d. MMM y",
                "yMMMd": "d. MMM y",
                "yMd": "y-MM-dd",
                "yQQQ": "y QQQ",
                "yQQQQ": "y QQQQ"
              },
              "appendItems": {
                "Day": "{0} ({2}: {1})",
                "Day-Of-Week": "{0} {1}",
                "Era": "{1} {0}",
                "Hour": "{0} ({2}: {1})",
                "Minute": "{0} ({2}: {1})",
                "Month": "{0} ({2}: {1})",
                "Quarter": "{0} ({2}: {1})",
                "Second": "{0} ({2}: {1})",
                "Timezone": "{0} {1}",
                "Week": "{0} ({2}: {1})",
                "Year": "{1} {0}"
              },
              "intervalFormats": {
                "intervalFormatFallback": "{0} - {1}",
                "H": {
                  "H": "HH - HH"
                },
                "Hm": {
                  "H": "HH:mm - HH:mm",
                  "m": "HH:mm - HH:mm"
                },
                "Hmv": {
                  "H": "HH:mm - HH:mm v",
                  "m": "HH:mm - HH:mm v"
                },
                "Hv": {
                  "H": "HH - HH v"
                },
                "M": {
                  "M": "MMM - MMM"
                },
                "MEd": {
                  "M": "E, d. MMM - E, d. MMM",
                  "d": "E, d. MMM - E, d. MMM"
                },
                "MMM": {
                  "M": "MMM - MMM"
                },
                "MMMEd": {
                  "M": "E, d. MMM - E, d. MMM",
                  "d": "E, d. MMM - E, d. MMM"
                },
                "MMMd": {
                  "M": "d. - d. MMM",
                  "d": "d. - d. MMM"
                },
                "Md": {
                  "M": "d. MMM - d. MMM",
                  "d": "d. MMM - d. MMM"
                },
                "d": {
                  "d": "d - d"
                },
                "h": {
                  "a": "h a - h a",
                  "h": "h - h a"
                },
                "hm": {
                  "a": "h:mm a - h:mm a",
                  "h": "h:mm - h:mm a",
                  "m": "h:mm - h:mm a"
                },
                "hmv": {
                  "a": "h:mm a - h:mm a v",
                  "h": "h:mm - h:mm a v",
                  "m": "h:mm - h:mm a v"
                },
                "hv": {
                  "a": "h a - h a v",
                  "h": "h - h a v"
                },
                "y": {
                  "y": "y - y"
                },
                "yM": {
                  "M": "y-MM - y-MM",
                  "y": "y-MM - y-MM"
                },
                "yMEd": {
                  "M": "E, d. MMM y - E, d. MMM y",
                  "d": "E, d. MMM y - E, d. MMM y",
                  "y": "E, d. MMM y - E, d. MMM y"
                },
                "yMMM": {
                  "M": "MMM - MMM y",
                  "y": "MMM y - MMM y"
                },
                "yMMMEd": {
                  "M": "E, d. MMM - E, d. MMM y",
                  "d": "E, d. - E, d. MMM y",
                  "y": "E, d. MMM y - E, d. MMM y"
                },
                "yMMMM": {
                  "M": "MMMM - MMMM y",
                  "y": "MMMM y - MMMM y"
                },
                "yMMMd": {
                  "M": "d. MMM - d. MMM y",
                  "d": "d. - d. MMM y",
                  "y": "d. MMM y - d. MMM y"
                },
                "yMd": {
                  "M": "y-MM-dd - y-MM-dd",
                  "d": "y-MM-dd - y-MM-dd",
                  "y": "y-MM-dd - y-MM-dd"
                }
              }
            }
          }
        }
      }
    }
  }
}
