{
  "main": {
    "sq": {
      "identity": {
        "version": {
          "_cldrVersion": "26",
          "_number": "$Revision: 10809 $"
        },
        "generation": {
          "_date": "$Date: 2014-08-14 15:10:07 -0500 (Thu, 14 Aug 2014) $"
        },
        "language": "root"
      },
      "dates": {
        "fields": {
          "era": {
            "displayName": "erë"
          },
          "year": {
            "displayName": "vit",
            "relative-type--1": "vitin e kaluar",
            "relative-type-0": "këtë vit",
            "relative-type-1": "vitin e ardhshëm",
            "relativeTime-type-future": {
              "relativeTimePattern-count-one": "pas {0} viti",
              "relativeTimePattern-count-other": "pas {0} vjetësh"
            },
            "relativeTime-type-past": {
              "relativeTimePattern-count-one": "para {0} viti",
              "relativeTimePattern-count-other": "para {0} vjetësh"
            }
          },
          "year-short": {
            "displayName": "vit",
            "relative-type--1": "vitin e kaluar",
            "relative-type-0": "këtë vit",
            "relative-type-1": "vitin e ardhshëm",
            "relativeTime-type-future": {
              "relativeTimePattern-count-one": "pas {0} viti",
              "relativeTimePattern-count-other": "pas {0} vjetësh"
            },
            "relativeTime-type-past": {
              "relativeTimePattern-count-one": "para {0} viti",
              "relativeTimePattern-count-other": "para {0} vjetësh"
            }
          },
          "year-narrow": {
            "displayName": "vit",
            "relative-type--1": "vitin e kaluar",
            "relative-type-0": "këtë vit",
            "relative-type-1": "vitin e ardhshëm",
            "relativeTime-type-future": {
              "relativeTimePattern-count-one": "pas {0} viti",
              "relativeTimePattern-count-other": "pas {0} vjetësh"
            },
            "relativeTime-type-past": {
              "relativeTimePattern-count-one": "para {0} viti",
              "relativeTimePattern-count-other": "para {0} vjetësh"
            }
          },
          "quarter": {
            "displayName": "tremujor",
            "relative-type--1": "last quarter",
            "relative-type-0": "this quarter",
            "relative-type-1": "next quarter",
            "relativeTime-type-future": {
              "relativeTimePattern-count-one": "pas {0} tremujori",
              "relativeTimePattern-count-other": "pas {0} tremujorësh"
            },
            "relativeTime-type-past": {
              "relativeTimePattern-count-one": "para {0} tremujori",
              "relativeTimePattern-count-other": "para {0} tremujorësh"
            }
          },
          "quarter-short": {
            "displayName": "tremujor",
            "relative-type--1": "last quarter",
            "relative-type-0": "this quarter",
            "relative-type-1": "next quarter",
            "relativeTime-type-future": {
              "relativeTimePattern-count-one": "pas {0} tremujori",
              "relativeTimePattern-count-other": "pas {0} tremujorësh"
            },
            "relativeTime-type-past": {
              "relativeTimePattern-count-one": "para {0} tremujori",
              "relativeTimePattern-count-other": "para {0} tremujorësh"
            }
          },
          "quarter-narrow": {
            "displayName": "tremujor",
            "relative-type--1": "last quarter",
            "relative-type-0": "this quarter",
            "relative-type-1": "next quarter",
            "relativeTime-type-future": {
              "relativeTimePattern-count-one": "pas {0} tremujori",
              "relativeTimePattern-count-other": "pas {0} tremujorësh"
            },
            "relativeTime-type-past": {
              "relativeTimePattern-count-one": "para {0} tremujori",
              "relativeTimePattern-count-other": "para {0} tremujorësh"
            }
          },
          "month": {
            "displayName": "muaj",
            "relative-type--1": "muajin e kaluar",
            "relative-type-0": "këtë muaj",
            "relative-type-1": "muajin e ardhshëm",
            "relativeTime-type-future": {
              "relativeTimePattern-count-one": "pas {0} muaji",
              "relativeTimePattern-count-other": "pas {0} muajsh"
            },
            "relativeTime-type-past": {
              "relativeTimePattern-count-one": "para {0} muaji",
              "relativeTimePattern-count-other": "para {0} muajsh"
            }
          },
          "month-short": {
            "displayName": "muaj",
            "relative-type--1": "muajin e kaluar",
            "relative-type-0": "këtë muaj",
            "relative-type-1": "muajin e ardhshëm",
            "relativeTime-type-future": {
              "relativeTimePattern-count-one": "pas {0} muaji",
              "relativeTimePattern-count-other": "pas {0} muajsh"
            },
            "relativeTime-type-past": {
              "relativeTimePattern-count-one": "para {0} muaji",
              "relativeTimePattern-count-other": "para {0} muajsh"
            }
          },
          "month-narrow": {
            "displayName": "muaj",
            "relative-type--1": "muajin e kaluar",
            "relative-type-0": "këtë muaj",
            "relative-type-1": "muajin e ardhshëm",
            "relativeTime-type-future": {
              "relativeTimePattern-count-one": "pas {0} muaji",
              "relativeTimePattern-count-other": "pas {0} muajsh"
            },
            "relativeTime-type-past": {
              "relativeTimePattern-count-one": "para {0} muaji",
              "relativeTimePattern-count-other": "para {0} muajsh"
            }
          },
          "week": {
            "displayName": "javë",
            "relative-type--1": "javën e kaluar",
            "relative-type-0": "këtë javë",
            "relative-type-1": "javën e ardhshme",
            "relativeTime-type-future": {
              "relativeTimePattern-count-one": "pas {0} jave",
              "relativeTimePattern-count-other": "pas {0} javësh"
            },
            "relativeTime-type-past": {
              "relativeTimePattern-count-one": "para {0} jave",
              "relativeTimePattern-count-other": "para {0} javësh"
            }
          },
          "week-short": {
            "displayName": "javë",
            "relative-type--1": "javën e kaluar",
            "relative-type-0": "këtë javë",
            "relative-type-1": "javën e ardhshme",
            "relativeTime-type-future": {
              "relativeTimePattern-count-one": "pas {0} jave",
              "relativeTimePattern-count-other": "pas {0} javësh"
            },
            "relativeTime-type-past": {
              "relativeTimePattern-count-one": "para {0} jave",
              "relativeTimePattern-count-other": "para {0} javësh"
            }
          },
          "week-narrow": {
            "displayName": "javë",
            "relative-type--1": "javën e kaluar",
            "relative-type-0": "këtë javë",
            "relative-type-1": "javën e ardhshme",
            "relativeTime-type-future": {
              "relativeTimePattern-count-one": "pas {0} jave",
              "relativeTimePattern-count-other": "pas {0} javësh"
            },
            "relativeTime-type-past": {
              "relativeTimePattern-count-one": "para {0} jave",
              "relativeTimePattern-count-other": "para {0} javësh"
            }
          },
          "day": {
            "displayName": "ditë",
            "relative-type--1": "dje",
            "relative-type-0": "sot",
            "relative-type-1": "nesër",
            "relativeTime-type-future": {
              "relativeTimePattern-count-one": "pas {0} dite",
              "relativeTimePattern-count-other": "pas {0} ditësh"
            },
            "relativeTime-type-past": {
              "relativeTimePattern-count-one": "para {0} dite",
              "relativeTimePattern-count-other": "para {0} ditësh"
            }
          },
          "day-short": {
            "displayName": "ditë",
            "relative-type--1": "dje",
            "relative-type-0": "sot",
            "relative-type-1": "nesër",
            "relativeTime-type-future": {
              "relativeTimePattern-count-one": "pas {0} dite",
              "relativeTimePattern-count-other": "pas {0} ditësh"
            },
            "relativeTime-type-past": {
              "relativeTimePattern-count-one": "para {0} dite",
              "relativeTimePattern-count-other": "para {0} ditësh"
            }
          },
          "day-narrow": {
            "displayName": "ditë",
            "relative-type--1": "dje",
            "relative-type-0": "sot",
            "relative-type-1": "nesër",
            "relativeTime-type-future": {
              "relativeTimePattern-count-one": "pas {0} dite",
              "relativeTimePattern-count-other": "pas {0} ditësh"
            },
            "relativeTime-type-past": {
              "relativeTimePattern-count-one": "para {0} dite",
              "relativeTimePattern-count-other": "para {0} ditësh"
            }
          },
          "weekday": {
            "displayName": "ditë e javës"
          },
          "sun": {
            "relative-type--1": "të dielën e kaluar",
            "relative-type-0": "këtë të diel",
            "relative-type-1": "të dielën e ardhshme"
          },
          "sun-short": {
            "relative-type--1": "të dielën e kaluar",
            "relative-type-0": "këtë të diel",
            "relative-type-1": "të dielën e ardhshme"
          },
          "sun-narrow": {
            "relative-type--1": "të dielën e kaluar",
            "relative-type-0": "këtë të diel",
            "relative-type-1": "të dielën e ardhshme"
          },
          "mon": {
            "relative-type--1": "të hënën e kaluar",
            "relative-type-0": "këtë të hënë",
            "relative-type-1": "të hënën e ardhshme"
          },
          "mon-short": {
            "relative-type--1": "të hënën e kaluar",
            "relative-type-0": "këtë të hënë",
            "relative-type-1": "të hënën e ardhshme"
          },
          "mon-narrow": {
            "relative-type--1": "të hënën e kaluar",
            "relative-type-0": "këtë të hënë",
            "relative-type-1": "të hënën e ardhshme"
          },
          "tue": {
            "relative-type--1": "të martën e kaluar",
            "relative-type-0": "këtë të martë",
            "relative-type-1": "të martën e ardhshme"
          },
          "tue-short": {
            "relative-type--1": "të martën e kaluar",
            "relative-type-0": "këtë të martë",
            "relative-type-1": "të martën e ardhshme"
          },
          "tue-narrow": {
            "relative-type--1": "të martën e kaluar",
            "relative-type-0": "këtë të martë",
            "relative-type-1": "të martën e ardhshme"
          },
          "wed": {
            "relative-type--1": "të mërkurën e kaluar",
            "relative-type-0": "këtë të mërkurë",
            "relative-type-1": "të mërkurën e ardhshme"
          },
          "wed-short": {
            "relative-type--1": "të mërkurën e kaluar",
            "relative-type-0": "këtë të mërkurë",
            "relative-type-1": "të mërkurën e ardhshme"
          },
          "wed-narrow": {
            "relative-type--1": "të mërkurën e kaluar",
            "relative-type-0": "këtë të mërkurë",
            "relative-type-1": "të mërkurën e ardhshme"
          },
          "thu": {
            "relative-type--1": "të enjten e kaluar",
            "relative-type-0": "këtë të enjte",
            "relative-type-1": "të enjten e ardhshme"
          },
          "thu-short": {
            "relative-type--1": "të enjten e kaluar",
            "relative-type-0": "këtë të enjte",
            "relative-type-1": "të enjten e ardhshme"
          },
          "thu-narrow": {
            "relative-type--1": "të enjten e kaluar",
            "relative-type-0": "këtë të enjte",
            "relative-type-1": "të enjten e ardhshme"
          },
          "fri": {
            "relative-type--1": "të premten e kaluar",
            "relative-type-0": "këtë të premte",
            "relative-type-1": "të premten e ardhshme"
          },
          "fri-short": {
            "relative-type--1": "të premten e kaluar",
            "relative-type-0": "këtë të premte",
            "relative-type-1": "të premten e ardhshme"
          },
          "fri-narrow": {
            "relative-type--1": "të premten e kaluar",
            "relative-type-0": "këtë të premte",
            "relative-type-1": "të premten e ardhshme"
          },
          "sat": {
            "relative-type--1": "të shtunën e kaluar",
            "relative-type-0": "këtë të shtunë",
            "relative-type-1": "të shtunën e ardhshme"
          },
          "sat-short": {
            "relative-type--1": "të shtunën e kaluar",
            "relative-type-0": "këtë të shtunë",
            "relative-type-1": "të shtunën e ardhshme"
          },
          "sat-narrow": {
            "relative-type--1": "të shtunën e kaluar",
            "relative-type-0": "këtë të shtunë",
            "relative-type-1": "të shtunën e ardhshme"
          },
          "dayperiod": {
            "displayName": "periudhë e ditës"
          },
          "hour": {
            "displayName": "orë",
            "relativeTime-type-future": {
              "relativeTimePattern-count-one": "pas {0} ore",
              "relativeTimePattern-count-other": "pas {0} orësh"
            },
            "relativeTime-type-past": {
              "relativeTimePattern-count-one": "para {0} ore",
              "relativeTimePattern-count-other": "para {0} orësh"
            }
          },
          "hour-short": {
            "displayName": "orë",
            "relativeTime-type-future": {
              "relativeTimePattern-count-one": "pas {0} ore",
              "relativeTimePattern-count-other": "pas {0} orësh"
            },
            "relativeTime-type-past": {
              "relativeTimePattern-count-one": "para {0} ore",
              "relativeTimePattern-count-other": "para {0} orësh"
            }
          },
          "hour-narrow": {
            "displayName": "orë",
            "relativeTime-type-future": {
              "relativeTimePattern-count-one": "pas {0} ore",
              "relativeTimePattern-count-other": "pas {0} orësh"
            },
            "relativeTime-type-past": {
              "relativeTimePattern-count-one": "para {0} ore",
              "relativeTimePattern-count-other": "para {0} orësh"
            }
          },
          "minute": {
            "displayName": "minutë",
            "relativeTime-type-future": {
              "relativeTimePattern-count-one": "pas {0} minute",
              "relativeTimePattern-count-other": "pas {0} minutash"
            },
            "relativeTime-type-past": {
              "relativeTimePattern-count-one": "para {0} minute",
              "relativeTimePattern-count-other": "para {0} minutash"
            }
          },
          "minute-short": {
            "displayName": "min.",
            "relativeTime-type-future": {
              "relativeTimePattern-count-one": "pas {0} min.",
              "relativeTimePattern-count-other": "pas {0} min."
            },
            "relativeTime-type-past": {
              "relativeTimePattern-count-one": "para {0} min.",
              "relativeTimePattern-count-other": "para {0} min."
            }
          },
          "minute-narrow": {
            "displayName": "min.",
            "relativeTime-type-future": {
              "relativeTimePattern-count-one": "pas {0} min.",
              "relativeTimePattern-count-other": "pas {0} min."
            },
            "relativeTime-type-past": {
              "relativeTimePattern-count-one": "para {0} min.",
              "relativeTimePattern-count-other": "para {0} min."
            }
          },
          "second": {
            "displayName": "sekondë",
            "relative-type-0": "tani",
            "relativeTime-type-future": {
              "relativeTimePattern-count-one": "pas {0} sekonde",
              "relativeTimePattern-count-other": "pas {0} sekondash"
            },
            "relativeTime-type-past": {
              "relativeTimePattern-count-one": "para {0} sekonde",
              "relativeTimePattern-count-other": "para {0} sekondash"
            }
          },
          "second-short": {
            "displayName": "sek.",
            "relative-type-0": "tani",
            "relativeTime-type-future": {
              "relativeTimePattern-count-one": "pas {0} sek.",
              "relativeTimePattern-count-other": "pas {0} sek."
            },
            "relativeTime-type-past": {
              "relativeTimePattern-count-one": "para {0} sek.",
              "relativeTimePattern-count-other": "para {0} sek."
            }
          },
          "second-narrow": {
            "displayName": "sek.",
            "relative-type-0": "tani",
            "relativeTime-type-future": {
              "relativeTimePattern-count-one": "pas {0} sek.",
              "relativeTimePattern-count-other": "pas {0} sek."
            },
            "relativeTime-type-past": {
              "relativeTimePattern-count-one": "para {0} sek.",
              "relativeTimePattern-count-other": "para {0} sek."
            }
          },
          "zone": {
            "displayName": "brezi orar"
          }
        }
      }
    }
  }
}
