{
  "main": {
    "ta-LK": {
      "identity": {
        "version": {
          "_cldrVersion": "26",
          "_number": "$Revision: 10819 $"
        },
        "generation": {
          "_date": "$Date: 2014-08-14 22:53:08 -0500 (Thu, 14 Aug 2014) $"
        },
        "language": "root",
        "territory": "LK"
      },
      "localeDisplayNames": {
        "languages": {
          "aa": "அஃபார்",
          "ab": "அப்காஜியான்",
          "ace": "ஆச்சினீஸ்",
          "ach": "அகோலி",
          "ada": "அதாங்மே",
          "ady": "அதகே",
          "ae": "அவெஸ்தான்",
          "aeb": "துனிசிய அரபு",
          "af": "ஆஃப்ரிகான்ஸ்",
          "afh": "அஃப்ரிஹிலி",
          "agq": "அகெம்",
          "ain": "ஐனு",
          "ak": "அகான்",
          "akk": "அக்கேதியன்",
          "akz": "akz",
          "ale": "அலூட்",
          "aln": "aln",
          "alt": "தெற்கு அல்தை",
          "am": "அம்ஹாரிக்",
          "an": "ஆர்கோனீஸ்",
          "ang": "பழைய ஆங்கிலம்",
          "anp": "அங்கிகா",
          "ar": "அரபிக்",
          "ar-001": "மாடர்ன் ஸ்டாண்டர்ட் அரபிக்",
          "arc": "அராமைக்",
          "arn": "மபுசே",
          "aro": "aro",
          "arp": "அரபஹோ",
          "arq": "arq",
          "arw": "அராவாக்",
          "ary": "ary",
          "arz": "arz",
          "as": "அஸ்ஸாமி",
          "asa": "அசு",
          "ase": "ase",
          "ast": "அஸ்துரியன்",
          "av": "அவேரிக்",
          "avk": "avk",
          "awa": "அவதி",
          "ay": "அய்மரா",
          "az": "அஸர்பைஜானி",
          "az-alt-short": "அஸேரி",
          "azb": "azb",
          "ba": "பாஷ்கிர்",
          "bal": "பெலுசி",
          "ban": "பலினீஸ்",
          "bar": "bar",
          "bas": "பாஸா",
          "bax": "bax",
          "bbc": "bbc",
          "bbj": "bbj",
          "be": "பெலாருஷியன்",
          "bej": "பேஜா",
          "bem": "பெம்பா",
          "bew": "bew",
          "bez": "பெனா",
          "bfd": "bfd",
          "bfq": "படகா",
          "bg": "பல்கேரியன்",
          "bho": "போஜ்பூரி",
          "bi": "பிஸ்லாமா",
          "bik": "பிகோல்",
          "bin": "பினி",
          "bjn": "bjn",
          "bkm": "bkm",
          "bla": "சிக்சிகா",
          "bm": "பம்பாரா",
          "bn": "வங்காளம்",
          "bo": "திபெத்தியன்",
          "bpy": "பிஷ்ணுப்பிரியா",
          "bqi": "bqi",
          "br": "பிரெட்டன்",
          "bra": "ப்ராஜ்",
          "brh": "brh",
          "brx": "போடோ",
          "bs": "போஸ்னியன்",
          "bss": "bss",
          "bua": "புரியாத்",
          "bug": "புகினீஸ்",
          "bum": "bum",
          "byn": "ப்லின்",
          "byv": "byv",
          "ca": "கேட்டலான்",
          "cad": "கேடோ",
          "car": "கரீப்",
          "cay": "cay",
          "cch": "ஆட்சம்",
          "ce": "செசென்",
          "ceb": "செபுவானோ",
          "cgg": "சிகா",
          "ch": "சாமோரோ",
          "chb": "சிப்சா",
          "chg": "ஷகதை",
          "chk": "சூகிசே",
          "chm": "மாரி",
          "chn": "சினூக் ஜார்கான்",
          "cho": "சோக்தௌ",
          "chp": "சிபெவ்யான்",
          "chr": "செரொகி",
          "chy": "செயேனி",
          "ckb": "சொரானி குர்திஷ்",
          "co": "கோர்சிகன்",
          "cop": "காப்டிக்",
          "cps": "cps",
          "cr": "க்ரீ",
          "crh": "கிரிமியன் துர்க்கி",
          "cs": "செக்",
          "csb": "கஷுபியன்",
          "cu": "சர்ச் ஸ்லாவிக்",
          "cv": "சுவாஷ்",
          "cy": "வெல்ஷ்",
          "da": "டேனிஷ்",
          "dak": "தகோடா",
          "dar": "தார்குவா",
          "dav": "டைடா",
          "de": "ஜெர்மன்",
          "de-AT": "ஆஸ்திரிய ஜெர்மன்",
          "de-CH": "ஸ்விஸ் ஹை ஜெர்மன்",
          "del": "தெலாவேர்",
          "den": "ஸ்லாவ்",
          "dgr": "டோக்ரிப்",
          "din": "டின்கா",
          "dje": "சார்மா",
          "doi": "டோக்ரி",
          "dsb": "லோயர் சோர்பியன்",
          "dtp": "dtp",
          "dua": "டுவாலா",
          "dum": "மத்திய டச்சு",
          "dv": "திவேஹி",
          "dyo": "ஜோலா-ஃபோன்யி",
          "dyu": "ட்யூலா",
          "dz": "பூடானி",
          "dzg": "dzg",
          "ebu": "எம்பு",
          "ee": "ஈவ்",
          "efi": "எஃபிக்",
          "egl": "egl",
          "egy": "பண்டைய எகிப்தியன்",
          "eka": "ஈகாஜுக்",
          "el": "கிரேக்கம்",
          "elx": "எலமைட்",
          "en": "ஆங்கிலம்",
          "en-AU": "ஆஸ்திரேலியன் ஆங்கிலம்",
          "en-CA": "கனடியன் ஆங்கிலம்",
          "en-GB": "பிரிட்டிஷ் ஆங்கிலம்",
          "en-GB-alt-short": "ஆங்கிலம் (யூகே)",
          "en-US": "அமெரிக்க ஆங்கிலம்",
          "en-US-alt-short": "en_US",
          "enm": "மத்திய ஆங்கிலம்",
          "eo": "எஸ்பரேன்டோ",
          "es": "ஸ்பானிஷ்",
          "es-419": "லத்தின் அமெரிக்க ஸ்பானிஷ்",
          "es-ES": "ஐரோப்பிய ஸ்பானிஷ்",
          "es-MX": "மெக்சிகன் ஸ்பானிஷ்",
          "esu": "esu",
          "et": "எஸ்டோனியன்",
          "eu": "பஸ்க்",
          "ewo": "எவோன்டோ",
          "ext": "ext",
          "fa": "பெர்ஷியன்",
          "fan": "ஃபங்க்",
          "fat": "ஃபான்டி",
          "ff": "ஃபுலா",
          "fi": "ஃபின்னிஷ்",
          "fil": "ஃபிலிபினோ",
          "fit": "fit",
          "fj": "ஃபிஜியன்",
          "fo": "ஃபரோயிஸ்",
          "fon": "ஃபான்",
          "fr": "பிரெஞ்சு",
          "fr-CA": "கனடிய பிரெஞ்சு",
          "fr-CH": "ஸ்விஸ் பிரஞ்சு",
          "frc": "frc",
          "frm": "மத்திய ஃப்ரென்ச்",
          "fro": "பழைய ஃப்ரென்ச்",
          "frp": "frp",
          "frr": "வடக்கு ஃப்ரிஸியான்",
          "frs": "கிழக்கு ஃப்ரிஸியான்",
          "fur": "ஃப்ரியூலியன்",
          "fy": "மேற்கத்திய ஃப்ரிஷியன்",
          "ga": "ஐரிஷ்",
          "gaa": "கா",
          "gag": "காகௌஸ்",
          "gan": "gan",
          "gay": "கயோ",
          "gba": "பயா",
          "gbz": "gbz",
          "gd": "ஸ்காட்ஸ் கேலிக்",
          "gez": "கீஜ்",
          "gil": "கில்பெர்டீஸ்",
          "gl": "காலிஸியன்",
          "glk": "glk",
          "gmh": "மத்திய ஹை ஜெர்மன்",
          "gn": "குரானி",
          "goh": "பழைய ஹை ஜெர்மன்",
          "gom": "gom",
          "gon": "கோன்டி",
          "gor": "கோரோன்டலோ",
          "got": "கோதிக்",
          "grb": "க்ரேபோ",
          "grc": "பண்டைய கிரேக்கம்",
          "gsw": "ஸ்விஸ் ஜெர்மன்",
          "gu": "குஜராத்தி",
          "guc": "guc",
          "gur": "gur",
          "guz": "குஸி",
          "gv": "மேங்க்ஸ்",
          "gwi": "குவிசின்",
          "ha": "ஹௌஸா",
          "hai": "ஹைடா",
          "hak": "hak",
          "haw": "ஹவாயியன்",
          "he": "ஹீப்ரூ",
          "hi": "இந்தி",
          "hif": "பிஜி இந்தி",
          "hil": "ஹிலிகாய்னான்",
          "hit": "ஹிட்டைட்",
          "hmn": "மாங்க்",
          "ho": "ஹிரி மோட்டு",
          "hr": "குரோஷியன்",
          "hsb": "அப்பர் சோர்பியான்",
          "hsn": "hsn",
          "ht": "ஹைத்தியன்",
          "hu": "ஹங்கேரியன்",
          "hup": "ஹுபா",
          "hy": "ஆர்மேனியன்",
          "hz": "ஹெரேரோ",
          "ia": "இண்டர்லிங்வா",
          "iba": "இபான்",
          "ibb": "ibb",
          "id": "இந்தோனேஷியன்",
          "ie": "இன்டர்லிங்",
          "ig": "இக்போ",
          "ii": "சிசுவான் ஈ",
          "ik": "இனுபியாக்",
          "ilo": "இலோகோ",
          "inh": "இங்குஷ்",
          "io": "இடோ",
          "is": "ஐஸ்லென்டிக்",
          "it": "இத்தாலியன்",
          "iu": "இனுகிடூட்",
          "izh": "izh",
          "ja": "ஜப்பானியம்",
          "jam": "jam",
          "jbo": "லோஜ்பன்",
          "jgo": "நகொம்பா",
          "jmc": "மாசெம்",
          "jpr": "ஜூதேயோ-பெர்ஷியன்",
          "jrb": "ஜூதேயோ-அராபிக்",
          "jut": "jut",
          "jv": "ஜாவானீஸ்",
          "ka": "ஜார்ஜியன்",
          "kaa": "காரா-கல்பாக்",
          "kab": "கபாய்ல்",
          "kac": "காசின்",
          "kaj": "ஜ்ஜூ",
          "kam": "கம்பா",
          "kaw": "காவி",
          "kbd": "கபார்டியன்",
          "kbl": "kbl",
          "kcg": "தையாப்",
          "kde": "மகொண்டே",
          "kea": "கபுவெர்தியானு",
          "ken": "ken",
          "kfo": "கோரோ",
          "kg": "காங்கோ",
          "kgp": "kgp",
          "kha": "காஸி",
          "kho": "கோதானீஸ்",
          "khq": "கொய்ரா சீனீ",
          "khw": "khw",
          "ki": "கிகுயூ",
          "kiu": "kiu",
          "kj": "குவான்யாமா",
          "kk": "கசாக்",
          "kkj": "kkj",
          "kl": "கலாலிசூட்",
          "kln": "கலின்ஜின்",
          "km": "கெமெர்",
          "kmb": "கிம்புன்து",
          "kn": "கன்னடம்",
          "ko": "கொரியன்",
          "koi": "கொமி-பெர்ம்யாக்",
          "kok": "கொங்கணி",
          "kos": "கோஸ்ரைன்",
          "kpe": "க்பெல்லே",
          "kr": "கனுரி",
          "krc": "கராசே-பல்கார்",
          "kri": "kri",
          "krj": "krj",
          "krl": "கரேலியன்",
          "kru": "குருக்",
          "ks": "காஷ்மிரி",
          "ksb": "ஷம்பாலா",
          "ksf": "பாஃபியா",
          "ksh": "ksh",
          "ku": "குர்திஷ்",
          "kum": "கும்இக்",
          "kut": "குடேனை",
          "kv": "கோமி",
          "kw": "கார்னிஷ்",
          "ky": "கிர்கிஸ்",
          "la": "லத்தின்",
          "lad": "லடினோ",
          "lag": "லங்கி",
          "lah": "லஹன்டா",
          "lam": "லம்பா",
          "lb": "லக்ஸம்போர்கிஷ்",
          "lez": "லெஜ்ஜியன்",
          "lfn": "lfn",
          "lg": "கான்டா",
          "li": "லிம்பர்கிஷ்",
          "lij": "lij",
          "liv": "liv",
          "lkt": "லகோடா",
          "lmo": "lmo",
          "ln": "லிங்காலா",
          "lo": "லாவோ",
          "lol": "மோங்கோ",
          "loz": "லோசி",
          "lt": "லிதுவேனியன்",
          "ltg": "ltg",
          "lu": "லுபா-கடாங்கா",
          "lua": "லுபா-லுலுலா",
          "lui": "லுய்சேனோ",
          "lun": "லூன்டா",
          "luo": "லுயோ",
          "lus": "லுஷய்",
          "luy": "லுயியா",
          "lv": "லாட்வியன்",
          "lzh": "lzh",
          "lzz": "lzz",
          "mad": "மதுரீஸ்",
          "maf": "maf",
          "mag": "மகாஹி",
          "mai": "மைதிலி",
          "mak": "மகாசார்",
          "man": "மான்டிங்கோ",
          "mas": "மாசாய்",
          "mde": "mde",
          "mdf": "மோக்க்ஷா",
          "mdr": "மான்டார்",
          "men": "மென்டீ",
          "mer": "மெரு",
          "mfe": "மொரிசியன்",
          "mg": "மலகாஸி",
          "mga": "மத்திய ஐரிஷ்",
          "mgh": "மகுவா-மீட்டோ",
          "mgo": "மேடா",
          "mh": "மார்ஷெலிஷ்",
          "mi": "மௌரி",
          "mic": "மிக்மாக்",
          "min": "மின்னாங்கபௌ",
          "mk": "மாஸிடோனியன்",
          "ml": "மலையாளம்",
          "mn": "மங்கோலியன்",
          "mnc": "மன்சு",
          "mni": "மனிபூரி",
          "moh": "மோஹாவ்க்",
          "mos": "மோஸ்ஸி",
          "mr": "மராத்தி",
          "mrj": "mrj",
          "ms": "மலாய்",
          "mt": "மால்டிஸ்",
          "mua": "முன்டாங்",
          "mul": "பல மொழிகள்",
          "mus": "க்ரீக்",
          "mwl": "மிரான்டீஸ்",
          "mwr": "மார்வாரி",
          "mwv": "mwv",
          "my": "பர்மிஸ்",
          "mye": "mye",
          "myv": "ஏர்ஜியா",
          "mzn": "mzn",
          "na": "நவ்ரூ",
          "nan": "nan",
          "nap": "நியோபோலிடன்",
          "naq": "நாமா",
          "nb": "நார்வேஜியன் பொக்மால்",
          "nd": "வடக்கு தெபெலே",
          "nds": "லோ ஜெர்மன்",
          "ne": "நேபாளி",
          "new": "நெவாரி",
          "ng": "தோங்கா",
          "nia": "நியாஸ்",
          "niu": "நியூவான்",
          "njo": "njo",
          "nl": "டச்சு",
          "nl-BE": "பிலெமிஷ்",
          "nmg": "க்வாசியோ",
          "nn": "நார்வேஜியன் நியூநார்ஸ்க்",
          "nnh": "nnh",
          "no": "நார்வே",
          "nog": "நோகை",
          "non": "பழைய நோர்ஸ்",
          "nov": "nov",
          "nqo": "என்‘கோ",
          "nr": "தெற்கு தெபெலே",
          "nso": "வடக்கு சோதோ",
          "nus": "நியூர்",
          "nv": "நவாஜோ",
          "nwc": "பாரம்பரிய நேவாரி",
          "ny": "நயன்ஜா",
          "nym": "நியாம்வேஜி",
          "nyn": "நியான்கோலே",
          "nyo": "நியோரோ",
          "nzi": "நிஜ்மா",
          "oc": "ஒக்கிடன்",
          "oj": "ஓஜிபவா",
          "om": "ஒரோமோ",
          "or": "ஒரியா",
          "os": "ஒசெட்டிக்",
          "osa": "ஓசேஜ்",
          "ota": "ஒட்டோமன் துர்க்கி",
          "pa": "பஞ்சாபி",
          "pag": "பன்காசினன்",
          "pal": "பாஹ்லவி",
          "pam": "பம்பாங்கா",
          "pap": "பபியேமென்டோ",
          "pau": "பலௌவ்ன்",
          "pcd": "pcd",
          "pdc": "பென்சில்வேனிய ஜெர்மன்",
          "pdt": "pdt",
          "peo": "பழைய பெர்ஷியன்",
          "pfl": "pfl",
          "phn": "ஃபொனிஷியன்",
          "pi": "பாலி",
          "pl": "போலிஷ்",
          "pms": "pms",
          "pnt": "pnt",
          "pon": "ஃபோன்பெயென்",
          "prg": "prg",
          "pro": "பழைய ப்ரோவென்சால்",
          "ps": "பஷ்தோ",
          "ps-alt-variant": "புஷ்தோ",
          "pt": "போர்ச்சுக்கீஸ்",
          "pt-BR": "போர்ச்சுகீஸ் (பிரேசில்)",
          "pt-PT": "ஐரோப்பிய போர்ச்சுகீஸ்",
          "qu": "கிவேசுவா",
          "quc": "கீசீ",
          "qug": "qug",
          "raj": "ராஜஸ்தானி",
          "rap": "ரபனுய்",
          "rar": "ரரோடோங்கன்",
          "rgn": "rgn",
          "rif": "rif",
          "rm": "ரோமான்ஷ்",
          "rn": "ருண்டி",
          "ro": "ரோமேனியன்",
          "ro-MD": "மோல்டாவியன்",
          "rof": "ரோம்போ",
          "rom": "ரோமானி",
          "root": "ரூட்",
          "rtm": "rtm",
          "ru": "ரஷியன்",
          "rue": "rue",
          "rug": "rug",
          "rup": "அரோமானியன்",
          "rw": "கின்யாருவான்டா",
          "rwk": "ருவா",
          "sa": "சமஸ்கிருதம்",
          "sad": "சான்டாவே",
          "sah": "யாகுட்",
          "sam": "சமாரிடன் அராமைக்",
          "saq": "சம்புரு",
          "sas": "சாசாக்",
          "sat": "சான்டாலி",
          "saz": "சௌராஷ்டிரம்",
          "sba": "sba",
          "sbp": "சங்கு",
          "sc": "சாடினியன்",
          "scn": "சிசிலியன்",
          "sco": "ஸ்காட்ஸ்",
          "sd": "சிந்தி",
          "sdc": "sdc",
          "se": "வடக்கு சமி",
          "see": "see",
          "seh": "செனா",
          "sei": "sei",
          "sel": "செல்குப்",
          "ses": "கொய்ராபோரோ சென்னி",
          "sg": "சாங்கோ",
          "sga": "பழைய ஐரிஷ்",
          "sgs": "sgs",
          "sh": "செர்போ-க்ரோஷியன்",
          "shi": "தசேஹித்",
          "shn": "ஷான்",
          "shu": "shu",
          "si": "சிங்களம்",
          "sid": "சிடாமோ",
          "sk": "ஸ்லோவாக்",
          "sl": "ஸ்லோவேனியன்",
          "sli": "sli",
          "sly": "sly",
          "sm": "ஸாமோவான்",
          "sma": "தெற்கு சமி",
          "smj": "லுலே சமி",
          "smn": "இனாரி சமி",
          "sms": "ஸ்கோல்ட் சமி",
          "sn": "ஷோனா",
          "snk": "சோனின்கே",
          "so": "சோமாலி",
          "sog": "சோக்தியன்",
          "sq": "அல்பேனியன்",
          "sr": "செர்பியன்",
          "srn": "ஸ்ரானன் டோங்கோ",
          "srr": "செரெர்",
          "ss": "ஸ்வாடீ",
          "ssy": "ssy",
          "st": "தெற்கு ஸோதோ",
          "stq": "stq",
          "su": "சுண்டானீஸ்",
          "suk": "சுகுமா",
          "sus": "சுசு",
          "sux": "சுமேரியன்",
          "sv": "ஸ்வீடிஷ்",
          "sw": "சுவாஹிலி",
          "swb": "கொமோரியன்",
          "swc": "காங்கோ சுவாஹிலி",
          "syc": "பாரம்பரிய சிரியாக்",
          "syr": "சிரியாக்",
          "szl": "szl",
          "ta": "தமிழ்",
          "tcy": "tcy",
          "te": "தெலுங்கு",
          "tem": "டிம்னே",
          "teo": "டெசோ",
          "ter": "டெரெனோ",
          "tet": "டெடும்",
          "tg": "தாஜிக்",
          "th": "தாய்",
          "ti": "டிக்ரின்யா",
          "tig": "டைக்ரே",
          "tiv": "டிவ்",
          "tk": "டர்க்மென்",
          "tkl": "டோகேலௌ",
          "tkr": "tkr",
          "tl": "டாகாலோக்",
          "tlh": "க்ளிங்கோன்",
          "tli": "டிலிங்கிட்",
          "tly": "tly",
          "tmh": "டாமாஷேக்",
          "tn": "ஸ்வானா",
          "to": "டோங்கான்",
          "tog": "நயாசா டோங்கா",
          "tpi": "டோக் பிஸின்",
          "tr": "டர்கிஷ்",
          "tru": "tru",
          "trv": "trv",
          "ts": "ஸோங்கா",
          "tsd": "tsd",
          "tsi": "ட்ஸிம்ஷியன்",
          "tt": "டாடர்",
          "ttt": "ttt",
          "tum": "தும்புகா",
          "tvl": "டுவாலு",
          "tw": "ட்வி",
          "twq": "டசவாக்",
          "ty": "டஹிதியான்",
          "tyv": "டுவினியன்",
          "tzm": "மத்திய அட்லஸ் தமசைட்",
          "udm": "உட்முர்ட்",
          "ug": "உய்குர்",
          "uga": "உகாரிட்க்",
          "uk": "உக்ரைனியன்",
          "umb": "அம்பொண்டு",
          "und": "அறியப்படாத மொழி",
          "ur": "உருது",
          "uz": "உஸ்பெக்",
          "vai": "வை",
          "ve": "வென்டா",
          "vec": "vec",
          "vep": "vep",
          "vi": "வியட்நாமிஸ்",
          "vls": "vls",
          "vmf": "vmf",
          "vo": "ஒலாபூக்",
          "vot": "வோட்க்",
          "vro": "vro",
          "vun": "வுன்ஜோ",
          "wa": "ஒவாலூன்",
          "wae": "wae",
          "wal": "வாலாமோ",
          "war": "வாரே",
          "was": "வாஷோ",
          "wo": "ஒலூஃப்",
          "wuu": "wuu",
          "xal": "கல்மிக்",
          "xh": "ஹோசா",
          "xmf": "xmf",
          "xog": "சோகா",
          "yao": "யாவ்",
          "yap": "யாபேசி",
          "yav": "yav",
          "ybb": "ybb",
          "yi": "இத்திஷ்",
          "yo": "யோருபா",
          "yrl": "yrl",
          "yue": "காண்டோனீஸ்",
          "za": "ஜுவாங்",
          "zap": "ஜாபோடெக்",
          "zbl": "ப்லிஸ்ஸிம்பால்ஸ்",
          "zea": "zea",
          "zen": "ஜெனகா",
          "zgh": "ஸ்டாண்டர்ட் மொராக்கன் தமாசைட்",
          "zh": "சீனம்",
          "zh-Hans": "எளிதாக்கப்பட்ட சீனம்",
          "zh-Hant": "பாரம்பரிய சீனம்",
          "zu": "ஜுலு",
          "zun": "ஜூனி",
          "zxx": "மொழி உள்ளடக்கம் ஏதுமில்லை",
          "zza": "ஜாஜா"
        }
      }
    }
  }
}
