{
  "main": {
    "kea": {
      "identity": {
        "version": {
          "_cldrVersion": "26",
          "_number": "$Revision: 10739 $"
        },
        "generation": {
          "_date": "$Date: 2014-08-07 12:54:13 -0500 (Thu, 07 Aug 2014) $"
        },
        "language": "kea"
      },
      "dates": {
        "calendars": {
          "islamic-rgsa": {
            "months": {
              "format": {
                "abbreviated": {
                  "1": "Muh.",
                  "2": "Saf.",
                  "3": "Rab. I",
                  "4": "Rab. II",
                  "5": "Jum. I",
                  "6": "Jum. II",
                  "7": "Raj.",
                  "8": "Sha.",
                  "9": "Ram.",
                  "10": "Shaw.",
                  "11": "Dhuʻl-Q.",
                  "12": "Dhuʻl-H."
                },
                "narrow": {
                  "1": "1",
                  "2": "2",
                  "3": "3",
                  "4": "4",
                  "5": "5",
                  "6": "6",
                  "7": "7",
                  "8": "8",
                  "9": "9",
                  "10": "10",
                  "11": "11",
                  "12": "12"
                },
                "wide": {
                  "1": "Muharram",
                  "2": "Safar",
                  "3": "Rabiʻ I",
                  "4": "Rabiʻ II",
                  "5": "Jumada I",
                  "6": "Jumada II",
                  "7": "Rajab",
                  "8": "Shaʻban",
                  "9": "Ramadan",
                  "10": "Shawwal",
                  "11": "Dhuʻl-Qiʻdah",
                  "12": "Dhuʻl-Hijjah"
                }
              },
              "stand-alone": {
                "abbreviated": {
                  "1": "Muh.",
                  "2": "Saf.",
                  "3": "Rab. I",
                  "4": "Rab. II",
                  "5": "Jum. I",
                  "6": "Jum. II",
                  "7": "Raj.",
                  "8": "Sha.",
                  "9": "Ram.",
                  "10": "Shaw.",
                  "11": "Dhuʻl-Q.",
                  "12": "Dhuʻl-H."
                },
                "narrow": {
                  "1": "1",
                  "2": "2",
                  "3": "3",
                  "4": "4",
                  "5": "5",
                  "6": "6",
                  "7": "7",
                  "8": "8",
                  "9": "9",
                  "10": "10",
                  "11": "11",
                  "12": "12"
                },
                "wide": {
                  "1": "Muharram",
                  "2": "Safar",
                  "3": "Rabiʻ I",
                  "4": "Rabiʻ II",
                  "5": "Jumada I",
                  "6": "Jumada II",
                  "7": "Rajab",
                  "8": "Shaʻban",
                  "9": "Ramadan",
                  "10": "Shawwal",
                  "11": "Dhuʻl-Qiʻdah",
                  "12": "Dhuʻl-Hijjah"
                }
              }
            },
            "days": {
              "format": {
                "abbreviated": {
                  "sun": "dum",
                  "mon": "sig",
                  "tue": "ter",
                  "wed": "kua",
                  "thu": "kin",
                  "fri": "ses",
                  "sat": "sab"
                },
                "narrow": {
                  "sun": "D",
                  "mon": "S",
                  "tue": "T",
                  "wed": "K",
                  "thu": "K",
                  "fri": "S",
                  "sat": "S"
                },
                "short": {
                  "sun": "du",
                  "mon": "si",
                  "tue": "te",
                  "wed": "ku",
                  "thu": "ki",
                  "fri": "se",
                  "sat": "sa"
                },
                "wide": {
                  "sun": "dumingu",
                  "mon": "sigunda-fera",
                  "tue": "tersa-fera",
                  "wed": "kuarta-fera",
                  "thu": "kinta-fera",
                  "fri": "sesta-fera",
                  "sat": "sabadu"
                }
              },
              "stand-alone": {
                "abbreviated": {
                  "sun": "dum",
                  "mon": "sig",
                  "tue": "ter",
                  "wed": "kua",
                  "thu": "kin",
                  "fri": "ses",
                  "sat": "sab"
                },
                "narrow": {
                  "sun": "d",
                  "mon": "s",
                  "tue": "t",
                  "wed": "k",
                  "thu": "k",
                  "fri": "s",
                  "sat": "s"
                },
                "short": {
                  "sun": "du",
                  "mon": "si",
                  "tue": "te",
                  "wed": "ku",
                  "thu": "ki",
                  "fri": "se",
                  "sat": "sa"
                },
                "wide": {
                  "sun": "dumingu",
                  "mon": "sigunda-fera",
                  "tue": "tersa-fera",
                  "wed": "kuarta-fera",
                  "thu": "kinta-fera",
                  "fri": "sesta-fera",
                  "sat": "sabadu"
                }
              }
            },
            "quarters": {
              "format": {
                "abbreviated": {
                  "1": "T1",
                  "2": "T2",
                  "3": "T3",
                  "4": "T4"
                },
                "narrow": {
                  "1": "1",
                  "2": "2",
                  "3": "3",
                  "4": "4"
                },
                "wide": {
                  "1": "1º trimestri",
                  "2": "2º trimestri",
                  "3": "3º trimestri",
                  "4": "4º trimestri"
                }
              },
              "stand-alone": {
                "abbreviated": {
                  "1": "T1",
                  "2": "T2",
                  "3": "T3",
                  "4": "T4"
                },
                "narrow": {
                  "1": "1",
                  "2": "2",
                  "3": "3",
                  "4": "4"
                },
                "wide": {
                  "1": "1º trimestri",
                  "2": "2º trimestri",
                  "3": "3º trimestri",
                  "4": "4º trimestri"
                }
              }
            },
            "dayPeriods": {
              "format": {
                "abbreviated": {
                  "am": "am",
                  "noon": "mei-dia",
                  "pm": "pm"
                },
                "narrow": {
                  "am": "a",
                  "noon": "m",
                  "pm": "p"
                },
                "wide": {
                  "am": "am",
                  "noon": "mei-dia",
                  "pm": "pm"
                }
              },
              "stand-alone": {
                "abbreviated": {
                  "am": "am",
                  "noon": "mei-dia",
                  "pm": "pm"
                },
                "narrow": {
                  "am": "a",
                  "noon": "m",
                  "pm": "p"
                },
                "wide": {
                  "am": "am",
                  "noon": "mei-dia",
                  "pm": "pm"
                }
              }
            },
            "eras": {
              "eraNames": {
                "0": "AH"
              },
              "eraAbbr": {
                "0": "AH"
              },
              "eraNarrow": {
                "0": "AH"
              }
            },
            "dateFormats": {
              "full": "EEEE, d 'di' MMMM 'di' y G",
              "long": "d 'di' MMMM 'di' y G",
              "medium": "d MMM y G",
              "short": "d/M/y GGGGG"
            },
            "timeFormats": {
              "full": "HH:mm:ss zzzz",
              "long": "HH:mm:ss z",
              "medium": "HH:mm:ss",
              "short": "HH:mm"
            },
            "dateTimeFormats": {
              "full": "{1}, {0}",
              "long": "{1}, {0}",
              "medium": "{1}, {0}",
              "short": "{1}, {0}",
              "availableFormats": {
                "E": "ccc",
                "EHm": "E HH:mm",
                "EHms": "E HH:mm:ss",
                "Ed": "E, d",
                "Ehm": "E h:mm a",
                "Ehms": "E h:mm:ss a",
                "Gy": "y G",
                "GyMMM": "MMM y G",
                "GyMMMEd": "E, d MMM y G",
                "GyMMMd": "d MMM y G",
                "H": "HH",
                "HHmm": "HH:mm",
                "HHmmss": "HH:mm:ss",
                "Hm": "HH:mm",
                "Hms": "HH:mm:ss",
                "M": "L",
                "MEd": "E, dd/MM",
                "MMM": "LLL",
                "MMMEd": "E, d MMM",
                "MMMMEd": "E, d 'di' MMMM",
                "MMMMd": "d 'di' MMMM",
                "MMMd": "d MMM",
                "MMdd": "dd/MM",
                "Md": "dd/MM",
                "d": "d",
                "h": "h a",
                "hm": "h:mm a",
                "hms": "h:mm:ss a",
                "mmss": "mm:ss",
                "ms": "mm:ss",
                "y": "y",
                "yM": "MM/y",
                "yMEd": "E, dd/MM/y",
                "yMM": "MM/y",
                "yMMM": "MMM y",
                "yMMMEd": "E, d MMM y",
                "yMMMM": "MMMM 'di' y",
                "yMMMd": "d MMM y",
                "yMd": "dd/MM/y",
                "yQQQ": "QQQ y",
                "yQQQQ": "QQQQ 'di' y",
                "yyyy": "y G",
                "yyyyM": "MM/y GGGGG",
                "yyyyMEd": "E, dd/MM/y GGGGG",
                "yyyyMMM": "MMM y G",
                "yyyyMMMEd": "E, d MMM y G",
                "yyyyMMMd": "d MMM y G",
                "yyyyMd": "dd/MM/y GGGGG",
                "yyyyQQQ": "QQQ y G",
                "yyyyQQQQ": "QQQQ 'di' y G"
              },
              "appendItems": {
                "Day": "{0} ({2}: {1})",
                "Day-Of-Week": "{0} {1}",
                "Era": "{1} {0}",
                "Hour": "{0} ({2}: {1})",
                "Minute": "{0} ({2}: {1})",
                "Month": "{0} ({2}: {1})",
                "Quarter": "{0} ({2}: {1})",
                "Second": "{0} ({2}: {1})",
                "Timezone": "{0} {1}",
                "Week": "{0} ({2}: {1})",
                "Year": "{1} {0}"
              },
              "intervalFormats": {
                "intervalFormatFallback": "{0} – {1}",
                "H": {
                  "H": "HH–HH"
                },
                "Hm": {
                  "H": "HH:mm–HH:mm",
                  "m": "HH:mm–HH:mm"
                },
                "Hmv": {
                  "H": "HH:mm–HH:mm v",
                  "m": "HH:mm–HH:mm v"
                },
                "Hv": {
                  "H": "HH–HH v"
                },
                "M": {
                  "M": "M – M"
                },
                "MEd": {
                  "M": "E, dd/MM – E, dd/MM",
                  "d": "E, dd/MM – E, dd/MM"
                },
                "MMM": {
                  "M": "MMM – MMM"
                },
                "MMMEd": {
                  "M": "E, d MMM – E, d MMM",
                  "d": "E, d MMM – E, d MMM"
                },
                "MMMd": {
                  "M": "d MMM – d MMM",
                  "d": "d – d MMM"
                },
                "Md": {
                  "M": "dd/MM – dd/MM",
                  "d": "dd/MM – dd/MM"
                },
                "d": {
                  "d": "d – d"
                },
                "h": {
                  "a": "h a – h a",
                  "h": "h–h a"
                },
                "hm": {
                  "a": "h:mm a – h:mm a",
                  "h": "h:mm–h:mm a",
                  "m": "h:mm–h:mm a"
                },
                "hmv": {
                  "a": "h:mm a – h:mm a v",
                  "h": "h:mm–h:mm a v",
                  "m": "h:mm–h:mm a v"
                },
                "hv": {
                  "a": "h a – h a v",
                  "h": "h–h a v"
                },
                "y": {
                  "y": "y – y"
                },
                "yM": {
                  "M": "MM/y – MM/y",
                  "y": "MM/y – MM/y"
                },
                "yMEd": {
                  "M": "E, dd/MM/y – E, dd/MM/y",
                  "d": "E, dd/MM/y – E, dd/MM/y",
                  "y": "E, dd/MM/y – E, dd/MM/y"
                },
                "yMMM": {
                  "M": "MMM – MMM y",
                  "y": "MMM y – MMM y"
                },
                "yMMMEd": {
                  "M": "E, d MMM – E, d MMM y",
                  "d": "E, d MMM – E, d MMM y",
                  "y": "E, d MMM y – E, d MMM y"
                },
                "yMMMM": {
                  "M": "MMMM – MMMM 'di' y G",
                  "y": "MMMM 'di' y – MMMM 'di' y G"
                },
                "yMMMd": {
                  "M": "d MMM – d MMM y",
                  "d": "d – d MMM y",
                  "y": "d MMM y – d MMM y"
                },
                "yMd": {
                  "M": "dd/MM/y – dd/MM/y",
                  "d": "dd/MM/y – dd/MM/y",
                  "y": "dd/MM/y – dd/MM/y"
                }
              }
            }
          }
        }
      }
    }
  }
}
