{
  "main": {
    "swc-CD": {
      "identity": {
        "version": {
          "_cldrVersion": "26",
          "_number": "$Revision: 10669 $"
        },
        "generation": {
          "_date": "$Date: 2014-07-23 16:10:33 -0500 (Wed, 23 Jul 2014) $"
        },
        "language": "root",
        "territory": "CD"
      },
      "dates": {
        "calendars": {
          "buddhist": {
            "months": {
              "format": {
                "abbreviated": {
                  "1": "mkw",
                  "2": "mpi",
                  "3": "mtu",
                  "4": "min",
                  "5": "mtn",
                  "6": "mst",
                  "7": "msb",
                  "8": "mun",
                  "9": "mts",
                  "10": "mku",
                  "11": "mkm",
                  "12": "mkb"
                },
                "narrow": {
                  "1": "k",
                  "2": "p",
                  "3": "t",
                  "4": "i",
                  "5": "t",
                  "6": "s",
                  "7": "s",
                  "8": "m",
                  "9": "t",
                  "10": "k",
                  "11": "m",
                  "12": "m"
                },
                "wide": {
                  "1": "mwezi ya kwanja",
                  "2": "mwezi ya pili",
                  "3": "mwezi ya tatu",
                  "4": "mwezi ya ine",
                  "5": "mwezi ya tanu",
                  "6": "mwezi ya sita",
                  "7": "mwezi ya saba",
                  "8": "mwezi ya munane",
                  "9": "mwezi ya tisa",
                  "10": "mwezi ya kumi",
                  "11": "mwezi ya kumi na moya",
                  "12": "mwezi ya kumi ya mbili"
                }
              },
              "stand-alone": {
                "abbreviated": {
                  "1": "mkw",
                  "2": "mpi",
                  "3": "mtu",
                  "4": "min",
                  "5": "mtn",
                  "6": "mst",
                  "7": "msb",
                  "8": "mun",
                  "9": "mts",
                  "10": "mku",
                  "11": "mkm",
                  "12": "mkb"
                },
                "narrow": {
                  "1": "k",
                  "2": "p",
                  "3": "t",
                  "4": "i",
                  "5": "t",
                  "6": "s",
                  "7": "s",
                  "8": "m",
                  "9": "t",
                  "10": "k",
                  "11": "m",
                  "12": "m"
                },
                "wide": {
                  "1": "mwezi ya kwanja",
                  "2": "mwezi ya pili",
                  "3": "mwezi ya tatu",
                  "4": "mwezi ya ine",
                  "5": "mwezi ya tanu",
                  "6": "mwezi ya sita",
                  "7": "mwezi ya saba",
                  "8": "mwezi ya munane",
                  "9": "mwezi ya tisa",
                  "10": "mwezi ya kumi",
                  "11": "mwezi ya kumi na moya",
                  "12": "mwezi ya kumi ya mbili"
                }
              }
            },
            "days": {
              "format": {
                "abbreviated": {
                  "sun": "yen",
                  "mon": "kwa",
                  "tue": "pil",
                  "wed": "tat",
                  "thu": "ine",
                  "fri": "tan",
                  "sat": "sit"
                },
                "narrow": {
                  "sun": "y",
                  "mon": "k",
                  "tue": "p",
                  "wed": "t",
                  "thu": "i",
                  "fri": "t",
                  "sat": "s"
                },
                "short": {
                  "sun": "yen",
                  "mon": "kwa",
                  "tue": "pil",
                  "wed": "tat",
                  "thu": "ine",
                  "fri": "tan",
                  "sat": "sit"
                },
                "wide": {
                  "sun": "siku ya yenga",
                  "mon": "siku ya kwanza",
                  "tue": "siku ya pili",
                  "wed": "siku ya tatu",
                  "thu": "siku ya ine",
                  "fri": "siku ya tanu",
                  "sat": "siku ya sita"
                }
              },
              "stand-alone": {
                "abbreviated": {
                  "sun": "yen",
                  "mon": "kwa",
                  "tue": "pil",
                  "wed": "tat",
                  "thu": "ine",
                  "fri": "tan",
                  "sat": "sit"
                },
                "narrow": {
                  "sun": "y",
                  "mon": "k",
                  "tue": "p",
                  "wed": "t",
                  "thu": "i",
                  "fri": "t",
                  "sat": "s"
                },
                "short": {
                  "sun": "yen",
                  "mon": "kwa",
                  "tue": "pil",
                  "wed": "tat",
                  "thu": "ine",
                  "fri": "tan",
                  "sat": "sit"
                },
                "wide": {
                  "sun": "siku ya yenga",
                  "mon": "siku ya kwanza",
                  "tue": "siku ya pili",
                  "wed": "siku ya tatu",
                  "thu": "siku ya ine",
                  "fri": "siku ya tanu",
                  "sat": "siku ya sita"
                }
              }
            },
            "quarters": {
              "format": {
                "abbreviated": {
                  "1": "R1",
                  "2": "R2",
                  "3": "R3",
                  "4": "R4"
                },
                "narrow": {
                  "1": "1",
                  "2": "2",
                  "3": "3",
                  "4": "4"
                },
                "wide": {
                  "1": "Robo 1",
                  "2": "Robo 2",
                  "3": "Robo 3",
                  "4": "Robo 4"
                }
              },
              "stand-alone": {
                "abbreviated": {
                  "1": "R1",
                  "2": "R2",
                  "3": "R3",
                  "4": "R4"
                },
                "narrow": {
                  "1": "1",
                  "2": "2",
                  "3": "3",
                  "4": "4"
                },
                "wide": {
                  "1": "Robo 1",
                  "2": "Robo 2",
                  "3": "Robo 3",
                  "4": "Robo 4"
                }
              }
            },
            "dayPeriods": {
              "format": {
                "abbreviated": {
                  "am": "ya asubuyi",
                  "noon": "noon",
                  "pm": "ya muchana"
                },
                "narrow": {
                  "am": "a",
                  "noon": "n",
                  "pm": "p"
                },
                "wide": {
                  "am": "ya asubuyi",
                  "noon": "noon",
                  "pm": "ya muchana"
                }
              },
              "stand-alone": {
                "abbreviated": {
                  "am": "ya asubuyi",
                  "noon": "noon",
                  "pm": "ya muchana"
                },
                "narrow": {
                  "am": "a",
                  "noon": "n",
                  "pm": "p"
                },
                "wide": {
                  "am": "ya asubuyi",
                  "noon": "noon",
                  "pm": "ya muchana"
                }
              }
            },
            "eras": {
              "eraNames": {
                "0": "BE"
              },
              "eraAbbr": {
                "0": "BE"
              },
              "eraNarrow": {
                "0": "BE"
              }
            },
            "dateFormats": {
              "full": "EEEE d MMMM y G",
              "long": "d MMMM y G",
              "medium": "d MMM y G",
              "short": "d/M/y GGGGG"
            },
            "timeFormats": {
              "full": "HH:mm:ss zzzz",
              "long": "HH:mm:ss z",
              "medium": "HH:mm:ss",
              "short": "HH:mm"
            },
            "dateTimeFormats": {
              "full": "{1} {0}",
              "long": "{1} {0}",
              "medium": "{1} {0}",
              "short": "{1} {0}",
              "availableFormats": {
                "E": "ccc",
                "EHm": "E HH:mm",
                "EHms": "E HH:mm:ss",
                "Ed": "E d",
                "Ehm": "E h:mm a",
                "Ehms": "E h:mm:ss a",
                "Gy": "G y",
                "GyMMM": "G y MMM",
                "GyMMMEd": "G y MMM d, E",
                "GyMMMd": "G y MMM d",
                "H": "HH",
                "Hm": "HH:mm",
                "Hms": "HH:mm:ss",
                "M": "L",
                "MEd": "E d/M",
                "MMM": "LLL",
                "MMMEd": "E d MMM",
                "MMMd": "d MMM",
                "Md": "d/M",
                "d": "d",
                "h": "h a",
                "hm": "h:mm a",
                "hms": "h:mm:ss a",
                "ms": "m:ss",
                "y": "y",
                "yM": "M/y",
                "yMEd": "E d/M/y",
                "yMMM": "MMM y",
                "yMMMEd": "E d MMM y",
                "yMMMd": "d MMM y",
                "yMd": "d/M/y",
                "yQQQ": "QQQ y",
                "yQQQQ": "QQQQ y",
                "yyyy": "G y",
                "yyyyM": "GGGGG y-MM",
                "yyyyMEd": "GGGGG y-MM-dd, E",
                "yyyyMMM": "G y MMM",
                "yyyyMMMEd": "G y MMM d, E",
                "yyyyMMMd": "G y MMM d",
                "yyyyMd": "GGGGG y-MM-dd",
                "yyyyQQQ": "G y QQQ",
                "yyyyQQQQ": "G y QQQQ"
              },
              "appendItems": {
                "Day": "{0} ({2}: {1})",
                "Day-Of-Week": "{0} {1}",
                "Era": "{1} {0}",
                "Hour": "{0} ({2}: {1})",
                "Minute": "{0} ({2}: {1})",
                "Month": "{0} ({2}: {1})",
                "Quarter": "{0} ({2}: {1})",
                "Second": "{0} ({2}: {1})",
                "Timezone": "{0} {1}",
                "Week": "{0} ({2}: {1})",
                "Year": "{1} {0}"
              },
              "intervalFormats": {
                "intervalFormatFallback": "{0} – {1}",
                "H": {
                  "H": "HH–HH"
                },
                "Hm": {
                  "H": "HH:mm–HH:mm",
                  "m": "HH:mm–HH:mm"
                },
                "Hmv": {
                  "H": "HH:mm–HH:mm v",
                  "m": "HH:mm–HH:mm v"
                },
                "Hv": {
                  "H": "HH–HH v"
                },
                "M": {
                  "M": "MM–MM"
                },
                "MEd": {
                  "M": "MM-dd, E – MM-dd, E",
                  "d": "MM-dd, E – MM-dd, E"
                },
                "MMM": {
                  "M": "LLL–LLL"
                },
                "MMMEd": {
                  "M": "MMM d, E – MMM d, E",
                  "d": "MMM d, E – MMM d, E"
                },
                "MMMd": {
                  "M": "MMM d – MMM d",
                  "d": "MMM d–d"
                },
                "Md": {
                  "M": "MM-dd – MM-dd",
                  "d": "MM-dd – MM-dd"
                },
                "d": {
                  "d": "d–d"
                },
                "h": {
                  "a": "h a – h a",
                  "h": "h–h a"
                },
                "hm": {
                  "a": "h:mm a – h:mm a",
                  "h": "h:mm–h:mm a",
                  "m": "h:mm–h:mm a"
                },
                "hmv": {
                  "a": "h:mm a – h:mm a v",
                  "h": "h:mm–h:mm a v",
                  "m": "h:mm–h:mm a v"
                },
                "hv": {
                  "a": "h a – h a v",
                  "h": "h–h a v"
                },
                "y": {
                  "y": "G y–y"
                },
                "yM": {
                  "M": "GGGGG y-MM – y-MM",
                  "y": "GGGGG y-MM – y-MM"
                },
                "yMEd": {
                  "M": "GGGGG y-MM-dd, E – y-MM-dd, E",
                  "d": "GGGGG y-MM-dd, E – y-MM-dd, E",
                  "y": "GGGGG y-MM-dd, E – y-MM-dd, E"
                },
                "yMMM": {
                  "M": "G y MMM–MMM",
                  "y": "G y MMM – y MMM"
                },
                "yMMMEd": {
                  "M": "G y MMM d, E – MMM d, E",
                  "d": "G y MMM d, E – MMM d, E",
                  "y": "G y MMM d, E – y MMM d, E"
                },
                "yMMMM": {
                  "M": "G y MMMM–MMMM",
                  "y": "G y MMMM – y MMMM"
                },
                "yMMMd": {
                  "M": "G y MMM d – MMM d",
                  "d": "G y MMM d–d",
                  "y": "G y MMM d – y MMM d"
                },
                "yMd": {
                  "M": "GGGGG y-MM-dd – y-MM-dd",
                  "d": "GGGGG y-MM-dd – y-MM-dd",
                  "y": "GGGGG y-MM-dd – y-MM-dd"
                }
              }
            }
          }
        }
      }
    }
  }
}
