{
  "main": {
    "et": {
      "identity": {
        "version": {
          "_cldrVersion": "26",
          "_number": "$Revision: 10809 $"
        },
        "generation": {
          "_date": "$Date: 2014-08-14 15:10:07 -0500 (Thu, 14 Aug 2014) $"
        },
        "language": "et"
      },
      "localeDisplayNames": {
        "languages": {
          "aa": "afari",
          "ab": "abhaasi",
          "ace": "atšehi",
          "ach": "akoli",
          "ada": "adangme",
          "ady": "adõgee",
          "ae": "avesta",
          "aeb": "aeb",
          "af": "afrikaani",
          "afh": "afrihili",
          "agq": "aghemi",
          "ain": "ainu",
          "ak": "akani",
          "akk": "akadi",
          "akz": "akz",
          "ale": "aleuudi",
          "aln": "aln",
          "alt": "altai",
          "am": "amhari",
          "an": "aragoni",
          "ang": "vanainglise",
          "anp": "angika",
          "ar": "araabia",
          "ar-001": "araabia (tänapäevane)",
          "arc": "aramea",
          "arn": "araukaani",
          "aro": "aro",
          "arp": "arapaho",
          "arq": "arq",
          "arw": "aravaki",
          "ary": "ary",
          "arz": "arz",
          "as": "assami",
          "asa": "asa",
          "ase": "ase",
          "ast": "astuuria",
          "av": "avaari",
          "avk": "avk",
          "awa": "avadhi",
          "ay": "aimara",
          "az": "aserbaidžaani",
          "az-alt-short": "aseri",
          "azb": "azb",
          "ba": "baškiiri",
          "bal": "belutši",
          "ban": "bali",
          "bar": "bar",
          "bas": "basa",
          "bax": "bamuni",
          "bbc": "bbc",
          "bbj": "ghomala",
          "be": "valgevene",
          "bej": "bedža",
          "bem": "bemba",
          "bew": "bew",
          "bez": "bena",
          "bfd": "bafuti",
          "bfq": "bfq",
          "bg": "bulgaaria",
          "bho": "bhodžpuri",
          "bi": "bislama",
          "bik": "bikoli",
          "bin": "edo",
          "bjn": "bjn",
          "bkm": "itaŋikomi",
          "bla": "siksika",
          "bm": "bambara",
          "bn": "bengali",
          "bo": "tiibeti",
          "bpy": "bpy",
          "bqi": "bqi",
          "br": "bretooni",
          "bra": "bradži",
          "brh": "brh",
          "brx": "bodo",
          "bs": "bosnia",
          "bss": "akoose",
          "bua": "burjaadi",
          "bug": "bugi",
          "bum": "bulu",
          "byn": "bilini",
          "byv": "medumba",
          "ca": "katalaani",
          "cad": "kado",
          "car": "kariibi",
          "cay": "cayuga",
          "cch": "atsami",
          "ce": "tšetšeeni",
          "ceb": "sebu",
          "cgg": "chiga",
          "ch": "tšamorro",
          "chb": "tšibtša",
          "chg": "tšagatai",
          "chk": "tšuugi",
          "chm": "mari",
          "chn": "tšinuki žargoon",
          "cho": "tšokto",
          "chp": "tšipevai",
          "chr": "tšerokii",
          "chy": "šaieeni",
          "ckb": "sorani kurdi",
          "co": "korsika",
          "cop": "kopti",
          "cps": "cps",
          "cr": "krii",
          "crh": "krimmitatari",
          "cs": "tšehhi",
          "csb": "kašuubi",
          "cu": "kirikuslaavi",
          "cv": "tšuvaši",
          "cy": "kõmri",
          "da": "taani",
          "dak": "siuu",
          "dar": "dargi",
          "dav": "taita",
          "de": "saksa",
          "de-AT": "de_AT",
          "de-CH": "saksa (kõrgsaksa)",
          "del": "delavari",
          "den": "sleivi",
          "dgr": "dogribi",
          "din": "dinka",
          "dje": "zarma",
          "doi": "dogri",
          "dsb": "alamsorbi",
          "dtp": "dtp",
          "dua": "duala",
          "dum": "keskhollandi",
          "dv": "maldiivi",
          "dyo": "jola-fonyi",
          "dyu": "djula",
          "dz": "dzongkha",
          "dzg": "dazaga",
          "ebu": "embu",
          "ee": "eve",
          "efi": "efiki",
          "egl": "egl",
          "egy": "muinasegiptuse",
          "eka": "ekadžuki",
          "el": "kreeka",
          "elx": "eelami",
          "en": "inglise",
          "en-AU": "en_AU",
          "en-CA": "en_CA",
          "en-GB": "inglise (Briti)",
          "en-GB-alt-short": "en_GB",
          "en-US": "inglise (USA)",
          "en-US-alt-short": "inglise (USA)",
          "enm": "keskinglise",
          "eo": "esperanto",
          "es": "hispaania",
          "es-419": "es_419",
          "es-ES": "hispaania (Euroopa)",
          "es-MX": "es_MX",
          "esu": "esu",
          "et": "eesti",
          "eu": "baski",
          "ewo": "evondo",
          "ext": "ext",
          "fa": "pärsia",
          "fan": "fangi",
          "fat": "fanti",
          "ff": "fulbe",
          "fi": "soome",
          "fil": "filipino",
          "fit": "fit",
          "fj": "fidži",
          "fo": "fääri",
          "fon": "foni",
          "fr": "prantsuse",
          "fr-CA": "fr_CA",
          "fr-CH": "fr_CH",
          "frc": "frc",
          "frm": "keskprantsuse",
          "fro": "vanaprantsuse",
          "frp": "frp",
          "frr": "põhjafriisi",
          "frs": "idafriisi",
          "fur": "friuuli",
          "fy": "läänefriisi",
          "ga": "iiri",
          "gaa": "gaa",
          "gag": "gagauusi",
          "gan": "gan",
          "gay": "gajo",
          "gba": "gbaja",
          "gbz": "gbz",
          "gd": "gaeli",
          "gez": "etioopia",
          "gil": "kiribati",
          "gl": "galeegi",
          "glk": "glk",
          "gmh": "keskülemsaksa",
          "gn": "guaranii",
          "goh": "vanaülemsaksa",
          "gom": "gom",
          "gon": "gondi",
          "gor": "gorontalo",
          "got": "gooti",
          "grb": "grebo",
          "grc": "vanakreeka",
          "gsw": "šveitsisaksa",
          "gu": "gudžarati",
          "guc": "guc",
          "gur": "gur",
          "guz": "gusii",
          "gv": "mänksi",
          "gwi": "gvitšini",
          "ha": "hausa",
          "hai": "haida",
          "hak": "hak",
          "haw": "havai",
          "he": "heebrea",
          "hi": "hindi",
          "hif": "hif",
          "hil": "hiligainoni",
          "hit": "heti",
          "hmn": "hmongi",
          "ho": "motu",
          "hr": "horvaadi",
          "hsb": "ülemsorbi",
          "hsn": "hsn",
          "ht": "haiti",
          "hu": "ungari",
          "hup": "hupa",
          "hy": "armeenia",
          "hz": "herero",
          "ia": "interlingua",
          "iba": "ibani",
          "ibb": "ibibio",
          "id": "indoneesia",
          "ie": "interlingue",
          "ig": "ibo",
          "ii": "sichuani jii",
          "ik": "injupiaki",
          "ilo": "iloko",
          "inh": "inguši",
          "io": "ido",
          "is": "islandi",
          "it": "itaalia",
          "iu": "inuktituti",
          "izh": "izh",
          "ja": "jaapani",
          "jam": "jam",
          "jbo": "lojbani",
          "jgo": "ngomba",
          "jmc": "machame",
          "jpr": "juudipärsia",
          "jrb": "juudiaraabia",
          "jut": "jut",
          "jv": "jaava",
          "ka": "gruusia",
          "kaa": "karakalpaki",
          "kab": "kabiili",
          "kac": "katšini",
          "kaj": "jju",
          "kam": "kamba",
          "kaw": "kaavi",
          "kbd": "kabardi-tšerkessi",
          "kbl": "kanembu",
          "kcg": "tyapi",
          "kde": "makonde",
          "kea": "kabuverdianu",
          "ken": "ken",
          "kfo": "koro",
          "kg": "kongo",
          "kgp": "kgp",
          "kha": "khasi",
          "kho": "saki",
          "khq": "koyra chiini",
          "khw": "khw",
          "ki": "kikuju",
          "kiu": "kiu",
          "kj": "ambo",
          "kk": "kasahhi",
          "kkj": "kako",
          "kl": "grööni",
          "kln": "kaljenjin",
          "km": "khmeeri",
          "kmb": "mbundu",
          "kn": "kannada",
          "ko": "korea",
          "koi": "permikomi",
          "kok": "konkani",
          "kos": "kosrae",
          "kpe": "kpelle",
          "kr": "kanuri",
          "krc": "karatšai-balkaari",
          "kri": "kri",
          "krj": "krj",
          "krl": "karjala",
          "kru": "oraoni",
          "ks": "kašmiiri",
          "ksb": "shambala",
          "ksf": "bafia",
          "ksh": "cologniani",
          "ku": "kurdi",
          "kum": "kumõki",
          "kut": "kutenai",
          "kv": "komi",
          "kw": "korni",
          "ky": "kirgiisi",
          "la": "ladina",
          "lad": "ladiino",
          "lag": "langi",
          "lah": "lahnda",
          "lam": "lamba",
          "lb": "letseburgi",
          "lez": "lesgi",
          "lfn": "lfn",
          "lg": "ganda",
          "li": "limburgi",
          "lij": "lij",
          "liv": "liv",
          "lkt": "lakota",
          "lmo": "lmo",
          "ln": "lingala",
          "lo": "lao",
          "lol": "mongo",
          "loz": "lozi",
          "lt": "leedu",
          "ltg": "ltg",
          "lu": "luba",
          "lua": "luba-lulua",
          "lui": "luisenjo",
          "lun": "lunda",
          "luo": "luo",
          "lus": "lušei",
          "luy": "luyia",
          "lv": "läti",
          "lzh": "lzh",
          "lzz": "lzz",
          "mad": "madura",
          "maf": "mafa",
          "mag": "magali",
          "mai": "maithili",
          "mak": "makassari",
          "man": "malinke",
          "mas": "masai",
          "mde": "maba",
          "mdf": "mokša",
          "mdr": "mandari",
          "men": "mende",
          "mer": "meru",
          "mfe": "Mauritiuse kreoolkeel",
          "mg": "malagassi",
          "mga": "keskiiri",
          "mgh": "makhuwa-meetto",
          "mgo": "meta’",
          "mh": "maršalli",
          "mi": "maoori",
          "mic": "mikmaki",
          "min": "minangkabau",
          "mk": "makedoonia",
          "ml": "malajalami",
          "mn": "mongoli",
          "mnc": "mandžu",
          "mni": "manipuri",
          "moh": "mohoogi",
          "mos": "more",
          "mr": "marathi",
          "mrj": "mrj",
          "ms": "malai",
          "mt": "malta",
          "mua": "mundangi",
          "mul": "mitu keelt",
          "mus": "maskogi",
          "mwl": "miranda",
          "mwr": "marvari",
          "mwv": "mwv",
          "my": "birma",
          "mye": "myene",
          "myv": "ersa",
          "mzn": "mzn",
          "na": "nauru",
          "nan": "nan",
          "nap": "napoli",
          "naq": "nama",
          "nb": "norra bokmål",
          "nd": "põhjandebele",
          "nds": "alamsaksa",
          "ne": "nepali",
          "new": "nevari",
          "ng": "ndonga",
          "nia": "niasi",
          "niu": "niue",
          "njo": "njo",
          "nl": "hollandi",
          "nl-BE": "flaami",
          "nmg": "kwasio",
          "nn": "norra nynorsk",
          "nnh": "ngiembooni",
          "no": "norra",
          "nog": "nogai",
          "non": "vanapõhjala",
          "nov": "nov",
          "nqo": "nkoo",
          "nr": "lõunandebele",
          "nso": "pedi",
          "nus": "nueri",
          "nv": "navaho",
          "nwc": "vananevari",
          "ny": "njandža",
          "nym": "njamvesi",
          "nyn": "nkole",
          "nyo": "njoro",
          "nzi": "nzima",
          "oc": "provansi",
          "oj": "odžibvei",
          "om": "oromo",
          "or": "oria",
          "os": "osseedi",
          "osa": "oseidži",
          "ota": "osmanitürgi",
          "pa": "pandžabi",
          "pag": "pangasinani",
          "pal": "pahlavi",
          "pam": "pampanga",
          "pap": "papiamento",
          "pau": "belau",
          "pcd": "pcd",
          "pdc": "pdc",
          "pdt": "pdt",
          "peo": "vanapärsia",
          "pfl": "pfl",
          "phn": "foiniikia",
          "pi": "paali",
          "pl": "poola",
          "pms": "pms",
          "pnt": "pnt",
          "pon": "poonpei",
          "prg": "prg",
          "pro": "vanaprovansi",
          "ps": "puštu",
          "pt": "portugali",
          "pt-BR": "pt_BR",
          "pt-PT": "portugali (Euroopa)",
          "qu": "ketšua",
          "quc": "k’iche’",
          "qug": "qug",
          "raj": "radžastani",
          "rap": "rapanui",
          "rar": "rarotonga",
          "rgn": "rgn",
          "rif": "rif",
          "rm": "retoromaani",
          "rn": "rundi",
          "ro": "rumeenia",
          "ro-MD": "moldova",
          "rof": "rombo",
          "rom": "mustlaskeel",
          "root": "root",
          "rtm": "rtm",
          "ru": "vene",
          "rue": "rue",
          "rug": "rug",
          "rup": "aromuuni",
          "rw": "ruanda",
          "rwk": "rwa",
          "sa": "sanskriti",
          "sad": "sandave",
          "sah": "jakuudi",
          "sam": "samaaria aramea",
          "saq": "samburu",
          "sas": "sasaki",
          "sat": "santali",
          "saz": "saz",
          "sba": "ngembay",
          "sbp": "sangu",
          "sc": "sardiinia",
          "scn": "sitsiilia",
          "sco": "šoti",
          "sd": "sindhi",
          "sdc": "sdc",
          "se": "põhjasaami",
          "see": "seneca",
          "seh": "sena",
          "sei": "sei",
          "sel": "sölkupi",
          "ses": "koyraboro senni",
          "sg": "sango",
          "sga": "vanaiiri",
          "sgs": "sgs",
          "sh": "serbia-horvaadi",
          "shi": "tachelhiti",
          "shn": "šani",
          "shu": "Tšaadi araabia",
          "si": "singali",
          "sid": "sidamo",
          "sk": "slovaki",
          "sl": "sloveeni",
          "sli": "sli",
          "sly": "sly",
          "sm": "samoa",
          "sma": "lõunasaami",
          "smj": "lule saami",
          "smn": "inari saami",
          "sms": "koltasaami",
          "sn": "šona",
          "snk": "soninke",
          "so": "somaali",
          "sog": "sogdi",
          "sq": "albaania",
          "sr": "serbia",
          "srn": "sranani",
          "srr": "sereri",
          "ss": "svaasi",
          "ssy": "saho",
          "st": "lõunasotho",
          "stq": "stq",
          "su": "sunda",
          "suk": "sukuma",
          "sus": "susu",
          "sux": "sumeri",
          "sv": "rootsi",
          "sw": "suahiili",
          "swb": "komoori",
          "swc": "Kongo suahiili",
          "syc": "klassikaline süüria",
          "syr": "süüria",
          "szl": "szl",
          "ta": "tamili",
          "tcy": "tcy",
          "te": "telugu",
          "tem": "temne",
          "teo": "teso",
          "ter": "tereno",
          "tet": "tetumi",
          "tg": "tadžiki",
          "th": "tai",
          "ti": "tigrinja",
          "tig": "tigree",
          "tiv": "tivi",
          "tk": "türkmeeni",
          "tkl": "tokelau",
          "tkr": "tkr",
          "tl": "tagalogi",
          "tlh": "klingoni",
          "tli": "tlingiti",
          "tly": "tly",
          "tmh": "tamašeki",
          "tn": "tsvana",
          "to": "tonga",
          "tog": "tšitonga",
          "tpi": "uusmelaneesia",
          "tr": "türgi",
          "tru": "tru",
          "trv": "taroko",
          "ts": "tsonga",
          "tsd": "tsd",
          "tsi": "tšimši",
          "tt": "tatari",
          "ttt": "ttt",
          "tum": "tumbuka",
          "tvl": "tuvalu",
          "tw": "tvii",
          "twq": "taswaqi",
          "ty": "tahiti",
          "tyv": "tõva",
          "tzm": "Kesk-Maroko tamazighti",
          "udm": "udmurdi",
          "ug": "uiguuri",
          "uga": "ugariti",
          "uk": "ukraina",
          "umb": "umbundu",
          "und": "määramata",
          "ur": "urdu",
          "uz": "usbeki",
          "vai": "vai",
          "ve": "venda",
          "vec": "vec",
          "vep": "vep",
          "vi": "vietnami",
          "vls": "vls",
          "vmf": "vmf",
          "vo": "volapüki",
          "vot": "vadja",
          "vro": "vro",
          "vun": "vunjo",
          "wa": "vallooni",
          "wae": "walseri",
          "wal": "volamo",
          "war": "varai",
          "was": "vašo",
          "wo": "volofi",
          "wuu": "wuu",
          "xal": "kalmõki",
          "xh": "koosa",
          "xmf": "xmf",
          "xog": "soga",
          "yao": "jao",
          "yap": "japi",
          "yav": "yangbeni",
          "ybb": "yemba",
          "yi": "jidiši",
          "yo": "joruba",
          "yrl": "yrl",
          "yue": "kantoni",
          "za": "tšuangi",
          "zap": "sapoteegi",
          "zbl": "blissümbolid",
          "zea": "zea",
          "zen": "zenaga",
          "zgh": "tamasikti (Maroko)",
          "zh": "hiina",
          "zh-Hans": "hiina (lihtsustatud)",
          "zh-Hant": "hiina (traditsiooniline)",
          "zu": "suulu",
          "zun": "sunji",
          "zxx": "mittekeeleline",
          "zza": "zaza"
        }
      }
    }
  }
}
