{
  "main": {
    "et": {
      "identity": {
        "version": {
          "_cldrVersion": "26",
          "_number": "$Revision: 10809 $"
        },
        "generation": {
          "_date": "$Date: 2014-08-14 15:10:07 -0500 (Thu, 14 Aug 2014) $"
        },
        "language": "et"
      },
      "units": {
        "long": {
          "per": {
            "compoundUnitPattern": "{0} {1} kohta"
          },
          "acceleration-g-force": {
            "displayName": "maa gravitatsioon",
            "unitPattern-count-one": "{0} maa gravitatsiooni",
            "unitPattern-count-other": "{0} maa gravitatsiooni"
          },
          "acceleration-meter-per-second-squared": {
            "displayName": "meetrid sekundi ruudu kohta",
            "unitPattern-count-one": "{0} meeter sekundi ruudu kohta",
            "unitPattern-count-other": "{0} meetrit sekundi ruudu kohta"
          },
          "angle-arc-minute": {
            "displayName": "kaareminut",
            "unitPattern-count-one": "{0} kaareminut",
            "unitPattern-count-other": "{0} kaareminut"
          },
          "angle-arc-second": {
            "displayName": "kaaresekund",
            "unitPattern-count-one": "{0} kaaresekund",
            "unitPattern-count-other": "{0} kaaresekund"
          },
          "angle-degree": {
            "displayName": "kraadi",
            "unitPattern-count-one": "{0} kraad",
            "unitPattern-count-other": "{0} kraadi"
          },
          "angle-radian": {
            "displayName": "radiaanid",
            "unitPattern-count-one": "{0} radiaan",
            "unitPattern-count-other": "{0} radiaani"
          },
          "area-acre": {
            "displayName": "aakrid",
            "unitPattern-count-one": "{0} aaker",
            "unitPattern-count-other": "{0} aakrit"
          },
          "area-hectare": {
            "displayName": "hektarid",
            "unitPattern-count-one": "{0} hektar",
            "unitPattern-count-other": "{0} hektarit"
          },
          "area-square-centimeter": {
            "displayName": "ruutsentimeetrid",
            "unitPattern-count-one": "{0} ruutsentimeeter",
            "unitPattern-count-other": "{0} ruutsentimeetrit"
          },
          "area-square-foot": {
            "displayName": "ruutjalad",
            "unitPattern-count-one": "{0} ruutjalg",
            "unitPattern-count-other": "{0} ruutjalga"
          },
          "area-square-inch": {
            "displayName": "ruuttollid",
            "unitPattern-count-one": "{0} ruuttoll",
            "unitPattern-count-other": "{0} ruuttolli"
          },
          "area-square-kilometer": {
            "displayName": "ruutkilomeetrid",
            "unitPattern-count-one": "{0} ruutkilomeeter",
            "unitPattern-count-other": "{0} ruutkilomeetrit"
          },
          "area-square-meter": {
            "displayName": "ruutmeetrid",
            "unitPattern-count-one": "{0} ruutmeeter",
            "unitPattern-count-other": "{0} ruutmeetrit"
          },
          "area-square-mile": {
            "displayName": "ruutmiili",
            "unitPattern-count-one": "{0} ruutmiil",
            "unitPattern-count-other": "{0} ruutmiili"
          },
          "area-square-yard": {
            "displayName": "ruutjardid",
            "unitPattern-count-one": "{0} ruutjard",
            "unitPattern-count-other": "{0} ruutjardi"
          },
          "consumption-liter-per-kilometer": {
            "displayName": "liitreid kilomeetri kohta",
            "unitPattern-count-one": "{0} liiter kilomeetri kohta",
            "unitPattern-count-other": "{0} liitrit kilomeetri kohta"
          },
          "consumption-mile-per-gallon": {
            "displayName": "miili galloni kohta",
            "unitPattern-count-one": "{0} miil galloni kohta",
            "unitPattern-count-other": "{0} miili galloni kohta"
          },
          "digital-bit": {
            "displayName": "bitid",
            "unitPattern-count-one": "{0} bitt",
            "unitPattern-count-other": "{0} bitti"
          },
          "digital-byte": {
            "displayName": "baidid",
            "unitPattern-count-one": "{0} bait",
            "unitPattern-count-other": "{0} baiti"
          },
          "digital-gigabit": {
            "displayName": "gigabitid",
            "unitPattern-count-one": "{0} gigabitt",
            "unitPattern-count-other": "{0} gigabitti"
          },
          "digital-gigabyte": {
            "displayName": "gigabaidid",
            "unitPattern-count-one": "{0} gigabait",
            "unitPattern-count-other": "{0} gigabaiti"
          },
          "digital-kilobit": {
            "displayName": "kilobitid",
            "unitPattern-count-one": "{0} kilobitt",
            "unitPattern-count-other": "{0} kilobitti"
          },
          "digital-kilobyte": {
            "displayName": "kilobaidid",
            "unitPattern-count-one": "{0} kilobait",
            "unitPattern-count-other": "{0} kilobaiti"
          },
          "digital-megabit": {
            "displayName": "megabitid",
            "unitPattern-count-one": "{0} megabitt",
            "unitPattern-count-other": "{0} megabitti"
          },
          "digital-megabyte": {
            "displayName": "megabaidid",
            "unitPattern-count-one": "{0} megabait",
            "unitPattern-count-other": "{0} megabaiti"
          },
          "digital-terabit": {
            "displayName": "terabitid",
            "unitPattern-count-one": "{0} terabitt",
            "unitPattern-count-other": "{0} terabitti"
          },
          "digital-terabyte": {
            "displayName": "terabaidid",
            "unitPattern-count-one": "{0} terabait",
            "unitPattern-count-other": "{0} terabaiti"
          },
          "duration-day": {
            "displayName": "ööpäeva",
            "unitPattern-count-one": "{0} ööpäev",
            "unitPattern-count-other": "{0} ööpäeva"
          },
          "duration-hour": {
            "displayName": "tundi",
            "unitPattern-count-one": "{0} tund",
            "unitPattern-count-other": "{0} tundi",
            "perUnitPattern": "{0}/h"
          },
          "duration-microsecond": {
            "displayName": "mikrosekundid",
            "unitPattern-count-one": "{0} mikrosekund",
            "unitPattern-count-other": "{0} mikrosekundit"
          },
          "duration-millisecond": {
            "displayName": "millisekundid",
            "unitPattern-count-one": "{0} millisekund",
            "unitPattern-count-other": "{0} millisekundit"
          },
          "duration-minute": {
            "displayName": "minutid",
            "unitPattern-count-one": "{0} minut",
            "unitPattern-count-other": "{0} minutit"
          },
          "duration-month": {
            "displayName": "kuud",
            "unitPattern-count-one": "{0} kuu",
            "unitPattern-count-other": "{0} kuud"
          },
          "duration-nanosecond": {
            "displayName": "nanosekundid",
            "unitPattern-count-one": "{0} nanosekund",
            "unitPattern-count-other": "{0} nanosekundit"
          },
          "duration-second": {
            "displayName": "sekundid",
            "unitPattern-count-one": "{0} sekund",
            "unitPattern-count-other": "{0} sekundit",
            "perUnitPattern": "{0}/s"
          },
          "duration-week": {
            "displayName": "nädalad",
            "unitPattern-count-one": "{0} nädal",
            "unitPattern-count-other": "{0} nädalat"
          },
          "duration-year": {
            "displayName": "aastad",
            "unitPattern-count-one": "{0} aasta",
            "unitPattern-count-other": "{0} aastat"
          },
          "electric-ampere": {
            "displayName": "amprid",
            "unitPattern-count-one": "{0} amper",
            "unitPattern-count-other": "{0} amprit"
          },
          "electric-milliampere": {
            "displayName": "milliamprid",
            "unitPattern-count-one": "{0} milliamper",
            "unitPattern-count-other": "{0} milliamprit"
          },
          "electric-ohm": {
            "displayName": "oomid",
            "unitPattern-count-one": "{0} oom",
            "unitPattern-count-other": "{0} oomi"
          },
          "electric-volt": {
            "displayName": "voldid",
            "unitPattern-count-one": "{0} volt",
            "unitPattern-count-other": "{0} volti"
          },
          "energy-calorie": {
            "displayName": "kalorid",
            "unitPattern-count-one": "{0} kalor",
            "unitPattern-count-other": "{0} kalorit"
          },
          "energy-foodcalorie": {
            "displayName": "Toidukalorid",
            "unitPattern-count-one": "{0} toidukalor",
            "unitPattern-count-other": "{0} toidukalorit"
          },
          "energy-joule": {
            "displayName": "džaulid",
            "unitPattern-count-one": "{0} džaul",
            "unitPattern-count-other": "{0} džauli"
          },
          "energy-kilocalorie": {
            "displayName": "kilokalorid",
            "unitPattern-count-one": "{0} kilokalor",
            "unitPattern-count-other": "{0} kilokalorit"
          },
          "energy-kilojoule": {
            "displayName": "kilodžaulid",
            "unitPattern-count-one": "{0} kilodžaul",
            "unitPattern-count-other": "{0} kilodžauli"
          },
          "energy-kilowatt-hour": {
            "displayName": "kilovatt-tunnid",
            "unitPattern-count-one": "{0} kilovatt-tund",
            "unitPattern-count-other": "{0} kilovatt-tundi"
          },
          "frequency-gigahertz": {
            "displayName": "gigaherts",
            "unitPattern-count-one": "{0} gigaherts",
            "unitPattern-count-other": "{0} gigahertsi"
          },
          "frequency-hertz": {
            "displayName": "herts",
            "unitPattern-count-one": "{0} herts",
            "unitPattern-count-other": "{0} hertsi"
          },
          "frequency-kilohertz": {
            "displayName": "kiloherts",
            "unitPattern-count-one": "{0} kiloherts",
            "unitPattern-count-other": "{0} kilohertsi"
          },
          "frequency-megahertz": {
            "displayName": "megaherts",
            "unitPattern-count-one": "{0} megaherts",
            "unitPattern-count-other": "{0} megahertsi"
          },
          "length-astronomical-unit": {
            "displayName": "astronoomilised ühikud",
            "unitPattern-count-one": "{0} astronoomiline ühik",
            "unitPattern-count-other": "{0} astronoomilist ühikut"
          },
          "length-centimeter": {
            "displayName": "sentimeetrid",
            "unitPattern-count-one": "{0} sentimeeter",
            "unitPattern-count-other": "{0} sentimeetrit"
          },
          "length-decimeter": {
            "displayName": "detsimeetrid",
            "unitPattern-count-one": "{0} detsimeeter",
            "unitPattern-count-other": "{0} detsimeetrit"
          },
          "length-fathom": {
            "displayName": "fm",
            "unitPattern-count-other": "{0} fm"
          },
          "length-foot": {
            "displayName": "jalg",
            "unitPattern-count-one": "{0} jalg",
            "unitPattern-count-other": "{0} jalga"
          },
          "length-furlong": {
            "displayName": "fur",
            "unitPattern-count-other": "{0} fur"
          },
          "length-inch": {
            "displayName": "tolli",
            "unitPattern-count-one": "{0} toll",
            "unitPattern-count-other": "{0} tolli"
          },
          "length-kilometer": {
            "displayName": "kilomeetrid",
            "unitPattern-count-one": "{0} kilomeeter",
            "unitPattern-count-other": "{0} kilomeetrit"
          },
          "length-light-year": {
            "displayName": "valgusaastad",
            "unitPattern-count-one": "{0} valgusaasta",
            "unitPattern-count-other": "{0} valgusaastat"
          },
          "length-meter": {
            "displayName": "meetrid",
            "unitPattern-count-one": "{0} meeter",
            "unitPattern-count-other": "{0} meetrit"
          },
          "length-micrometer": {
            "displayName": "mikromeetrid",
            "unitPattern-count-one": "{0} mikromeeter",
            "unitPattern-count-other": "{0} mikromeetrit"
          },
          "length-mile": {
            "displayName": "miili",
            "unitPattern-count-one": "{0} miil",
            "unitPattern-count-other": "{0} miili"
          },
          "length-millimeter": {
            "displayName": "millimeetrid",
            "unitPattern-count-one": "{0} millimeeter",
            "unitPattern-count-other": "{0} millimeetrit"
          },
          "length-nanometer": {
            "displayName": "nanomeetrid",
            "unitPattern-count-one": "{0} nanomeeter",
            "unitPattern-count-other": "{0} nanomeetrit"
          },
          "length-nautical-mile": {
            "displayName": "meremiilid",
            "unitPattern-count-one": "{0} meremiil",
            "unitPattern-count-other": "{0} meremiili"
          },
          "length-parsec": {
            "displayName": "parsekid",
            "unitPattern-count-one": "{0} parsek",
            "unitPattern-count-other": "{0} parsekit"
          },
          "length-picometer": {
            "displayName": "pikomeetrid",
            "unitPattern-count-one": "{0} pikomeeter",
            "unitPattern-count-other": "{0} pikomeetrit"
          },
          "length-yard": {
            "displayName": "jardi",
            "unitPattern-count-one": "{0} jard",
            "unitPattern-count-other": "{0} jardi"
          },
          "light-lux": {
            "displayName": "luks",
            "unitPattern-count-one": "{0} luks",
            "unitPattern-count-other": "{0} luksi"
          },
          "mass-carat": {
            "displayName": "karaadid",
            "unitPattern-count-one": "{0} karaat",
            "unitPattern-count-other": "{0} karaati"
          },
          "mass-gram": {
            "displayName": "grammi",
            "unitPattern-count-one": "{0} gramm",
            "unitPattern-count-other": "{0} grammi"
          },
          "mass-kilogram": {
            "displayName": "kilogrammi",
            "unitPattern-count-one": "{0} kilogramm",
            "unitPattern-count-other": "{0} kilogrammi"
          },
          "mass-metric-ton": {
            "displayName": "tonnid",
            "unitPattern-count-one": "{0} tonn",
            "unitPattern-count-other": "{0} tonni"
          },
          "mass-microgram": {
            "displayName": "mikrogrammid",
            "unitPattern-count-one": "mikrogramm",
            "unitPattern-count-other": "{0} mikrogrammi"
          },
          "mass-milligram": {
            "displayName": "milligrammid",
            "unitPattern-count-one": "{0} milligramm",
            "unitPattern-count-other": "{0} milligrammi"
          },
          "mass-ounce": {
            "displayName": "untsi",
            "unitPattern-count-one": "{0} unts",
            "unitPattern-count-other": "{0} untsi"
          },
          "mass-ounce-troy": {
            "displayName": "trooja untsid",
            "unitPattern-count-one": "{0} trooja unts",
            "unitPattern-count-other": "{0} trooja untsi"
          },
          "mass-pound": {
            "displayName": "naela",
            "unitPattern-count-one": "{0} nael",
            "unitPattern-count-other": "{0} naela"
          },
          "mass-stone": {
            "displayName": "st",
            "unitPattern-count-other": "{0} st"
          },
          "mass-ton": {
            "displayName": "lühikesed tonnid",
            "unitPattern-count-one": "{0} lühikene tonn",
            "unitPattern-count-other": "{0} lühikest tonni"
          },
          "power-gigawatt": {
            "displayName": "gigavatid",
            "unitPattern-count-one": "{0} gigavatt",
            "unitPattern-count-other": "{0} gigavatti"
          },
          "power-horsepower": {
            "displayName": "hobujõud",
            "unitPattern-count-one": "{0} hobujõud",
            "unitPattern-count-other": "{0} hobujõudu"
          },
          "power-kilowatt": {
            "displayName": "kilovatid",
            "unitPattern-count-one": "{0} kilovatt",
            "unitPattern-count-other": "{0} kilovatti"
          },
          "power-megawatt": {
            "displayName": "megavatid",
            "unitPattern-count-one": "{0} megavatt",
            "unitPattern-count-other": "{0} megavatti"
          },
          "power-milliwatt": {
            "displayName": "millivatid",
            "unitPattern-count-one": "{0} millivatt",
            "unitPattern-count-other": "{0} millivatti"
          },
          "power-watt": {
            "displayName": "vatid",
            "unitPattern-count-one": "{0} vatt",
            "unitPattern-count-other": "{0} vatti"
          },
          "pressure-hectopascal": {
            "displayName": "hektopaskalid",
            "unitPattern-count-one": "{0} hektopaskal",
            "unitPattern-count-other": "{0} hektopaskalit"
          },
          "pressure-inch-hg": {
            "displayName": "tolli elavhõbedasammast",
            "unitPattern-count-one": "{0} toll elavhõbedasammast",
            "unitPattern-count-other": "{0} tolli elavhõbedasammast"
          },
          "pressure-millibar": {
            "displayName": "millibaari",
            "unitPattern-count-one": "{0} millibaar",
            "unitPattern-count-other": "{0} millibaari"
          },
          "pressure-millimeter-of-mercury": {
            "displayName": "millimeetrit elavhõbedasammast",
            "unitPattern-count-one": "{0} millimeeter elavhõbedasammast",
            "unitPattern-count-other": "{0} millimeetrit elavhõbedasammast"
          },
          "pressure-pound-per-square-inch": {
            "displayName": "naela ruuttolli kohta",
            "unitPattern-count-one": "{0} nael ruuttolli kohta",
            "unitPattern-count-other": "{0} naela ruuttolli kohta"
          },
          "proportion-karat": {
            "displayName": "karaadid",
            "unitPattern-count-one": "{0} karaat",
            "unitPattern-count-other": "{0} karaati"
          },
          "speed-kilometer-per-hour": {
            "displayName": "kilomeetrid tunnis",
            "unitPattern-count-one": "{0} kilomeeter tunnis",
            "unitPattern-count-other": "{0} kilomeetrit tunnis"
          },
          "speed-meter-per-second": {
            "displayName": "meetrid sekundis",
            "unitPattern-count-one": "{0} meeter sekundis",
            "unitPattern-count-other": "{0} meetrit sekundis"
          },
          "speed-mile-per-hour": {
            "displayName": "miili tunnis",
            "unitPattern-count-one": "{0} miil tunnis",
            "unitPattern-count-other": "{0} miili tunnis"
          },
          "temperature-celsius": {
            "displayName": "Celsiuse kraadi",
            "unitPattern-count-one": "{0} Celsiuse kraad",
            "unitPattern-count-other": "{0} Celsiuse kraadi"
          },
          "temperature-fahrenheit": {
            "displayName": "Fahrenheiti kraadi",
            "unitPattern-count-one": "{0} Fahrenheiti kraad",
            "unitPattern-count-other": "{0} Fahrenheiti kraadi"
          },
          "temperature-kelvin": {
            "displayName": "kelvinit",
            "unitPattern-count-one": "{0} kelvin",
            "unitPattern-count-other": "{0} kelvinit"
          },
          "volume-acre-foot": {
            "displayName": "aaker-jalg",
            "unitPattern-count-one": "{0} aaker-jalg",
            "unitPattern-count-other": "{0} aaker-jalga"
          },
          "volume-bushel": {
            "displayName": "bu",
            "unitPattern-count-other": "{0} bu"
          },
          "volume-centiliter": {
            "displayName": "sentiliitrid",
            "unitPattern-count-one": "{0} sentiliiter",
            "unitPattern-count-other": "{0} sentiliitrit"
          },
          "volume-cubic-centimeter": {
            "displayName": "kuupsentimeetrid",
            "unitPattern-count-one": "{0} kuupsentimeeter",
            "unitPattern-count-other": "{0} kuupsentimeetrit"
          },
          "volume-cubic-foot": {
            "displayName": "kuupjalg",
            "unitPattern-count-one": "{0} kuupjalg",
            "unitPattern-count-other": "{0} kuupjalga"
          },
          "volume-cubic-inch": {
            "displayName": "kuuptollid",
            "unitPattern-count-one": "{0} kuuptoll",
            "unitPattern-count-other": "{0} kuuptolli"
          },
          "volume-cubic-kilometer": {
            "displayName": "kuupkilomeetrid",
            "unitPattern-count-one": "{0} kuupkilomeeter",
            "unitPattern-count-other": "{0} kuupkilomeetrit"
          },
          "volume-cubic-meter": {
            "displayName": "kuupmeetrid",
            "unitPattern-count-one": "{0} kuupmeeter",
            "unitPattern-count-other": "{0} kuupmeetrit"
          },
          "volume-cubic-mile": {
            "displayName": "kuupmiili",
            "unitPattern-count-one": "{0} kuupmiil",
            "unitPattern-count-other": "{0} kuupmiili"
          },
          "volume-cubic-yard": {
            "displayName": "kuupjardid",
            "unitPattern-count-one": "{0} kuupjard",
            "unitPattern-count-other": "{0} kuupjardi"
          },
          "volume-cup": {
            "displayName": "tassid",
            "unitPattern-count-one": "{0} tass",
            "unitPattern-count-other": "{0} tassi"
          },
          "volume-deciliter": {
            "displayName": "detsiliitrid",
            "unitPattern-count-one": "{0} detsiliiter",
            "unitPattern-count-other": "{0} detsiliitrit"
          },
          "volume-fluid-ounce": {
            "displayName": "vedelike untsid",
            "unitPattern-count-one": "{0} vedelike unts",
            "unitPattern-count-other": "{0} vedelike untsi"
          },
          "volume-gallon": {
            "displayName": "gallonid",
            "unitPattern-count-one": "{0} gallon",
            "unitPattern-count-other": "{0} gallonit"
          },
          "volume-hectoliter": {
            "displayName": "hektoliitrid",
            "unitPattern-count-one": "{0} hektoliiter",
            "unitPattern-count-other": "{0} hektoliitrit"
          },
          "volume-liter": {
            "displayName": "liitrid",
            "unitPattern-count-one": "{0} liiter",
            "unitPattern-count-other": "{0} liitrit"
          },
          "volume-megaliter": {
            "displayName": "megaliitrid",
            "unitPattern-count-one": "{0} megaliiter",
            "unitPattern-count-other": "{0} megaliitrit"
          },
          "volume-milliliter": {
            "displayName": "milliliitrid",
            "unitPattern-count-one": "{0} milliliiter",
            "unitPattern-count-other": "{0} milliliitrit"
          },
          "volume-pint": {
            "displayName": "pindid",
            "unitPattern-count-one": "{0} pint",
            "unitPattern-count-other": "{0} pinti"
          },
          "volume-quart": {
            "displayName": "kvardid",
            "unitPattern-count-one": "{0} kvart",
            "unitPattern-count-other": "{0} kvarti"
          },
          "volume-tablespoon": {
            "displayName": "supilusikatäis",
            "unitPattern-count-one": "{0} supilusikatäis",
            "unitPattern-count-other": "{0} supilusikatäit"
          },
          "volume-teaspoon": {
            "displayName": "teelusikatäis",
            "unitPattern-count-one": "{0} teelusikatäis",
            "unitPattern-count-other": "{0} teelusikatäit"
          }
        },
        "short": {
          "per": {
            "compoundUnitPattern": "{0}/{1}"
          },
          "acceleration-g-force": {
            "displayName": "maa gravitatsioon",
            "unitPattern-count-one": "{0} G",
            "unitPattern-count-other": "{0} G"
          },
          "acceleration-meter-per-second-squared": {
            "displayName": "m/s²",
            "unitPattern-count-one": "{0} m/s²",
            "unitPattern-count-other": "{0} m/s²"
          },
          "angle-arc-minute": {
            "displayName": "kaareminut",
            "unitPattern-count-one": "{0}′",
            "unitPattern-count-other": "{0}′"
          },
          "angle-arc-second": {
            "displayName": "kaaresekund",
            "unitPattern-count-one": "{0}″",
            "unitPattern-count-other": "{0}″"
          },
          "angle-degree": {
            "displayName": "kraadi",
            "unitPattern-count-one": "{0}°",
            "unitPattern-count-other": "{0}°"
          },
          "angle-radian": {
            "displayName": "radiaanid",
            "unitPattern-count-one": "{0} rad",
            "unitPattern-count-other": "{0} rad"
          },
          "area-acre": {
            "displayName": "aakrid",
            "unitPattern-count-one": "{0} aaker",
            "unitPattern-count-other": "{0} aakrit"
          },
          "area-hectare": {
            "displayName": "hektarid",
            "unitPattern-count-one": "{0} ha",
            "unitPattern-count-other": "{0} ha"
          },
          "area-square-centimeter": {
            "displayName": "cm²",
            "unitPattern-count-one": "{0} cm²",
            "unitPattern-count-other": "{0} cm²"
          },
          "area-square-foot": {
            "displayName": "ruutjalga",
            "unitPattern-count-one": "{0} ft²",
            "unitPattern-count-other": "{0} ft²"
          },
          "area-square-inch": {
            "displayName": "ruuttollid",
            "unitPattern-count-one": "{0} in²",
            "unitPattern-count-other": "{0} in²"
          },
          "area-square-kilometer": {
            "displayName": "km²",
            "unitPattern-count-one": "{0} km²",
            "unitPattern-count-other": "{0} km²"
          },
          "area-square-meter": {
            "displayName": "m²",
            "unitPattern-count-one": "{0} m²",
            "unitPattern-count-other": "{0} m²"
          },
          "area-square-mile": {
            "displayName": "mi²",
            "unitPattern-count-one": "{0} mi²",
            "unitPattern-count-other": "{0} mi²"
          },
          "area-square-yard": {
            "displayName": "ruutjardid",
            "unitPattern-count-one": "{0} yd²",
            "unitPattern-count-other": "{0} yd²"
          },
          "consumption-liter-per-kilometer": {
            "displayName": "liitrit/km",
            "unitPattern-count-one": "{0} L/km",
            "unitPattern-count-other": "{0} L/km"
          },
          "consumption-mile-per-gallon": {
            "displayName": "miil/gallon",
            "unitPattern-count-one": "{0} mpg",
            "unitPattern-count-other": "{0} mpg"
          },
          "digital-bit": {
            "displayName": "bitt",
            "unitPattern-count-one": "{0} b",
            "unitPattern-count-other": "{0} b"
          },
          "digital-byte": {
            "displayName": "bait",
            "unitPattern-count-one": "{0} bait",
            "unitPattern-count-other": "{0} baiti"
          },
          "digital-gigabit": {
            "displayName": "Gb",
            "unitPattern-count-one": "{0} Gb",
            "unitPattern-count-other": "{0} Gb"
          },
          "digital-gigabyte": {
            "displayName": "GB",
            "unitPattern-count-one": "{0} GB",
            "unitPattern-count-other": "{0} GB"
          },
          "digital-kilobit": {
            "displayName": "kb",
            "unitPattern-count-one": "{0} kb",
            "unitPattern-count-other": "{0} kb"
          },
          "digital-kilobyte": {
            "displayName": "kB",
            "unitPattern-count-one": "{0} kB",
            "unitPattern-count-other": "{0} kB"
          },
          "digital-megabit": {
            "displayName": "Mb",
            "unitPattern-count-one": "{0} Mb",
            "unitPattern-count-other": "{0} Mb"
          },
          "digital-megabyte": {
            "displayName": "MB",
            "unitPattern-count-one": "{0} MB",
            "unitPattern-count-other": "{0} MB"
          },
          "digital-terabit": {
            "displayName": "Tb",
            "unitPattern-count-one": "{0} Tb",
            "unitPattern-count-other": "{0} Tb"
          },
          "digital-terabyte": {
            "displayName": "TB",
            "unitPattern-count-one": "{0} TB",
            "unitPattern-count-other": "{0} TB"
          },
          "duration-day": {
            "displayName": "ööpäeva",
            "unitPattern-count-one": "{0} päev",
            "unitPattern-count-other": "{0} päeva"
          },
          "duration-hour": {
            "displayName": "h",
            "unitPattern-count-one": "{0} h",
            "unitPattern-count-other": "{0} h",
            "perUnitPattern": "{0}/h"
          },
          "duration-microsecond": {
            "displayName": "μs",
            "unitPattern-count-one": "{0} μs",
            "unitPattern-count-other": "{0} μs"
          },
          "duration-millisecond": {
            "displayName": "millisekundit",
            "unitPattern-count-one": "{0} ms",
            "unitPattern-count-other": "{0} ms"
          },
          "duration-minute": {
            "displayName": "min",
            "unitPattern-count-one": "{0} min",
            "unitPattern-count-other": "{0} min"
          },
          "duration-month": {
            "displayName": "kuud",
            "unitPattern-count-one": "{0} kuu",
            "unitPattern-count-other": "{0} kuud"
          },
          "duration-nanosecond": {
            "displayName": "ns",
            "unitPattern-count-one": "{0} ns",
            "unitPattern-count-other": "{0} ns"
          },
          "duration-second": {
            "displayName": "s",
            "unitPattern-count-one": "{0} s",
            "unitPattern-count-other": "{0} s",
            "perUnitPattern": "{0}/s"
          },
          "duration-week": {
            "displayName": "nädalad",
            "unitPattern-count-one": "{0} nädal",
            "unitPattern-count-other": "{0} nädalat"
          },
          "duration-year": {
            "displayName": "aastad",
            "unitPattern-count-one": "{0} a",
            "unitPattern-count-other": "{0} a"
          },
          "electric-ampere": {
            "displayName": "amprid",
            "unitPattern-count-one": "{0} A",
            "unitPattern-count-other": "{0} A"
          },
          "electric-milliampere": {
            "displayName": "milliamprid",
            "unitPattern-count-one": "{0} mA",
            "unitPattern-count-other": "{0} mA"
          },
          "electric-ohm": {
            "displayName": "oomid",
            "unitPattern-count-one": "{0} Ω",
            "unitPattern-count-other": "{0} Ω"
          },
          "electric-volt": {
            "displayName": "voldid",
            "unitPattern-count-one": "{0} V",
            "unitPattern-count-other": "{0} V"
          },
          "energy-calorie": {
            "displayName": "cal",
            "unitPattern-count-one": "{0} cal",
            "unitPattern-count-other": "{0} cal"
          },
          "energy-foodcalorie": {
            "displayName": "Cal",
            "unitPattern-count-one": "{0} Cal",
            "unitPattern-count-other": "{0} Cal"
          },
          "energy-joule": {
            "displayName": "džaulid",
            "unitPattern-count-one": "{0} J",
            "unitPattern-count-other": "{0} J"
          },
          "energy-kilocalorie": {
            "displayName": "kcal",
            "unitPattern-count-one": "{0} kcal",
            "unitPattern-count-other": "{0} kcal"
          },
          "energy-kilojoule": {
            "displayName": "kJ",
            "unitPattern-count-one": "{0} kJ",
            "unitPattern-count-other": "{0} kJ"
          },
          "energy-kilowatt-hour": {
            "displayName": "kW-tund",
            "unitPattern-count-one": "{0} kWh",
            "unitPattern-count-other": "{0} kWh"
          },
          "frequency-gigahertz": {
            "displayName": "GHz",
            "unitPattern-count-one": "{0} GHz",
            "unitPattern-count-other": "{0} GHz"
          },
          "frequency-hertz": {
            "displayName": "Hz",
            "unitPattern-count-one": "{0} Hz",
            "unitPattern-count-other": "{0} Hz"
          },
          "frequency-kilohertz": {
            "displayName": "kHz",
            "unitPattern-count-one": "{0} kHz",
            "unitPattern-count-other": "{0} kHz"
          },
          "frequency-megahertz": {
            "displayName": "MHz",
            "unitPattern-count-one": "{0} MHz",
            "unitPattern-count-other": "{0} MHz"
          },
          "length-astronomical-unit": {
            "displayName": "aü",
            "unitPattern-count-one": "{0} aü",
            "unitPattern-count-other": "{0} aü"
          },
          "length-centimeter": {
            "displayName": "cm",
            "unitPattern-count-one": "{0} cm",
            "unitPattern-count-other": "{0} cm"
          },
          "length-decimeter": {
            "displayName": "dm",
            "unitPattern-count-one": "{0} dm",
            "unitPattern-count-other": "{0} dm"
          },
          "length-fathom": {
            "displayName": "fm",
            "unitPattern-count-other": "{0} fm"
          },
          "length-foot": {
            "displayName": "ft",
            "unitPattern-count-one": "{0} jalg",
            "unitPattern-count-other": "{0} jalga"
          },
          "length-furlong": {
            "displayName": "fur",
            "unitPattern-count-other": "{0} fur"
          },
          "length-inch": {
            "displayName": "in",
            "unitPattern-count-one": "{0} toll",
            "unitPattern-count-other": "{0} tolli"
          },
          "length-kilometer": {
            "displayName": "km",
            "unitPattern-count-one": "{0} km",
            "unitPattern-count-other": "{0} km"
          },
          "length-light-year": {
            "displayName": "valgusaastad",
            "unitPattern-count-one": "{0} valgusa.",
            "unitPattern-count-other": "{0} valgusa."
          },
          "length-meter": {
            "displayName": "meetrid",
            "unitPattern-count-one": "{0} m",
            "unitPattern-count-other": "{0} m"
          },
          "length-micrometer": {
            "displayName": "µm",
            "unitPattern-count-one": "{0} µm",
            "unitPattern-count-other": "{0} µm"
          },
          "length-mile": {
            "displayName": "mi",
            "unitPattern-count-one": "{0} miil",
            "unitPattern-count-other": "{0} miili"
          },
          "length-millimeter": {
            "displayName": "mm",
            "unitPattern-count-one": "{0} mm",
            "unitPattern-count-other": "{0} mm"
          },
          "length-nanometer": {
            "displayName": "nm",
            "unitPattern-count-one": "{0} nm",
            "unitPattern-count-other": "{0} nm"
          },
          "length-nautical-mile": {
            "displayName": "nmi",
            "unitPattern-count-one": "{0} nmi",
            "unitPattern-count-other": "{0} nmi"
          },
          "length-parsec": {
            "displayName": "parsekid",
            "unitPattern-count-one": "{0} pc",
            "unitPattern-count-other": "{0} pc"
          },
          "length-picometer": {
            "displayName": "pm",
            "unitPattern-count-one": "{0} pm",
            "unitPattern-count-other": "{0} pm"
          },
          "length-yard": {
            "displayName": "jardi",
            "unitPattern-count-one": "{0} jard",
            "unitPattern-count-other": "{0} jardi"
          },
          "light-lux": {
            "displayName": "lx",
            "unitPattern-count-one": "{0} lx",
            "unitPattern-count-other": "{0} lx"
          },
          "mass-carat": {
            "displayName": "karaat",
            "unitPattern-count-one": "{0} ct",
            "unitPattern-count-other": "{0} ct"
          },
          "mass-gram": {
            "displayName": "grammi",
            "unitPattern-count-one": "{0} g",
            "unitPattern-count-other": "{0} g"
          },
          "mass-kilogram": {
            "displayName": "kg",
            "unitPattern-count-one": "{0} kg",
            "unitPattern-count-other": "{0} kg"
          },
          "mass-metric-ton": {
            "displayName": "t",
            "unitPattern-count-one": "{0} t",
            "unitPattern-count-other": "{0} t"
          },
          "mass-microgram": {
            "displayName": "µg",
            "unitPattern-count-one": "{0} µg",
            "unitPattern-count-other": "{0} µg"
          },
          "mass-milligram": {
            "displayName": "mg",
            "unitPattern-count-one": "{0} mg",
            "unitPattern-count-other": "{0} mg"
          },
          "mass-ounce": {
            "displayName": "oz",
            "unitPattern-count-one": "{0} oz",
            "unitPattern-count-other": "{0} oz"
          },
          "mass-ounce-troy": {
            "displayName": "oz t",
            "unitPattern-count-one": "{0} oz t",
            "unitPattern-count-other": "{0} oz t"
          },
          "mass-pound": {
            "displayName": "lb",
            "unitPattern-count-one": "{0} lb",
            "unitPattern-count-other": "{0} lb"
          },
          "mass-stone": {
            "displayName": "st",
            "unitPattern-count-other": "{0} st"
          },
          "mass-ton": {
            "displayName": "lüh. tonnid",
            "unitPattern-count-one": "{0} lüh. t",
            "unitPattern-count-other": "{0} lüh. t"
          },
          "power-gigawatt": {
            "displayName": "GW",
            "unitPattern-count-one": "{0} GW",
            "unitPattern-count-other": "{0} GW"
          },
          "power-horsepower": {
            "displayName": "hj",
            "unitPattern-count-one": "{0} hj",
            "unitPattern-count-other": "{0} hj"
          },
          "power-kilowatt": {
            "displayName": "kW",
            "unitPattern-count-one": "{0} kW",
            "unitPattern-count-other": "{0} kW"
          },
          "power-megawatt": {
            "displayName": "MW",
            "unitPattern-count-one": "{0} MW",
            "unitPattern-count-other": "{0} MW"
          },
          "power-milliwatt": {
            "displayName": "mW",
            "unitPattern-count-one": "{0} mW",
            "unitPattern-count-other": "{0} mW"
          },
          "power-watt": {
            "displayName": "vatid",
            "unitPattern-count-one": "{0} W",
            "unitPattern-count-other": "{0} W"
          },
          "pressure-hectopascal": {
            "displayName": "hPa",
            "unitPattern-count-one": "{0} hPa",
            "unitPattern-count-other": "{0} hPa"
          },
          "pressure-inch-hg": {
            "displayName": "tolli elavhõbedasammast",
            "unitPattern-count-one": "{0} toll Hg",
            "unitPattern-count-other": "{0} tolli Hg"
          },
          "pressure-millibar": {
            "displayName": "mbar",
            "unitPattern-count-one": "{0} mbar",
            "unitPattern-count-other": "{0} mbar"
          },
          "pressure-millimeter-of-mercury": {
            "displayName": "mm Hg",
            "unitPattern-count-one": "{0} mm Hg",
            "unitPattern-count-other": "{0} mm Hg"
          },
          "pressure-pound-per-square-inch": {
            "displayName": "psi",
            "unitPattern-count-one": "{0} psi",
            "unitPattern-count-other": "{0} psi"
          },
          "proportion-karat": {
            "displayName": "karaat",
            "unitPattern-count-one": "{0} ct",
            "unitPattern-count-other": "{0} ct"
          },
          "speed-kilometer-per-hour": {
            "displayName": "km/h",
            "unitPattern-count-one": "{0} km/h",
            "unitPattern-count-other": "{0} km/h"
          },
          "speed-meter-per-second": {
            "displayName": "m/s",
            "unitPattern-count-one": "{0} m/s",
            "unitPattern-count-other": "{0} m/s"
          },
          "speed-mile-per-hour": {
            "displayName": "mi/h",
            "unitPattern-count-one": "{0} mi/h",
            "unitPattern-count-other": "{0} mi/h"
          },
          "temperature-celsius": {
            "displayName": "°C",
            "unitPattern-count-one": "{0} °C",
            "unitPattern-count-other": "{0} °C"
          },
          "temperature-fahrenheit": {
            "displayName": "°F",
            "unitPattern-count-one": "{0} °F",
            "unitPattern-count-other": "{0} °F"
          },
          "temperature-kelvin": {
            "displayName": "K",
            "unitPattern-count-one": "{0} K",
            "unitPattern-count-other": "{0} K"
          },
          "volume-acre-foot": {
            "displayName": "aaker ft",
            "unitPattern-count-one": "{0} ac ft",
            "unitPattern-count-other": "{0} ac ft"
          },
          "volume-bushel": {
            "displayName": "bu",
            "unitPattern-count-other": "{0} bu"
          },
          "volume-centiliter": {
            "displayName": "cl",
            "unitPattern-count-one": "{0} cl",
            "unitPattern-count-other": "{0} cl"
          },
          "volume-cubic-centimeter": {
            "displayName": "cm³",
            "unitPattern-count-one": "{0} cm³",
            "unitPattern-count-other": "{0} cm³"
          },
          "volume-cubic-foot": {
            "displayName": "ft³",
            "unitPattern-count-one": "{0} ft³",
            "unitPattern-count-other": "{0} ft³"
          },
          "volume-cubic-inch": {
            "displayName": "kuuptollid",
            "unitPattern-count-one": "{0} toll³",
            "unitPattern-count-other": "{0} tolli³"
          },
          "volume-cubic-kilometer": {
            "displayName": "km³",
            "unitPattern-count-one": "{0} km³",
            "unitPattern-count-other": "{0} km³"
          },
          "volume-cubic-meter": {
            "displayName": "m³",
            "unitPattern-count-one": "{0} m³",
            "unitPattern-count-other": "{0} m³"
          },
          "volume-cubic-mile": {
            "displayName": "kuupmiili",
            "unitPattern-count-one": "{0} mi³",
            "unitPattern-count-other": "{0} mi³"
          },
          "volume-cubic-yard": {
            "displayName": "kuupjardid",
            "unitPattern-count-one": "{0} yd³",
            "unitPattern-count-other": "{0} yd³"
          },
          "volume-cup": {
            "displayName": "tass",
            "unitPattern-count-one": "{0} tass",
            "unitPattern-count-other": "{0} tassi"
          },
          "volume-deciliter": {
            "displayName": "dl",
            "unitPattern-count-one": "{0} dl",
            "unitPattern-count-other": "{0} dl"
          },
          "volume-fluid-ounce": {
            "displayName": "fl oz",
            "unitPattern-count-one": "{0} fl oz",
            "unitPattern-count-other": "{0} fl oz"
          },
          "volume-gallon": {
            "displayName": "gal",
            "unitPattern-count-one": "{0} gal",
            "unitPattern-count-other": "{0} gal"
          },
          "volume-hectoliter": {
            "displayName": "hl",
            "unitPattern-count-one": "{0} hl",
            "unitPattern-count-other": "{0} hl"
          },
          "volume-liter": {
            "displayName": "liitrid",
            "unitPattern-count-one": "{0} l",
            "unitPattern-count-other": "{0} l"
          },
          "volume-megaliter": {
            "displayName": "Ml",
            "unitPattern-count-one": "{0} Ml",
            "unitPattern-count-other": "{0} Ml"
          },
          "volume-milliliter": {
            "displayName": "ml",
            "unitPattern-count-one": "{0} ml",
            "unitPattern-count-other": "{0} ml"
          },
          "volume-pint": {
            "displayName": "pindid",
            "unitPattern-count-one": "{0} pt",
            "unitPattern-count-other": "{0} pt"
          },
          "volume-quart": {
            "displayName": "kvart",
            "unitPattern-count-one": "{0} qt",
            "unitPattern-count-other": "{0} qt"
          },
          "volume-tablespoon": {
            "displayName": "spl",
            "unitPattern-count-one": "{0} spl",
            "unitPattern-count-other": "{0} spl"
          },
          "volume-teaspoon": {
            "displayName": "tl",
            "unitPattern-count-one": "{0} tl",
            "unitPattern-count-other": "{0} tl"
          }
        },
        "narrow": {
          "per": {
            "compoundUnitPattern": "{0}/{1}"
          },
          "acceleration-g-force": {
            "displayName": "maa gravitatsioon",
            "unitPattern-count-one": "{0}G",
            "unitPattern-count-other": "{0}G"
          },
          "acceleration-meter-per-second-squared": {
            "displayName": "m/s²",
            "unitPattern-count-one": "{0} m/s²",
            "unitPattern-count-other": "{0} m/s²"
          },
          "angle-arc-minute": {
            "displayName": "kaareminut",
            "unitPattern-count-one": "{0}′",
            "unitPattern-count-other": "{0}′"
          },
          "angle-arc-second": {
            "displayName": "kaaresekund",
            "unitPattern-count-one": "{0}″",
            "unitPattern-count-other": "{0}″"
          },
          "angle-degree": {
            "displayName": "kraadi",
            "unitPattern-count-one": "{0}°",
            "unitPattern-count-other": "{0}°"
          },
          "angle-radian": {
            "displayName": "radiaanid",
            "unitPattern-count-one": "{0} rad",
            "unitPattern-count-other": "{0} rad"
          },
          "area-acre": {
            "displayName": "aakrid",
            "unitPattern-count-one": "{0} aaker",
            "unitPattern-count-other": "{0} aakrit"
          },
          "area-hectare": {
            "displayName": "hektarid",
            "unitPattern-count-one": "{0}ha",
            "unitPattern-count-other": "{0}ha"
          },
          "area-square-centimeter": {
            "displayName": "cm²",
            "unitPattern-count-one": "{0} cm²",
            "unitPattern-count-other": "{0} cm²"
          },
          "area-square-foot": {
            "displayName": "ruutjalga",
            "unitPattern-count-one": "{0} ft²",
            "unitPattern-count-other": "{0} ft²"
          },
          "area-square-inch": {
            "displayName": "ruuttollid",
            "unitPattern-count-one": "{0} in²",
            "unitPattern-count-other": "{0} in²"
          },
          "area-square-kilometer": {
            "displayName": "km²",
            "unitPattern-count-one": "{0}km²",
            "unitPattern-count-other": "{0}km²"
          },
          "area-square-meter": {
            "displayName": "m²",
            "unitPattern-count-one": "{0}m²",
            "unitPattern-count-other": "{0}m²"
          },
          "area-square-mile": {
            "displayName": "mi²",
            "unitPattern-count-one": "{0} mi²",
            "unitPattern-count-other": "{0} mi²"
          },
          "area-square-yard": {
            "displayName": "ruutjardid",
            "unitPattern-count-one": "{0} yd²",
            "unitPattern-count-other": "{0} yd²"
          },
          "consumption-liter-per-kilometer": {
            "displayName": "liitrit/km",
            "unitPattern-count-one": "{0} L/km",
            "unitPattern-count-other": "{0} L/km"
          },
          "consumption-mile-per-gallon": {
            "displayName": "miil/gallon",
            "unitPattern-count-one": "{0} mpg",
            "unitPattern-count-other": "{0} mpg"
          },
          "digital-bit": {
            "displayName": "bitt",
            "unitPattern-count-one": "{0} b",
            "unitPattern-count-other": "{0} b"
          },
          "digital-byte": {
            "displayName": "bait",
            "unitPattern-count-one": "{0} baiti",
            "unitPattern-count-other": "{0} baiti"
          },
          "digital-gigabit": {
            "displayName": "Gb",
            "unitPattern-count-one": "{0} Gb",
            "unitPattern-count-other": "{0} Gb"
          },
          "digital-gigabyte": {
            "displayName": "GB",
            "unitPattern-count-one": "{0} GB",
            "unitPattern-count-other": "{0} GB"
          },
          "digital-kilobit": {
            "displayName": "kb",
            "unitPattern-count-one": "{0} kb",
            "unitPattern-count-other": "{0} kb"
          },
          "digital-kilobyte": {
            "displayName": "kB",
            "unitPattern-count-one": "{0} kB",
            "unitPattern-count-other": "{0} kB"
          },
          "digital-megabit": {
            "displayName": "Mb",
            "unitPattern-count-one": "{0} Mb",
            "unitPattern-count-other": "{0} Mb"
          },
          "digital-megabyte": {
            "displayName": "MB",
            "unitPattern-count-one": "{0} MB",
            "unitPattern-count-other": "{0} MB"
          },
          "digital-terabit": {
            "displayName": "Tb",
            "unitPattern-count-one": "{0} Tb",
            "unitPattern-count-other": "{0} Tb"
          },
          "digital-terabyte": {
            "displayName": "TB",
            "unitPattern-count-one": "{0} TB",
            "unitPattern-count-other": "{0} TB"
          },
          "duration-day": {
            "displayName": "ööpäeva",
            "unitPattern-count-one": "{0} p",
            "unitPattern-count-other": "{0} p"
          },
          "duration-hour": {
            "displayName": "h",
            "unitPattern-count-one": "{0} h",
            "unitPattern-count-other": "{0} h",
            "perUnitPattern": "{0}/h"
          },
          "duration-microsecond": {
            "displayName": "μs",
            "unitPattern-count-one": "{0} μs",
            "unitPattern-count-other": "{0} μs"
          },
          "duration-millisecond": {
            "displayName": "millisekundit",
            "unitPattern-count-one": "{0}ms",
            "unitPattern-count-other": "{0}ms"
          },
          "duration-minute": {
            "displayName": "min",
            "unitPattern-count-one": "{0} min",
            "unitPattern-count-other": "{0} min"
          },
          "duration-month": {
            "displayName": "kuud",
            "unitPattern-count-one": "{0} k",
            "unitPattern-count-other": "{0} k"
          },
          "duration-nanosecond": {
            "displayName": "ns",
            "unitPattern-count-one": "{0} ns",
            "unitPattern-count-other": "{0} ns"
          },
          "duration-second": {
            "displayName": "s",
            "unitPattern-count-one": "{0} s",
            "unitPattern-count-other": "{0} s",
            "perUnitPattern": "{0}/s"
          },
          "duration-week": {
            "displayName": "nädalad",
            "unitPattern-count-one": "{0} n",
            "unitPattern-count-other": "{0} n"
          },
          "duration-year": {
            "displayName": "a",
            "unitPattern-count-one": "{0} a",
            "unitPattern-count-other": "{0} a"
          },
          "electric-ampere": {
            "displayName": "amprid",
            "unitPattern-count-one": "{0} A",
            "unitPattern-count-other": "{0} A"
          },
          "electric-milliampere": {
            "displayName": "milliamprid",
            "unitPattern-count-one": "{0} mA",
            "unitPattern-count-other": "{0} mA"
          },
          "electric-ohm": {
            "displayName": "oomid",
            "unitPattern-count-one": "{0} Ω",
            "unitPattern-count-other": "{0} Ω"
          },
          "electric-volt": {
            "displayName": "voldid",
            "unitPattern-count-one": "{0} V",
            "unitPattern-count-other": "{0} V"
          },
          "energy-calorie": {
            "displayName": "cal",
            "unitPattern-count-one": "{0} cal",
            "unitPattern-count-other": "{0} cal"
          },
          "energy-foodcalorie": {
            "displayName": "Cal",
            "unitPattern-count-one": "{0} Cal",
            "unitPattern-count-other": "{0} Cal"
          },
          "energy-joule": {
            "displayName": "džaulid",
            "unitPattern-count-one": "{0} J",
            "unitPattern-count-other": "{0} J"
          },
          "energy-kilocalorie": {
            "displayName": "kcal",
            "unitPattern-count-one": "{0} kcal",
            "unitPattern-count-other": "{0} kcal"
          },
          "energy-kilojoule": {
            "displayName": "kJ",
            "unitPattern-count-one": "{0} kJ",
            "unitPattern-count-other": "{0} kJ"
          },
          "energy-kilowatt-hour": {
            "displayName": "kW-tund",
            "unitPattern-count-one": "{0} kWh",
            "unitPattern-count-other": "{0} kWh"
          },
          "frequency-gigahertz": {
            "displayName": "GHz",
            "unitPattern-count-one": "{0} GHz",
            "unitPattern-count-other": "{0} GHz"
          },
          "frequency-hertz": {
            "displayName": "Hz",
            "unitPattern-count-one": "{0} Hz",
            "unitPattern-count-other": "{0} Hz"
          },
          "frequency-kilohertz": {
            "displayName": "kHz",
            "unitPattern-count-one": "{0} kHz",
            "unitPattern-count-other": "{0} kHz"
          },
          "frequency-megahertz": {
            "displayName": "MHz",
            "unitPattern-count-one": "{0} MHz",
            "unitPattern-count-other": "{0} MHz"
          },
          "length-astronomical-unit": {
            "displayName": "aü",
            "unitPattern-count-one": "{0} aü",
            "unitPattern-count-other": "{0} aü"
          },
          "length-centimeter": {
            "displayName": "cm",
            "unitPattern-count-one": "{0} cm",
            "unitPattern-count-other": "{0} cm"
          },
          "length-decimeter": {
            "displayName": "dm",
            "unitPattern-count-one": "{0} dm",
            "unitPattern-count-other": "{0} dm"
          },
          "length-fathom": {
            "displayName": "fm",
            "unitPattern-count-other": "{0} fm"
          },
          "length-foot": {
            "displayName": "ft",
            "unitPattern-count-one": "{0} jalg",
            "unitPattern-count-other": "{0} jalga"
          },
          "length-furlong": {
            "displayName": "fur",
            "unitPattern-count-other": "{0} fur"
          },
          "length-inch": {
            "displayName": "in",
            "unitPattern-count-one": "{0} toll",
            "unitPattern-count-other": "{0} tolli"
          },
          "length-kilometer": {
            "displayName": "km",
            "unitPattern-count-one": "{0} km",
            "unitPattern-count-other": "{0} km"
          },
          "length-light-year": {
            "displayName": "valgusaastad",
            "unitPattern-count-one": "{0} valgusa.",
            "unitPattern-count-other": "{0} valgusa."
          },
          "length-meter": {
            "displayName": "m",
            "unitPattern-count-one": "{0} m",
            "unitPattern-count-other": "{0} m"
          },
          "length-micrometer": {
            "displayName": "µm",
            "unitPattern-count-one": "{0} µm",
            "unitPattern-count-other": "{0} µm"
          },
          "length-mile": {
            "displayName": "mi",
            "unitPattern-count-one": "{0} miil",
            "unitPattern-count-other": "{0} miili"
          },
          "length-millimeter": {
            "displayName": "mm",
            "unitPattern-count-one": "{0} mm",
            "unitPattern-count-other": "{0} mm"
          },
          "length-nanometer": {
            "displayName": "nm",
            "unitPattern-count-one": "{0} nm",
            "unitPattern-count-other": "{0} nm"
          },
          "length-nautical-mile": {
            "displayName": "nmi",
            "unitPattern-count-one": "{0} nmi",
            "unitPattern-count-other": "{0} nmi"
          },
          "length-parsec": {
            "displayName": "parsekid",
            "unitPattern-count-one": "{0} pc",
            "unitPattern-count-other": "{0} pc"
          },
          "length-picometer": {
            "displayName": "pm",
            "unitPattern-count-one": "{0} pm",
            "unitPattern-count-other": "{0} pm"
          },
          "length-yard": {
            "displayName": "jardi",
            "unitPattern-count-one": "{0} jard",
            "unitPattern-count-other": "{0} jardi"
          },
          "light-lux": {
            "displayName": "lx",
            "unitPattern-count-one": "{0} lx",
            "unitPattern-count-other": "{0} lx"
          },
          "mass-carat": {
            "displayName": "karaat",
            "unitPattern-count-one": "{0} ct",
            "unitPattern-count-other": "{0} ct"
          },
          "mass-gram": {
            "displayName": "gramm",
            "unitPattern-count-one": "{0} g",
            "unitPattern-count-other": "{0} g"
          },
          "mass-kilogram": {
            "displayName": "kg",
            "unitPattern-count-one": "{0} kg",
            "unitPattern-count-other": "{0} kg"
          },
          "mass-metric-ton": {
            "displayName": "t",
            "unitPattern-count-one": "{0} t",
            "unitPattern-count-other": "{0} t"
          },
          "mass-microgram": {
            "displayName": "µg",
            "unitPattern-count-one": "{0} µg",
            "unitPattern-count-other": "{0} µg"
          },
          "mass-milligram": {
            "displayName": "mg",
            "unitPattern-count-one": "{0} mg",
            "unitPattern-count-other": "{0} mg"
          },
          "mass-ounce": {
            "displayName": "oz",
            "unitPattern-count-one": "{0} oz",
            "unitPattern-count-other": "{0} oz"
          },
          "mass-ounce-troy": {
            "displayName": "oz t",
            "unitPattern-count-one": "{0} oz t",
            "unitPattern-count-other": "{0} oz t"
          },
          "mass-pound": {
            "displayName": "lb",
            "unitPattern-count-one": "{0} lb",
            "unitPattern-count-other": "{0} lb"
          },
          "mass-stone": {
            "displayName": "st",
            "unitPattern-count-other": "{0} st"
          },
          "mass-ton": {
            "displayName": "lüh. tonnid",
            "unitPattern-count-one": "{0} lüh. t",
            "unitPattern-count-other": "{0} lüh. t"
          },
          "power-gigawatt": {
            "displayName": "GW",
            "unitPattern-count-one": "{0} GW",
            "unitPattern-count-other": "{0} GW"
          },
          "power-horsepower": {
            "displayName": "hj",
            "unitPattern-count-one": "{0} hj",
            "unitPattern-count-other": "{0} hj"
          },
          "power-kilowatt": {
            "displayName": "kW",
            "unitPattern-count-one": "{0}kW",
            "unitPattern-count-other": "{0}kW"
          },
          "power-megawatt": {
            "displayName": "MW",
            "unitPattern-count-one": "{0} MW",
            "unitPattern-count-other": "{0} MW"
          },
          "power-milliwatt": {
            "displayName": "mW",
            "unitPattern-count-one": "{0} mW",
            "unitPattern-count-other": "{0} mW"
          },
          "power-watt": {
            "displayName": "vatid",
            "unitPattern-count-one": "{0}W",
            "unitPattern-count-other": "{0}W"
          },
          "pressure-hectopascal": {
            "displayName": "hPa",
            "unitPattern-count-one": "{0} hPa",
            "unitPattern-count-other": "{0} hPa"
          },
          "pressure-inch-hg": {
            "displayName": "tolli elavhõbedasammast",
            "unitPattern-count-one": "{0} toll Hg",
            "unitPattern-count-other": "{0} tolli Hg"
          },
          "pressure-millibar": {
            "displayName": "mbar",
            "unitPattern-count-one": "{0} mbar",
            "unitPattern-count-other": "{0} mbar"
          },
          "pressure-millimeter-of-mercury": {
            "displayName": "mm Hg",
            "unitPattern-count-one": "{0} mm Hg",
            "unitPattern-count-other": "{0} mm Hg"
          },
          "pressure-pound-per-square-inch": {
            "displayName": "psi",
            "unitPattern-count-one": "{0} psi",
            "unitPattern-count-other": "{0} psi"
          },
          "proportion-karat": {
            "displayName": "karaat",
            "unitPattern-count-one": "{0} ct",
            "unitPattern-count-other": "{0} ct"
          },
          "speed-kilometer-per-hour": {
            "displayName": "km/h",
            "unitPattern-count-one": "{0}km/h",
            "unitPattern-count-other": "{0}km/h"
          },
          "speed-meter-per-second": {
            "displayName": "m/s",
            "unitPattern-count-one": "{0}m/s",
            "unitPattern-count-other": "{0}m/s"
          },
          "speed-mile-per-hour": {
            "displayName": "mi/h",
            "unitPattern-count-one": "{0} mi/h",
            "unitPattern-count-other": "{0} mi/h"
          },
          "temperature-celsius": {
            "displayName": "°C",
            "unitPattern-count-one": "{0} °",
            "unitPattern-count-other": "{0} °"
          },
          "temperature-fahrenheit": {
            "displayName": "°F",
            "unitPattern-count-one": "{0} °F",
            "unitPattern-count-other": "{0} °F"
          },
          "temperature-kelvin": {
            "displayName": "K",
            "unitPattern-count-one": "{0} K",
            "unitPattern-count-other": "{0} K"
          },
          "volume-acre-foot": {
            "displayName": "aaker ft",
            "unitPattern-count-one": "{0} ac ft",
            "unitPattern-count-other": "{0} ac ft"
          },
          "volume-bushel": {
            "displayName": "bu",
            "unitPattern-count-other": "{0} bu"
          },
          "volume-centiliter": {
            "displayName": "cl",
            "unitPattern-count-one": "{0} cl",
            "unitPattern-count-other": "{0} cl"
          },
          "volume-cubic-centimeter": {
            "displayName": "cm³",
            "unitPattern-count-one": "{0} cm³",
            "unitPattern-count-other": "{0} cm³"
          },
          "volume-cubic-foot": {
            "displayName": "ft³",
            "unitPattern-count-one": "{0} ft³",
            "unitPattern-count-other": "{0} ft³"
          },
          "volume-cubic-inch": {
            "displayName": "kuuptollid",
            "unitPattern-count-one": "{0} tolli³",
            "unitPattern-count-other": "{0} tolli³"
          },
          "volume-cubic-kilometer": {
            "displayName": "km³",
            "unitPattern-count-one": "{0} km³",
            "unitPattern-count-other": "{0} km³"
          },
          "volume-cubic-meter": {
            "displayName": "m³",
            "unitPattern-count-one": "{0} m³",
            "unitPattern-count-other": "{0} m³"
          },
          "volume-cubic-mile": {
            "displayName": "kuupmiili",
            "unitPattern-count-one": "{0} mi³",
            "unitPattern-count-other": "{0} mi³"
          },
          "volume-cubic-yard": {
            "displayName": "kuupjardid",
            "unitPattern-count-one": "{0} yd³",
            "unitPattern-count-other": "{0} yd³"
          },
          "volume-cup": {
            "displayName": "tass",
            "unitPattern-count-one": "{0} tassi",
            "unitPattern-count-other": "{0} tassi"
          },
          "volume-deciliter": {
            "displayName": "dl",
            "unitPattern-count-one": "{0} dl",
            "unitPattern-count-other": "{0} dl"
          },
          "volume-fluid-ounce": {
            "displayName": "fl oz",
            "unitPattern-count-one": "{0} fl oz",
            "unitPattern-count-other": "{0} fl oz"
          },
          "volume-gallon": {
            "displayName": "gal",
            "unitPattern-count-one": "{0} gal",
            "unitPattern-count-other": "{0} gal"
          },
          "volume-hectoliter": {
            "displayName": "hl",
            "unitPattern-count-one": "{0} hl",
            "unitPattern-count-other": "{0} hl"
          },
          "volume-liter": {
            "displayName": "liiter",
            "unitPattern-count-one": "{0} l",
            "unitPattern-count-other": "{0} l"
          },
          "volume-megaliter": {
            "displayName": "Ml",
            "unitPattern-count-one": "{0} Ml",
            "unitPattern-count-other": "{0} Ml"
          },
          "volume-milliliter": {
            "displayName": "ml",
            "unitPattern-count-one": "{0} ml",
            "unitPattern-count-other": "{0} ml"
          },
          "volume-pint": {
            "displayName": "pindid",
            "unitPattern-count-one": "{0} pt",
            "unitPattern-count-other": "{0} pt"
          },
          "volume-quart": {
            "displayName": "kvart",
            "unitPattern-count-one": "{0} qt",
            "unitPattern-count-other": "{0} qt"
          },
          "volume-tablespoon": {
            "displayName": "spl",
            "unitPattern-count-one": "{0} spl",
            "unitPattern-count-other": "{0} spl"
          },
          "volume-teaspoon": {
            "displayName": "tl",
            "unitPattern-count-one": "{0} tl",
            "unitPattern-count-other": "{0} tl"
          }
        },
        "durationUnit-type-hm": {
          "durationUnitPattern": "h:mm"
        },
        "durationUnit-type-hms": {
          "durationUnitPattern": "h:mm:ss"
        },
        "durationUnit-type-ms": {
          "durationUnitPattern": "m:ss"
        }
      }
    }
  }
}
