{
  "main": {
    "brx": {
      "identity": {
        "version": {
          "_cldrVersion": "26",
          "_number": "$Revision: 10809 $"
        },
        "generation": {
          "_date": "$Date: 2014-08-14 15:10:07 -0500 (Thu, 14 Aug 2014) $"
        },
        "language": "brx"
      },
      "characters": {
        "exemplarCharacters": "[\u093C \u0901 \u0902 अ आ इ ई उ ऊ ऍ ए ऐ ऑ ओ औ क ख ग घ च छ ज झ ञ ट ठ ड {ड\u093C} ढ ण त थ द ध न प फ ब भ म य र ल ळ व श ष स ह ा ि ी \u0941 \u0942 \u0943 \u0945 \u0947 \u0948 ॉ ो ौ \u094D]",
        "auxiliary": "[\u200C\u200D]",
        "punctuation": "[\\- , ; \\: ! ? . ( ) \\[ \\] \\{ \\}]",
        "index": "[अ आ इ ई उ ऊ ऍ ए ऐ ऑ ओ औ क ख ग घ च छ ज झ ञ ट ठ ड {ड\u093C} ढ ण त थ द ध न प फ ब भ म य र ल ळ व श ष स ह]",
        "ellipsis": {
          "initial": "…{0}",
          "medial": "{0}…{1}",
          "final": "{0}…",
          "word-initial": "… {0}",
          "word-medial": "{0} … {1}",
          "word-final": "{0} …"
        },
        "moreInformation": "?"
      }
    }
  }
}
