{
  "main": {
    "ar-MA": {
      "identity": {
        "version": {
          "_cldrVersion": "26",
          "_number": "$Revision: 10819 $"
        },
        "generation": {
          "_date": "$Date: 2014-08-14 22:53:08 -0500 (Thu, 14 Aug 2014) $"
        },
        "language": "ar",
        "territory": "MA"
      },
      "localeDisplayNames": {
        "variants": {
          "1606NICT": "1606NICT",
          "1694ACAD": "1694ACAD",
          "1901": "التهجئة الألمانية التقليدية",
          "1959ACAD": "أكاديمي",
          "1994": "1994",
          "1996": "التهجئة الألمانية لعام 1996",
          "ALALC97": "ALALC97",
          "ALUKU": "ALUKU",
          "AREVELA": "أرمنية شرقية",
          "AREVMDA": "أرمنية غربية",
          "BAKU1926": "الأبجدية التركية اللاتينية الموحدة",
          "BALANKA": "BALANKA",
          "BARLA": "BARLA",
          "BAUDDHA": "BAUDDHA",
          "BISCAYAN": "BISCAYAN",
          "BISKE": "BISKE",
          "BOHORIC": "BOHORIC",
          "BOONT": "BOONT",
          "DAJNKO": "DAJNKO",
          "EKAVSK": "EKAVSK",
          "EMODENG": "EMODENG",
          "FONIPA": "FONIPA",
          "FONUPA": "FONUPA",
          "FONXSAMP": "FONXSAMP",
          "HEPBURN": "HEPBURN",
          "HOGNORSK": "HOGNORSK",
          "IJEKAVSK": "IJEKAVSK",
          "ITIHASA": "ITIHASA",
          "JAUER": "JAUER",
          "JYUTPING": "JYUTPING",
          "KKCOR": "التهجئة العامة",
          "KSCOR": "KSCOR",
          "LAUKIKA": "LAUKIKA",
          "LIPAW": "LIPAW",
          "LUNA1918": "LUNA1918",
          "METELKO": "METELKO",
          "MONOTON": "أحادي النغمة",
          "NDYUKA": "NDYUKA",
          "NEDIS": "لهجة ناتيسون",
          "NJIVA": "NJIVA",
          "NULIK": "NULIK",
          "OSOJS": "OSOJS",
          "PAMAKA": "PAMAKA",
          "PETR1708": "PETR1708",
          "PINYIN": "بينيين باللاتينية",
          "POLYTON": "متعدد النغمات",
          "POSIX": "حاسوب",
          "PUTER": "PUTER",
          "REVISED": "تهجئة تمت مراجعتها",
          "RIGIK": "RIGIK",
          "ROZAJ": "ROZAJ",
          "RUMGR": "RUMGR",
          "SAAHO": "SAAHO",
          "SCOTLAND": "الإنجليزية الأسكتلندنية الرسمية",
          "SCOUSE": "SCOUSE",
          "SOLBA": "SOLBA",
          "SOTAV": "SOTAV",
          "SURMIRAN": "SURMIRAN",
          "SURSILV": "SURSILV",
          "SUTSILV": "SUTSILV",
          "TARASK": "TARASK",
          "UCCOR": "التهجئة الموحدة",
          "UCRCOR": "التهجئة المراجعة الموحدة",
          "ULSTER": "ULSTER",
          "UNIFON": "UNIFON",
          "VAIDIKA": "VAIDIKA",
          "VALENCIA": "بلنسية",
          "VALLADER": "VALLADER",
          "WADEGILE": "المندرين باللاتينية - ويد–جيلز"
        }
      }
    }
  }
}
