{
  "main": {
    "id": {
      "identity": {
        "version": {
          "_cldrVersion": "26",
          "_number": "$Revision: 10809 $"
        },
        "generation": {
          "_date": "$Date: 2014-08-14 15:10:07 -0500 (Thu, 14 Aug 2014) $"
        },
        "language": "id"
      },
      "dates": {
        "calendars": {
          "indian": {
            "months": {
              "format": {
                "abbreviated": {
                  "1": "Chaitra",
                  "2": "Vaisakha",
                  "3": "Jyaistha",
                  "4": "Asadha",
                  "5": "Sravana",
                  "6": "Bhadra",
                  "7": "Asvina",
                  "8": "Kartika",
                  "9": "Agrahayana",
                  "10": "Pausa",
                  "11": "Magha",
                  "12": "Phalguna"
                },
                "narrow": {
                  "1": "1",
                  "2": "2",
                  "3": "3",
                  "4": "4",
                  "5": "5",
                  "6": "6",
                  "7": "7",
                  "8": "8",
                  "9": "9",
                  "10": "10",
                  "11": "11",
                  "12": "12"
                },
                "wide": {
                  "1": "Chaitra",
                  "2": "Vaisakha",
                  "3": "Jyaistha",
                  "4": "Asadha",
                  "5": "Sravana",
                  "6": "Bhadra",
                  "7": "Asvina",
                  "8": "Kartika",
                  "9": "Agrahayana",
                  "10": "Pausa",
                  "11": "Magha",
                  "12": "Phalguna"
                }
              },
              "stand-alone": {
                "abbreviated": {
                  "1": "Chaitra",
                  "2": "Vaisakha",
                  "3": "Jyaistha",
                  "4": "Asadha",
                  "5": "Sravana",
                  "6": "Bhadra",
                  "7": "Asvina",
                  "8": "Kartika",
                  "9": "Agrahayana",
                  "10": "Pausa",
                  "11": "Magha",
                  "12": "Phalguna"
                },
                "narrow": {
                  "1": "1",
                  "2": "2",
                  "3": "3",
                  "4": "4",
                  "5": "5",
                  "6": "6",
                  "7": "7",
                  "8": "8",
                  "9": "9",
                  "10": "10",
                  "11": "11",
                  "12": "12"
                },
                "wide": {
                  "1": "Chaitra",
                  "2": "Vaisakha",
                  "3": "Jyaistha",
                  "4": "Asadha",
                  "5": "Sravana",
                  "6": "Bhadra",
                  "7": "Asvina",
                  "8": "Kartika",
                  "9": "Agrahayana",
                  "10": "Pausa",
                  "11": "Magha",
                  "12": "Phalguna"
                }
              }
            },
            "days": {
              "format": {
                "abbreviated": {
                  "sun": "Min",
                  "mon": "Sen",
                  "tue": "Sel",
                  "wed": "Rab",
                  "thu": "Kam",
                  "fri": "Jum",
                  "sat": "Sab"
                },
                "narrow": {
                  "sun": "M",
                  "mon": "S",
                  "tue": "S",
                  "wed": "R",
                  "thu": "K",
                  "fri": "J",
                  "sat": "S"
                },
                "short": {
                  "sun": "Min",
                  "mon": "Sen",
                  "tue": "Sel",
                  "wed": "Rab",
                  "thu": "Kam",
                  "fri": "Jum",
                  "sat": "Sab"
                },
                "wide": {
                  "sun": "Minggu",
                  "mon": "Senin",
                  "tue": "Selasa",
                  "wed": "Rabu",
                  "thu": "Kamis",
                  "fri": "Jumat",
                  "sat": "Sabtu"
                }
              },
              "stand-alone": {
                "abbreviated": {
                  "sun": "Min",
                  "mon": "Sen",
                  "tue": "Sel",
                  "wed": "Rab",
                  "thu": "Kam",
                  "fri": "Jum",
                  "sat": "Sab"
                },
                "narrow": {
                  "sun": "M",
                  "mon": "S",
                  "tue": "S",
                  "wed": "R",
                  "thu": "K",
                  "fri": "J",
                  "sat": "S"
                },
                "short": {
                  "sun": "Min",
                  "mon": "Sen",
                  "tue": "Sel",
                  "wed": "Rab",
                  "thu": "Kam",
                  "fri": "Jum",
                  "sat": "Sab"
                },
                "wide": {
                  "sun": "Minggu",
                  "mon": "Senin",
                  "tue": "Selasa",
                  "wed": "Rabu",
                  "thu": "Kamis",
                  "fri": "Jumat",
                  "sat": "Sabtu"
                }
              }
            },
            "quarters": {
              "format": {
                "abbreviated": {
                  "1": "K1",
                  "2": "K2",
                  "3": "K3",
                  "4": "K4"
                },
                "narrow": {
                  "1": "1",
                  "2": "2",
                  "3": "3",
                  "4": "4"
                },
                "wide": {
                  "1": "Kuartal ke-1",
                  "2": "Kuartal ke-2",
                  "3": "Kuartal ke-3",
                  "4": "Kuartal ke-4"
                }
              },
              "stand-alone": {
                "abbreviated": {
                  "1": "K1",
                  "2": "K2",
                  "3": "K3",
                  "4": "K4"
                },
                "narrow": {
                  "1": "1",
                  "2": "2",
                  "3": "3",
                  "4": "4"
                },
                "wide": {
                  "1": "Kuartal ke-1",
                  "2": "Kuartal ke-2",
                  "3": "Kuartal ke-3",
                  "4": "Kuartal ke-4"
                }
              }
            },
            "dayPeriods": {
              "format": {
                "abbreviated": {
                  "am": "AM",
                  "noon": "tengah hari",
                  "pm": "PM"
                },
                "narrow": {
                  "am": "AM",
                  "noon": "tengah hari",
                  "pm": "PM"
                },
                "wide": {
                  "am": "AM",
                  "noon": "tengah hari",
                  "pm": "PM"
                }
              },
              "stand-alone": {
                "abbreviated": {
                  "am": "AM",
                  "noon": "tengah hari",
                  "pm": "PM"
                },
                "narrow": {
                  "am": "AM",
                  "noon": "tengah hari",
                  "pm": "PM"
                },
                "wide": {
                  "am": "AM",
                  "noon": "tengah hari",
                  "pm": "PM"
                }
              }
            },
            "eras": {
              "eraNames": {
                "0": "SAKA"
              },
              "eraAbbr": {
                "0": "SAKA"
              },
              "eraNarrow": {
                "0": "SAKA"
              }
            },
            "dateFormats": {
              "full": "EEEE, dd MMMM y G",
              "long": "d MMMM y G",
              "medium": "d MMM y G",
              "short": "dd/MM/yy GGGGG"
            },
            "timeFormats": {
              "full": "HH.mm.ss zzzz",
              "long": "HH.mm.ss z",
              "medium": "HH.mm.ss",
              "short": "HH.mm"
            },
            "dateTimeFormats": {
              "full": "{1} {0}",
              "long": "{1} {0}",
              "medium": "{1} {0}",
              "short": "{1} {0}",
              "availableFormats": {
                "E": "ccc",
                "EHm": "E HH:mm",
                "EHms": "E HH:mm:ss",
                "Ed": "E, d",
                "Ehm": "E h:mm a",
                "Ehms": "E h:mm:ss a",
                "Gy": "y G",
                "GyMMM": "MMM y G",
                "GyMMMEd": "E, d MMM y G",
                "GyMMMd": "d MMM y G",
                "H": "HH",
                "Hm": "HH.mm",
                "Hms": "HH.mm.ss",
                "M": "L",
                "MEd": "E, d/M",
                "MMM": "LLL",
                "MMMEd": "E, d MMM",
                "MMMMEd": "E, d MMMM",
                "MMMMd": "d MMMM",
                "MMMd": "d MMM",
                "Md": "d/M",
                "d": "d",
                "h": "h a",
                "hm": "h.mm a",
                "hms": "h.mm.ss a",
                "ms": "mm.ss",
                "y": "y G",
                "yyyy": "y G",
                "yyyyM": "M/y G",
                "yyyyMEd": "E, d/M/y G",
                "yyyyMMM": "MMM y G",
                "yyyyMMMEd": "E, d MMM y G",
                "yyyyMMMd": "d MMM y G",
                "yyyyMd": "d/M/y G",
                "yyyyQQQ": "QQQ y G",
                "yyyyQQQQ": "QQQQ y G"
              },
              "appendItems": {
                "Day": "{0} ({2}: {1})",
                "Day-Of-Week": "{0} {1}",
                "Era": "{1} {0}",
                "Hour": "{0} ({2}: {1})",
                "Minute": "{0} ({2}: {1})",
                "Month": "{0} ({2}: {1})",
                "Quarter": "{0} ({2}: {1})",
                "Second": "{0} ({2}: {1})",
                "Timezone": "{0} {1}",
                "Week": "{0} ({2}: {1})",
                "Year": "{1} {0}"
              },
              "intervalFormats": {
                "intervalFormatFallback": "{0} – {1}",
                "H": {
                  "H": "HH–HH"
                },
                "Hm": {
                  "H": "HH.mm–HH.mm",
                  "m": "HH.mm–HH.mm"
                },
                "Hmv": {
                  "H": "HH.mm–HH.mm v",
                  "m": "HH.mm–HH.mm v"
                },
                "Hv": {
                  "H": "HH–HH v"
                },
                "M": {
                  "M": "M–M"
                },
                "MEd": {
                  "M": "E, d/M – E, d/M",
                  "d": "E, d/M – E, d/M"
                },
                "MMM": {
                  "M": "MMM–MMM"
                },
                "MMMEd": {
                  "M": "E, d MMM – E, d MMM",
                  "d": "E, d MMM – E, d MMM"
                },
                "MMMd": {
                  "M": "d MMM – d MMM",
                  "d": "d–d MMM"
                },
                "Md": {
                  "M": "d/M – d/M",
                  "d": "d/M – d/M"
                },
                "d": {
                  "d": "d–d"
                },
                "h": {
                  "a": "h a – h a",
                  "h": "h–h a"
                },
                "hm": {
                  "a": "h.mm a – h.mm a",
                  "h": "h.mm–h.mm a",
                  "m": "h.mm–h.mm a"
                },
                "hmv": {
                  "a": "h.mm a – h.mm a v",
                  "h": "h.mm–h.mm a v",
                  "m": "h.mm–h.mm a v"
                },
                "hv": {
                  "a": "h a – h a v",
                  "h": "h–h a v"
                },
                "y": {
                  "y": "y-y G"
                },
                "yM": {
                  "M": "M/y – M/y GGGGG",
                  "y": "M/y – M/y GGGGG"
                },
                "yMEd": {
                  "M": "E, d/M/y – E, d/M/y GGGGG",
                  "d": "E, d/M/y – E, d/M/y GGGGG",
                  "y": "E, d/M/y – E, d/M/y GGGGG"
                },
                "yMMM": {
                  "M": "MMM–MMM y G",
                  "y": "MMM y – MMM y G"
                },
                "yMMMEd": {
                  "M": "E, d MMM – E, d MMM y G",
                  "d": "E, d MMM – E, d MMM y G",
                  "y": "E, d MMM y – E, d MMM y G"
                },
                "yMMMM": {
                  "M": "MMMM – MMMM y G",
                  "y": "MMMM y – MMMM y G"
                },
                "yMMMd": {
                  "M": "d MMM – d MMM y G",
                  "d": "d-d MMM y G",
                  "y": "d MMM y – d MMM y G"
                },
                "yMd": {
                  "M": "d/M/y – d/M/y GGGGG",
                  "d": "d/M/y – d/M/y GGGGG",
                  "y": "d/M/y – d/M/y GGGGG"
                }
              }
            }
          }
        }
      }
    }
  }
}
