{
  "main": {
    "pt-CV": {
      "identity": {
        "version": {
          "_cldrVersion": "26",
          "_number": "$Revision: 10708 $"
        },
        "generation": {
          "_date": "$Date: 2014-07-31 16:08:50 -0500 (Thu, 31 Jul 2014) $"
        },
        "language": "pt",
        "territory": "CV"
      },
      "units": {
        "long": {
          "per": {
            "compoundUnitPattern": "{0} por {1}"
          },
          "acceleration-g-force": {
            "displayName": "força G",
            "unitPattern-count-one": "{0} força G",
            "unitPattern-count-other": "{0} força G"
          },
          "acceleration-meter-per-second-squared": {
            "displayName": "metros por segundo quadrado",
            "unitPattern-count-one": "{0} metro por segundo quadrado",
            "unitPattern-count-other": "{0} metros por segundo quadrado"
          },
          "angle-arc-minute": {
            "displayName": "minutos de arco",
            "unitPattern-count-one": "{0} minuto de arco",
            "unitPattern-count-other": "{0} minutos de arco"
          },
          "angle-arc-second": {
            "displayName": "segundos de arco",
            "unitPattern-count-one": "{0} segundo de arco",
            "unitPattern-count-other": "{0} segundos de arco"
          },
          "angle-degree": {
            "displayName": "graus",
            "unitPattern-count-one": "{0} grau",
            "unitPattern-count-other": "{0} graus"
          },
          "angle-radian": {
            "displayName": "radianos",
            "unitPattern-count-one": "{0} radiano",
            "unitPattern-count-other": "{0} radianos"
          },
          "area-acre": {
            "displayName": "acres",
            "unitPattern-count-one": "{0} acre",
            "unitPattern-count-other": "{0} acres"
          },
          "area-hectare": {
            "displayName": "hectares",
            "unitPattern-count-one": "{0} hectare",
            "unitPattern-count-other": "{0} hectares"
          },
          "area-square-centimeter": {
            "displayName": "centímetros quadrados",
            "unitPattern-count-one": "{0} centímetro quadrado",
            "unitPattern-count-other": "{0} centímetros quadrados"
          },
          "area-square-foot": {
            "displayName": "pés quadrados",
            "unitPattern-count-one": "{0} pé quadrado",
            "unitPattern-count-other": "{0} pés quadrados"
          },
          "area-square-inch": {
            "displayName": "polegadas quadradas",
            "unitPattern-count-one": "{0} polegada quadrada",
            "unitPattern-count-other": "{0} polegadas quadradas"
          },
          "area-square-kilometer": {
            "displayName": "quilómetros quadrados",
            "unitPattern-count-one": "{0} quilómetro quadrado",
            "unitPattern-count-other": "{0} quilómetros quadrados"
          },
          "area-square-meter": {
            "displayName": "metros quadrados",
            "unitPattern-count-one": "{0} metro quadrado",
            "unitPattern-count-other": "{0} metros quadrados"
          },
          "area-square-mile": {
            "displayName": "milhas quadradas",
            "unitPattern-count-one": "{0} milha quadrada",
            "unitPattern-count-other": "{0} milhas quadradas"
          },
          "area-square-yard": {
            "displayName": "jardas quadradas",
            "unitPattern-count-one": "{0} jarda quadrada",
            "unitPattern-count-other": "{0} jardas quadradas"
          },
          "consumption-liter-per-kilometer": {
            "displayName": "litros por quilómetro",
            "unitPattern-count-one": "{0} litro por quilómetro",
            "unitPattern-count-other": "{0} litros por quilómetro"
          },
          "consumption-mile-per-gallon": {
            "displayName": "milhas por galão",
            "unitPattern-count-one": "{0} milha por galão",
            "unitPattern-count-other": "{0} milhas por galão"
          },
          "digital-bit": {
            "displayName": "bits",
            "unitPattern-count-one": "{0} bit",
            "unitPattern-count-other": "{0} bits"
          },
          "digital-byte": {
            "displayName": "bytes",
            "unitPattern-count-one": "{0} byte",
            "unitPattern-count-other": "{0} bytes"
          },
          "digital-gigabit": {
            "displayName": "gigabits",
            "unitPattern-count-one": "{0} gigabit",
            "unitPattern-count-other": "{0} gigabits"
          },
          "digital-gigabyte": {
            "displayName": "gigabytes",
            "unitPattern-count-one": "{0} gigabyte",
            "unitPattern-count-other": "{0} gigabytes"
          },
          "digital-kilobit": {
            "displayName": "kilobits",
            "unitPattern-count-one": "{0} kilobit",
            "unitPattern-count-other": "{0} kilobits"
          },
          "digital-kilobyte": {
            "displayName": "kilobytes",
            "unitPattern-count-one": "{0} kilobyte",
            "unitPattern-count-other": "{0} kilobytes"
          },
          "digital-megabit": {
            "displayName": "megabits",
            "unitPattern-count-one": "{0} megabit",
            "unitPattern-count-other": "{0} megabits"
          },
          "digital-megabyte": {
            "displayName": "megabytes",
            "unitPattern-count-one": "{0} megabyte",
            "unitPattern-count-other": "{0} megabytes"
          },
          "digital-terabit": {
            "displayName": "terabits",
            "unitPattern-count-one": "{0} terabit",
            "unitPattern-count-other": "{0} terabits"
          },
          "digital-terabyte": {
            "displayName": "terabytes",
            "unitPattern-count-one": "{0} terabyte",
            "unitPattern-count-other": "{0} terabytes"
          },
          "duration-day": {
            "displayName": "dias",
            "unitPattern-count-one": "{0} dia",
            "unitPattern-count-other": "{0} dias"
          },
          "duration-hour": {
            "displayName": "horas",
            "unitPattern-count-one": "{0} hora",
            "unitPattern-count-other": "{0} horas",
            "perUnitPattern": "{0}/h"
          },
          "duration-microsecond": {
            "displayName": "microssegundos",
            "unitPattern-count-one": "{0} microssegundo",
            "unitPattern-count-other": "{0} microssegundos"
          },
          "duration-millisecond": {
            "displayName": "milissegundos",
            "unitPattern-count-one": "{0} milissegundo",
            "unitPattern-count-other": "{0} milissegundos"
          },
          "duration-minute": {
            "displayName": "minutos",
            "unitPattern-count-one": "{0} minuto",
            "unitPattern-count-other": "{0} minutos"
          },
          "duration-month": {
            "displayName": "meses",
            "unitPattern-count-one": "{0} mês",
            "unitPattern-count-other": "{0} meses"
          },
          "duration-nanosecond": {
            "displayName": "nanossegundos",
            "unitPattern-count-one": "{0} nanossegundo",
            "unitPattern-count-other": "{0} nanossegundos"
          },
          "duration-second": {
            "displayName": "segundos",
            "unitPattern-count-one": "{0} segundo",
            "unitPattern-count-other": "{0} segundos",
            "perUnitPattern": "{0}/s"
          },
          "duration-week": {
            "displayName": "semanas",
            "unitPattern-count-one": "{0} semana",
            "unitPattern-count-other": "{0} semanas"
          },
          "duration-year": {
            "displayName": "anos",
            "unitPattern-count-one": "{0} ano",
            "unitPattern-count-other": "{0} anos"
          },
          "electric-ampere": {
            "displayName": "amperes",
            "unitPattern-count-one": "{0} ampere",
            "unitPattern-count-other": "{0} amperes"
          },
          "electric-milliampere": {
            "displayName": "miliamperes",
            "unitPattern-count-one": "{0} miliampere",
            "unitPattern-count-other": "{0} miliamperes"
          },
          "electric-ohm": {
            "displayName": "ohms",
            "unitPattern-count-one": "{0} ohm",
            "unitPattern-count-other": "{0} ohms"
          },
          "electric-volt": {
            "displayName": "volts",
            "unitPattern-count-one": "{0} volt",
            "unitPattern-count-other": "{0} volts"
          },
          "energy-calorie": {
            "displayName": "calorias",
            "unitPattern-count-one": "{0} caloria",
            "unitPattern-count-other": "{0} calorias"
          },
          "energy-foodcalorie": {
            "displayName": "quilocalorias",
            "unitPattern-count-one": "{0} quilocaloria",
            "unitPattern-count-other": "{0} quilocalorias"
          },
          "energy-joule": {
            "displayName": "joules",
            "unitPattern-count-one": "{0} joule",
            "unitPattern-count-other": "{0} joules"
          },
          "energy-kilocalorie": {
            "displayName": "quilocalorias",
            "unitPattern-count-one": "{0} quilocaloria",
            "unitPattern-count-other": "{0} quilocalorias"
          },
          "energy-kilojoule": {
            "displayName": "quilojoules",
            "unitPattern-count-one": "{0} quilojoule",
            "unitPattern-count-other": "{0} quilojoules"
          },
          "energy-kilowatt-hour": {
            "displayName": "quilowatts-hora",
            "unitPattern-count-one": "{0} quilowatt-hora",
            "unitPattern-count-other": "{0} quilowatts-hora"
          },
          "frequency-gigahertz": {
            "displayName": "gigahertz",
            "unitPattern-count-one": "{0} gigahertz",
            "unitPattern-count-other": "{0} gigahertz"
          },
          "frequency-hertz": {
            "displayName": "hertz",
            "unitPattern-count-one": "{0} hertz",
            "unitPattern-count-other": "{0} hertz"
          },
          "frequency-kilohertz": {
            "displayName": "kilohertz",
            "unitPattern-count-one": "{0} kilohertz",
            "unitPattern-count-other": "{0} kilohertz"
          },
          "frequency-megahertz": {
            "displayName": "megahertz",
            "unitPattern-count-one": "{0} megahertz",
            "unitPattern-count-other": "{0} megahertz"
          },
          "length-astronomical-unit": {
            "displayName": "unidades astronómicas",
            "unitPattern-count-one": "{0} unidade astronómica",
            "unitPattern-count-other": "{0} unidades astronómicas"
          },
          "length-centimeter": {
            "displayName": "centímetros",
            "unitPattern-count-one": "{0} centímetro",
            "unitPattern-count-other": "{0} centímetros"
          },
          "length-decimeter": {
            "displayName": "decímetros",
            "unitPattern-count-one": "{0} decímetro",
            "unitPattern-count-other": "{0} decímetros"
          },
          "length-fathom": {
            "displayName": "fm",
            "unitPattern-count-other": "{0} fm"
          },
          "length-foot": {
            "displayName": "pés",
            "unitPattern-count-one": "{0} pé",
            "unitPattern-count-other": "{0} pés"
          },
          "length-furlong": {
            "displayName": "fur",
            "unitPattern-count-other": "{0} fur"
          },
          "length-inch": {
            "displayName": "polegadas",
            "unitPattern-count-one": "{0} polegada",
            "unitPattern-count-other": "{0} polegadas"
          },
          "length-kilometer": {
            "displayName": "quilómetros",
            "unitPattern-count-one": "{0} quilómetro",
            "unitPattern-count-other": "{0} quilómetros"
          },
          "length-light-year": {
            "displayName": "anos-luz",
            "unitPattern-count-one": "{0} ano-luz",
            "unitPattern-count-other": "{0} anos-luz"
          },
          "length-meter": {
            "displayName": "metros",
            "unitPattern-count-one": "{0} metro",
            "unitPattern-count-other": "{0} metros"
          },
          "length-micrometer": {
            "displayName": "micrómetros",
            "unitPattern-count-one": "{0} micrómetro",
            "unitPattern-count-other": "{0} micrómetros"
          },
          "length-mile": {
            "displayName": "milhas",
            "unitPattern-count-one": "{0} milha",
            "unitPattern-count-other": "{0} milhas"
          },
          "length-millimeter": {
            "displayName": "milímetros",
            "unitPattern-count-one": "{0} milímetro",
            "unitPattern-count-other": "{0} milímetros"
          },
          "length-nanometer": {
            "displayName": "nanómetros",
            "unitPattern-count-one": "{0} nanómetro",
            "unitPattern-count-other": "{0} nanómetros"
          },
          "length-nautical-mile": {
            "displayName": "milhas náuticas",
            "unitPattern-count-one": "{0} milha náutica",
            "unitPattern-count-other": "{0} milhas náuticas"
          },
          "length-parsec": {
            "displayName": "parsecs",
            "unitPattern-count-one": "{0} parsec",
            "unitPattern-count-other": "{0} parsecs"
          },
          "length-picometer": {
            "displayName": "picómetros",
            "unitPattern-count-one": "{0} picómetro",
            "unitPattern-count-other": "{0} picómetros"
          },
          "length-yard": {
            "displayName": "jardas",
            "unitPattern-count-one": "{0} jarda",
            "unitPattern-count-other": "{0} jardas"
          },
          "light-lux": {
            "displayName": "lux",
            "unitPattern-count-one": "{0} lux",
            "unitPattern-count-other": "{0} lux"
          },
          "mass-carat": {
            "displayName": "quilates",
            "unitPattern-count-one": "{0} quilate",
            "unitPattern-count-other": "{0} quilates"
          },
          "mass-gram": {
            "displayName": "gramas",
            "unitPattern-count-one": "{0} grama",
            "unitPattern-count-other": "{0} gramas"
          },
          "mass-kilogram": {
            "displayName": "quilogramas",
            "unitPattern-count-one": "{0} quilograma",
            "unitPattern-count-other": "{0} quilogramas"
          },
          "mass-metric-ton": {
            "displayName": "toneladas métricas",
            "unitPattern-count-one": "{0} tonelada métrica",
            "unitPattern-count-other": "{0} toneladas métricas"
          },
          "mass-microgram": {
            "displayName": "microgramas",
            "unitPattern-count-one": "{0} micrograma",
            "unitPattern-count-other": "{0} microgramas"
          },
          "mass-milligram": {
            "displayName": "miligramas",
            "unitPattern-count-one": "{0} miligrama",
            "unitPattern-count-other": "{0} miligramas"
          },
          "mass-ounce": {
            "displayName": "onças",
            "unitPattern-count-one": "{0} onça",
            "unitPattern-count-other": "{0} onças"
          },
          "mass-ounce-troy": {
            "displayName": "onças troy",
            "unitPattern-count-one": "{0} onça troy",
            "unitPattern-count-other": "{0} onças troy"
          },
          "mass-pound": {
            "displayName": "libras",
            "unitPattern-count-one": "{0} libra",
            "unitPattern-count-other": "{0} libras"
          },
          "mass-stone": {
            "displayName": "st",
            "unitPattern-count-other": "{0} st"
          },
          "mass-ton": {
            "displayName": "toneladas",
            "unitPattern-count-one": "{0} tonelada",
            "unitPattern-count-other": "{0} toneladas"
          },
          "power-gigawatt": {
            "displayName": "gigawatts",
            "unitPattern-count-one": "{0} gigawatt",
            "unitPattern-count-other": "{0} gigawatts"
          },
          "power-horsepower": {
            "displayName": "cavalos-vapor",
            "unitPattern-count-one": "{0} cavalo-vapor",
            "unitPattern-count-other": "{0} cavalos-vapor"
          },
          "power-kilowatt": {
            "displayName": "quilowatts",
            "unitPattern-count-one": "{0} quilowatt",
            "unitPattern-count-other": "{0} quilowatts"
          },
          "power-megawatt": {
            "displayName": "megawatts",
            "unitPattern-count-one": "{0} megawatt",
            "unitPattern-count-other": "{0} megawatts"
          },
          "power-milliwatt": {
            "displayName": "miliwatts",
            "unitPattern-count-one": "{0} miliwatt",
            "unitPattern-count-other": "{0} miliwatts"
          },
          "power-watt": {
            "displayName": "watts",
            "unitPattern-count-one": "{0} watt",
            "unitPattern-count-other": "{0} watts"
          },
          "pressure-hectopascal": {
            "displayName": "hectopascais",
            "unitPattern-count-one": "{0} hectopascal",
            "unitPattern-count-other": "{0} hectopascais"
          },
          "pressure-inch-hg": {
            "displayName": "polegadas de mercúrio",
            "unitPattern-count-one": "{0} polegada de mercúrio",
            "unitPattern-count-other": "{0} polegadas de mercúrio"
          },
          "pressure-millibar": {
            "displayName": "milibares",
            "unitPattern-count-one": "{0} milibar",
            "unitPattern-count-other": "{0} milibares"
          },
          "pressure-millimeter-of-mercury": {
            "displayName": "milímetros de mercúrio",
            "unitPattern-count-one": "{0} milímetro de mercúrio",
            "unitPattern-count-other": "{0} milímetros de mercúrio"
          },
          "pressure-pound-per-square-inch": {
            "displayName": "psi",
            "unitPattern-count-one": "{0} psi",
            "unitPattern-count-other": "{0} psi"
          },
          "proportion-karat": {
            "displayName": "quilates",
            "unitPattern-count-one": "{0} quilate",
            "unitPattern-count-other": "{0} quilates"
          },
          "speed-kilometer-per-hour": {
            "displayName": "quilómetros por hora",
            "unitPattern-count-one": "{0} quilómetro por hora",
            "unitPattern-count-other": "{0} quilómetros por hora"
          },
          "speed-meter-per-second": {
            "displayName": "metros por segundo",
            "unitPattern-count-one": "{0} metro por segundo",
            "unitPattern-count-other": "{0} metros por segundo"
          },
          "speed-mile-per-hour": {
            "displayName": "milhas por hora",
            "unitPattern-count-one": "{0} milha por hora",
            "unitPattern-count-other": "{0} milhas por hora"
          },
          "temperature-celsius": {
            "displayName": "graus Celsius",
            "unitPattern-count-one": "{0} grau Celsius",
            "unitPattern-count-other": "{0} graus Celsius"
          },
          "temperature-fahrenheit": {
            "displayName": "graus Fahrenheit",
            "unitPattern-count-one": "{0} grau Fahrenheit",
            "unitPattern-count-other": "{0} graus Fahrenheit"
          },
          "temperature-kelvin": {
            "displayName": "kelvins",
            "unitPattern-count-one": "{0} kelvin",
            "unitPattern-count-other": "{0} kelvins"
          },
          "volume-acre-foot": {
            "displayName": "acre-pés",
            "unitPattern-count-one": "{0} acre-pé",
            "unitPattern-count-other": "{0} acre-pés"
          },
          "volume-bushel": {
            "displayName": "bu",
            "unitPattern-count-other": "{0} bu"
          },
          "volume-centiliter": {
            "displayName": "centilitros",
            "unitPattern-count-one": "{0} centilitro",
            "unitPattern-count-other": "{0} centilitros"
          },
          "volume-cubic-centimeter": {
            "displayName": "centímetros cúbicos",
            "unitPattern-count-one": "{0} centímetro cúbico",
            "unitPattern-count-other": "{0} centímetros cúbicos"
          },
          "volume-cubic-foot": {
            "displayName": "pés cúbicos",
            "unitPattern-count-one": "{0} pé cúbico",
            "unitPattern-count-other": "{0} pés cúbicos"
          },
          "volume-cubic-inch": {
            "displayName": "polegadas cúbicas",
            "unitPattern-count-one": "{0} polegada cúbica",
            "unitPattern-count-other": "{0} polegadas cúbicas"
          },
          "volume-cubic-kilometer": {
            "displayName": "quilómetros cúbicos",
            "unitPattern-count-one": "{0} quilómetro cúbico",
            "unitPattern-count-other": "{0} quilómetros cúbicos"
          },
          "volume-cubic-meter": {
            "displayName": "metros cúbicos",
            "unitPattern-count-one": "{0} metro cúbico",
            "unitPattern-count-other": "{0} metros cúbicos"
          },
          "volume-cubic-mile": {
            "displayName": "milhas cúbicas",
            "unitPattern-count-one": "{0} milha cúbica",
            "unitPattern-count-other": "{0} milhas cúbicas"
          },
          "volume-cubic-yard": {
            "displayName": "jardas cúbicas",
            "unitPattern-count-one": "{0} jarda cúbica",
            "unitPattern-count-other": "{0} jardas cúbicas"
          },
          "volume-cup": {
            "displayName": "xícaras",
            "unitPattern-count-one": "{0} xícara",
            "unitPattern-count-other": "{0} xícaras"
          },
          "volume-deciliter": {
            "displayName": "decilitros",
            "unitPattern-count-one": "{0} decilitro",
            "unitPattern-count-other": "{0} decilitros"
          },
          "volume-fluid-ounce": {
            "displayName": "onças fluidas",
            "unitPattern-count-one": "{0} onça fluida",
            "unitPattern-count-other": "{0} onças fluidas"
          },
          "volume-gallon": {
            "displayName": "galões",
            "unitPattern-count-one": "{0} galão",
            "unitPattern-count-other": "{0} galões"
          },
          "volume-hectoliter": {
            "displayName": "hectolitros",
            "unitPattern-count-one": "{0} hectolitro",
            "unitPattern-count-other": "{0} hectolitros"
          },
          "volume-liter": {
            "displayName": "litros",
            "unitPattern-count-one": "{0} litro",
            "unitPattern-count-other": "{0} litros"
          },
          "volume-megaliter": {
            "displayName": "megalitros",
            "unitPattern-count-one": "{0} megalitro",
            "unitPattern-count-other": "{0} megalitros"
          },
          "volume-milliliter": {
            "displayName": "mililitros",
            "unitPattern-count-one": "{0} mililitro",
            "unitPattern-count-other": "{0} mililitros"
          },
          "volume-pint": {
            "displayName": "pints",
            "unitPattern-count-one": "{0} pint",
            "unitPattern-count-other": "{0} pints"
          },
          "volume-quart": {
            "displayName": "quartos",
            "unitPattern-count-one": "{0} quarto",
            "unitPattern-count-other": "{0} quartos"
          },
          "volume-tablespoon": {
            "displayName": "colheres de sopa",
            "unitPattern-count-one": "{0} colher de sopa",
            "unitPattern-count-other": "{0} colheres de sopa"
          },
          "volume-teaspoon": {
            "displayName": "colheres de chá",
            "unitPattern-count-one": "{0} colher de chá",
            "unitPattern-count-other": "{0} colheres de chá"
          }
        },
        "short": {
          "per": {
            "compoundUnitPattern": "{0}/{1}"
          },
          "acceleration-g-force": {
            "displayName": "força G",
            "unitPattern-count-one": "{0} G",
            "unitPattern-count-other": "{0} G"
          },
          "acceleration-meter-per-second-squared": {
            "displayName": "m/s²",
            "unitPattern-count-one": "{0} m/s²",
            "unitPattern-count-other": "{0} m/s²"
          },
          "angle-arc-minute": {
            "displayName": "minutos de arco",
            "unitPattern-count-one": "{0} arcmin",
            "unitPattern-count-other": "{0} arcmins"
          },
          "angle-arc-second": {
            "displayName": "segundos de arco",
            "unitPattern-count-one": "{0} arcseg",
            "unitPattern-count-other": "{0} arcsegs"
          },
          "angle-degree": {
            "displayName": "graus",
            "unitPattern-count-one": "{0}°",
            "unitPattern-count-other": "{0}°"
          },
          "angle-radian": {
            "displayName": "radianos",
            "unitPattern-count-one": "{0} rad",
            "unitPattern-count-other": "{0} rad"
          },
          "area-acre": {
            "displayName": "acres",
            "unitPattern-count-one": "{0} acre",
            "unitPattern-count-other": "{0} acres"
          },
          "area-hectare": {
            "displayName": "hectares",
            "unitPattern-count-one": "{0} ha",
            "unitPattern-count-other": "{0} ha"
          },
          "area-square-centimeter": {
            "displayName": "cm²",
            "unitPattern-count-one": "{0} cm²",
            "unitPattern-count-other": "{0} cm²"
          },
          "area-square-foot": {
            "displayName": "pés quadrados",
            "unitPattern-count-one": "{0} ft²",
            "unitPattern-count-other": "{0} ft²"
          },
          "area-square-inch": {
            "displayName": "in²",
            "unitPattern-count-one": "{0} in²",
            "unitPattern-count-other": "{0} in²"
          },
          "area-square-kilometer": {
            "displayName": "km²",
            "unitPattern-count-one": "{0} km²",
            "unitPattern-count-other": "{0} km²"
          },
          "area-square-meter": {
            "displayName": "m²",
            "unitPattern-count-one": "{0} m²",
            "unitPattern-count-other": "{0} m²"
          },
          "area-square-mile": {
            "displayName": "mi²",
            "unitPattern-count-one": "{0} mi²",
            "unitPattern-count-other": "{0} mi²"
          },
          "area-square-yard": {
            "displayName": "yd²",
            "unitPattern-count-one": "{0} yd²",
            "unitPattern-count-other": "{0} yd²"
          },
          "consumption-liter-per-kilometer": {
            "displayName": "litros/km",
            "unitPattern-count-one": "{0} l/km",
            "unitPattern-count-other": "{0} l/km"
          },
          "consumption-mile-per-gallon": {
            "displayName": "milhas/galão",
            "unitPattern-count-one": "{0} mpg",
            "unitPattern-count-other": "{0} mpg"
          },
          "digital-bit": {
            "displayName": "bit",
            "unitPattern-count-one": "{0} bit",
            "unitPattern-count-other": "{0} bit"
          },
          "digital-byte": {
            "displayName": "byte",
            "unitPattern-count-one": "{0} byte",
            "unitPattern-count-other": "{0} byte"
          },
          "digital-gigabit": {
            "displayName": "Gbit",
            "unitPattern-count-one": "{0} Gb",
            "unitPattern-count-other": "{0} Gb"
          },
          "digital-gigabyte": {
            "displayName": "GByte",
            "unitPattern-count-one": "{0} GB",
            "unitPattern-count-other": "{0} GB"
          },
          "digital-kilobit": {
            "displayName": "kbit",
            "unitPattern-count-one": "{0} kb",
            "unitPattern-count-other": "{0} kb"
          },
          "digital-kilobyte": {
            "displayName": "kByte",
            "unitPattern-count-one": "{0} kB",
            "unitPattern-count-other": "{0} kB"
          },
          "digital-megabit": {
            "displayName": "Mbit",
            "unitPattern-count-one": "{0} Mb",
            "unitPattern-count-other": "{0} Mb"
          },
          "digital-megabyte": {
            "displayName": "MByte",
            "unitPattern-count-one": "{0} MB",
            "unitPattern-count-other": "{0} MB"
          },
          "digital-terabit": {
            "displayName": "Tbit",
            "unitPattern-count-one": "{0} Tb",
            "unitPattern-count-other": "{0} Tb"
          },
          "digital-terabyte": {
            "displayName": "TByte",
            "unitPattern-count-one": "{0} TB",
            "unitPattern-count-other": "{0} TB"
          },
          "duration-day": {
            "displayName": "dias",
            "unitPattern-count-one": "{0} dia",
            "unitPattern-count-other": "{0} dias"
          },
          "duration-hour": {
            "displayName": "horas",
            "unitPattern-count-one": "{0} h",
            "unitPattern-count-other": "{0} h",
            "perUnitPattern": "{0}/h"
          },
          "duration-microsecond": {
            "displayName": "μs",
            "unitPattern-count-one": "{0} μs",
            "unitPattern-count-other": "{0} μs"
          },
          "duration-millisecond": {
            "displayName": "milissegundos",
            "unitPattern-count-one": "{0} ms",
            "unitPattern-count-other": "{0} ms"
          },
          "duration-minute": {
            "displayName": "minutos",
            "unitPattern-count-one": "{0} min",
            "unitPattern-count-other": "{0} min"
          },
          "duration-month": {
            "displayName": "meses",
            "unitPattern-count-one": "{0} mês",
            "unitPattern-count-other": "{0} meses"
          },
          "duration-nanosecond": {
            "displayName": "ns",
            "unitPattern-count-one": "{0} ns",
            "unitPattern-count-other": "{0} ns"
          },
          "duration-second": {
            "displayName": "segundos",
            "unitPattern-count-one": "{0} s",
            "unitPattern-count-other": "{0} s",
            "perUnitPattern": "{0}/s"
          },
          "duration-week": {
            "displayName": "semanas",
            "unitPattern-count-one": "{0} sem.",
            "unitPattern-count-other": "{0} sem."
          },
          "duration-year": {
            "displayName": "anos",
            "unitPattern-count-one": "{0} ano",
            "unitPattern-count-other": "{0} anos"
          },
          "electric-ampere": {
            "displayName": "amps",
            "unitPattern-count-one": "{0} A",
            "unitPattern-count-other": "{0} A"
          },
          "electric-milliampere": {
            "displayName": "miliamps",
            "unitPattern-count-one": "{0} mA",
            "unitPattern-count-other": "{0} mA"
          },
          "electric-ohm": {
            "displayName": "ohms",
            "unitPattern-count-one": "{0} Ω",
            "unitPattern-count-other": "{0} Ω"
          },
          "electric-volt": {
            "displayName": "volts",
            "unitPattern-count-one": "{0} V",
            "unitPattern-count-other": "{0} V"
          },
          "energy-calorie": {
            "displayName": "cal",
            "unitPattern-count-one": "{0} cal",
            "unitPattern-count-other": "{0} cal"
          },
          "energy-foodcalorie": {
            "displayName": "kcal",
            "unitPattern-count-one": "{0} kcal",
            "unitPattern-count-other": "{0} kcal"
          },
          "energy-joule": {
            "displayName": "joules",
            "unitPattern-count-one": "{0} J",
            "unitPattern-count-other": "{0} J"
          },
          "energy-kilocalorie": {
            "displayName": "kcal",
            "unitPattern-count-one": "{0} kcal",
            "unitPattern-count-other": "{0} kcal"
          },
          "energy-kilojoule": {
            "displayName": "quilojoule",
            "unitPattern-count-one": "{0} kJ",
            "unitPattern-count-other": "{0} kJ"
          },
          "energy-kilowatt-hour": {
            "displayName": "kW-hora",
            "unitPattern-count-one": "{0} kWh",
            "unitPattern-count-other": "{0} kWh"
          },
          "frequency-gigahertz": {
            "displayName": "GHz",
            "unitPattern-count-one": "{0} GHz",
            "unitPattern-count-other": "{0} GHz"
          },
          "frequency-hertz": {
            "displayName": "Hz",
            "unitPattern-count-one": "{0} Hz",
            "unitPattern-count-other": "{0} Hz"
          },
          "frequency-kilohertz": {
            "displayName": "kHz",
            "unitPattern-count-one": "{0} kHz",
            "unitPattern-count-other": "{0} kHz"
          },
          "frequency-megahertz": {
            "displayName": "MHz",
            "unitPattern-count-one": "{0} MHz",
            "unitPattern-count-other": "{0} MHz"
          },
          "length-astronomical-unit": {
            "displayName": "ua",
            "unitPattern-count-one": "{0} ua",
            "unitPattern-count-other": "{0} ua"
          },
          "length-centimeter": {
            "displayName": "cm",
            "unitPattern-count-one": "{0} cm",
            "unitPattern-count-other": "{0} cm"
          },
          "length-decimeter": {
            "displayName": "dm",
            "unitPattern-count-one": "{0} dm",
            "unitPattern-count-other": "{0} dm"
          },
          "length-fathom": {
            "displayName": "fm",
            "unitPattern-count-other": "{0} fm"
          },
          "length-foot": {
            "displayName": "pés",
            "unitPattern-count-one": "{0} pé",
            "unitPattern-count-other": "{0} pés"
          },
          "length-furlong": {
            "displayName": "fur",
            "unitPattern-count-other": "{0} fur"
          },
          "length-inch": {
            "displayName": "polegadas",
            "unitPattern-count-one": "{0} pol.",
            "unitPattern-count-other": "{0} pol."
          },
          "length-kilometer": {
            "displayName": "km",
            "unitPattern-count-one": "{0} km",
            "unitPattern-count-other": "{0} km"
          },
          "length-light-year": {
            "displayName": "anos-luz",
            "unitPattern-count-one": "{0} ano-luz",
            "unitPattern-count-other": "{0} anos-luz"
          },
          "length-meter": {
            "displayName": "metros",
            "unitPattern-count-one": "{0} m",
            "unitPattern-count-other": "{0} m"
          },
          "length-micrometer": {
            "displayName": "µm",
            "unitPattern-count-one": "{0} µm",
            "unitPattern-count-other": "{0} µm"
          },
          "length-mile": {
            "displayName": "milhas",
            "unitPattern-count-one": "{0} milha",
            "unitPattern-count-other": "{0} milhas"
          },
          "length-millimeter": {
            "displayName": "mm",
            "unitPattern-count-one": "{0} mm",
            "unitPattern-count-other": "{0} mm"
          },
          "length-nanometer": {
            "displayName": "nm",
            "unitPattern-count-one": "{0} nm",
            "unitPattern-count-other": "{0} nm"
          },
          "length-nautical-mile": {
            "displayName": "nmi",
            "unitPattern-count-one": "{0} nmi",
            "unitPattern-count-other": "{0} nmi"
          },
          "length-parsec": {
            "displayName": "pc",
            "unitPattern-count-one": "{0} pc",
            "unitPattern-count-other": "{0} pc"
          },
          "length-picometer": {
            "displayName": "pm",
            "unitPattern-count-one": "{0} pm",
            "unitPattern-count-other": "{0} pm"
          },
          "length-yard": {
            "displayName": "jardas",
            "unitPattern-count-one": "{0} yd",
            "unitPattern-count-other": "{0} yd"
          },
          "light-lux": {
            "displayName": "lux",
            "unitPattern-count-one": "{0} lx",
            "unitPattern-count-other": "{0} lx"
          },
          "mass-carat": {
            "displayName": "quilates",
            "unitPattern-count-one": "{0} ct",
            "unitPattern-count-other": "{0} ct"
          },
          "mass-gram": {
            "displayName": "gramas",
            "unitPattern-count-one": "{0} g",
            "unitPattern-count-other": "{0} g"
          },
          "mass-kilogram": {
            "displayName": "kg",
            "unitPattern-count-one": "{0} kg",
            "unitPattern-count-other": "{0} kg"
          },
          "mass-metric-ton": {
            "displayName": "t",
            "unitPattern-count-one": "{0} t",
            "unitPattern-count-other": "{0} t"
          },
          "mass-microgram": {
            "displayName": "µg",
            "unitPattern-count-one": "{0} µg",
            "unitPattern-count-other": "{0} µg"
          },
          "mass-milligram": {
            "displayName": "mg",
            "unitPattern-count-one": "{0} mg",
            "unitPattern-count-other": "{0} mg"
          },
          "mass-ounce": {
            "displayName": "oz",
            "unitPattern-count-one": "{0} oz",
            "unitPattern-count-other": "{0} oz"
          },
          "mass-ounce-troy": {
            "displayName": "oz troy",
            "unitPattern-count-one": "{0} oz t",
            "unitPattern-count-other": "{0} oz t"
          },
          "mass-pound": {
            "displayName": "libras",
            "unitPattern-count-one": "{0} lb",
            "unitPattern-count-other": "{0} lb"
          },
          "mass-stone": {
            "displayName": "st",
            "unitPattern-count-other": "{0} st"
          },
          "mass-ton": {
            "displayName": "toneladas",
            "unitPattern-count-one": "{0} ton",
            "unitPattern-count-other": "{0} ton"
          },
          "power-gigawatt": {
            "displayName": "GW",
            "unitPattern-count-one": "{0} GW",
            "unitPattern-count-other": "{0} GW"
          },
          "power-horsepower": {
            "displayName": "cv",
            "unitPattern-count-one": "{0} cv",
            "unitPattern-count-other": "{0} cv"
          },
          "power-kilowatt": {
            "displayName": "kW",
            "unitPattern-count-one": "{0} kW",
            "unitPattern-count-other": "{0} kW"
          },
          "power-megawatt": {
            "displayName": "MW",
            "unitPattern-count-one": "{0} MW",
            "unitPattern-count-other": "{0} MW"
          },
          "power-milliwatt": {
            "displayName": "mW",
            "unitPattern-count-one": "{0} mW",
            "unitPattern-count-other": "{0} mW"
          },
          "power-watt": {
            "displayName": "watts",
            "unitPattern-count-one": "{0} W",
            "unitPattern-count-other": "{0} W"
          },
          "pressure-hectopascal": {
            "displayName": "hPa",
            "unitPattern-count-one": "{0} hPa",
            "unitPattern-count-other": "{0} hPa"
          },
          "pressure-inch-hg": {
            "displayName": "in Hg",
            "unitPattern-count-one": "{0} inHg",
            "unitPattern-count-other": "{0} inHg"
          },
          "pressure-millibar": {
            "displayName": "mbar",
            "unitPattern-count-one": "{0} mb",
            "unitPattern-count-other": "{0} mb"
          },
          "pressure-millimeter-of-mercury": {
            "displayName": "mm Hg",
            "unitPattern-count-one": "{0} mm Hg",
            "unitPattern-count-other": "{0} mm Hg"
          },
          "pressure-pound-per-square-inch": {
            "displayName": "psi",
            "unitPattern-count-one": "{0} psi",
            "unitPattern-count-other": "{0} psi"
          },
          "proportion-karat": {
            "displayName": "quilates",
            "unitPattern-count-one": "{0} kt",
            "unitPattern-count-other": "{0} kt"
          },
          "speed-kilometer-per-hour": {
            "displayName": "km/h",
            "unitPattern-count-one": "{0} km/h",
            "unitPattern-count-other": "{0} km/h"
          },
          "speed-meter-per-second": {
            "displayName": "m/s",
            "unitPattern-count-one": "{0} m/s",
            "unitPattern-count-other": "{0} m/s"
          },
          "speed-mile-per-hour": {
            "displayName": "mi/h",
            "unitPattern-count-one": "{0} mi/h",
            "unitPattern-count-other": "{0} mi/h"
          },
          "temperature-celsius": {
            "displayName": "graus Celsius",
            "unitPattern-count-one": "{0} °C",
            "unitPattern-count-other": "{0} °C"
          },
          "temperature-fahrenheit": {
            "displayName": "graus Fahrenheit",
            "unitPattern-count-one": "{0} °F",
            "unitPattern-count-other": "{0} °F"
          },
          "temperature-kelvin": {
            "displayName": "K",
            "unitPattern-count-one": "{0} K",
            "unitPattern-count-other": "{0} K"
          },
          "volume-acre-foot": {
            "displayName": "ac ft",
            "unitPattern-count-one": "{0} ac ft",
            "unitPattern-count-other": "{0} ac ft"
          },
          "volume-bushel": {
            "displayName": "bu",
            "unitPattern-count-other": "{0} bu"
          },
          "volume-centiliter": {
            "displayName": "cL",
            "unitPattern-count-one": "{0} cL",
            "unitPattern-count-other": "{0} cL"
          },
          "volume-cubic-centimeter": {
            "displayName": "cm³",
            "unitPattern-count-one": "{0} cm³",
            "unitPattern-count-other": "{0} cm³"
          },
          "volume-cubic-foot": {
            "displayName": "ft³",
            "unitPattern-count-one": "{0} ft³",
            "unitPattern-count-other": "{0} ft³"
          },
          "volume-cubic-inch": {
            "displayName": "in³",
            "unitPattern-count-one": "{0} in³",
            "unitPattern-count-other": "{0} in³"
          },
          "volume-cubic-kilometer": {
            "displayName": "km³",
            "unitPattern-count-one": "{0} km³",
            "unitPattern-count-other": "{0} km³"
          },
          "volume-cubic-meter": {
            "displayName": "m³",
            "unitPattern-count-one": "{0} m³",
            "unitPattern-count-other": "{0} m³"
          },
          "volume-cubic-mile": {
            "displayName": "mi³",
            "unitPattern-count-one": "{0} mi³",
            "unitPattern-count-other": "{0} mi³"
          },
          "volume-cubic-yard": {
            "displayName": "yd³",
            "unitPattern-count-one": "{0} yd³",
            "unitPattern-count-other": "{0} yd³"
          },
          "volume-cup": {
            "displayName": "xícaras",
            "unitPattern-count-one": "{0} xíc.",
            "unitPattern-count-other": "{0} xíc."
          },
          "volume-deciliter": {
            "displayName": "dl",
            "unitPattern-count-one": "{0} dl",
            "unitPattern-count-other": "{0} dl"
          },
          "volume-fluid-ounce": {
            "displayName": "fl oz",
            "unitPattern-count-one": "{0} fl oz",
            "unitPattern-count-other": "{0} fl oz"
          },
          "volume-gallon": {
            "displayName": "gal",
            "unitPattern-count-one": "{0} gal",
            "unitPattern-count-other": "{0} gal"
          },
          "volume-hectoliter": {
            "displayName": "hl",
            "unitPattern-count-one": "{0} hl",
            "unitPattern-count-other": "{0} hl"
          },
          "volume-liter": {
            "displayName": "litros",
            "unitPattern-count-one": "{0} l",
            "unitPattern-count-other": "{0} l"
          },
          "volume-megaliter": {
            "displayName": "ML",
            "unitPattern-count-one": "{0} ML",
            "unitPattern-count-other": "{0} ML"
          },
          "volume-milliliter": {
            "displayName": "ml",
            "unitPattern-count-one": "{0} ml",
            "unitPattern-count-other": "{0} ml"
          },
          "volume-pint": {
            "displayName": "pints",
            "unitPattern-count-one": "{0} pt",
            "unitPattern-count-other": "{0} pt"
          },
          "volume-quart": {
            "displayName": "qts",
            "unitPattern-count-one": "{0} qt",
            "unitPattern-count-other": "{0} qt"
          },
          "volume-tablespoon": {
            "displayName": "cs",
            "unitPattern-count-one": "{0} cs",
            "unitPattern-count-other": "{0} cs"
          },
          "volume-teaspoon": {
            "displayName": "cc",
            "unitPattern-count-one": "{0} cc",
            "unitPattern-count-other": "{0} cc"
          }
        },
        "narrow": {
          "per": {
            "compoundUnitPattern": "{0}/{1}"
          },
          "acceleration-g-force": {
            "displayName": "força G",
            "unitPattern-count-one": "{0} G",
            "unitPattern-count-other": "{0} G"
          },
          "acceleration-meter-per-second-squared": {
            "displayName": "m/s²",
            "unitPattern-count-one": "{0} m/s²",
            "unitPattern-count-other": "{0} m/s²"
          },
          "angle-arc-minute": {
            "displayName": "minutos de arco",
            "unitPattern-count-one": "{0}'",
            "unitPattern-count-other": "{0}'"
          },
          "angle-arc-second": {
            "displayName": "segundos de arco",
            "unitPattern-count-one": "{0}\"",
            "unitPattern-count-other": "{0}\""
          },
          "angle-degree": {
            "displayName": "graus",
            "unitPattern-count-one": "{0}°",
            "unitPattern-count-other": "{0}°"
          },
          "angle-radian": {
            "displayName": "radianos",
            "unitPattern-count-one": "{0} rad",
            "unitPattern-count-other": "{0} rad"
          },
          "area-acre": {
            "displayName": "acres",
            "unitPattern-count-one": "{0} acre",
            "unitPattern-count-other": "{0} acres"
          },
          "area-hectare": {
            "displayName": "hectares",
            "unitPattern-count-one": "{0} ha",
            "unitPattern-count-other": "{0} ha"
          },
          "area-square-centimeter": {
            "displayName": "cm²",
            "unitPattern-count-one": "{0} cm²",
            "unitPattern-count-other": "{0} cm²"
          },
          "area-square-foot": {
            "displayName": "pés quadrados",
            "unitPattern-count-one": "{0} ft²",
            "unitPattern-count-other": "{0} ft²"
          },
          "area-square-inch": {
            "displayName": "in²",
            "unitPattern-count-one": "{0} in²",
            "unitPattern-count-other": "{0} in²"
          },
          "area-square-kilometer": {
            "displayName": "km²",
            "unitPattern-count-one": "{0} km²",
            "unitPattern-count-other": "{0} km²"
          },
          "area-square-meter": {
            "displayName": "m²",
            "unitPattern-count-one": "{0} m²",
            "unitPattern-count-other": "{0} m²"
          },
          "area-square-mile": {
            "displayName": "mi²",
            "unitPattern-count-one": "{0} mi²",
            "unitPattern-count-other": "{0} mi²"
          },
          "area-square-yard": {
            "displayName": "yd²",
            "unitPattern-count-one": "{0} yd²",
            "unitPattern-count-other": "{0} yd²"
          },
          "consumption-liter-per-kilometer": {
            "displayName": "litros/km",
            "unitPattern-count-one": "{0} l/km",
            "unitPattern-count-other": "{0} l/km"
          },
          "consumption-mile-per-gallon": {
            "displayName": "milhas/galão",
            "unitPattern-count-one": "{0} mpg",
            "unitPattern-count-other": "{0} mpg"
          },
          "digital-bit": {
            "displayName": "bit",
            "unitPattern-count-one": "{0} bit",
            "unitPattern-count-other": "{0} bit"
          },
          "digital-byte": {
            "displayName": "byte",
            "unitPattern-count-one": "{0} byte",
            "unitPattern-count-other": "{0} byte"
          },
          "digital-gigabit": {
            "displayName": "Gbit",
            "unitPattern-count-one": "{0} Gb",
            "unitPattern-count-other": "{0} Gb"
          },
          "digital-gigabyte": {
            "displayName": "GByte",
            "unitPattern-count-one": "{0} GB",
            "unitPattern-count-other": "{0} GB"
          },
          "digital-kilobit": {
            "displayName": "kbit",
            "unitPattern-count-one": "{0} kb",
            "unitPattern-count-other": "{0} kb"
          },
          "digital-kilobyte": {
            "displayName": "kByte",
            "unitPattern-count-one": "{0} kB",
            "unitPattern-count-other": "{0} kB"
          },
          "digital-megabit": {
            "displayName": "Mbit",
            "unitPattern-count-one": "{0} Mb",
            "unitPattern-count-other": "{0} Mb"
          },
          "digital-megabyte": {
            "displayName": "MByte",
            "unitPattern-count-one": "{0} MB",
            "unitPattern-count-other": "{0} MB"
          },
          "digital-terabit": {
            "displayName": "Tbit",
            "unitPattern-count-one": "{0} Tb",
            "unitPattern-count-other": "{0} Tb"
          },
          "digital-terabyte": {
            "displayName": "TByte",
            "unitPattern-count-one": "{0} TB",
            "unitPattern-count-other": "{0} TB"
          },
          "duration-day": {
            "displayName": "dia",
            "unitPattern-count-one": "{0} dia",
            "unitPattern-count-other": "{0} dias"
          },
          "duration-hour": {
            "displayName": "hora",
            "unitPattern-count-one": "{0} h",
            "unitPattern-count-other": "{0} h",
            "perUnitPattern": "{0}/h"
          },
          "duration-microsecond": {
            "displayName": "μs",
            "unitPattern-count-one": "{0} μs",
            "unitPattern-count-other": "{0} μs"
          },
          "duration-millisecond": {
            "displayName": "ms",
            "unitPattern-count-one": "{0} ms",
            "unitPattern-count-other": "{0} ms"
          },
          "duration-minute": {
            "displayName": "min",
            "unitPattern-count-one": "{0} min",
            "unitPattern-count-other": "{0} min"
          },
          "duration-month": {
            "displayName": "mês",
            "unitPattern-count-one": "{0} mês",
            "unitPattern-count-other": "{0} meses"
          },
          "duration-nanosecond": {
            "displayName": "ns",
            "unitPattern-count-one": "{0} ns",
            "unitPattern-count-other": "{0} ns"
          },
          "duration-second": {
            "displayName": "s",
            "unitPattern-count-one": "{0} s",
            "unitPattern-count-other": "{0} s",
            "perUnitPattern": "{0}/s"
          },
          "duration-week": {
            "displayName": "sem.",
            "unitPattern-count-one": "{0} sem.",
            "unitPattern-count-other": "{0} sem."
          },
          "duration-year": {
            "displayName": "ano",
            "unitPattern-count-one": "{0} ano",
            "unitPattern-count-other": "{0} anos"
          },
          "electric-ampere": {
            "displayName": "amps",
            "unitPattern-count-one": "{0} A",
            "unitPattern-count-other": "{0} A"
          },
          "electric-milliampere": {
            "displayName": "miliamps",
            "unitPattern-count-one": "{0} mA",
            "unitPattern-count-other": "{0} mA"
          },
          "electric-ohm": {
            "displayName": "ohms",
            "unitPattern-count-one": "{0} Ω",
            "unitPattern-count-other": "{0} Ω"
          },
          "electric-volt": {
            "displayName": "volts",
            "unitPattern-count-one": "{0} V",
            "unitPattern-count-other": "{0} V"
          },
          "energy-calorie": {
            "displayName": "cal",
            "unitPattern-count-one": "{0} cal",
            "unitPattern-count-other": "{0} cal"
          },
          "energy-foodcalorie": {
            "displayName": "kcal",
            "unitPattern-count-one": "{0} kcal",
            "unitPattern-count-other": "{0} kcal"
          },
          "energy-joule": {
            "displayName": "joules",
            "unitPattern-count-one": "{0} J",
            "unitPattern-count-other": "{0} J"
          },
          "energy-kilocalorie": {
            "displayName": "kcal",
            "unitPattern-count-one": "{0} kcal",
            "unitPattern-count-other": "{0} kcal"
          },
          "energy-kilojoule": {
            "displayName": "quilojoule",
            "unitPattern-count-one": "{0} kJ",
            "unitPattern-count-other": "{0} kJ"
          },
          "energy-kilowatt-hour": {
            "displayName": "kW-hora",
            "unitPattern-count-one": "{0} kWh",
            "unitPattern-count-other": "{0} kWh"
          },
          "frequency-gigahertz": {
            "displayName": "GHz",
            "unitPattern-count-one": "{0} GHz",
            "unitPattern-count-other": "{0} GHz"
          },
          "frequency-hertz": {
            "displayName": "Hz",
            "unitPattern-count-one": "{0} Hz",
            "unitPattern-count-other": "{0} Hz"
          },
          "frequency-kilohertz": {
            "displayName": "kHz",
            "unitPattern-count-one": "{0} kHz",
            "unitPattern-count-other": "{0} kHz"
          },
          "frequency-megahertz": {
            "displayName": "MHz",
            "unitPattern-count-one": "{0} MHz",
            "unitPattern-count-other": "{0} MHz"
          },
          "length-astronomical-unit": {
            "displayName": "ua",
            "unitPattern-count-one": "{0} ua",
            "unitPattern-count-other": "{0} ua"
          },
          "length-centimeter": {
            "displayName": "cm",
            "unitPattern-count-one": "{0} cm",
            "unitPattern-count-other": "{0} cm"
          },
          "length-decimeter": {
            "displayName": "dm",
            "unitPattern-count-one": "{0} dm",
            "unitPattern-count-other": "{0} dm"
          },
          "length-fathom": {
            "displayName": "fm",
            "unitPattern-count-other": "{0} fm"
          },
          "length-foot": {
            "displayName": "pés",
            "unitPattern-count-one": "{0}′",
            "unitPattern-count-other": "{0}′"
          },
          "length-furlong": {
            "displayName": "fur",
            "unitPattern-count-other": "{0} fur"
          },
          "length-inch": {
            "displayName": "polegadas",
            "unitPattern-count-one": "{0}″",
            "unitPattern-count-other": "{0}″"
          },
          "length-kilometer": {
            "displayName": "km",
            "unitPattern-count-one": "{0} km",
            "unitPattern-count-other": "{0} km"
          },
          "length-light-year": {
            "displayName": "anos-luz",
            "unitPattern-count-one": "{0} ano-luz",
            "unitPattern-count-other": "{0} anos-luz"
          },
          "length-meter": {
            "displayName": "metro",
            "unitPattern-count-one": "{0} m",
            "unitPattern-count-other": "{0} m"
          },
          "length-micrometer": {
            "displayName": "µm",
            "unitPattern-count-one": "{0} µm",
            "unitPattern-count-other": "{0} µm"
          },
          "length-mile": {
            "displayName": "milhas",
            "unitPattern-count-one": "{0} milha",
            "unitPattern-count-other": "{0} milhas"
          },
          "length-millimeter": {
            "displayName": "mm",
            "unitPattern-count-one": "{0} mm",
            "unitPattern-count-other": "{0} mm"
          },
          "length-nanometer": {
            "displayName": "nm",
            "unitPattern-count-one": "{0} nm",
            "unitPattern-count-other": "{0} nm"
          },
          "length-nautical-mile": {
            "displayName": "nmi",
            "unitPattern-count-one": "{0} nmi",
            "unitPattern-count-other": "{0} nmi"
          },
          "length-parsec": {
            "displayName": "pc",
            "unitPattern-count-one": "{0} pc",
            "unitPattern-count-other": "{0} pc"
          },
          "length-picometer": {
            "displayName": "pm",
            "unitPattern-count-one": "{0} pm",
            "unitPattern-count-other": "{0} pm"
          },
          "length-yard": {
            "displayName": "jardas",
            "unitPattern-count-one": "{0} yd",
            "unitPattern-count-other": "{0} yd"
          },
          "light-lux": {
            "displayName": "lux",
            "unitPattern-count-one": "{0} lx",
            "unitPattern-count-other": "{0} lx"
          },
          "mass-carat": {
            "displayName": "quilates",
            "unitPattern-count-one": "{0} ct",
            "unitPattern-count-other": "{0} ct"
          },
          "mass-gram": {
            "displayName": "grama",
            "unitPattern-count-one": "{0} g",
            "unitPattern-count-other": "{0} g"
          },
          "mass-kilogram": {
            "displayName": "kg",
            "unitPattern-count-one": "{0} kg",
            "unitPattern-count-other": "{0} kg"
          },
          "mass-metric-ton": {
            "displayName": "t",
            "unitPattern-count-one": "{0} t",
            "unitPattern-count-other": "{0} t"
          },
          "mass-microgram": {
            "displayName": "µg",
            "unitPattern-count-one": "{0} µg",
            "unitPattern-count-other": "{0} µg"
          },
          "mass-milligram": {
            "displayName": "mg",
            "unitPattern-count-one": "{0} mg",
            "unitPattern-count-other": "{0} mg"
          },
          "mass-ounce": {
            "displayName": "oz",
            "unitPattern-count-one": "{0} oz",
            "unitPattern-count-other": "{0} oz"
          },
          "mass-ounce-troy": {
            "displayName": "oz troy",
            "unitPattern-count-one": "{0} oz t",
            "unitPattern-count-other": "{0} oz t"
          },
          "mass-pound": {
            "displayName": "libras",
            "unitPattern-count-one": "{0} lb",
            "unitPattern-count-other": "{0} lb"
          },
          "mass-stone": {
            "displayName": "st",
            "unitPattern-count-other": "{0} st"
          },
          "mass-ton": {
            "displayName": "toneladas",
            "unitPattern-count-one": "{0} ton",
            "unitPattern-count-other": "{0} ton"
          },
          "power-gigawatt": {
            "displayName": "GW",
            "unitPattern-count-one": "{0} GW",
            "unitPattern-count-other": "{0} GW"
          },
          "power-horsepower": {
            "displayName": "cv",
            "unitPattern-count-one": "{0} cv",
            "unitPattern-count-other": "{0} cv"
          },
          "power-kilowatt": {
            "displayName": "kW",
            "unitPattern-count-one": "{0} kW",
            "unitPattern-count-other": "{0} kW"
          },
          "power-megawatt": {
            "displayName": "MW",
            "unitPattern-count-one": "{0} MW",
            "unitPattern-count-other": "{0} MW"
          },
          "power-milliwatt": {
            "displayName": "mW",
            "unitPattern-count-one": "{0} mW",
            "unitPattern-count-other": "{0} mW"
          },
          "power-watt": {
            "displayName": "watts",
            "unitPattern-count-one": "{0} W",
            "unitPattern-count-other": "{0} W"
          },
          "pressure-hectopascal": {
            "displayName": "hPa",
            "unitPattern-count-one": "{0} hPa",
            "unitPattern-count-other": "{0} hPa"
          },
          "pressure-inch-hg": {
            "displayName": "in Hg",
            "unitPattern-count-one": "{0}\" Hg",
            "unitPattern-count-other": "{0}\" Hg"
          },
          "pressure-millibar": {
            "displayName": "mbar",
            "unitPattern-count-one": "{0} mb",
            "unitPattern-count-other": "{0} mb"
          },
          "pressure-millimeter-of-mercury": {
            "displayName": "mm Hg",
            "unitPattern-count-one": "{0} mm Hg",
            "unitPattern-count-other": "{0} mm Hg"
          },
          "pressure-pound-per-square-inch": {
            "displayName": "psi",
            "unitPattern-count-one": "{0} psi",
            "unitPattern-count-other": "{0} psi"
          },
          "proportion-karat": {
            "displayName": "quilates",
            "unitPattern-count-one": "{0} kt",
            "unitPattern-count-other": "{0} kt"
          },
          "speed-kilometer-per-hour": {
            "displayName": "km/h",
            "unitPattern-count-one": "{0} km/h",
            "unitPattern-count-other": "{0} km/h"
          },
          "speed-meter-per-second": {
            "displayName": "m/s",
            "unitPattern-count-one": "{0} m/s",
            "unitPattern-count-other": "{0} m/s"
          },
          "speed-mile-per-hour": {
            "displayName": "mi/h",
            "unitPattern-count-one": "{0} mi/h",
            "unitPattern-count-other": "{0} mi/h"
          },
          "temperature-celsius": {
            "displayName": "°C",
            "unitPattern-count-one": "{0}°C",
            "unitPattern-count-other": "{0}°C"
          },
          "temperature-fahrenheit": {
            "displayName": "graus Fahrenheit",
            "unitPattern-count-one": "{0} °F",
            "unitPattern-count-other": "{0} °F"
          },
          "temperature-kelvin": {
            "displayName": "K",
            "unitPattern-count-one": "{0} K",
            "unitPattern-count-other": "{0} K"
          },
          "volume-acre-foot": {
            "displayName": "ac ft",
            "unitPattern-count-one": "{0} ac ft",
            "unitPattern-count-other": "{0} ac ft"
          },
          "volume-bushel": {
            "displayName": "bu",
            "unitPattern-count-other": "{0} bu"
          },
          "volume-centiliter": {
            "displayName": "cL",
            "unitPattern-count-one": "{0} cL",
            "unitPattern-count-other": "{0} cL"
          },
          "volume-cubic-centimeter": {
            "displayName": "cm³",
            "unitPattern-count-one": "{0} cm³",
            "unitPattern-count-other": "{0} cm³"
          },
          "volume-cubic-foot": {
            "displayName": "ft³",
            "unitPattern-count-one": "{0} ft³",
            "unitPattern-count-other": "{0} ft³"
          },
          "volume-cubic-inch": {
            "displayName": "in³",
            "unitPattern-count-one": "{0} in³",
            "unitPattern-count-other": "{0} in³"
          },
          "volume-cubic-kilometer": {
            "displayName": "km³",
            "unitPattern-count-one": "{0} km³",
            "unitPattern-count-other": "{0} km³"
          },
          "volume-cubic-meter": {
            "displayName": "m³",
            "unitPattern-count-one": "{0} m³",
            "unitPattern-count-other": "{0} m³"
          },
          "volume-cubic-mile": {
            "displayName": "mi³",
            "unitPattern-count-one": "{0} mi³",
            "unitPattern-count-other": "{0} mi³"
          },
          "volume-cubic-yard": {
            "displayName": "yd³",
            "unitPattern-count-one": "{0} yd³",
            "unitPattern-count-other": "{0} yd³"
          },
          "volume-cup": {
            "displayName": "xícaras",
            "unitPattern-count-one": "{0} xíc.",
            "unitPattern-count-other": "{0} xíc."
          },
          "volume-deciliter": {
            "displayName": "dl",
            "unitPattern-count-one": "{0} dl",
            "unitPattern-count-other": "{0} dl"
          },
          "volume-fluid-ounce": {
            "displayName": "fl oz",
            "unitPattern-count-one": "{0} fl oz",
            "unitPattern-count-other": "{0} fl oz"
          },
          "volume-gallon": {
            "displayName": "gal",
            "unitPattern-count-one": "{0} gal",
            "unitPattern-count-other": "{0} gal"
          },
          "volume-hectoliter": {
            "displayName": "hl",
            "unitPattern-count-one": "{0} hl",
            "unitPattern-count-other": "{0} hl"
          },
          "volume-liter": {
            "displayName": "litro",
            "unitPattern-count-one": "{0} l",
            "unitPattern-count-other": "{0} l"
          },
          "volume-megaliter": {
            "displayName": "ML",
            "unitPattern-count-one": "{0} ML",
            "unitPattern-count-other": "{0} ML"
          },
          "volume-milliliter": {
            "displayName": "ml",
            "unitPattern-count-one": "{0} ml",
            "unitPattern-count-other": "{0} ml"
          },
          "volume-pint": {
            "displayName": "pints",
            "unitPattern-count-one": "{0} pt",
            "unitPattern-count-other": "{0} pt"
          },
          "volume-quart": {
            "displayName": "qts",
            "unitPattern-count-one": "{0} qt",
            "unitPattern-count-other": "{0} qt"
          },
          "volume-tablespoon": {
            "displayName": "cs",
            "unitPattern-count-one": "{0} cs",
            "unitPattern-count-other": "{0} cs"
          },
          "volume-teaspoon": {
            "displayName": "cc",
            "unitPattern-count-one": "{0} cc",
            "unitPattern-count-other": "{0} cc"
          }
        },
        "durationUnit-type-hm": {
          "durationUnitPattern": "h:mm"
        },
        "durationUnit-type-hms": {
          "durationUnitPattern": "h:mm:ss"
        },
        "durationUnit-type-ms": {
          "durationUnitPattern": "m:ss"
        }
      }
    }
  }
}
