{
  "main": {
    "nn-NO": {
      "identity": {
        "version": {
          "_cldrVersion": "26",
          "_number": "$Revision: 10669 $"
        },
        "generation": {
          "_date": "$Date: 2014-07-23 16:10:33 -0500 (Wed, 23 Jul 2014) $"
        },
        "language": "nn",
        "territory": "NO"
      },
      "localeDisplayNames": {
        "territories": {
          "001": "verda",
          "002": "Afrika",
          "003": "Nord-Amerika",
          "005": "Sør-Amerika",
          "009": "Oseania",
          "011": "Vest-Afrika",
          "013": "Sentral-Amerika",
          "014": "Aust-Afrika",
          "015": "Nord-Afrika",
          "017": "Sentral-Afrika",
          "018": "Sørlege Afrika",
          "019": "Amerika",
          "021": "nordlege Amerika",
          "029": "Karibia",
          "030": "Aust-Asia",
          "034": "Sør-Asia",
          "035": "Søraust-Asia",
          "039": "Sør-Europa",
          "053": "Australia og New Zealand",
          "054": "Melanesia",
          "057": "Mikronesia",
          "061": "Polynesia",
          "142": "Asia",
          "143": "Sentral-Asia",
          "145": "Vest-Asia",
          "150": "Europa",
          "151": "Aust-Europa",
          "154": "Nord-Europa",
          "155": "Vest-Europa",
          "419": "Latin-Amerika",
          "AC": "Ascension",
          "AD": "Andorra",
          "AE": "Dei sameinte arabiske emirata",
          "AF": "Afghanistan",
          "AG": "Antigua og Barbuda",
          "AI": "Anguilla",
          "AL": "Albania",
          "AM": "Armenia",
          "AN": "Dei nederlandske Antillane",
          "AO": "Angola",
          "AQ": "Antarktis",
          "AR": "Argentina",
          "AS": "Amerikansk Samoa",
          "AT": "Austerrike",
          "AU": "Australia",
          "AW": "Aruba",
          "AX": "Åland",
          "AZ": "Aserbajdsjan",
          "BA": "Bosnia og Hercegovina",
          "BB": "Barbados",
          "BD": "Bangladesh",
          "BE": "Belgia",
          "BF": "Burkina Faso",
          "BG": "Bulgaria",
          "BH": "Bahrain",
          "BI": "Burundi",
          "BJ": "Benin",
          "BL": "Saint Barthélemy",
          "BM": "Bermuda",
          "BN": "Brunei Darussalam",
          "BO": "Bolivia",
          "BQ": "Karibisk Nederland",
          "BR": "Brasil",
          "BS": "Bahamas",
          "BT": "Bhutan",
          "BV": "Bouvetøya",
          "BW": "Botswana",
          "BY": "Kviterussland",
          "BZ": "Belize",
          "CA": "Canada",
          "CC": "Kokosøyane",
          "CD": "Kongo-Kinshasa",
          "CD-alt-variant": "CD",
          "CF": "Den sentralafrikanske republikken",
          "CG": "Kongo-Brazzaville",
          "CG-alt-variant": "CG",
          "CH": "Sveits",
          "CI": "Elfenbeinskysten",
          "CI-alt-variant": "CI",
          "CK": "Cookøyane",
          "CL": "Chile",
          "CM": "Kamerun",
          "CN": "Kina",
          "CO": "Colombia",
          "CP": "Clippertonøya",
          "CR": "Costa Rica",
          "CU": "Cuba",
          "CV": "Kapp Verde",
          "CW": "Curaçao",
          "CX": "Christmasøya",
          "CY": "Kypros",
          "CZ": "Tsjekkia",
          "DE": "Tyskland",
          "DG": "Diego Garcia",
          "DJ": "Djibouti",
          "DK": "Danmark",
          "DM": "Dominica",
          "DO": "Den dominikanske republikken",
          "DZ": "Algerie",
          "EA": "Ceuta og Melilla",
          "EC": "Ecuador",
          "EE": "Estland",
          "EG": "Egypt",
          "EH": "Vest-Sahara",
          "ER": "Eritrea",
          "ES": "Spania",
          "ET": "Etiopia",
          "EU": "Den europeiske unionen",
          "FI": "Finland",
          "FJ": "Fiji",
          "FK": "Falklandsøyane",
          "FK-alt-variant": "FK",
          "FM": "Mikronesiaføderasjonen",
          "FO": "Færøyane",
          "FR": "Frankrike",
          "GA": "Gabon",
          "GB": "Storbritannia",
          "GB-alt-short": "Storbritannia",
          "GD": "Grenada",
          "GE": "Georgia",
          "GF": "Fransk Guyana",
          "GG": "Guernsey",
          "GH": "Ghana",
          "GI": "Gibraltar",
          "GL": "Grønland",
          "GM": "Gambia",
          "GN": "Guinea",
          "GP": "Guadeloupe",
          "GQ": "Ekvatorial-Guinea",
          "GR": "Hellas",
          "GS": "Sør-Georgia og Sør-Sandwich-øyane",
          "GT": "Guatemala",
          "GU": "Guam",
          "GW": "Guinea-Bissau",
          "GY": "Guyana",
          "HK": "Hongkong S.A.R. Kina",
          "HK-alt-short": "Hongkong",
          "HM": "Heard- og McDonaldsøyane",
          "HN": "Honduras",
          "HR": "Kroatia",
          "HT": "Haiti",
          "HU": "Ungarn",
          "IC": "Kanariøyane",
          "ID": "Indonesia",
          "IE": "Irland",
          "IL": "Israel",
          "IM": "Man",
          "IN": "India",
          "IO": "Britiske område i Det indiske hav",
          "IQ": "Irak",
          "IR": "Iran",
          "IS": "Island",
          "IT": "Italia",
          "JE": "Jersey",
          "JM": "Jamaica",
          "JO": "Jordan",
          "JP": "Japan",
          "KE": "Kenya",
          "KG": "Kirgisistan",
          "KH": "Kambodsja",
          "KI": "Kiribati",
          "KM": "Komorene",
          "KN": "St. Christopher og Nevis",
          "KP": "Nord-Korea",
          "KR": "Sør-Korea",
          "KW": "Kuwait",
          "KY": "Caymanøyane",
          "KZ": "Kasakhstan",
          "LA": "Laos",
          "LB": "Libanon",
          "LC": "St. Lucia",
          "LI": "Liechtenstein",
          "LK": "Sri Lanka",
          "LR": "Liberia",
          "LS": "Lesotho",
          "LT": "Litauen",
          "LU": "Luxembourg",
          "LV": "Latvia",
          "LY": "Libya",
          "MA": "Marokko",
          "MC": "Monaco",
          "MD": "Moldova",
          "ME": "Montenegro",
          "MF": "Saint Martin",
          "MG": "Madagaskar",
          "MH": "Marshalløyane",
          "MK": "Makedonia",
          "MK-alt-variant": "MK",
          "ML": "Mali",
          "MM": "Myanmar",
          "MN": "Mongolia",
          "MO": "Macao S.A.R. Kina",
          "MO-alt-short": "Macao",
          "MP": "Nord-Marianane",
          "MQ": "Martinique",
          "MR": "Mauritania",
          "MS": "Montserrat",
          "MT": "Malta",
          "MU": "Mauritius",
          "MV": "Maldivane",
          "MW": "Malawi",
          "MX": "Mexico",
          "MY": "Malaysia",
          "MZ": "Mosambik",
          "NA": "Namibia",
          "NC": "Ny-Caledonia",
          "NE": "Niger",
          "NF": "Norfolkøyane",
          "NG": "Nigeria",
          "NI": "Nicaragua",
          "NL": "Nederland",
          "NO": "Noreg",
          "NP": "Nepal",
          "NR": "Nauru",
          "NU": "Niue",
          "NZ": "New Zealand",
          "OM": "Oman",
          "PA": "Panama",
          "PE": "Peru",
          "PF": "Fransk Polynesia",
          "PG": "Papua Ny-Guinea",
          "PH": "Filippinane",
          "PK": "Pakistan",
          "PL": "Polen",
          "PM": "St. Pierre og Miquelon",
          "PN": "Pitcairn",
          "PR": "Puerto Rico",
          "PS": "Palestinsk territorium",
          "PS-alt-short": "Palestina",
          "PT": "Portugal",
          "PW": "Palau",
          "PY": "Paraguay",
          "QA": "Qatar",
          "QO": "Ytre Oseania",
          "RE": "Réunion",
          "RO": "Romania",
          "RS": "Serbia",
          "RU": "Russland",
          "RW": "Rwanda",
          "SA": "Saudi Arabia",
          "SB": "Salomonøyane",
          "SC": "Seychellane",
          "SD": "Sudan",
          "SE": "Sverige",
          "SG": "Singapore",
          "SH": "Saint Helena",
          "SI": "Slovenia",
          "SJ": "Svalbard og Jan Mayen",
          "SK": "Slovakia",
          "SL": "Sierra Leone",
          "SM": "San Marino",
          "SN": "Senegal",
          "SO": "Somalia",
          "SR": "Surinam",
          "SS": "Sør-Sudan",
          "ST": "São Tomé og Príncipe",
          "SV": "El Salvador",
          "SX": "Nederlandsk St. Martin",
          "SY": "Syria",
          "SZ": "Swaziland",
          "TA": "Tristan da Cunha",
          "TC": "Turks- og Caicosøyane",
          "TD": "Tchad",
          "TF": "Franske sørområde",
          "TG": "Togo",
          "TH": "Thailand",
          "TJ": "Tadsjikistan",
          "TK": "Tokelau",
          "TL": "Aust-Timor",
          "TL-alt-variant": "TL",
          "TM": "Turkmenistan",
          "TN": "Tunisia",
          "TO": "Tonga",
          "TR": "Tyrkia",
          "TT": "Trinidad og Tobago",
          "TV": "Tuvalu",
          "TW": "Taiwan",
          "TZ": "Tanzania",
          "UA": "Ukraina",
          "UG": "Uganda",
          "UM": "USAs ytre småøyar",
          "US": "USA",
          "US-alt-short": "USA",
          "UY": "Uruguay",
          "UZ": "Usbekistan",
          "VA": "Vatikanstaten",
          "VC": "St. Vincent og Grenadinane",
          "VE": "Venezuela",
          "VG": "Dei britiske jomfruøyane",
          "VI": "Dei amerikanske jomfruøyane",
          "VN": "Vietnam",
          "VU": "Vanuatu",
          "WF": "Wallis og Futuna",
          "WS": "Samoa",
          "XK": "Kosovo",
          "YE": "Yemen",
          "YT": "Mayotte",
          "ZA": "Sør-Afrika",
          "ZM": "Zambia",
          "ZW": "Zimbabwe",
          "ZZ": "ukjent område"
        }
      }
    }
  }
}
