{
  "main": {
    "seh-MZ": {
      "identity": {
        "version": {
          "_cldrVersion": "26",
          "_number": "$Revision: 10669 $"
        },
        "generation": {
          "_date": "$Date: 2014-07-23 16:10:33 -0500 (Wed, 23 Jul 2014) $"
        },
        "language": "root",
        "territory": "MZ"
      },
      "localeDisplayNames": {
        "territories": {
          "001": "001",
          "002": "002",
          "003": "003",
          "005": "005",
          "009": "009",
          "011": "011",
          "013": "013",
          "014": "014",
          "015": "015",
          "017": "017",
          "018": "018",
          "019": "019",
          "021": "021",
          "029": "029",
          "030": "030",
          "034": "034",
          "035": "035",
          "039": "039",
          "053": "053",
          "054": "054",
          "057": "057",
          "061": "061",
          "142": "142",
          "143": "143",
          "145": "145",
          "150": "150",
          "151": "151",
          "154": "154",
          "155": "155",
          "419": "419",
          "AC": "AC",
          "AD": "Andorra",
          "AE": "Emirados Árabes Unidos",
          "AF": "Afeganistão",
          "AG": "Antígua e Barbuda",
          "AI": "Anguilla",
          "AL": "Albânia",
          "AM": "Armênia",
          "AN": "Antilhas Holandesas",
          "AO": "Angola",
          "AQ": "AQ",
          "AR": "Argentina",
          "AS": "Samoa Americana",
          "AT": "Áustria",
          "AU": "Austrália",
          "AW": "Aruba",
          "AX": "AX",
          "AZ": "Azerbaijão",
          "BA": "Bósnia-Herzegovina",
          "BB": "Barbados",
          "BD": "Bangladesh",
          "BE": "Bélgica",
          "BF": "Burquina Faso",
          "BG": "Bulgária",
          "BH": "Bahrain",
          "BI": "Burundi",
          "BJ": "Benin",
          "BL": "BL",
          "BM": "Bermudas",
          "BN": "Brunei",
          "BO": "Bolívia",
          "BQ": "BQ",
          "BR": "Brasil",
          "BS": "Bahamas",
          "BT": "Butão",
          "BV": "BV",
          "BW": "Botsuana",
          "BY": "Belarus",
          "BZ": "Belize",
          "CA": "Canadá",
          "CC": "CC",
          "CD": "Congo-Kinshasa",
          "CD-alt-variant": "CD",
          "CF": "República Centro-Africana",
          "CG": "Congo",
          "CG-alt-variant": "CG",
          "CH": "Suíça",
          "CI": "Costa do Marfim",
          "CI-alt-variant": "CI",
          "CK": "Ilhas Cook",
          "CL": "Chile",
          "CM": "República dos Camarões",
          "CN": "China",
          "CO": "Colômbia",
          "CP": "CP",
          "CR": "Costa Rica",
          "CU": "Cuba",
          "CV": "Cabo Verde",
          "CW": "CW",
          "CX": "CX",
          "CY": "Chipre",
          "CZ": "República Tcheca",
          "DE": "Alemanha",
          "DG": "DG",
          "DJ": "Djibuti",
          "DK": "Dinamarca",
          "DM": "Dominica",
          "DO": "República Dominicana",
          "DZ": "Argélia",
          "EA": "EA",
          "EC": "Equador",
          "EE": "Estônia",
          "EG": "Egito",
          "EH": "EH",
          "ER": "Eritréia",
          "ES": "Espanha",
          "ET": "Etiópia",
          "EU": "EU",
          "FI": "Finlândia",
          "FJ": "Fiji",
          "FK": "Ilhas Malvinas",
          "FK-alt-variant": "FK",
          "FM": "Micronésia",
          "FO": "FO",
          "FR": "França",
          "GA": "Gabão",
          "GB": "Reino Unido",
          "GB-alt-short": "GB",
          "GD": "Granada",
          "GE": "Geórgia",
          "GF": "Guiana Francesa",
          "GG": "GG",
          "GH": "Gana",
          "GI": "Gibraltar",
          "GL": "Groênlandia",
          "GM": "Gâmbia",
          "GN": "Guiné",
          "GP": "Guadalupe",
          "GQ": "Guiné Equatorial",
          "GR": "Grécia",
          "GS": "GS",
          "GT": "Guatemala",
          "GU": "Guam",
          "GW": "Guiné Bissau",
          "GY": "Guiana",
          "HK": "HK",
          "HK-alt-short": "HK",
          "HM": "HM",
          "HN": "Honduras",
          "HR": "Croácia",
          "HT": "Haiti",
          "HU": "Hungria",
          "IC": "IC",
          "ID": "Indonésia",
          "IE": "Irlanda",
          "IL": "Israel",
          "IM": "IM",
          "IN": "Índia",
          "IO": "Território Britânico do Oceano Índico",
          "IQ": "Iraque",
          "IR": "Irã",
          "IS": "Islândia",
          "IT": "Itália",
          "JE": "JE",
          "JM": "Jamaica",
          "JO": "Jordânia",
          "JP": "Japão",
          "KE": "Quênia",
          "KG": "Quirguistão",
          "KH": "Camboja",
          "KI": "Quiribati",
          "KM": "Comores",
          "KN": "São Cristovão e Nevis",
          "KP": "Coréia do Norte",
          "KR": "Coréia do Sul",
          "KW": "Kuwait",
          "KY": "Ilhas Caiman",
          "KZ": "Casaquistão",
          "LA": "Laos",
          "LB": "Líbano",
          "LC": "Santa Lúcia",
          "LI": "Liechtenstein",
          "LK": "Sri Lanka",
          "LR": "Libéria",
          "LS": "Lesoto",
          "LT": "Lituânia",
          "LU": "Luxemburgo",
          "LV": "Letônia",
          "LY": "Líbia",
          "MA": "Marrocos",
          "MC": "Mônaco",
          "MD": "Moldávia",
          "ME": "ME",
          "MF": "MF",
          "MG": "Madagascar",
          "MH": "Ilhas Marshall",
          "MK": "Macedônia",
          "MK-alt-variant": "MK",
          "ML": "Mali",
          "MM": "Mianmar",
          "MN": "Mongólia",
          "MO": "MO",
          "MO-alt-short": "MO",
          "MP": "Ilhas Marianas do Norte",
          "MQ": "Martinica",
          "MR": "Mauritânia",
          "MS": "Montserrat",
          "MT": "Malta",
          "MU": "Maurício",
          "MV": "Maldivas",
          "MW": "Malawi",
          "MX": "México",
          "MY": "Malásia",
          "MZ": "Moçambique",
          "NA": "Namíbia",
          "NC": "Nova Caledônia",
          "NE": "Níger",
          "NF": "Ilhas Norfolk",
          "NG": "Nigéria",
          "NI": "Nicarágua",
          "NL": "Holanda",
          "NO": "Noruega",
          "NP": "Nepal",
          "NR": "Nauru",
          "NU": "Niue",
          "NZ": "Nova Zelândia",
          "OM": "Omã",
          "PA": "Panamá",
          "PE": "Peru",
          "PF": "Polinésia Francesa",
          "PG": "Papua-Nova Guiné",
          "PH": "Filipinas",
          "PK": "Paquistão",
          "PL": "Polônia",
          "PM": "Saint Pierre e Miquelon",
          "PN": "Pitcairn",
          "PR": "Porto Rico",
          "PS": "Território da Palestina",
          "PS-alt-short": "PS",
          "PT": "Portugal",
          "PW": "Palau",
          "PY": "Paraguai",
          "QA": "Catar",
          "QO": "QO",
          "RE": "Reunião",
          "RO": "Romênia",
          "RS": "RS",
          "RU": "Rússia",
          "RW": "Ruanda",
          "SA": "Arábia Saudita",
          "SB": "Ilhas Salomão",
          "SC": "Seychelles",
          "SD": "Sudão",
          "SE": "Suécia",
          "SG": "Cingapura",
          "SH": "Santa Helena",
          "SI": "Eslovênia",
          "SJ": "SJ",
          "SK": "Eslováquia",
          "SL": "Serra Leoa",
          "SM": "San Marino",
          "SN": "Senegal",
          "SO": "Somália",
          "SR": "Suriname",
          "SS": "SS",
          "ST": "São Tomé e Príncipe",
          "SV": "El Salvador",
          "SX": "SX",
          "SY": "Síria",
          "SZ": "Suazilândia",
          "TA": "TA",
          "TC": "Ilhas Turks e Caicos",
          "TD": "Chade",
          "TF": "TF",
          "TG": "Togo",
          "TH": "Tailândia",
          "TJ": "Tadjiquistão",
          "TK": "Tokelau",
          "TL": "Timor Leste",
          "TL-alt-variant": "TL",
          "TM": "Turcomenistão",
          "TN": "Tunísia",
          "TO": "Tonga",
          "TR": "Turquia",
          "TT": "Trinidad e Tobago",
          "TV": "Tuvalu",
          "TW": "Taiwan",
          "TZ": "TZ",
          "UA": "Ucrânia",
          "UG": "Uganda",
          "UM": "UM",
          "US": "Estados Unidos",
          "US-alt-short": "US",
          "UY": "Uruguai",
          "UZ": "Uzbequistão",
          "VA": "Vaticano",
          "VC": "São Vicente e Granadinas",
          "VE": "Venezuela",
          "VG": "Ilhas Virgens Britânicas",
          "VI": "Ilhas Virgens dos EUA",
          "VN": "Vietnã",
          "VU": "Vanuatu",
          "WF": "Wallis e Futuna",
          "WS": "Samoa",
          "XK": "XK",
          "YE": "Iêmen",
          "YT": "Mayotte",
          "ZA": "África do Sul",
          "ZM": "Zâmbia",
          "ZW": "Zimbábue",
          "ZZ": "ZZ"
        }
      }
    }
  }
}
