{
  "main": {
    "zh-Hant-HK": {
      "identity": {
        "version": {
          "_cldrVersion": "26",
          "_number": "$Revision: 10828 $"
        },
        "generation": {
          "_date": "$Date: 2014-08-18 11:49:47 -0500 (Mon, 18 Aug 2014) $"
        },
        "language": "root",
        "script": "Hant",
        "territory": "HK"
      },
      "dates": {
        "calendars": {
          "islamic-civil": {
            "months": {
              "format": {
                "abbreviated": {
                  "1": "穆哈蘭姆月",
                  "2": "色法爾月",
                  "3": "賴比月 I",
                  "4": "賴比月 II",
                  "5": "主馬達月 I",
                  "6": "主馬達月 II",
                  "7": "賴哲卜月",
                  "8": "舍爾邦月",
                  "9": "賴買丹月",
                  "10": "閃瓦魯月",
                  "11": "都爾喀爾德月",
                  "12": "都爾黑哲月"
                },
                "narrow": {
                  "1": "1",
                  "2": "2",
                  "3": "3",
                  "4": "4",
                  "5": "5",
                  "6": "6",
                  "7": "7",
                  "8": "8",
                  "9": "9",
                  "10": "10",
                  "11": "11",
                  "12": "12"
                },
                "wide": {
                  "1": "穆哈蘭姆月",
                  "2": "色法爾月",
                  "3": "賴比月 I",
                  "4": "賴比月 II",
                  "5": "主馬達月 I",
                  "6": "主馬達月 II",
                  "7": "賴哲卜月",
                  "8": "舍爾邦月",
                  "9": "賴買丹月",
                  "10": "閃瓦魯月",
                  "11": "都爾喀爾德月",
                  "12": "都爾黑哲月"
                }
              },
              "stand-alone": {
                "abbreviated": {
                  "1": "穆哈蘭姆月",
                  "2": "色法爾月",
                  "3": "賴比月 I",
                  "4": "賴比月 II",
                  "5": "主馬達月 I",
                  "6": "主馬達月 II",
                  "7": "賴哲卜月",
                  "8": "舍爾邦月",
                  "9": "賴買丹月",
                  "10": "閃瓦魯月",
                  "11": "都爾喀爾德月",
                  "12": "都爾黑哲月"
                },
                "narrow": {
                  "1": "1",
                  "2": "2",
                  "3": "3",
                  "4": "4",
                  "5": "5",
                  "6": "6",
                  "7": "7",
                  "8": "8",
                  "9": "9",
                  "10": "10",
                  "11": "11",
                  "12": "12"
                },
                "wide": {
                  "1": "穆哈蘭姆月",
                  "2": "色法爾月",
                  "3": "賴比月 I",
                  "4": "賴比月 II",
                  "5": "主馬達月 I",
                  "6": "主馬達月 II",
                  "7": "賴哲卜月",
                  "8": "舍爾邦月",
                  "9": "賴買丹月",
                  "10": "閃瓦魯月",
                  "11": "都爾喀爾德月",
                  "12": "都爾黑哲月"
                }
              }
            },
            "days": {
              "format": {
                "abbreviated": {
                  "sun": "週日",
                  "mon": "週一",
                  "tue": "週二",
                  "wed": "週三",
                  "thu": "週四",
                  "fri": "週五",
                  "sat": "週六"
                },
                "narrow": {
                  "sun": "日",
                  "mon": "一",
                  "tue": "二",
                  "wed": "三",
                  "thu": "四",
                  "fri": "五",
                  "sat": "六"
                },
                "short": {
                  "sun": "日",
                  "mon": "一",
                  "tue": "二",
                  "wed": "三",
                  "thu": "四",
                  "fri": "五",
                  "sat": "六"
                },
                "wide": {
                  "sun": "星期日",
                  "mon": "星期一",
                  "tue": "星期二",
                  "wed": "星期三",
                  "thu": "星期四",
                  "fri": "星期五",
                  "sat": "星期六"
                }
              },
              "stand-alone": {
                "abbreviated": {
                  "sun": "週日",
                  "mon": "週一",
                  "tue": "週二",
                  "wed": "週三",
                  "thu": "週四",
                  "fri": "週五",
                  "sat": "週六"
                },
                "narrow": {
                  "sun": "日",
                  "mon": "一",
                  "tue": "二",
                  "wed": "三",
                  "thu": "四",
                  "fri": "五",
                  "sat": "六"
                },
                "short": {
                  "sun": "日",
                  "mon": "一",
                  "tue": "二",
                  "wed": "三",
                  "thu": "四",
                  "fri": "五",
                  "sat": "六"
                },
                "wide": {
                  "sun": "星期日",
                  "mon": "星期一",
                  "tue": "星期二",
                  "wed": "星期三",
                  "thu": "星期四",
                  "fri": "星期五",
                  "sat": "星期六"
                }
              }
            },
            "quarters": {
              "format": {
                "abbreviated": {
                  "1": "Q1",
                  "2": "Q2",
                  "3": "Q3",
                  "4": "Q4"
                },
                "narrow": {
                  "1": "1",
                  "2": "2",
                  "3": "3",
                  "4": "4"
                },
                "wide": {
                  "1": "第1季",
                  "2": "第2季",
                  "3": "第3季",
                  "4": "第4季"
                }
              },
              "stand-alone": {
                "abbreviated": {
                  "1": "Q1",
                  "2": "Q2",
                  "3": "Q3",
                  "4": "Q4"
                },
                "narrow": {
                  "1": "1",
                  "2": "2",
                  "3": "3",
                  "4": "4"
                },
                "wide": {
                  "1": "第1季",
                  "2": "第2季",
                  "3": "第3季",
                  "4": "第4季"
                }
              }
            },
            "dayPeriods": {
              "format": {
                "abbreviated": {
                  "afternoon": "下午",
                  "am": "上午",
                  "earlyMorning": "清晨",
                  "midDay": "中午",
                  "morning": "上午",
                  "night": "晚上",
                  "noon": "中午",
                  "pm": "下午",
                  "weeHours": "凌晨"
                },
                "narrow": {
                  "afternoon": "下午",
                  "am": "上午",
                  "earlyMorning": "清晨",
                  "midDay": "中午",
                  "morning": "上午",
                  "night": "晚上",
                  "noon": "中午",
                  "pm": "下午",
                  "weeHours": "凌晨"
                },
                "wide": {
                  "afternoon": "下午",
                  "am": "上午",
                  "earlyMorning": "清晨",
                  "midDay": "中午",
                  "morning": "上午",
                  "night": "晚上",
                  "noon": "中午",
                  "pm": "下午",
                  "weeHours": "凌晨"
                }
              },
              "stand-alone": {
                "abbreviated": {
                  "afternoon": "下午",
                  "am": "上午",
                  "earlyMorning": "清晨",
                  "midDay": "中午",
                  "morning": "上午",
                  "night": "晚上",
                  "noon": "中午",
                  "pm": "下午",
                  "weeHours": "凌晨"
                },
                "narrow": {
                  "afternoon": "下午",
                  "am": "上午",
                  "earlyMorning": "清晨",
                  "midDay": "中午",
                  "morning": "上午",
                  "night": "晚上",
                  "noon": "中午",
                  "pm": "下午",
                  "weeHours": "凌晨"
                },
                "wide": {
                  "afternoon": "下午",
                  "am": "上午",
                  "earlyMorning": "清晨",
                  "midDay": "中午",
                  "morning": "上午",
                  "night": "晚上",
                  "noon": "中午",
                  "pm": "下午",
                  "weeHours": "凌晨"
                }
              }
            },
            "eras": {
              "eraNames": {
                "0": "伊斯蘭曆"
              },
              "eraAbbr": {
                "0": "伊斯蘭曆"
              },
              "eraNarrow": {
                "0": "伊斯蘭曆"
              }
            },
            "dateFormats": {
              "full": "Gy年M月d日EEEE",
              "long": "Gy年M月d日",
              "medium": "Gy年M月d日",
              "short": "Gy/M/d"
            },
            "timeFormats": {
              "full": "ah:mm:ss [zzzz]",
              "long": "ah:mm:ss [z]",
              "medium": "ah:mm:ss",
              "short": "ah:mm"
            },
            "dateTimeFormats": {
              "full": "{1} {0}",
              "long": "{1} {0}",
              "medium": "{1} {0}",
              "short": "{1} {0}",
              "availableFormats": {
                "E": "ccc",
                "EHm": "E HH:mm",
                "EHms": "E HH:mm:ss",
                "Ed": "d日（E）",
                "Ehm": "E h:mm a",
                "Ehms": "E h:mm:ss a",
                "Gy": "Gy年",
                "GyMMM": "Gy年M月",
                "GyMMMEd": "Gy年M月d日E",
                "GyMMMd": "Gy年M月d日",
                "H": "H時",
                "Hm": "H:mm",
                "Hms": "H:mm:ss",
                "M": "M月",
                "MEd": "M/d（E）",
                "MMM": "LLL",
                "MMMEd": "M月d日E",
                "MMMd": "M月d日",
                "Md": "M/d",
                "d": "d日",
                "h": "ah時",
                "hm": "ah:mm",
                "hms": "ah:mm:ss",
                "ms": "mm:ss",
                "y": "Gy年",
                "yyyy": "Gy年",
                "yyyyM": "Gy/M",
                "yyyyMEd": "Gy/M/d（E）",
                "yyyyMMM": "Gy年M月",
                "yyyyMMMEd": "Gy年M月d日E",
                "yyyyMMMd": "Gy年M月d日",
                "yyyyMd": "Gy/M/d",
                "yyyyQQQ": "Gy年QQQ",
                "yyyyQQQQ": "Gy年QQQQ"
              },
              "appendItems": {
                "Day": "{0} ({2}: {1})",
                "Day-Of-Week": "{0} {1}",
                "Era": "{1} {0}",
                "Hour": "{0} ({2}: {1})",
                "Minute": "{0} ({2}: {1})",
                "Month": "{0} ({2}: {1})",
                "Quarter": "{0} ({2}: {1})",
                "Second": "{0} ({2}: {1})",
                "Timezone": "{0} {1}",
                "Week": "{0} ({2}: {1})",
                "Year": "{1} {0}"
              },
              "intervalFormats": {
                "intervalFormatFallback": "{0}至{1}",
                "H": {
                  "H": "HH–HH"
                },
                "Hm": {
                  "H": "HH:mm–HH:mm",
                  "m": "HH:mm–HH:mm"
                },
                "Hmv": {
                  "H": "HH:mm–HH:mm [v]",
                  "m": "HH:mm–HH:mm [v]"
                },
                "Hv": {
                  "H": "HH–HH [v]"
                },
                "M": {
                  "M": "M月至M月"
                },
                "MEd": {
                  "M": "d/M（E） 至 d/M（E）",
                  "d": "d/M（E） 至 d/M（E）"
                },
                "MMM": {
                  "M": "LLL至LLL"
                },
                "MMMEd": {
                  "M": "M月d日E至M月d日E",
                  "d": "M月d日E至d日E"
                },
                "MMMM": {
                  "M": "LLLL至LLLL"
                },
                "MMMd": {
                  "M": "M月d日至M月d日",
                  "d": "M月d日至d日"
                },
                "Md": {
                  "M": "d/M 至 d/M",
                  "d": "d/M 至 d/M"
                },
                "d": {
                  "d": "d日至d日"
                },
                "h": {
                  "a": "ah時至ah時",
                  "h": "ah時至h時"
                },
                "hm": {
                  "a": "ah:mm至ah:mm",
                  "h": "ah:mm至h:mm",
                  "m": "ah:mm至h:mm"
                },
                "hmv": {
                  "a": "ah:mm至ah:mm [v]",
                  "h": "ah:mm至h:mm [v]",
                  "m": "ah:mm至h:mm [v]"
                },
                "hv": {
                  "a": "ah時至ah時 [v]",
                  "h": "ah時至h時 [v]"
                },
                "y": {
                  "y": "Gy年至y年"
                },
                "yM": {
                  "M": "Gy/M至y/M",
                  "y": "Gy/M至y/M"
                },
                "yMEd": {
                  "M": "Gy/M/dE至y/M/dE",
                  "d": "Gy/M/dE至y/M/dE",
                  "y": "Gy/M/dE至y/M/dE"
                },
                "yMMM": {
                  "M": "Gy年M月至M月",
                  "y": "Gy年M月至y年M月"
                },
                "yMMMEd": {
                  "M": "Gy年M月d日E至M月d日E",
                  "d": "Gy年M月d日E至d日E",
                  "y": "Gy年M月d日E至y年M月d日E"
                },
                "yMMMM": {
                  "M": "Gy年M月至M月",
                  "y": "Gy年M月至y年M月"
                },
                "yMMMd": {
                  "M": "Gy年M月d日至M月d日",
                  "d": "Gy年M月d日至d日",
                  "y": "Gy年M月d日至y年M月d日"
                },
                "yMd": {
                  "M": "Gy/M/d至y/M/d",
                  "d": "Gy/M/d至y/M/d",
                  "y": "Gy/M/d至y/M/d"
                }
              }
            }
          }
        }
      }
    }
  }
}
