{
  "main": {
    "zh-Hant-HK": {
      "identity": {
        "version": {
          "_cldrVersion": "26",
          "_number": "$Revision: 10828 $"
        },
        "generation": {
          "_date": "$Date: 2014-08-18 11:49:47 -0500 (Mon, 18 Aug 2014) $"
        },
        "language": "root",
        "script": "Hant",
        "territory": "HK"
      },
      "delimiters": {
        "quotationStart": "「",
        "quotationEnd": "」",
        "alternateQuotationStart": "『",
        "alternateQuotationEnd": "』"
      }
    }
  }
}
