{
  "main": {
    "teo": {
      "identity": {
        "version": {
          "_cldrVersion": "26",
          "_number": "$Revision: 10739 $"
        },
        "generation": {
          "_date": "$Date: 2014-08-07 12:54:13 -0500 (Thu, 07 Aug 2014) $"
        },
        "language": "root"
      },
      "dates": {
        "calendars": {
          "gregorian": {
            "months": {
              "format": {
                "abbreviated": {
                  "1": "Rar",
                  "2": "Muk",
                  "3": "Kwa",
                  "4": "Dun",
                  "5": "Mar",
                  "6": "Mod",
                  "7": "Jol",
                  "8": "Ped",
                  "9": "Sok",
                  "10": "Tib",
                  "11": "Lab",
                  "12": "Poo"
                },
                "narrow": {
                  "1": "R",
                  "2": "M",
                  "3": "K",
                  "4": "D",
                  "5": "M",
                  "6": "M",
                  "7": "J",
                  "8": "P",
                  "9": "S",
                  "10": "T",
                  "11": "L",
                  "12": "P"
                },
                "wide": {
                  "1": "Orara",
                  "2": "Omuk",
                  "3": "Okwamg’",
                  "4": "Odung’el",
                  "5": "Omaruk",
                  "6": "Omodok’king’ol",
                  "7": "Ojola",
                  "8": "Opedel",
                  "9": "Osokosokoma",
                  "10": "Otibar",
                  "11": "Olabor",
                  "12": "Opoo"
                }
              },
              "stand-alone": {
                "abbreviated": {
                  "1": "Rar",
                  "2": "Muk",
                  "3": "Kwa",
                  "4": "Dun",
                  "5": "Mar",
                  "6": "Mod",
                  "7": "Jol",
                  "8": "Ped",
                  "9": "Sok",
                  "10": "Tib",
                  "11": "Lab",
                  "12": "Poo"
                },
                "narrow": {
                  "1": "R",
                  "2": "M",
                  "3": "K",
                  "4": "D",
                  "5": "M",
                  "6": "M",
                  "7": "J",
                  "8": "P",
                  "9": "S",
                  "10": "T",
                  "11": "L",
                  "12": "P"
                },
                "wide": {
                  "1": "Orara",
                  "2": "Omuk",
                  "3": "Okwamg’",
                  "4": "Odung’el",
                  "5": "Omaruk",
                  "6": "Omodok’king’ol",
                  "7": "Ojola",
                  "8": "Opedel",
                  "9": "Osokosokoma",
                  "10": "Otibar",
                  "11": "Olabor",
                  "12": "Opoo"
                }
              }
            },
            "days": {
              "format": {
                "abbreviated": {
                  "sun": "Jum",
                  "mon": "Bar",
                  "tue": "Aar",
                  "wed": "Uni",
                  "thu": "Ung",
                  "fri": "Kan",
                  "sat": "Sab"
                },
                "narrow": {
                  "sun": "J",
                  "mon": "B",
                  "tue": "A",
                  "wed": "U",
                  "thu": "U",
                  "fri": "K",
                  "sat": "S"
                },
                "short": {
                  "sun": "Jum",
                  "mon": "Bar",
                  "tue": "Aar",
                  "wed": "Uni",
                  "thu": "Ung",
                  "fri": "Kan",
                  "sat": "Sab"
                },
                "wide": {
                  "sun": "Nakaejuma",
                  "mon": "Nakaebarasa",
                  "tue": "Nakaare",
                  "wed": "Nakauni",
                  "thu": "Nakaung’on",
                  "fri": "Nakakany",
                  "sat": "Nakasabiti"
                }
              },
              "stand-alone": {
                "abbreviated": {
                  "sun": "Jum",
                  "mon": "Bar",
                  "tue": "Aar",
                  "wed": "Uni",
                  "thu": "Ung",
                  "fri": "Kan",
                  "sat": "Sab"
                },
                "narrow": {
                  "sun": "J",
                  "mon": "B",
                  "tue": "A",
                  "wed": "U",
                  "thu": "U",
                  "fri": "K",
                  "sat": "S"
                },
                "short": {
                  "sun": "Jum",
                  "mon": "Bar",
                  "tue": "Aar",
                  "wed": "Uni",
                  "thu": "Ung",
                  "fri": "Kan",
                  "sat": "Sab"
                },
                "wide": {
                  "sun": "Nakaejuma",
                  "mon": "Nakaebarasa",
                  "tue": "Nakaare",
                  "wed": "Nakauni",
                  "thu": "Nakaung’on",
                  "fri": "Nakakany",
                  "sat": "Nakasabiti"
                }
              }
            },
            "quarters": {
              "format": {
                "abbreviated": {
                  "1": "K1",
                  "2": "K2",
                  "3": "K3",
                  "4": "K4"
                },
                "narrow": {
                  "1": "1",
                  "2": "2",
                  "3": "3",
                  "4": "4"
                },
                "wide": {
                  "1": "Akwota abe",
                  "2": "Akwota Aane",
                  "3": "Akwota auni",
                  "4": "Akwota Aung’on"
                }
              },
              "stand-alone": {
                "abbreviated": {
                  "1": "K1",
                  "2": "K2",
                  "3": "K3",
                  "4": "K4"
                },
                "narrow": {
                  "1": "1",
                  "2": "2",
                  "3": "3",
                  "4": "4"
                },
                "wide": {
                  "1": "Akwota abe",
                  "2": "Akwota Aane",
                  "3": "Akwota auni",
                  "4": "Akwota Aung’on"
                }
              }
            },
            "dayPeriods": {
              "format": {
                "abbreviated": {
                  "am": "Taparachu",
                  "noon": "noon",
                  "pm": "Ebongi"
                },
                "narrow": {
                  "am": "a",
                  "noon": "n",
                  "pm": "p"
                },
                "wide": {
                  "am": "Taparachu",
                  "noon": "noon",
                  "pm": "Ebongi"
                }
              },
              "stand-alone": {
                "abbreviated": {
                  "am": "Taparachu",
                  "noon": "noon",
                  "pm": "Ebongi"
                },
                "narrow": {
                  "am": "a",
                  "noon": "n",
                  "pm": "p"
                },
                "wide": {
                  "am": "Taparachu",
                  "noon": "noon",
                  "pm": "Ebongi"
                }
              }
            },
            "eras": {
              "eraNames": {
                "0": "Kabla ya Christo",
                "0-alt-variant": "BCE",
                "1": "Baada ya Christo",
                "1-alt-variant": "CE"
              },
              "eraAbbr": {
                "0": "KK",
                "0-alt-variant": "BCE",
                "1": "BK",
                "1-alt-variant": "CE"
              },
              "eraNarrow": {
                "0": "KK",
                "0-alt-variant": "BCE",
                "1": "BK",
                "1-alt-variant": "CE"
              }
            },
            "dateFormats": {
              "full": "EEEE, d MMMM y",
              "long": "d MMMM y",
              "medium": "d MMM y",
              "short": "dd/MM/y"
            },
            "timeFormats": {
              "full": "h:mm:ss a zzzz",
              "long": "h:mm:ss a z",
              "medium": "h:mm:ss a",
              "short": "h:mm a"
            },
            "dateTimeFormats": {
              "full": "{1} {0}",
              "long": "{1} {0}",
              "medium": "{1} {0}",
              "short": "{1} {0}",
              "availableFormats": {
                "E": "ccc",
                "EHm": "E HH:mm",
                "EHms": "E HH:mm:ss",
                "Ed": "d, E",
                "Ehm": "E h:mm a",
                "Ehms": "E h:mm:ss a",
                "Gy": "G y",
                "GyMMM": "G y MMM",
                "GyMMMEd": "G y MMM d, E",
                "GyMMMd": "G y MMM d",
                "H": "HH",
                "Hm": "HH:mm",
                "Hms": "HH:mm:ss",
                "M": "L",
                "MEd": "E, M/d",
                "MMM": "LLL",
                "MMMEd": "E, MMM d",
                "MMMMEd": "E, MMMM d",
                "MMMMd": "MMMM d",
                "MMMd": "MMM d",
                "Md": "M/d",
                "d": "d",
                "h": "h a",
                "hm": "h:mm a",
                "hms": "h:mm:ss a",
                "ms": "mm:ss",
                "y": "y",
                "yM": "M/y",
                "yMEd": "E, M/d/y",
                "yMMM": "MMM y",
                "yMMMEd": "E, MMM d, y",
                "yMMMM": "MMMM y",
                "yMMMd": "y MMM d",
                "yMd": "y-MM-dd",
                "yQQQ": "QQQ y",
                "yQQQQ": "QQQQ y"
              },
              "appendItems": {
                "Day": "{0} ({2}: {1})",
                "Day-Of-Week": "{0} {1}",
                "Era": "{1} {0}",
                "Hour": "{0} ({2}: {1})",
                "Minute": "{0} ({2}: {1})",
                "Month": "{0} ({2}: {1})",
                "Quarter": "{0} ({2}: {1})",
                "Second": "{0} ({2}: {1})",
                "Timezone": "{0} {1}",
                "Week": "{0} ({2}: {1})",
                "Year": "{1} {0}"
              },
              "intervalFormats": {
                "intervalFormatFallback": "{0} – {1}",
                "H": {
                  "H": "HH–HH"
                },
                "Hm": {
                  "H": "HH:mm–HH:mm",
                  "m": "HH:mm–HH:mm"
                },
                "Hmv": {
                  "H": "HH:mm–HH:mm v",
                  "m": "HH:mm–HH:mm v"
                },
                "Hv": {
                  "H": "HH–HH v"
                },
                "M": {
                  "M": "MM–MM"
                },
                "MEd": {
                  "M": "MM-dd, E – MM-dd, E",
                  "d": "MM-dd, E – MM-dd, E"
                },
                "MMM": {
                  "M": "LLL–LLL"
                },
                "MMMEd": {
                  "M": "MMM d, E – MMM d, E",
                  "d": "MMM d, E – MMM d, E"
                },
                "MMMd": {
                  "M": "MMM d – MMM d",
                  "d": "MMM d–d"
                },
                "Md": {
                  "M": "MM-dd – MM-dd",
                  "d": "MM-dd – MM-dd"
                },
                "d": {
                  "d": "d–d"
                },
                "h": {
                  "a": "h a – h a",
                  "h": "h–h a"
                },
                "hm": {
                  "a": "h:mm a – h:mm a",
                  "h": "h:mm–h:mm a",
                  "m": "h:mm–h:mm a"
                },
                "hmv": {
                  "a": "h:mm a – h:mm a v",
                  "h": "h:mm–h:mm a v",
                  "m": "h:mm–h:mm a v"
                },
                "hv": {
                  "a": "h a – h a v",
                  "h": "h–h a v"
                },
                "y": {
                  "y": "y–y"
                },
                "yM": {
                  "M": "y-MM – y-MM",
                  "y": "y-MM – y-MM"
                },
                "yMEd": {
                  "M": "y-MM-dd, E – y-MM-dd, E",
                  "d": "y-MM-dd, E – y-MM-dd, E",
                  "y": "y-MM-dd, E – y-MM-dd, E"
                },
                "yMMM": {
                  "M": "y MMM–MMM",
                  "y": "y MMM – y MMM"
                },
                "yMMMEd": {
                  "M": "y MMM d, E – MMM d, E",
                  "d": "y MMM d, E – MMM d, E",
                  "y": "y MMM d, E – y MMM d, E"
                },
                "yMMMM": {
                  "M": "y MMMM–MMMM",
                  "y": "y MMMM – y MMMM"
                },
                "yMMMd": {
                  "M": "y MMM d – MMM d",
                  "d": "y MMM d–d",
                  "y": "y MMM d – y MMM d"
                },
                "yMd": {
                  "M": "y-MM-dd – y-MM-dd",
                  "d": "y-MM-dd – y-MM-dd",
                  "y": "y-MM-dd – y-MM-dd"
                }
              }
            }
          }
        }
      }
    }
  }
}
