{
  "main": {
    "af-ZA": {
      "identity": {
        "version": {
          "_cldrVersion": "26",
          "_number": "$Revision: 10669 $"
        },
        "generation": {
          "_date": "$Date: 2014-07-23 16:10:33 -0500 (Wed, 23 Jul 2014) $"
        },
        "language": "af",
        "territory": "ZA"
      },
      "dates": {
        "calendars": {
          "roc": {
            "months": {
              "format": {
                "abbreviated": {
                  "1": "Jan.",
                  "2": "Feb.",
                  "3": "Mrt.",
                  "4": "Apr",
                  "5": "Mei",
                  "6": "Jun",
                  "7": "Jul",
                  "8": "Aug",
                  "9": "Sep",
                  "10": "Okt",
                  "11": "Nov",
                  "12": "Des"
                },
                "narrow": {
                  "1": "J",
                  "2": "F",
                  "3": "M",
                  "4": "A",
                  "5": "M",
                  "6": "J",
                  "7": "J",
                  "8": "A",
                  "9": "S",
                  "10": "O",
                  "11": "N",
                  "12": "D"
                },
                "wide": {
                  "1": "Januarie",
                  "2": "Februarie",
                  "3": "Maart",
                  "4": "April",
                  "5": "Mei",
                  "6": "Junie",
                  "7": "Julie",
                  "8": "Augustus",
                  "9": "September",
                  "10": "Oktober",
                  "11": "November",
                  "12": "Desember"
                }
              },
              "stand-alone": {
                "abbreviated": {
                  "1": "Jan.",
                  "2": "Feb.",
                  "3": "Mrt.",
                  "4": "Apr",
                  "5": "Mei",
                  "6": "Jun",
                  "7": "Jul",
                  "8": "Aug",
                  "9": "Sep",
                  "10": "Okt",
                  "11": "Nov",
                  "12": "Des"
                },
                "narrow": {
                  "1": "J",
                  "2": "F",
                  "3": "M",
                  "4": "A",
                  "5": "M",
                  "6": "J",
                  "7": "J",
                  "8": "A",
                  "9": "S",
                  "10": "O",
                  "11": "N",
                  "12": "D"
                },
                "wide": {
                  "1": "Januarie",
                  "2": "Februarie",
                  "3": "Maart",
                  "4": "April",
                  "5": "Mei",
                  "6": "Junie",
                  "7": "Julie",
                  "8": "Augustus",
                  "9": "September",
                  "10": "Oktober",
                  "11": "November",
                  "12": "Desember"
                }
              }
            },
            "days": {
              "format": {
                "abbreviated": {
                  "sun": "So",
                  "mon": "Ma",
                  "tue": "Di",
                  "wed": "Wo",
                  "thu": "Do",
                  "fri": "Vr",
                  "sat": "Sa"
                },
                "narrow": {
                  "sun": "S",
                  "mon": "M",
                  "tue": "D",
                  "wed": "W",
                  "thu": "D",
                  "fri": "V",
                  "sat": "S"
                },
                "short": {
                  "sun": "So.",
                  "mon": "Ma.",
                  "tue": "Di.",
                  "wed": "Wo.",
                  "thu": "Do.",
                  "fri": "Vr.",
                  "sat": "Sa."
                },
                "wide": {
                  "sun": "Sondag",
                  "mon": "Maandag",
                  "tue": "Dinsdag",
                  "wed": "Woensdag",
                  "thu": "Donderdag",
                  "fri": "Vrydag",
                  "sat": "Saterdag"
                }
              },
              "stand-alone": {
                "abbreviated": {
                  "sun": "So",
                  "mon": "Ma",
                  "tue": "Di",
                  "wed": "Wo",
                  "thu": "Do",
                  "fri": "Vr",
                  "sat": "Sa"
                },
                "narrow": {
                  "sun": "S",
                  "mon": "M",
                  "tue": "D",
                  "wed": "W",
                  "thu": "D",
                  "fri": "V",
                  "sat": "S"
                },
                "short": {
                  "sun": "So.",
                  "mon": "Ma.",
                  "tue": "Di.",
                  "wed": "Wo.",
                  "thu": "Do.",
                  "fri": "Vr.",
                  "sat": "Sa."
                },
                "wide": {
                  "sun": "Sondag",
                  "mon": "Maandag",
                  "tue": "Dinsdag",
                  "wed": "Woensdag",
                  "thu": "Donderdag",
                  "fri": "Vrydag",
                  "sat": "Saterdag"
                }
              }
            },
            "quarters": {
              "format": {
                "abbreviated": {
                  "1": "K1",
                  "2": "K2",
                  "3": "K3",
                  "4": "K4"
                },
                "narrow": {
                  "1": "1",
                  "2": "2",
                  "3": "3",
                  "4": "4"
                },
                "wide": {
                  "1": "1ste kwartaal",
                  "2": "2de kwartaal",
                  "3": "3de kwartaal",
                  "4": "4de kwartaal"
                }
              },
              "stand-alone": {
                "abbreviated": {
                  "1": "K1",
                  "2": "K2",
                  "3": "K3",
                  "4": "K4"
                },
                "narrow": {
                  "1": "1",
                  "2": "2",
                  "3": "3",
                  "4": "4"
                },
                "wide": {
                  "1": "1ste kwartaal",
                  "2": "2de kwartaal",
                  "3": "3de kwartaal",
                  "4": "4de kwartaal"
                }
              }
            },
            "dayPeriods": {
              "format": {
                "abbreviated": {
                  "am": "vm.",
                  "noon": "middag",
                  "pm": "nm."
                },
                "narrow": {
                  "am": "v",
                  "noon": "m",
                  "pm": "n"
                },
                "wide": {
                  "am": "vm.",
                  "noon": "middag",
                  "pm": "nm."
                }
              },
              "stand-alone": {
                "abbreviated": {
                  "am": "vm.",
                  "noon": "middag",
                  "pm": "nm."
                },
                "narrow": {
                  "am": "v",
                  "noon": "m",
                  "pm": "n"
                },
                "wide": {
                  "am": "vm.",
                  "noon": "middag",
                  "pm": "nm."
                }
              }
            },
            "eras": {
              "eraNames": {
                "0": "Before R.O.C.",
                "1": "R.O.C."
              },
              "eraAbbr": {
                "0": "Before R.O.C.",
                "1": "R.O.C."
              },
              "eraNarrow": {
                "0": "Before R.O.C.",
                "1": "R.O.C."
              }
            },
            "dateFormats": {
              "full": "EEEE dd MMMM y G",
              "long": "dd MMMM y G",
              "medium": "dd MMM y G",
              "short": "GGGGG y-MM-dd"
            },
            "timeFormats": {
              "full": "h:mm:ss a zzzz",
              "long": "h:mm:ss a z",
              "medium": "h:mm:ss a",
              "short": "h:mm a"
            },
            "dateTimeFormats": {
              "full": "{1} {0}",
              "long": "{1} {0}",
              "medium": "{1} {0}",
              "short": "{1} {0}",
              "availableFormats": {
                "E": "ccc",
                "EHm": "E HH:mm",
                "EHms": "E HH:mm:ss",
                "Ed": "E d",
                "Ehm": "E h:mm a",
                "Ehms": "E h:mm:ss a",
                "Gy": "y G",
                "GyMMM": "MMM y G",
                "GyMMMEd": "E d MMM y G",
                "GyMMMd": "d MMM y G",
                "H": "HH",
                "Hm": "HH:mm",
                "Hms": "HH:mm:ss",
                "M": "L",
                "MEd": "E, M/d",
                "MMM": "LLL",
                "MMMEd": "E, MMM d",
                "MMMMEd": "E, MMMM d",
                "MMMMd": "MMMM d",
                "MMMMdd": "dd MMMM",
                "MMMd": "MMM d",
                "Md": "M/d",
                "d": "d",
                "h": "h a",
                "hm": "h:mm a",
                "hms": "h:mm:ss a",
                "ms": "mm:ss",
                "y": "y G",
                "yyyy": "y G",
                "yyyyM": "M/y G",
                "yyyyMEd": "E, d/M/y G",
                "yyyyMMM": "MMM y G",
                "yyyyMMMEd": "E, d MMM y G",
                "yyyyMMMM": "MMMM y G",
                "yyyyMMMd": "d MMM y G",
                "yyyyMd": "M/d/y G",
                "yyyyQQQ": "QQQ y G",
                "yyyyQQQQ": "QQQQ y G"
              },
              "appendItems": {
                "Day": "{0} ({2}: {1})",
                "Day-Of-Week": "{0} {1}",
                "Era": "{1} {0}",
                "Hour": "{0} ({2}: {1})",
                "Minute": "{0} ({2}: {1})",
                "Month": "{0} ({2}: {1})",
                "Quarter": "{0} ({2}: {1})",
                "Second": "{0} ({2}: {1})",
                "Timezone": "{0} {1}",
                "Week": "{0} ({2}: {1})",
                "Year": "{1} {0}"
              },
              "intervalFormats": {
                "intervalFormatFallback": "{0} – {1}",
                "H": {
                  "H": "HH–HH"
                },
                "Hm": {
                  "H": "HH:mm–HH:mm",
                  "m": "HH:mm–HH:mm"
                },
                "Hmv": {
                  "H": "HH:mm–HH:mm v",
                  "m": "HH:mm–HH:mm v"
                },
                "Hv": {
                  "H": "HH–HH v"
                },
                "M": {
                  "M": "M – M"
                },
                "MEd": {
                  "M": "E, M/d – E, M/d",
                  "d": "E, M/d – E, M/d"
                },
                "MMM": {
                  "M": "MMM–MMM"
                },
                "MMMEd": {
                  "M": "E, MMM d – E, MMM d",
                  "d": "E, MMM d – E, MMM d"
                },
                "MMMd": {
                  "M": "MMM d – MMM d",
                  "d": "MMM d–d"
                },
                "Md": {
                  "M": "M/d – M/d",
                  "d": "M/d – M/d"
                },
                "d": {
                  "d": "d – d"
                },
                "h": {
                  "a": "h a – h a",
                  "h": "h–h a"
                },
                "hm": {
                  "a": "h:mm a – h:mm a",
                  "h": "h:mm–h:mm a",
                  "m": "h:mm–h:mm a"
                },
                "hmv": {
                  "a": "h:mm a – h:mm a v",
                  "h": "h:mm–h:mm a v",
                  "m": "h:mm–h:mm a v"
                },
                "hv": {
                  "a": "h a – h a v",
                  "h": "h–h a v"
                },
                "y": {
                  "y": "y–y G"
                },
                "yM": {
                  "M": "M/y – M/y G",
                  "y": "M/y – M/y G"
                },
                "yMEd": {
                  "M": "E, M/d/y – E, M/d/y G",
                  "d": "E, M/d/y – E, M/d/y G",
                  "y": "E, M/d/y – E, M/d/y G"
                },
                "yMMM": {
                  "M": "MMM–MMM y G",
                  "y": "MMM y – MMM y G"
                },
                "yMMMEd": {
                  "M": "E, d MMM – E, d MMM, y G",
                  "d": "E, d MMM – E, d MMM, y G",
                  "y": "E, MMM d, y – E, MMM d, y G"
                },
                "yMMMM": {
                  "M": "MMMM–MMMM y G",
                  "y": "MMMM y – MMMM y G"
                },
                "yMMMd": {
                  "M": "MMM d – MMM d, y G",
                  "d": "d–d MMM, y G",
                  "y": "d MMM, y – d MMM, y G"
                },
                "yMd": {
                  "M": "M/d/y – M/d/y G",
                  "d": "M/d/y – M/d/y G",
                  "y": "M/d/y – M/d/y G"
                }
              }
            }
          }
        }
      }
    }
  }
}
