{
  "main": {
    "ko-KR": {
      "identity": {
        "version": {
          "_cldrVersion": "26",
          "_number": "$Revision: 10669 $"
        },
        "generation": {
          "_date": "$Date: 2014-07-23 16:10:33 -0500 (Wed, 23 Jul 2014) $"
        },
        "language": "ko",
        "territory": "KR"
      },
      "localeDisplayNames": {
        "measurementSystemNames": {
          "US": "미국식",
          "metric": "미터법",
          "UK": "영국식"
        }
      }
    }
  }
}
