{
  "main": {
    "ksf-CM": {
      "identity": {
        "version": {
          "_cldrVersion": "26",
          "_number": "$Revision: 10669 $"
        },
        "generation": {
          "_date": "$Date: 2014-07-23 16:10:33 -0500 (Wed, 23 Jul 2014) $"
        },
        "language": "ksf",
        "territory": "CM"
      },
      "dates": {
        "calendars": {
          "roc": {
            "months": {
              "format": {
                "abbreviated": {
                  "1": "ŋ1",
                  "2": "ŋ2",
                  "3": "ŋ3",
                  "4": "ŋ4",
                  "5": "ŋ5",
                  "6": "ŋ6",
                  "7": "ŋ7",
                  "8": "ŋ8",
                  "9": "ŋ9",
                  "10": "ŋ10",
                  "11": "ŋ11",
                  "12": "ŋ12"
                },
                "narrow": {
                  "1": "1",
                  "2": "2",
                  "3": "3",
                  "4": "4",
                  "5": "5",
                  "6": "6",
                  "7": "7",
                  "8": "8",
                  "9": "9",
                  "10": "10",
                  "11": "11",
                  "12": "12"
                },
                "wide": {
                  "1": "ŋwíí a ntɔ́ntɔ",
                  "2": "ŋwíí akǝ bɛ́ɛ",
                  "3": "ŋwíí akǝ ráá",
                  "4": "ŋwíí akǝ nin",
                  "5": "ŋwíí akǝ táan",
                  "6": "ŋwíí akǝ táafɔk",
                  "7": "ŋwíí akǝ táabɛɛ",
                  "8": "ŋwíí akǝ táaraa",
                  "9": "ŋwíí akǝ táanin",
                  "10": "ŋwíí akǝ ntɛk",
                  "11": "ŋwíí akǝ ntɛk di bɔ́k",
                  "12": "ŋwíí akǝ ntɛk di bɛ́ɛ"
                }
              },
              "stand-alone": {
                "abbreviated": {
                  "1": "ŋ1",
                  "2": "ŋ2",
                  "3": "ŋ3",
                  "4": "ŋ4",
                  "5": "ŋ5",
                  "6": "ŋ6",
                  "7": "ŋ7",
                  "8": "ŋ8",
                  "9": "ŋ9",
                  "10": "ŋ10",
                  "11": "ŋ11",
                  "12": "ŋ12"
                },
                "narrow": {
                  "1": "1",
                  "2": "2",
                  "3": "3",
                  "4": "4",
                  "5": "5",
                  "6": "6",
                  "7": "7",
                  "8": "8",
                  "9": "9",
                  "10": "10",
                  "11": "11",
                  "12": "12"
                },
                "wide": {
                  "1": "ŋwíí a ntɔ́ntɔ",
                  "2": "ŋwíí akǝ bɛ́ɛ",
                  "3": "ŋwíí akǝ ráá",
                  "4": "ŋwíí akǝ nin",
                  "5": "ŋwíí akǝ táan",
                  "6": "ŋwíí akǝ táafɔk",
                  "7": "ŋwíí akǝ táabɛɛ",
                  "8": "ŋwíí akǝ táaraa",
                  "9": "ŋwíí akǝ táanin",
                  "10": "ŋwíí akǝ ntɛk",
                  "11": "ŋwíí akǝ ntɛk di bɔ́k",
                  "12": "ŋwíí akǝ ntɛk di bɛ́ɛ"
                }
              }
            },
            "days": {
              "format": {
                "abbreviated": {
                  "sun": "sɔ́n",
                  "mon": "lǝn",
                  "tue": "maa",
                  "wed": "mɛk",
                  "thu": "jǝǝ",
                  "fri": "júm",
                  "sat": "sam"
                },
                "narrow": {
                  "sun": "s",
                  "mon": "l",
                  "tue": "m",
                  "wed": "m",
                  "thu": "j",
                  "fri": "j",
                  "sat": "s"
                },
                "short": {
                  "sun": "sɔ́n",
                  "mon": "lǝn",
                  "tue": "maa",
                  "wed": "mɛk",
                  "thu": "jǝǝ",
                  "fri": "júm",
                  "sat": "sam"
                },
                "wide": {
                  "sun": "sɔ́ndǝ",
                  "mon": "lǝndí",
                  "tue": "maadí",
                  "wed": "mɛkrɛdí",
                  "thu": "jǝǝdí",
                  "fri": "júmbá",
                  "sat": "samdí"
                }
              },
              "stand-alone": {
                "abbreviated": {
                  "sun": "sɔ́n",
                  "mon": "lǝn",
                  "tue": "maa",
                  "wed": "mɛk",
                  "thu": "jǝǝ",
                  "fri": "júm",
                  "sat": "sam"
                },
                "narrow": {
                  "sun": "s",
                  "mon": "l",
                  "tue": "m",
                  "wed": "m",
                  "thu": "j",
                  "fri": "j",
                  "sat": "s"
                },
                "short": {
                  "sun": "sɔ́n",
                  "mon": "lǝn",
                  "tue": "maa",
                  "wed": "mɛk",
                  "thu": "jǝǝ",
                  "fri": "júm",
                  "sat": "sam"
                },
                "wide": {
                  "sun": "sɔ́ndǝ",
                  "mon": "lǝndí",
                  "tue": "maadí",
                  "wed": "mɛkrɛdí",
                  "thu": "jǝǝdí",
                  "fri": "júmbá",
                  "sat": "samdí"
                }
              }
            },
            "quarters": {
              "format": {
                "abbreviated": {
                  "1": "i1",
                  "2": "i2",
                  "3": "i3",
                  "4": "i4"
                },
                "narrow": {
                  "1": "1",
                  "2": "2",
                  "3": "3",
                  "4": "4"
                },
                "wide": {
                  "1": "id́ɛ́n kǝbǝk kǝ ntɔ́ntɔ́",
                  "2": "idɛ́n kǝbǝk kǝ kǝbɛ́ɛ",
                  "3": "idɛ́n kǝbǝk kǝ kǝráá",
                  "4": "idɛ́n kǝbǝk kǝ kǝnin"
                }
              },
              "stand-alone": {
                "abbreviated": {
                  "1": "i1",
                  "2": "i2",
                  "3": "i3",
                  "4": "i4"
                },
                "narrow": {
                  "1": "1",
                  "2": "2",
                  "3": "3",
                  "4": "4"
                },
                "wide": {
                  "1": "id́ɛ́n kǝbǝk kǝ ntɔ́ntɔ́",
                  "2": "idɛ́n kǝbǝk kǝ kǝbɛ́ɛ",
                  "3": "idɛ́n kǝbǝk kǝ kǝráá",
                  "4": "idɛ́n kǝbǝk kǝ kǝnin"
                }
              }
            },
            "dayPeriods": {
              "format": {
                "abbreviated": {
                  "am": "sárúwá",
                  "noon": "noon",
                  "pm": "cɛɛ́nko"
                },
                "narrow": {
                  "am": "a",
                  "noon": "n",
                  "pm": "p"
                },
                "wide": {
                  "am": "sárúwá",
                  "noon": "noon",
                  "pm": "cɛɛ́nko"
                }
              },
              "stand-alone": {
                "abbreviated": {
                  "am": "sárúwá",
                  "noon": "noon",
                  "pm": "cɛɛ́nko"
                },
                "narrow": {
                  "am": "a",
                  "noon": "n",
                  "pm": "p"
                },
                "wide": {
                  "am": "sárúwá",
                  "noon": "noon",
                  "pm": "cɛɛ́nko"
                }
              }
            },
            "eras": {
              "eraNames": {
                "0": "Before R.O.C.",
                "1": "R.O.C."
              },
              "eraAbbr": {
                "0": "Before R.O.C.",
                "1": "R.O.C."
              },
              "eraNarrow": {
                "0": "Before R.O.C.",
                "1": "R.O.C."
              }
            },
            "dateFormats": {
              "full": "EEEE d MMMM y G",
              "long": "d MMMM y G",
              "medium": "d MMM y G",
              "short": "d/M/y GGGGG"
            },
            "timeFormats": {
              "full": "HH:mm:ss zzzz",
              "long": "HH:mm:ss z",
              "medium": "HH:mm:ss",
              "short": "HH:mm"
            },
            "dateTimeFormats": {
              "full": "{1} {0}",
              "long": "{1} {0}",
              "medium": "{1} {0}",
              "short": "{1} {0}",
              "availableFormats": {
                "E": "ccc",
                "EHm": "E HH:mm",
                "EHms": "E HH:mm:ss",
                "Ed": "E d",
                "Ehm": "E h:mm a",
                "Ehms": "E h:mm:ss a",
                "Gy": "G y",
                "GyMMM": "G y MMM",
                "GyMMMEd": "G y MMM d, E",
                "GyMMMd": "G y MMM d",
                "H": "HH",
                "Hm": "HH:mm",
                "Hms": "HH:mm:ss",
                "M": "L",
                "MEd": "E d/M",
                "MMM": "LLL",
                "MMMEd": "E d MMM",
                "MMMd": "d MMM",
                "Md": "d/M",
                "d": "d",
                "h": "h a",
                "hm": "h:mm a",
                "hms": "h:mm:ss a",
                "ms": "m:ss",
                "y": "y",
                "yM": "M/y",
                "yMEd": "E d/M/y",
                "yMMM": "MMM y",
                "yMMMEd": "E d MMM y",
                "yMMMd": "d MMM y",
                "yMd": "d/M/y",
                "yQQQ": "QQQ y",
                "yQQQQ": "QQQQ y",
                "yyyy": "G y",
                "yyyyM": "GGGGG y-MM",
                "yyyyMEd": "GGGGG y-MM-dd, E",
                "yyyyMMM": "G y MMM",
                "yyyyMMMEd": "G y MMM d, E",
                "yyyyMMMd": "G y MMM d",
                "yyyyMd": "GGGGG y-MM-dd",
                "yyyyQQQ": "G y QQQ",
                "yyyyQQQQ": "G y QQQQ"
              },
              "appendItems": {
                "Day": "{0} ({2}: {1})",
                "Day-Of-Week": "{0} {1}",
                "Era": "{1} {0}",
                "Hour": "{0} ({2}: {1})",
                "Minute": "{0} ({2}: {1})",
                "Month": "{0} ({2}: {1})",
                "Quarter": "{0} ({2}: {1})",
                "Second": "{0} ({2}: {1})",
                "Timezone": "{0} {1}",
                "Week": "{0} ({2}: {1})",
                "Year": "{1} {0}"
              },
              "intervalFormats": {
                "intervalFormatFallback": "{0} – {1}",
                "H": {
                  "H": "HH–HH"
                },
                "Hm": {
                  "H": "HH:mm–HH:mm",
                  "m": "HH:mm–HH:mm"
                },
                "Hmv": {
                  "H": "HH:mm–HH:mm v",
                  "m": "HH:mm–HH:mm v"
                },
                "Hv": {
                  "H": "HH–HH v"
                },
                "M": {
                  "M": "MM–MM"
                },
                "MEd": {
                  "M": "MM-dd, E – MM-dd, E",
                  "d": "MM-dd, E – MM-dd, E"
                },
                "MMM": {
                  "M": "LLL–LLL"
                },
                "MMMEd": {
                  "M": "MMM d, E – MMM d, E",
                  "d": "MMM d, E – MMM d, E"
                },
                "MMMd": {
                  "M": "MMM d – MMM d",
                  "d": "MMM d–d"
                },
                "Md": {
                  "M": "MM-dd – MM-dd",
                  "d": "MM-dd – MM-dd"
                },
                "d": {
                  "d": "d–d"
                },
                "h": {
                  "a": "h a – h a",
                  "h": "h–h a"
                },
                "hm": {
                  "a": "h:mm a – h:mm a",
                  "h": "h:mm–h:mm a",
                  "m": "h:mm–h:mm a"
                },
                "hmv": {
                  "a": "h:mm a – h:mm a v",
                  "h": "h:mm–h:mm a v",
                  "m": "h:mm–h:mm a v"
                },
                "hv": {
                  "a": "h a – h a v",
                  "h": "h–h a v"
                },
                "y": {
                  "y": "G y–y"
                },
                "yM": {
                  "M": "GGGGG y-MM – y-MM",
                  "y": "GGGGG y-MM – y-MM"
                },
                "yMEd": {
                  "M": "GGGGG y-MM-dd, E – y-MM-dd, E",
                  "d": "GGGGG y-MM-dd, E – y-MM-dd, E",
                  "y": "GGGGG y-MM-dd, E – y-MM-dd, E"
                },
                "yMMM": {
                  "M": "G y MMM–MMM",
                  "y": "G y MMM – y MMM"
                },
                "yMMMEd": {
                  "M": "G y MMM d, E – MMM d, E",
                  "d": "G y MMM d, E – MMM d, E",
                  "y": "G y MMM d, E – y MMM d, E"
                },
                "yMMMM": {
                  "M": "G y MMMM–MMMM",
                  "y": "G y MMMM – y MMMM"
                },
                "yMMMd": {
                  "M": "G y MMM d – MMM d",
                  "d": "G y MMM d–d",
                  "y": "G y MMM d – y MMM d"
                },
                "yMd": {
                  "M": "GGGGG y-MM-dd – y-MM-dd",
                  "d": "GGGGG y-MM-dd – y-MM-dd",
                  "y": "GGGGG y-MM-dd – y-MM-dd"
                }
              }
            }
          }
        }
      }
    }
  }
}
