{
  "main": {
    "gd-GB": {
      "identity": {
        "version": {
          "_cldrVersion": "26",
          "_number": "$Revision: 10669 $"
        },
        "generation": {
          "_date": "$Date: 2014-07-23 16:10:33 -0500 (Wed, 23 Jul 2014) $"
        },
        "language": "gd",
        "territory": "GB"
      },
      "dates": {
        "calendars": {
          "ethiopic-amete-alem": {
            "months": {
              "format": {
                "abbreviated": {
                  "1": "Meskerem",
                  "2": "Tekemt",
                  "3": "Hedar",
                  "4": "Tahsas",
                  "5": "Ter",
                  "6": "Yekatit",
                  "7": "Megabit",
                  "8": "Miazia",
                  "9": "Genbot",
                  "10": "Sene",
                  "11": "Hamle",
                  "12": "Nehasse",
                  "13": "Pagumen"
                },
                "narrow": {
                  "1": "1",
                  "2": "2",
                  "3": "3",
                  "4": "4",
                  "5": "5",
                  "6": "6",
                  "7": "7",
                  "8": "8",
                  "9": "9",
                  "10": "10",
                  "11": "11",
                  "12": "12",
                  "13": "13"
                },
                "wide": {
                  "1": "Meskerem",
                  "2": "Tekemt",
                  "3": "Hedar",
                  "4": "Tahsas",
                  "5": "Ter",
                  "6": "Yekatit",
                  "7": "Megabit",
                  "8": "Miazia",
                  "9": "Genbot",
                  "10": "Sene",
                  "11": "Hamle",
                  "12": "Nehasse",
                  "13": "Pagumen"
                }
              },
              "stand-alone": {
                "abbreviated": {
                  "1": "Meskerem",
                  "2": "Tekemt",
                  "3": "Hedar",
                  "4": "Tahsas",
                  "5": "Ter",
                  "6": "Yekatit",
                  "7": "Megabit",
                  "8": "Miazia",
                  "9": "Genbot",
                  "10": "Sene",
                  "11": "Hamle",
                  "12": "Nehasse",
                  "13": "Pagumen"
                },
                "narrow": {
                  "1": "1",
                  "2": "2",
                  "3": "3",
                  "4": "4",
                  "5": "5",
                  "6": "6",
                  "7": "7",
                  "8": "8",
                  "9": "9",
                  "10": "10",
                  "11": "11",
                  "12": "12",
                  "13": "13"
                },
                "wide": {
                  "1": "Meskerem",
                  "2": "Tekemt",
                  "3": "Hedar",
                  "4": "Tahsas",
                  "5": "Ter",
                  "6": "Yekatit",
                  "7": "Megabit",
                  "8": "Miazia",
                  "9": "Genbot",
                  "10": "Sene",
                  "11": "Hamle",
                  "12": "Nehasse",
                  "13": "Pagumen"
                }
              }
            },
            "days": {
              "format": {
                "abbreviated": {
                  "sun": "DiD",
                  "mon": "DiL",
                  "tue": "DiM",
                  "wed": "DiC",
                  "thu": "Dia",
                  "fri": "Dih",
                  "sat": "DiS"
                },
                "narrow": {
                  "sun": "D",
                  "mon": "L",
                  "tue": "M",
                  "wed": "C",
                  "thu": "A",
                  "fri": "H",
                  "sat": "S"
                },
                "short": {
                  "sun": "Dò",
                  "mon": "Lu",
                  "tue": "Mà",
                  "wed": "Ci",
                  "thu": "Da",
                  "fri": "hA",
                  "sat": "Sa"
                },
                "wide": {
                  "sun": "DiDòmhnaich",
                  "mon": "DiLuain",
                  "tue": "DiMàirt",
                  "wed": "DiCiadain",
                  "thu": "DiarDaoin",
                  "fri": "DihAoine",
                  "sat": "DiSathairne"
                }
              },
              "stand-alone": {
                "abbreviated": {
                  "sun": "DiD",
                  "mon": "DiL",
                  "tue": "DiM",
                  "wed": "DiC",
                  "thu": "Dia",
                  "fri": "Dih",
                  "sat": "DiS"
                },
                "narrow": {
                  "sun": "D",
                  "mon": "L",
                  "tue": "M",
                  "wed": "C",
                  "thu": "A",
                  "fri": "H",
                  "sat": "S"
                },
                "short": {
                  "sun": "Dò",
                  "mon": "Lu",
                  "tue": "Mà",
                  "wed": "Ci",
                  "thu": "Da",
                  "fri": "hA",
                  "sat": "Sa"
                },
                "wide": {
                  "sun": "DiDòmhnaich",
                  "mon": "DiLuain",
                  "tue": "DiMàirt",
                  "wed": "DiCiadain",
                  "thu": "DiarDaoin",
                  "fri": "DihAoine",
                  "sat": "DiSathairne"
                }
              }
            },
            "quarters": {
              "format": {
                "abbreviated": {
                  "1": "C1",
                  "2": "C2",
                  "3": "C3",
                  "4": "C4"
                },
                "narrow": {
                  "1": "1",
                  "2": "2",
                  "3": "3",
                  "4": "4"
                },
                "wide": {
                  "1": "1d chairteal",
                  "2": "2na cairteal",
                  "3": "3s cairteal",
                  "4": "4mh cairteal"
                }
              },
              "stand-alone": {
                "abbreviated": {
                  "1": "C1",
                  "2": "C2",
                  "3": "C3",
                  "4": "C4"
                },
                "narrow": {
                  "1": "1",
                  "2": "2",
                  "3": "3",
                  "4": "4"
                },
                "wide": {
                  "1": "1d chairteal",
                  "2": "2na cairteal",
                  "3": "3s cairteal",
                  "4": "4mh cairteal"
                }
              }
            },
            "dayPeriods": {
              "format": {
                "abbreviated": {
                  "am": "m",
                  "noon": "meadhan-latha",
                  "pm": "f"
                },
                "narrow": {
                  "am": "m",
                  "noon": "f",
                  "pm": "f"
                },
                "wide": {
                  "am": "m",
                  "noon": "meadhan-latha",
                  "pm": "f"
                }
              },
              "stand-alone": {
                "abbreviated": {
                  "am": "m",
                  "noon": "meadhan-latha",
                  "pm": "f"
                },
                "narrow": {
                  "am": "m",
                  "noon": "f",
                  "pm": "f"
                },
                "wide": {
                  "am": "m",
                  "noon": "meadhan-latha",
                  "pm": "f"
                }
              }
            },
            "eras": {
              "eraNames": {
                "0": "ERA0"
              },
              "eraAbbr": {
                "0": "ERA0"
              },
              "eraNarrow": {
                "0": "ERA0"
              }
            },
            "dateFormats": {
              "full": "EEEE, d MMMM y G",
              "long": "d MMMM y G",
              "medium": "d MMM y G",
              "short": "d/M/y GGGGG"
            },
            "timeFormats": {
              "full": "HH:mm:ss zzzz",
              "long": "HH:mm:ss z",
              "medium": "HH:mm:ss",
              "short": "HH:mm"
            },
            "dateTimeFormats": {
              "full": "{1} {0}",
              "long": "{1} {0}",
              "medium": "{1} {0}",
              "short": "{1} {0}",
              "availableFormats": {
                "E": "ccc",
                "EHm": "E HH:mm",
                "EHms": "E HH:mm:ss",
                "Ed": "E, d",
                "Ehm": "E h:mm a",
                "Ehms": "E h:mm:ss a",
                "Gy": "G y",
                "GyMMM": "LLL y G",
                "GyMMMEd": "E, d MMM y G",
                "GyMMMd": "d MMM y G",
                "H": "HH",
                "Hm": "HH:mm",
                "Hms": "HH:mm:ss",
                "M": "L",
                "MEd": "E, d/M",
                "MMM": "LLL",
                "MMMEd": "E, d MMM",
                "MMMMd": "d MMMM",
                "MMMd": "d MMM",
                "MMdd": "dd/MM",
                "Md": "d/M",
                "d": "d",
                "h": "h a",
                "hm": "h:mm a",
                "hms": "h:mm:ss a",
                "ms": "mm:ss",
                "y": "y G",
                "yMEd": "E, d/M/y",
                "yMM": "MM/y",
                "yMMM": "LLL y",
                "yMMMM": "LLLL y",
                "yyyy": "y G",
                "yyyyM": "M/y GGGGG",
                "yyyyMEd": "E, d/M/y GGGGG",
                "yyyyMMM": "LLL y G",
                "yyyyMMMEd": "E, d MMM y G",
                "yyyyMMMd": "d MMM y G",
                "yyyyMd": "d/M/y GGGGG",
                "yyyyQQQ": "QQQ y G",
                "yyyyQQQQ": "QQQQ y G"
              },
              "appendItems": {
                "Day": "{0} ({2}: {1})",
                "Day-Of-Week": "{0} {1}",
                "Era": "{1} {0}",
                "Hour": "{0} ({2}: {1})",
                "Minute": "{0} ({2}: {1})",
                "Month": "{0} ({2}: {1})",
                "Quarter": "{0} ({2}: {1})",
                "Second": "{0} ({2}: {1})",
                "Timezone": "{0} {1}",
                "Week": "{0} ({2}: {1})",
                "Year": "{1} {0}"
              },
              "intervalFormats": {
                "intervalFormatFallback": "{0} – {1}",
                "H": {
                  "H": "HH–HH"
                },
                "Hm": {
                  "H": "HH:mm-HH:mm",
                  "m": "HH:mm-HH:mm"
                },
                "Hmv": {
                  "H": "HH:mm-HH:mm v",
                  "m": "HH:mm-HH:mm v"
                },
                "Hv": {
                  "H": "HH–HH v"
                },
                "M": {
                  "M": "M – M"
                },
                "MEd": {
                  "M": "E, d/M – E, d/M",
                  "d": "E, d/M – E, d/M"
                },
                "MMM": {
                  "M": "LLL – LLL"
                },
                "MMMEd": {
                  "M": "E, d MMM – E, d MMM",
                  "d": "E, d MMM – E, d MMM"
                },
                "MMMd": {
                  "M": "d MMM – d MMM",
                  "d": "d – d MMM"
                },
                "Md": {
                  "M": "d/M – d/M",
                  "d": "d/M – d/M"
                },
                "d": {
                  "d": "d – d"
                },
                "h": {
                  "a": "h a – h a",
                  "h": "h–h a"
                },
                "hm": {
                  "a": "h:mm a – h:mm a",
                  "h": "h:mm-h:mm a",
                  "m": "h:mm-h:mm a"
                },
                "hmv": {
                  "a": "h:mm a – h:mm a v",
                  "h": "h:mm-h:mm a v",
                  "m": "h:mm-h:mm a v"
                },
                "hv": {
                  "a": "h a – h a v",
                  "h": "h–h a v"
                },
                "y": {
                  "y": "y – y G"
                },
                "yM": {
                  "M": "L/y – L/y GGGGG",
                  "y": "L/y – L/y GGGGG"
                },
                "yMEd": {
                  "M": "E, d/M/y – E, d/M/y GGGGG",
                  "d": "E, d/M/y – E, d/M/y GGGGG",
                  "y": "E, d/M/y – E, d/M/y GGGGG"
                },
                "yMMM": {
                  "M": "LLL – LLL y G",
                  "y": "LLL y – LLL y G"
                },
                "yMMMEd": {
                  "M": "E, d MMM – E, d MMM y G",
                  "d": "E, d MMM – E, d MMM y G",
                  "y": "E, d MMM y – E, d MMM y G"
                },
                "yMMMM": {
                  "M": "LLLL – LLLL y G",
                  "y": "LLLL y – LLLL y G"
                },
                "yMMMd": {
                  "M": "d MMM – d MMM y G",
                  "d": "d – d MMM y G",
                  "y": "d MMM y – d MMM y G"
                },
                "yMd": {
                  "M": "d/M/y – d/M/y GGGGG",
                  "d": "d/M/y – d/M/y GGGGG",
                  "y": "d/M/y – d/M/y GGGGG"
                }
              }
            }
          }
        }
      }
    }
  }
}
