{
  "main": {
    "fa-AF": {
      "identity": {
        "version": {
          "_cldrVersion": "26",
          "_number": "$Revision: 10669 $"
        },
        "generation": {
          "_date": "$Date: 2014-07-23 16:10:33 -0500 (Wed, 23 Jul 2014) $"
        },
        "language": "fa",
        "territory": "AF"
      },
      "localeDisplayNames": {
        "localeDisplayPattern": {
          "localePattern": "{0} ({1})",
          "localeSeparator": "{0}، {1}",
          "localeKeyTypePattern": "{0}: {1}"
        },
        "keys": {
          "calendar": "تقویم",
          "colAlternate": "مرتب‌سازی با نادیده گرفتن نمادها",
          "colBackwards": "مرتب‌سازی معکوس براساس آکسان",
          "colCaseFirst": "ترتیب بر اساس حروف کوچک/بزرگ",
          "colCaseLevel": "مرتب‌سازی حساس به اندازه حروف",
          "colHiraganaQuaternary": "سیستم مرتب‌سازی کانا",
          "colNormalization": "مرتب‌سازی معمولی",
          "colNumeric": "مرتب‌سازی عددی",
          "colStrength": "قدرت مرتب‌سازی",
          "collation": "ترتیب",
          "currency": "واحد پول",
          "numbers": "اعداد",
          "timezone": "منطقه زمانی",
          "va": "متغیر محلی",
          "variableTop": "مرتب‌سازی به عنوان نماد",
          "x": "استفادهٔ خصوصی"
        },
        "types": {
          "numbers": {
            "arab": "ارقام عربی",
            "arabext": "ارقام فارسی",
            "armn": "اعداد ارمنی",
            "armnlow": "اعداد ارمنی با حروف کوچک",
            "bali": "ارقام بالیایی",
            "beng": "ارقام بنگالی"
          },
          "collation": {
            "big5han": "ترتیب چینی سنتی - Big5"
          },
          "numbers": {
            "brah": "brah"
          },
          "calendar": {
            "buddhist": "تقویم بودایی"
          },
          "numbers": {
            "cakm": "cakm",
            "cham": "cham"
          },
          "calendar": {
            "chinese": "تقویم چینی",
            "coptic": "تقویم قبطی",
            "dangi": "تقویم دانگی"
          },
          "numbers": {
            "deva": "ارقام دوناگری"
          },
          "collation": {
            "dictionary": "ترتیب فرهنگ لغت",
            "ducet": "ترتیب پیش‌فرض یونی‌کد",
            "eor": "eor"
          },
          "numbers": {
            "ethi": "اعداد اتیوپیایی"
          },
          "calendar": {
            "ethiopic": "تقویم اتیوپیایی",
            "ethiopic-amete-alem": "تقویم اتیوپیایی عامت عالم"
          },
          "numbers": {
            "finance": "سیستم عددی مالی",
            "fullwide": "ارقام تمام‌عرض"
          },
          "collation": {
            "gb2312han": "ترتیب چینی ساده‌شده - GB2312"
          },
          "numbers": {
            "geor": "اعداد گرجی"
          },
          "calendar": {
            "gregorian": "تقویم میلادی"
          },
          "numbers": {
            "grek": "اعداد یونانی",
            "greklow": "اعداد یونانی با حروف کوچک",
            "gujr": "ارقام گجراتی",
            "guru": "ارقام گورومخی",
            "hanidec": "اعداد دهدهی چینی",
            "hans": "اعداد چینی ساده‌شده",
            "hansfin": "اعداد مالی چینی ساده‌شده",
            "hant": "اعداد چینی سنتی",
            "hantfin": "اعداد مالی چینی سنتی",
            "hebr": "اعداد عبری"
          },
          "calendar": {
            "hebrew": "تقویم عبری"
          },
          "colStrength": {
            "identical": "مرتب‌سازی همه"
          },
          "calendar": {
            "indian": "تقویم ملی هند",
            "islamic": "تقویم هجری قمری",
            "islamic-civil": "تقویم هجری قمری جدولی مدنی",
            "islamic-rgsa": "قویم هجری قمری هلالی عربستان سعودی",
            "islamic-tbla": "تقویم هجری قمری جدولی نجومی",
            "islamic-umalqura": "تقویم هجری قمری ام‌القری",
            "iso8601": "تقویم ایزو ۸۶۰۱",
            "japanese": "تقویم ژاپنی"
          },
          "numbers": {
            "java": "ارقام جاوه‌ای",
            "jpan": "اعداد ژاپنی",
            "jpanfin": "اعداد مالی ژاپنی",
            "kali": "kali",
            "khmr": "ارقام خمری",
            "knda": "ارقام کاناده‌ای",
            "lana": "lana",
            "lanatham": "lanatham",
            "laoo": "ارقام لائوسی",
            "latn": "ارقام غربی",
            "lepc": "lepc",
            "limb": "limb"
          },
          "colCaseFirst": {
            "lower": "ابتدا مرتب‌سازی حروف کوچک"
          },
          "numbers": {
            "mlym": "ارقام مالایالامی",
            "mong": "ارقام مغولی",
            "mtei": "mtei",
            "mymr": "ارقام میانماری",
            "mymrshan": "ارقام شان میانماری",
            "native": "ارقام بومی",
            "nkoo": "nkoo"
          },
          "colBackwards": {
            "no": "مرتب‌سازی آکسان‌ها به صورت معمولی"
          },
          "colCaseFirst": {
            "no": "مرتب‌سازی به ترتیب معمولی بزرگ و کوچکی حروف"
          },
          "colCaseLevel": {
            "no": "مرتب‌سازی بدون توجه به کوچک و بزرگی حروف"
          },
          "colHiraganaQuaternary": {
            "no": "مرتب‌سازی بر اساس سیستم کانا به صورت جداگانه"
          },
          "colNormalization": {
            "no": "مرتب‌سازی بدون عادی‌سازی"
          },
          "colNumeric": {
            "no": "مرتب‌سازی ارقام بصورت مجزا"
          },
          "colAlternate": {
            "non-ignorable": "مرتب‌سازی نمادها"
          },
          "numbers": {
            "olck": "olck",
            "orya": "ارقام اوریه‌ای",
            "osma": "osma"
          },
          "calendar": {
            "persian": "تقویم هجری شمسی"
          },
          "collation": {
            "phonebook": "ترتیب دفتر تلفن",
            "phonetic": "مرتب کردن بر اساس آوایی",
            "pinyin": "ترتیب پین‌یین"
          },
          "colStrength": {
            "primary": "مرتب‌سازی فقط حروف پایه",
            "quaternary": "مرتب‌سازی بر اساس آکسان/اندازه حروف/عرض/کانا"
          },
          "collation": {
            "reformed": "ترتیب اصلاح‌شده"
          },
          "calendar": {
            "roc": "تقویم جمهوری چین (تایوان)"
          },
          "numbers": {
            "roman": "اعداد رومی",
            "romanlow": "اعداد رومی با حروف کوچک",
            "saur": "saur"
          },
          "collation": {
            "search": "جستجوی عمومی",
            "searchjl": "جستجو با صامت اول هانگول"
          },
          "colStrength": {
            "secondary": "مرتب‌سازی آکسان‌ها"
          },
          "colAlternate": {
            "shifted": "مرتب‌سازی با نادیده گرفتن نمادها"
          },
          "numbers": {
            "shrd": "shrd",
            "sora": "sora"
          },
          "collation": {
            "standard": "ترتیب استاندارد",
            "stroke": "ترتیب حرکتی"
          },
          "numbers": {
            "sund": "sund",
            "takr": "takr",
            "talu": "talu",
            "taml": "اعداد سنتی تامیلی",
            "tamldec": "ارقام تامیلی",
            "telu": "ارقام تلوگویی"
          },
          "colStrength": {
            "tertiary": "مرتب‌سازی بر اساس آکسان/اندازه حرف/عرض"
          },
          "numbers": {
            "thai": "ارقام تایلندی",
            "tibt": "ارقام تبتی"
          },
          "collation": {
            "traditional": "ترتیب سنتی"
          },
          "numbers": {
            "traditional": "سیستم اعداد سنتی"
          },
          "collation": {
            "unihan": "ترتیب رادیکالی-حرکتی"
          },
          "colCaseFirst": {
            "upper": "مرتب‌سازی بر اساس حرف بزرگ در ابتدا"
          },
          "numbers": {
            "vaii": "ارقام وایی"
          },
          "colBackwards": {
            "yes": "مرتب‌سازی معکوس براساس آکسان"
          },
          "colCaseLevel": {
            "yes": "مرتب‌سازی با حساسیت به اندازه حروف"
          },
          "colHiraganaQuaternary": {
            "yes": "مرتب‌سازی کانا به صورت متفاوت"
          },
          "colNormalization": {
            "yes": "مرتب‌سازی یونیکد نرمال شده"
          },
          "colNumeric": {
            "yes": "مرتب‌سازی شماره‌ها با سیستم عددی"
          },
          "collation": {
            "zhuyin": "zhuyin"
          }
        },
        "codePatterns": {
          "language": "زبان: {0}",
          "script": "خط: {0}",
          "territory": "ناحیه: {0}"
        }
      }
    }
  }
}
