{
  "main": {
    "he-IL": {
      "identity": {
        "version": {
          "_cldrVersion": "26",
          "_number": "$Revision: 10669 $"
        },
        "generation": {
          "_date": "$Date: 2014-07-23 16:10:33 -0500 (Wed, 23 Jul 2014) $"
        },
        "language": "he",
        "territory": "IL"
      },
      "dates": {
        "calendars": {
          "persian": {
            "months": {
              "format": {
                "abbreviated": {
                  "1": "Farvardin",
                  "2": "Ordibehesht",
                  "3": "Khordad",
                  "4": "Tir",
                  "5": "Mordad",
                  "6": "Shahrivar",
                  "7": "Mehr",
                  "8": "Aban",
                  "9": "Azar",
                  "10": "Dey",
                  "11": "Bahman",
                  "12": "Esfand"
                },
                "narrow": {
                  "1": "1",
                  "2": "2",
                  "3": "3",
                  "4": "4",
                  "5": "5",
                  "6": "6",
                  "7": "7",
                  "8": "8",
                  "9": "9",
                  "10": "10",
                  "11": "11",
                  "12": "12"
                },
                "wide": {
                  "1": "Farvardin",
                  "2": "Ordibehesht",
                  "3": "Khordad",
                  "4": "Tir",
                  "5": "Mordad",
                  "6": "Shahrivar",
                  "7": "Mehr",
                  "8": "Aban",
                  "9": "Azar",
                  "10": "Dey",
                  "11": "Bahman",
                  "12": "Esfand"
                }
              },
              "stand-alone": {
                "abbreviated": {
                  "1": "Farvardin",
                  "2": "Ordibehesht",
                  "3": "Khordad",
                  "4": "Tir",
                  "5": "Mordad",
                  "6": "Shahrivar",
                  "7": "Mehr",
                  "8": "Aban",
                  "9": "Azar",
                  "10": "Dey",
                  "11": "Bahman",
                  "12": "Esfand"
                },
                "narrow": {
                  "1": "1",
                  "2": "2",
                  "3": "3",
                  "4": "4",
                  "5": "5",
                  "6": "6",
                  "7": "7",
                  "8": "8",
                  "9": "9",
                  "10": "10",
                  "11": "11",
                  "12": "12"
                },
                "wide": {
                  "1": "Farvardin",
                  "2": "Ordibehesht",
                  "3": "Khordad",
                  "4": "Tir",
                  "5": "Mordad",
                  "6": "Shahrivar",
                  "7": "Mehr",
                  "8": "Aban",
                  "9": "Azar",
                  "10": "Dey",
                  "11": "Bahman",
                  "12": "Esfand"
                }
              }
            },
            "days": {
              "format": {
                "abbreviated": {
                  "sun": "יום א׳",
                  "mon": "יום ב׳",
                  "tue": "יום ג׳",
                  "wed": "יום ד׳",
                  "thu": "יום ה׳",
                  "fri": "יום ו׳",
                  "sat": "שבת"
                },
                "narrow": {
                  "sun": "א׳",
                  "mon": "ב׳",
                  "tue": "ג׳",
                  "wed": "ד׳",
                  "thu": "ה׳",
                  "fri": "ו׳",
                  "sat": "ש׳"
                },
                "short": {
                  "sun": "א׳",
                  "mon": "ב׳",
                  "tue": "ג׳",
                  "wed": "ד׳",
                  "thu": "ה׳",
                  "fri": "ו׳",
                  "sat": "ש׳"
                },
                "wide": {
                  "sun": "יום ראשון",
                  "mon": "יום שני",
                  "tue": "יום שלישי",
                  "wed": "יום רביעי",
                  "thu": "יום חמישי",
                  "fri": "יום שישי",
                  "sat": "יום שבת"
                }
              },
              "stand-alone": {
                "abbreviated": {
                  "sun": "יום א׳",
                  "mon": "יום ב׳",
                  "tue": "יום ג׳",
                  "wed": "יום ד׳",
                  "thu": "יום ה׳",
                  "fri": "יום ו׳",
                  "sat": "שבת"
                },
                "narrow": {
                  "sun": "א׳",
                  "mon": "ב׳",
                  "tue": "ג׳",
                  "wed": "ד׳",
                  "thu": "ה׳",
                  "fri": "ו׳",
                  "sat": "ש׳"
                },
                "short": {
                  "sun": "א׳",
                  "mon": "ב׳",
                  "tue": "ג׳",
                  "wed": "ד׳",
                  "thu": "ה׳",
                  "fri": "ו׳",
                  "sat": "ש׳"
                },
                "wide": {
                  "sun": "יום ראשון",
                  "mon": "יום שני",
                  "tue": "יום שלישי",
                  "wed": "יום רביעי",
                  "thu": "יום חמישי",
                  "fri": "יום שישי",
                  "sat": "יום שבת"
                }
              }
            },
            "quarters": {
              "format": {
                "abbreviated": {
                  "1": "רבעון 1",
                  "2": "רבעון 2",
                  "3": "רבעון 3",
                  "4": "רבעון 4"
                },
                "narrow": {
                  "1": "1",
                  "2": "2",
                  "3": "3",
                  "4": "4"
                },
                "wide": {
                  "1": "רבעון 1",
                  "2": "רבעון 2",
                  "3": "רבעון 3",
                  "4": "רבעון 4"
                }
              },
              "stand-alone": {
                "abbreviated": {
                  "1": "רבעון 1",
                  "2": "רבעון 2",
                  "3": "רבעון 3",
                  "4": "רבעון 4"
                },
                "narrow": {
                  "1": "ר1",
                  "2": "ר2",
                  "3": "ר3",
                  "4": "ר4"
                },
                "wide": {
                  "1": "רבעון 1",
                  "2": "רבעון 2",
                  "3": "רבעון 3",
                  "4": "רבעון 4"
                }
              }
            },
            "dayPeriods": {
              "format": {
                "abbreviated": {
                  "am": "לפנה״צ",
                  "noon": "בצהריים",
                  "pm": "אחה״צ"
                },
                "narrow": {
                  "am": "לפנה״צ",
                  "noon": "בצהריים",
                  "pm": "אחה״צ"
                },
                "wide": {
                  "am": "לפנה״צ",
                  "noon": "בצהריים",
                  "pm": "אחה״צ"
                }
              },
              "stand-alone": {
                "abbreviated": {
                  "am": "לפנה״צ",
                  "noon": "בצהריים",
                  "pm": "אחה״צ"
                },
                "narrow": {
                  "am": "לפנה״צ",
                  "noon": "בצהריים",
                  "pm": "אחה״צ"
                },
                "wide": {
                  "am": "לפנה״צ",
                  "noon": "בצהריים",
                  "pm": "אחה״צ"
                }
              }
            },
            "eras": {
              "eraNames": {
                "0": "AP"
              },
              "eraAbbr": {
                "0": "AP"
              },
              "eraNarrow": {
                "0": "AP"
              }
            },
            "dateFormats": {
              "full": "EEEE, d בMMMM y G",
              "long": "d בMMMM y G",
              "medium": "d בMMM y G",
              "short": "d.M.y GGGGG"
            },
            "timeFormats": {
              "full": "HH:mm:ss zzzz",
              "long": "HH:mm:ss z",
              "medium": "HH:mm:ss",
              "short": "HH:mm"
            },
            "dateTimeFormats": {
              "full": "{1} בשעה {0}",
              "long": "{1} בשעה {0}",
              "medium": "{1}, {0}",
              "short": "{1}, {0}",
              "availableFormats": {
                "E": "ccc",
                "EHm": "E HH:mm",
                "EHms": "E HH:mm:ss",
                "Ed": "E ה-d",
                "Ehm": "E h:mm a",
                "Ehms": "E h:mm:ss a",
                "Gy": "y G",
                "GyMMM": "MMM y G",
                "GyMMMEd": "E, d בMMM y G",
                "GyMMMd": "d בMMM y G",
                "H": "HH",
                "Hm": "HH:mm",
                "Hms": "HH:mm:ss",
                "M": "L",
                "MEd": "E, d/M",
                "MMM": "LLL",
                "MMMEd": "E, d בMMM",
                "MMMd": "d בMMM",
                "Md": "d.M",
                "d": "d",
                "h": "‏h a",
                "hm": "h:mm a",
                "hms": "h:mm:ss a",
                "ms": "mm:ss",
                "y": "y G",
                "yyyy": "y G",
                "yyyyM": "M.y G",
                "yyyyMEd": "E, d/M/y G",
                "yyyyMM": "MM/y G",
                "yyyyMMM": "MMM y G",
                "yyyyMMMEd": "E, d בMMM y G",
                "yyyyMMMd": "d בMMM y G",
                "yyyyMd": "d.M.y G",
                "yyyyQQQ": "G y QQQ",
                "yyyyQQQQ": "G y QQQQ"
              },
              "appendItems": {
                "Day": "{0} ({2}: {1})",
                "Day-Of-Week": "{0} {1}",
                "Era": "{1} {0}",
                "Hour": "{0} ({2}: {1})",
                "Minute": "{0} ({2}: {1})",
                "Month": "{0} ({2}: {1})",
                "Quarter": "{0} ({2}: {1})",
                "Second": "{0} ({2}: {1})",
                "Timezone": "{0} {1}",
                "Week": "{0} ({2}: {1})",
                "Year": "{1} {0}"
              },
              "intervalFormats": {
                "intervalFormatFallback": "{0} – {1}",
                "H": {
                  "H": "HH–HH"
                },
                "Hm": {
                  "H": "HH:mm–HH:mm",
                  "m": "HH:mm–HH:mm"
                },
                "Hmv": {
                  "H": "HH:mm–HH:mm v",
                  "m": "HH:mm–HH:mm v"
                },
                "Hv": {
                  "H": "HH–HH v"
                },
                "M": {
                  "M": "M–M"
                },
                "MEd": {
                  "M": "EEEE dd/MM – EEEE dd/MM",
                  "d": "EEEE dd/MM – EEEE dd/MM"
                },
                "MMM": {
                  "M": "MMM–MMM"
                },
                "MMMEd": {
                  "M": "EEEE d MMM – EEEE d MMM",
                  "d": "EEEE d MMM – EEEE d MMM"
                },
                "MMMM": {
                  "M": "LLLL–LLLL"
                },
                "MMMd": {
                  "M": "d MMM – d MMM",
                  "d": "d–d MMM"
                },
                "Md": {
                  "M": "dd/MM – dd/MM",
                  "d": "dd/MM – dd/MM"
                },
                "d": {
                  "d": "d–d"
                },
                "h": {
                  "a": "h a – h a",
                  "h": "h–h a"
                },
                "hm": {
                  "a": "h:mm a – h:mm a",
                  "h": "h:mm–h:mm a",
                  "m": "h:mm–h:mm a"
                },
                "hmv": {
                  "a": "h:mm a – h:mm a v",
                  "h": "h:mm–h:mm a v",
                  "m": "h:mm–h:mm a v"
                },
                "hv": {
                  "a": "h a – h a v",
                  "h": "h–h a v"
                },
                "y": {
                  "y": "y–y"
                },
                "yM": {
                  "M": "MM/y – MM/y",
                  "y": "MM/y – MM/y"
                },
                "yMEd": {
                  "M": "EEEE dd/MM/y – EEEE dd/MM/y",
                  "d": "EEEE dd/MM/y – EEEE dd/MM/y",
                  "y": "EEEE dd/MM/y – EEEE dd/MM/y"
                },
                "yMMM": {
                  "M": "MMM–MMM y",
                  "y": "MMM y – MMM y"
                },
                "yMMMEd": {
                  "M": "EEEE d MMM – EEEE d MMM y",
                  "d": "EEEE d MMM – EEEE d MMM y",
                  "y": "EEEE d MMM y – EEEE d MMM y"
                },
                "yMMMM": {
                  "M": "MMMM - MMMM y G",
                  "y": "MMMM y–MMMM y"
                },
                "yMMMd": {
                  "M": "d MMM – d MMM y",
                  "d": "d–d MMM y",
                  "y": "d MMM y – d MMM y"
                },
                "yMd": {
                  "M": "dd/MM/y – dd/MM/y",
                  "d": "dd/MM/y – dd/MM/y",
                  "y": "dd/MM/y – dd/MM/y"
                }
              }
            }
          }
        }
      }
    }
  }
}
