{
  "main": {
    "he-IL": {
      "identity": {
        "version": {
          "_cldrVersion": "26",
          "_number": "$Revision: 10669 $"
        },
        "generation": {
          "_date": "$Date: 2014-07-23 16:10:33 -0500 (Wed, 23 Jul 2014) $"
        },
        "language": "he",
        "territory": "IL"
      },
      "localeDisplayNames": {
        "transformNames": {
          "BGN": "מטבע BGN",
          "Numeric": "מספרי",
          "Tone": "טון",
          "UNGEGN": "UNGEGN",
          "x-Accents": "סימנים דיאקריטיים",
          "x-Fullwidth": "רוחב מלא",
          "x-Halfwidth": "חצי רוחב",
          "x-Jamo": "ג׳אמו",
          "x-Pinyin": "פיניין",
          "x-Publishing": "הוצאה לאור"
        }
      }
    }
  }
}
