{
  "main": {
    "fil": {
      "identity": {
        "version": {
          "_cldrVersion": "26",
          "_number": "$Revision: 10809 $"
        },
        "generation": {
          "_date": "$Date: 2014-08-14 15:10:07 -0500 (Thu, 14 Aug 2014) $"
        },
        "language": "fil"
      },
      "localeDisplayNames": {
        "languages": {
          "aa": "aa",
          "ab": "Abkhazian",
          "ace": "ace",
          "ach": "Acoli",
          "ada": "ada",
          "ady": "ady",
          "ae": "ae",
          "aeb": "aeb",
          "af": "Afrikaans",
          "afh": "afh",
          "agq": "Aghem",
          "ain": "ain",
          "ak": "Akan",
          "akk": "akk",
          "akz": "akz",
          "ale": "ale",
          "aln": "aln",
          "alt": "alt",
          "am": "Amharic",
          "an": "an",
          "ang": "ang",
          "anp": "anp",
          "ar": "Arabe",
          "ar-001": "Modernong Karaniwang Arabe",
          "arc": "arc",
          "arn": "Mapuche",
          "aro": "aro",
          "arp": "arp",
          "arq": "arq",
          "arw": "arw",
          "ary": "ary",
          "arz": "arz",
          "as": "Assamese",
          "asa": "Asu",
          "ase": "ase",
          "ast": "ast",
          "av": "av",
          "avk": "avk",
          "awa": "awa",
          "ay": "Aymara",
          "az": "Azerbaijani",
          "az-alt-short": "Azeri",
          "azb": "azb",
          "ba": "Bashkir",
          "bal": "bal",
          "ban": "ban",
          "bar": "bar",
          "bas": "bas",
          "bax": "bax",
          "bbc": "bbc",
          "bbj": "bbj",
          "be": "Belarusian",
          "bej": "bej",
          "bem": "Bemba",
          "bew": "bew",
          "bez": "Bena",
          "bfd": "bfd",
          "bfq": "bfq",
          "bg": "Bulgarian",
          "bho": "bho",
          "bi": "bi",
          "bik": "bik",
          "bin": "bin",
          "bjn": "bjn",
          "bkm": "bkm",
          "bla": "bla",
          "bm": "Bambara",
          "bn": "Bengali",
          "bo": "Tibetan",
          "bpy": "bpy",
          "bqi": "bqi",
          "br": "Breton",
          "bra": "bra",
          "brh": "brh",
          "brx": "Bodo",
          "bs": "Bosnian",
          "bss": "bss",
          "bua": "bua",
          "bug": "bug",
          "bum": "bum",
          "byn": "byn",
          "byv": "byv",
          "ca": "Catalan",
          "cad": "cad",
          "car": "car",
          "cay": "cay",
          "cch": "cch",
          "ce": "ce",
          "ceb": "ceb",
          "cgg": "Chiga",
          "ch": "ch",
          "chb": "chb",
          "chg": "chg",
          "chk": "chk",
          "chm": "chm",
          "chn": "chn",
          "cho": "cho",
          "chp": "chp",
          "chr": "Cherokee",
          "chy": "chy",
          "ckb": "Sorani Kurdish",
          "co": "Corsican",
          "cop": "cop",
          "cps": "cps",
          "cr": "cr",
          "crh": "crh",
          "cs": "Czech",
          "csb": "csb",
          "cu": "cu",
          "cv": "cv",
          "cy": "Welsh",
          "da": "Danish",
          "dak": "dak",
          "dar": "dar",
          "dav": "Taita",
          "de": "German",
          "de-AT": "de_AT",
          "de-CH": "de_CH",
          "del": "del",
          "den": "den",
          "dgr": "dgr",
          "din": "din",
          "dje": "Zarma",
          "doi": "doi",
          "dsb": "Lower Sorbian",
          "dtp": "dtp",
          "dua": "Duala",
          "dum": "dum",
          "dv": "Divehi",
          "dyo": "Jola-Fonyi",
          "dyu": "dyu",
          "dz": "Dzongkha",
          "dzg": "dzg",
          "ebu": "Embu",
          "ee": "Ewe",
          "efi": "Efik",
          "egl": "egl",
          "egy": "egy",
          "eka": "eka",
          "el": "Greek",
          "elx": "elx",
          "en": "Ingles",
          "en-AU": "Ingles ng Australya",
          "en-CA": "Ingles sa Canada",
          "en-GB": "Ingles (UK)",
          "en-GB-alt-short": "Ingles (U.K.)",
          "en-US": "Ingles (US)",
          "en-US-alt-short": "Ingles (U.S.)",
          "enm": "enm",
          "eo": "Esperanto",
          "es": "Spanish",
          "es-419": "Latin American Spanish",
          "es-ES": "European Spanish",
          "es-MX": "Mexican Spanish",
          "esu": "esu",
          "et": "Estonian",
          "eu": "Basque",
          "ewo": "ewo",
          "ext": "ext",
          "fa": "Persian",
          "fan": "fan",
          "fat": "fat",
          "ff": "ff",
          "fi": "Finnish",
          "fil": "Filipino",
          "fit": "fit",
          "fj": "Fijian",
          "fo": "Faroese",
          "fon": "fon",
          "fr": "French",
          "fr-CA": "Canadian French",
          "fr-CH": "Swiss French",
          "frc": "frc",
          "frm": "frm",
          "fro": "fro",
          "frp": "frp",
          "frr": "frr",
          "frs": "frs",
          "fur": "fur",
          "fy": "Western Frisian",
          "ga": "Irish",
          "gaa": "Ga",
          "gag": "Gagauz",
          "gan": "gan",
          "gay": "gay",
          "gba": "gba",
          "gbz": "gbz",
          "gd": "Scots Gaelic",
          "gez": "gez",
          "gil": "gil",
          "gl": "Galician",
          "glk": "glk",
          "gmh": "gmh",
          "gn": "Guarani",
          "goh": "goh",
          "gom": "gom",
          "gon": "gon",
          "gor": "gor",
          "got": "got",
          "grb": "grb",
          "grc": "grc",
          "gsw": "Swiss German",
          "gu": "Gujarati",
          "guc": "guc",
          "gur": "gur",
          "guz": "Gusii",
          "gv": "Manx",
          "gwi": "gwi",
          "ha": "Hausa",
          "hai": "hai",
          "hak": "hak",
          "haw": "Hawaiian",
          "he": "Hebrew",
          "hi": "Hindi",
          "hif": "hif",
          "hil": "hil",
          "hit": "hit",
          "hmn": "hmn",
          "ho": "ho",
          "hr": "Croatian",
          "hsb": "Upper Sorbian",
          "hsn": "hsn",
          "ht": "Haitian",
          "hu": "Hungarian",
          "hup": "hup",
          "hy": "Armenian",
          "hz": "hz",
          "ia": "Interlingua",
          "iba": "iba",
          "ibb": "ibb",
          "id": "Indonesian",
          "ie": "Interlingue",
          "ig": "Igbo",
          "ii": "Sichuan Yi",
          "ik": "ik",
          "ilo": "ilo",
          "inh": "inh",
          "io": "io",
          "is": "Icelandic",
          "it": "Italian",
          "iu": "Inuktitut",
          "izh": "izh",
          "ja": "Japanese",
          "jam": "jam",
          "jbo": "jbo",
          "jgo": "Ngomba",
          "jmc": "Machame",
          "jpr": "jpr",
          "jrb": "jrb",
          "jut": "jut",
          "jv": "Javanese",
          "ka": "Georgian",
          "kaa": "kaa",
          "kab": "Kabyle",
          "kac": "kac",
          "kaj": "kaj",
          "kam": "Kamba",
          "kaw": "kaw",
          "kbd": "kbd",
          "kbl": "kbl",
          "kcg": "kcg",
          "kde": "Makonde",
          "kea": "Kabuverdianu",
          "ken": "ken",
          "kfo": "kfo",
          "kg": "Kongo",
          "kgp": "kgp",
          "kha": "kha",
          "kho": "kho",
          "khq": "Koyra Chiini",
          "khw": "khw",
          "ki": "Kikuyu",
          "kiu": "kiu",
          "kj": "kj",
          "kk": "Kazakh",
          "kkj": "kkj",
          "kl": "Kalaallisut",
          "kln": "Kalenjin",
          "km": "Khmer",
          "kmb": "kmb",
          "kn": "Kannada",
          "ko": "Korean",
          "koi": "Komi-Permyak",
          "kok": "Konkani",
          "kos": "kos",
          "kpe": "kpe",
          "kr": "kr",
          "krc": "krc",
          "kri": "kri",
          "krj": "krj",
          "krl": "krl",
          "kru": "kru",
          "ks": "Kashmiri",
          "ksb": "Shambala",
          "ksf": "Bafia",
          "ksh": "ksh",
          "ku": "Kurdish",
          "kum": "kum",
          "kut": "kut",
          "kv": "kv",
          "kw": "Cornish",
          "ky": "Kirghiz",
          "la": "Latin",
          "lad": "lad",
          "lag": "Langi",
          "lah": "lah",
          "lam": "lam",
          "lb": "Luxembourgish",
          "lez": "lez",
          "lfn": "lfn",
          "lg": "Ganda",
          "li": "li",
          "lij": "lij",
          "liv": "liv",
          "lkt": "Lakota",
          "lmo": "lmo",
          "ln": "Lingala",
          "lo": "Lao",
          "lol": "lol",
          "loz": "Lozi",
          "lt": "Lithuanian",
          "ltg": "ltg",
          "lu": "Luba-Katanga",
          "lua": "Luba-Lulua",
          "lui": "lui",
          "lun": "lun",
          "luo": "Luo",
          "lus": "lus",
          "luy": "Luyia",
          "lv": "Latvian",
          "lzh": "lzh",
          "lzz": "lzz",
          "mad": "mad",
          "maf": "maf",
          "mag": "mag",
          "mai": "mai",
          "mak": "mak",
          "man": "man",
          "mas": "Masai",
          "mde": "mde",
          "mdf": "mdf",
          "mdr": "mdr",
          "men": "men",
          "mer": "Meru",
          "mfe": "Morisyen",
          "mg": "Malagasy",
          "mga": "mga",
          "mgh": "Makhuwa-Meetto",
          "mgo": "Meta’",
          "mh": "mh",
          "mi": "Maori",
          "mic": "mic",
          "min": "min",
          "mk": "Macedonian",
          "ml": "Malayalam",
          "mn": "Mongolian",
          "mnc": "mnc",
          "mni": "mni",
          "moh": "Mohawk",
          "mos": "mos",
          "mr": "Marathi",
          "mrj": "mrj",
          "ms": "Malay",
          "mt": "Maltese",
          "mua": "Mundang",
          "mul": "mul",
          "mus": "mus",
          "mwl": "mwl",
          "mwr": "mwr",
          "mwv": "mwv",
          "my": "Burmese",
          "mye": "mye",
          "myv": "myv",
          "mzn": "mzn",
          "na": "na",
          "nan": "nan",
          "nap": "nap",
          "naq": "Nama",
          "nb": "Norwegian Bokmal",
          "nd": "North Ndebele",
          "nds": "nds",
          "ne": "Nepali",
          "new": "new",
          "ng": "ng",
          "nia": "nia",
          "niu": "niu",
          "njo": "njo",
          "nl": "Dutch",
          "nl-BE": "Flemish",
          "nmg": "Kwasio",
          "nn": "Norwegian Nynorsk",
          "nnh": "nnh",
          "no": "Norwegian",
          "nog": "nog",
          "non": "non",
          "nov": "nov",
          "nqo": "N’Ko",
          "nr": "nr",
          "nso": "Northern Sotho",
          "nus": "Nuer",
          "nv": "nv",
          "nwc": "nwc",
          "ny": "Nyanja",
          "nym": "nym",
          "nyn": "Nyankole",
          "nyo": "nyo",
          "nzi": "nzi",
          "oc": "Occitan",
          "oj": "oj",
          "om": "Oromo",
          "or": "Oriya",
          "os": "Ossetic",
          "osa": "osa",
          "ota": "ota",
          "pa": "Punjabi",
          "pag": "pag",
          "pal": "pal",
          "pam": "pam",
          "pap": "pap",
          "pau": "pau",
          "pcd": "pcd",
          "pdc": "pdc",
          "pdt": "pdt",
          "peo": "peo",
          "pfl": "pfl",
          "phn": "phn",
          "pi": "pi",
          "pl": "Polish",
          "pms": "pms",
          "pnt": "pnt",
          "pon": "pon",
          "prg": "prg",
          "pro": "pro",
          "ps": "Pashto",
          "ps-alt-variant": "Pushto",
          "pt": "Portuges",
          "pt-BR": "Brazilian Portuguese",
          "pt-PT": "European Portuguese",
          "qu": "Quechua",
          "quc": "Kʼicheʼ",
          "qug": "qug",
          "raj": "raj",
          "rap": "rap",
          "rar": "rar",
          "rgn": "rgn",
          "rif": "rif",
          "rm": "Romansh",
          "rn": "Rundi",
          "ro": "Romanian",
          "ro-MD": "Moldavian",
          "rof": "Rombo",
          "rom": "rom",
          "root": "root",
          "rtm": "rtm",
          "ru": "Russian",
          "rue": "rue",
          "rug": "rug",
          "rup": "rup",
          "rw": "Kinyarwanda",
          "rwk": "Rwa",
          "sa": "Sanskrit",
          "sad": "sad",
          "sah": "sah",
          "sam": "sam",
          "saq": "Samburu",
          "sas": "sas",
          "sat": "sat",
          "saz": "saz",
          "sba": "sba",
          "sbp": "Sangu",
          "sc": "sc",
          "scn": "scn",
          "sco": "sco",
          "sd": "Sindhi",
          "sdc": "sdc",
          "se": "Northern Sami",
          "see": "see",
          "seh": "Sena",
          "sei": "sei",
          "sel": "sel",
          "ses": "Koyraboro Senni",
          "sg": "Sango",
          "sga": "sga",
          "sgs": "sgs",
          "sh": "Serbo-Croatian",
          "shi": "Tachelhit",
          "shn": "shn",
          "shu": "shu",
          "si": "Sinhala",
          "sid": "sid",
          "sk": "Slovak",
          "sl": "Slovenian",
          "sli": "sli",
          "sly": "sly",
          "sm": "Samoan",
          "sma": "Southern Sami",
          "smj": "Lule Sami",
          "smn": "Inari Sami",
          "sms": "Skolt Sami",
          "sn": "Shona",
          "snk": "snk",
          "so": "Somali",
          "sog": "sog",
          "sq": "Albanian",
          "sr": "Serbian",
          "srn": "srn",
          "srr": "srr",
          "ss": "Swati",
          "ssy": "ssy",
          "st": "Southern Sotho",
          "stq": "stq",
          "su": "Sundanese",
          "suk": "suk",
          "sus": "sus",
          "sux": "sux",
          "sv": "Swedish",
          "sw": "Swahili",
          "swb": "Comorian",
          "swc": "Swahili (Congo)",
          "syc": "syc",
          "syr": "syr",
          "szl": "szl",
          "ta": "Tamil",
          "tcy": "tcy",
          "te": "Telugu",
          "tem": "tem",
          "teo": "Teso",
          "ter": "ter",
          "tet": "Tetum",
          "tg": "Tajik",
          "th": "Thai",
          "ti": "Tigrinya",
          "tig": "tig",
          "tiv": "tiv",
          "tk": "Turkmen",
          "tkl": "tkl",
          "tkr": "tkr",
          "tl": "Tagalog",
          "tlh": "Klingon",
          "tli": "tli",
          "tly": "tly",
          "tmh": "tmh",
          "tn": "Tswana",
          "to": "Tongan",
          "tog": "tog",
          "tpi": "Tok Pisin",
          "tr": "Turkish",
          "tru": "tru",
          "trv": "trv",
          "ts": "Tsonga",
          "tsd": "tsd",
          "tsi": "tsi",
          "tt": "Tatar",
          "ttt": "ttt",
          "tum": "Tumbuka",
          "tvl": "tvl",
          "tw": "Twi",
          "twq": "Tasawaq",
          "ty": "Tahitian",
          "tyv": "tyv",
          "tzm": "Tamazight ng Gitnang Atlas",
          "udm": "udm",
          "ug": "Uyghur",
          "ug-alt-variant": "Uighur",
          "uga": "uga",
          "uk": "Ukranian",
          "umb": "umb",
          "und": "Hindi Kilalang Wika",
          "ur": "Urdu",
          "uz": "Uzbek",
          "vai": "Vai",
          "ve": "Venda",
          "vec": "vec",
          "vep": "vep",
          "vi": "Vietnamese",
          "vls": "vls",
          "vmf": "vmf",
          "vo": "vo",
          "vot": "vot",
          "vro": "vro",
          "vun": "Vunjo",
          "wa": "wa",
          "wae": "wae",
          "wal": "wal",
          "war": "war",
          "was": "was",
          "wo": "Wolof",
          "wuu": "wuu",
          "xal": "xal",
          "xh": "Xhosa",
          "xmf": "xmf",
          "xog": "Soga",
          "yao": "yao",
          "yap": "yap",
          "yav": "yav",
          "ybb": "ybb",
          "yi": "Yiddish",
          "yo": "Yoruba",
          "yrl": "yrl",
          "yue": "Cantonese",
          "za": "za",
          "zap": "zap",
          "zbl": "zbl",
          "zea": "zea",
          "zen": "zen",
          "zgh": "Standard Moroccan Tamazight",
          "zh": "Chinese",
          "zh-Hans": "Simplified Chinese",
          "zh-Hant": "zh_Hant",
          "zu": "Zulu",
          "zun": "zun",
          "zxx": "Walang nilalaman na ukol sa wika",
          "zza": "zza"
        }
      }
    }
  }
}
