{
  "main": {
    "lg": {
      "identity": {
        "version": {
          "_cldrVersion": "26",
          "_number": "$Revision: 10739 $"
        },
        "generation": {
          "_date": "$Date: 2014-08-07 12:54:13 -0500 (Thu, 07 Aug 2014) $"
        },
        "language": "lg"
      },
      "dates": {
        "calendars": {
          "buddhist": {
            "months": {
              "format": {
                "abbreviated": {
                  "1": "Jan",
                  "2": "Feb",
                  "3": "Mar",
                  "4": "Apu",
                  "5": "Maa",
                  "6": "Juu",
                  "7": "Jul",
                  "8": "Agu",
                  "9": "Seb",
                  "10": "Oki",
                  "11": "Nov",
                  "12": "Des"
                },
                "narrow": {
                  "1": "J",
                  "2": "F",
                  "3": "M",
                  "4": "A",
                  "5": "M",
                  "6": "J",
                  "7": "J",
                  "8": "A",
                  "9": "S",
                  "10": "O",
                  "11": "N",
                  "12": "D"
                },
                "wide": {
                  "1": "Janwaliyo",
                  "2": "Febwaliyo",
                  "3": "Marisi",
                  "4": "Apuli",
                  "5": "Maayi",
                  "6": "Juuni",
                  "7": "Julaayi",
                  "8": "Agusito",
                  "9": "Sebuttemba",
                  "10": "Okitobba",
                  "11": "Novemba",
                  "12": "Desemba"
                }
              },
              "stand-alone": {
                "abbreviated": {
                  "1": "Jan",
                  "2": "Feb",
                  "3": "Mar",
                  "4": "Apu",
                  "5": "Maa",
                  "6": "Juu",
                  "7": "Jul",
                  "8": "Agu",
                  "9": "Seb",
                  "10": "Oki",
                  "11": "Nov",
                  "12": "Des"
                },
                "narrow": {
                  "1": "J",
                  "2": "F",
                  "3": "M",
                  "4": "A",
                  "5": "M",
                  "6": "J",
                  "7": "J",
                  "8": "A",
                  "9": "S",
                  "10": "O",
                  "11": "N",
                  "12": "D"
                },
                "wide": {
                  "1": "Janwaliyo",
                  "2": "Febwaliyo",
                  "3": "Marisi",
                  "4": "Apuli",
                  "5": "Maayi",
                  "6": "Juuni",
                  "7": "Julaayi",
                  "8": "Agusito",
                  "9": "Sebuttemba",
                  "10": "Okitobba",
                  "11": "Novemba",
                  "12": "Desemba"
                }
              }
            },
            "days": {
              "format": {
                "abbreviated": {
                  "sun": "Sab",
                  "mon": "Bal",
                  "tue": "Lw2",
                  "wed": "Lw3",
                  "thu": "Lw4",
                  "fri": "Lw5",
                  "sat": "Lw6"
                },
                "narrow": {
                  "sun": "S",
                  "mon": "B",
                  "tue": "L",
                  "wed": "L",
                  "thu": "L",
                  "fri": "L",
                  "sat": "L"
                },
                "short": {
                  "sun": "Sab",
                  "mon": "Bal",
                  "tue": "Lw2",
                  "wed": "Lw3",
                  "thu": "Lw4",
                  "fri": "Lw5",
                  "sat": "Lw6"
                },
                "wide": {
                  "sun": "Sabbiiti",
                  "mon": "Balaza",
                  "tue": "Lwakubiri",
                  "wed": "Lwakusatu",
                  "thu": "Lwakuna",
                  "fri": "Lwakutaano",
                  "sat": "Lwamukaaga"
                }
              },
              "stand-alone": {
                "abbreviated": {
                  "sun": "Sab",
                  "mon": "Bal",
                  "tue": "Lw2",
                  "wed": "Lw3",
                  "thu": "Lw4",
                  "fri": "Lw5",
                  "sat": "Lw6"
                },
                "narrow": {
                  "sun": "S",
                  "mon": "B",
                  "tue": "L",
                  "wed": "L",
                  "thu": "L",
                  "fri": "L",
                  "sat": "L"
                },
                "short": {
                  "sun": "Sab",
                  "mon": "Bal",
                  "tue": "Lw2",
                  "wed": "Lw3",
                  "thu": "Lw4",
                  "fri": "Lw5",
                  "sat": "Lw6"
                },
                "wide": {
                  "sun": "Sabbiiti",
                  "mon": "Balaza",
                  "tue": "Lwakubiri",
                  "wed": "Lwakusatu",
                  "thu": "Lwakuna",
                  "fri": "Lwakutaano",
                  "sat": "Lwamukaaga"
                }
              }
            },
            "quarters": {
              "format": {
                "abbreviated": {
                  "1": "Kya1",
                  "2": "Kya2",
                  "3": "Kya3",
                  "4": "Kya4"
                },
                "narrow": {
                  "1": "1",
                  "2": "2",
                  "3": "3",
                  "4": "4"
                },
                "wide": {
                  "1": "Kyakuna 1",
                  "2": "Kyakuna 2",
                  "3": "Kyakuna 3",
                  "4": "Kyakuna 4"
                }
              },
              "stand-alone": {
                "abbreviated": {
                  "1": "Kya1",
                  "2": "Kya2",
                  "3": "Kya3",
                  "4": "Kya4"
                },
                "narrow": {
                  "1": "1",
                  "2": "2",
                  "3": "3",
                  "4": "4"
                },
                "wide": {
                  "1": "Kyakuna 1",
                  "2": "Kyakuna 2",
                  "3": "Kyakuna 3",
                  "4": "Kyakuna 4"
                }
              }
            },
            "dayPeriods": {
              "format": {
                "abbreviated": {
                  "am": "AM",
                  "noon": "noon",
                  "pm": "PM"
                },
                "narrow": {
                  "am": "a",
                  "noon": "n",
                  "pm": "p"
                },
                "wide": {
                  "am": "AM",
                  "noon": "noon",
                  "pm": "PM"
                }
              },
              "stand-alone": {
                "abbreviated": {
                  "am": "AM",
                  "noon": "noon",
                  "pm": "PM"
                },
                "narrow": {
                  "am": "a",
                  "noon": "n",
                  "pm": "p"
                },
                "wide": {
                  "am": "AM",
                  "noon": "noon",
                  "pm": "PM"
                }
              }
            },
            "eras": {
              "eraNames": {
                "0": "BE"
              },
              "eraAbbr": {
                "0": "BE"
              },
              "eraNarrow": {
                "0": "BE"
              }
            },
            "dateFormats": {
              "full": "EEEE, d MMMM y G",
              "long": "d MMMM y G",
              "medium": "d MMM y G",
              "short": "dd/MM/y GGGGG"
            },
            "timeFormats": {
              "full": "h:mm:ss a zzzz",
              "long": "h:mm:ss a z",
              "medium": "h:mm:ss a",
              "short": "h:mm a"
            },
            "dateTimeFormats": {
              "full": "{1} {0}",
              "long": "{1} {0}",
              "medium": "{1} {0}",
              "short": "{1} {0}",
              "availableFormats": {
                "E": "ccc",
                "EHm": "E HH:mm",
                "EHms": "E HH:mm:ss",
                "Ed": "d, E",
                "Ehm": "E h:mm a",
                "Ehms": "E h:mm:ss a",
                "Gy": "G y",
                "GyMMM": "G y MMM",
                "GyMMMEd": "G y MMM d, E",
                "GyMMMd": "G y MMM d",
                "H": "HH",
                "Hm": "HH:mm",
                "Hms": "HH:mm:ss",
                "M": "L",
                "MEd": "E, M/d",
                "MMM": "LLL",
                "MMMEd": "E, MMM d",
                "MMMMEd": "E, MMMM d",
                "MMMMd": "MMMM d",
                "MMMd": "MMM d",
                "Md": "M/d",
                "d": "d",
                "h": "h a",
                "hm": "h:mm a",
                "hms": "h:mm:ss a",
                "ms": "mm:ss",
                "y": "y",
                "yM": "M/y",
                "yMEd": "E, M/d/y",
                "yMMM": "MMM y",
                "yMMMEd": "E, MMM d, y",
                "yMMMM": "MMMM y",
                "yQQQ": "QQQ y",
                "yQQQQ": "QQQQ y",
                "yyyy": "G y",
                "yyyyM": "GGGGG y-MM",
                "yyyyMEd": "GGGGG y-MM-dd, E",
                "yyyyMMM": "G y MMM",
                "yyyyMMMEd": "G y MMM d, E",
                "yyyyMMMd": "G y MMM d",
                "yyyyMd": "GGGGG y-MM-dd",
                "yyyyQQQ": "G y QQQ",
                "yyyyQQQQ": "G y QQQQ"
              },
              "appendItems": {
                "Day": "{0} ({2}: {1})",
                "Day-Of-Week": "{0} {1}",
                "Era": "{1} {0}",
                "Hour": "{0} ({2}: {1})",
                "Minute": "{0} ({2}: {1})",
                "Month": "{0} ({2}: {1})",
                "Quarter": "{0} ({2}: {1})",
                "Second": "{0} ({2}: {1})",
                "Timezone": "{0} {1}",
                "Week": "{0} ({2}: {1})",
                "Year": "{1} {0}"
              },
              "intervalFormats": {
                "intervalFormatFallback": "{0} – {1}",
                "H": {
                  "H": "HH–HH"
                },
                "Hm": {
                  "H": "HH:mm–HH:mm",
                  "m": "HH:mm–HH:mm"
                },
                "Hmv": {
                  "H": "HH:mm–HH:mm v",
                  "m": "HH:mm–HH:mm v"
                },
                "Hv": {
                  "H": "HH–HH v"
                },
                "M": {
                  "M": "MM–MM"
                },
                "MEd": {
                  "M": "MM-dd, E – MM-dd, E",
                  "d": "MM-dd, E – MM-dd, E"
                },
                "MMM": {
                  "M": "LLL–LLL"
                },
                "MMMEd": {
                  "M": "MMM d, E – MMM d, E",
                  "d": "MMM d, E – MMM d, E"
                },
                "MMMd": {
                  "M": "MMM d – MMM d",
                  "d": "MMM d–d"
                },
                "Md": {
                  "M": "MM-dd – MM-dd",
                  "d": "MM-dd – MM-dd"
                },
                "d": {
                  "d": "d–d"
                },
                "h": {
                  "a": "h a – h a",
                  "h": "h–h a"
                },
                "hm": {
                  "a": "h:mm a – h:mm a",
                  "h": "h:mm–h:mm a",
                  "m": "h:mm–h:mm a"
                },
                "hmv": {
                  "a": "h:mm a – h:mm a v",
                  "h": "h:mm–h:mm a v",
                  "m": "h:mm–h:mm a v"
                },
                "hv": {
                  "a": "h a – h a v",
                  "h": "h–h a v"
                },
                "y": {
                  "y": "G y–y"
                },
                "yM": {
                  "M": "GGGGG y-MM – y-MM",
                  "y": "GGGGG y-MM – y-MM"
                },
                "yMEd": {
                  "M": "GGGGG y-MM-dd, E – y-MM-dd, E",
                  "d": "GGGGG y-MM-dd, E – y-MM-dd, E",
                  "y": "GGGGG y-MM-dd, E – y-MM-dd, E"
                },
                "yMMM": {
                  "M": "G y MMM–MMM",
                  "y": "G y MMM – y MMM"
                },
                "yMMMEd": {
                  "M": "G y MMM d, E – MMM d, E",
                  "d": "G y MMM d, E – MMM d, E",
                  "y": "G y MMM d, E – y MMM d, E"
                },
                "yMMMM": {
                  "M": "G y MMMM–MMMM",
                  "y": "G y MMMM – y MMMM"
                },
                "yMMMd": {
                  "M": "G y MMM d – MMM d",
                  "d": "G y MMM d–d",
                  "y": "G y MMM d – y MMM d"
                },
                "yMd": {
                  "M": "GGGGG y-MM-dd – y-MM-dd",
                  "d": "GGGGG y-MM-dd – y-MM-dd",
                  "y": "GGGGG y-MM-dd – y-MM-dd"
                }
              }
            }
          }
        }
      }
    }
  }
}
