{
  "main": {
    "ml": {
      "identity": {
        "version": {
          "_cldrVersion": "26",
          "_number": "$Revision: 10809 $"
        },
        "generation": {
          "_date": "$Date: 2014-08-14 15:10:07 -0500 (Thu, 14 Aug 2014) $"
        },
        "language": "ml"
      },
      "dates": {
        "calendars": {
          "gregorian": {
            "months": {
              "format": {
                "abbreviated": {
                  "1": "ജനു",
                  "2": "ഫെബ്രു",
                  "3": "മാർ",
                  "4": "ഏപ്രി",
                  "5": "മേയ്",
                  "6": "ജൂൺ",
                  "7": "ജൂലൈ",
                  "8": "ഓഗ",
                  "9": "സെപ്റ്റം",
                  "10": "ഒക്ടോ",
                  "11": "നവം",
                  "12": "ഡിസം"
                },
                "narrow": {
                  "1": "ജ",
                  "2": "ഫ",
                  "3": "മാ",
                  "4": "ഏ",
                  "5": "മെ",
                  "6": "ജൂ",
                  "7": "ജൂ",
                  "8": "ഓ",
                  "9": "സ",
                  "10": "ഒ",
                  "11": "ന",
                  "12": "ഡി"
                },
                "wide": {
                  "1": "ജനുവരി",
                  "2": "ഫെബ്രുവരി",
                  "3": "മാർച്ച്",
                  "4": "ഏപ്രിൽ",
                  "5": "മേയ്",
                  "6": "ജൂൺ",
                  "7": "ജൂലൈ",
                  "8": "ആഗസ്റ്റ്",
                  "9": "സെപ്റ്റംബർ",
                  "10": "ഒക്‌ടോബർ",
                  "11": "നവംബർ",
                  "12": "ഡിസംബർ"
                }
              },
              "stand-alone": {
                "abbreviated": {
                  "1": "ജനു",
                  "2": "ഫെബ്രു",
                  "3": "മാർ",
                  "4": "ഏപ്രി",
                  "5": "മേയ്",
                  "6": "ജൂൺ",
                  "7": "ജൂലൈ",
                  "8": "ഓഗ",
                  "9": "സെപ്റ്റം",
                  "10": "ഒക്ടോ",
                  "11": "നവം",
                  "12": "ഡിസം"
                },
                "narrow": {
                  "1": "ജ",
                  "2": "ഫ",
                  "3": "മാ",
                  "4": "ഏ",
                  "5": "മേ",
                  "6": "ജൂ",
                  "7": "ജൂ",
                  "8": "ഓ",
                  "9": "സ",
                  "10": "ഒ",
                  "11": "ന",
                  "12": "ഡി"
                },
                "wide": {
                  "1": "ജനുവരി",
                  "2": "ഫെബ്രുവരി",
                  "3": "മാർച്ച്",
                  "4": "ഏപ്രിൽ",
                  "5": "മേയ്",
                  "6": "ജൂൺ",
                  "7": "ജൂലൈ",
                  "8": "ആഗസ്റ്റ്",
                  "9": "സെപ്റ്റംബർ",
                  "10": "ഒക്‌ടോബർ",
                  "11": "നവംബർ",
                  "12": "ഡിസംബർ"
                }
              }
            },
            "days": {
              "format": {
                "abbreviated": {
                  "sun": "ഞായർ",
                  "mon": "തിങ്കൾ",
                  "tue": "ചൊവ്വ",
                  "wed": "ബുധൻ",
                  "thu": "വ്യാഴം",
                  "fri": "വെള്ളി",
                  "sat": "ശനി"
                },
                "narrow": {
                  "sun": "ഞ",
                  "mon": "തി",
                  "tue": "ച",
                  "wed": "ബു",
                  "thu": "വ",
                  "fri": "വെ",
                  "sat": "ശ"
                },
                "short": {
                  "sun": "ഞാ",
                  "mon": "തി",
                  "tue": "ചൊ",
                  "wed": "ബു",
                  "thu": "വ്യാ",
                  "fri": "വെ",
                  "sat": "ശ"
                },
                "wide": {
                  "sun": "ഞായറാഴ്‌ച",
                  "mon": "തിങ്കളാഴ്‌ച",
                  "tue": "ചൊവ്വാഴ്ച",
                  "wed": "ബുധനാഴ്‌ച",
                  "thu": "വ്യാഴാഴ്‌ച",
                  "fri": "വെള്ളിയാഴ്‌ച",
                  "sat": "ശനിയാഴ്‌ച"
                }
              },
              "stand-alone": {
                "abbreviated": {
                  "sun": "ഞായർ",
                  "mon": "തിങ്കൾ",
                  "tue": "ചൊവ്വ",
                  "wed": "ബുധൻ",
                  "thu": "വ്യാഴം",
                  "fri": "വെള്ളി",
                  "sat": "ശനി"
                },
                "narrow": {
                  "sun": "ഞ",
                  "mon": "തി",
                  "tue": "ച",
                  "wed": "ബു",
                  "thu": "വ",
                  "fri": "വെ",
                  "sat": "ശ"
                },
                "short": {
                  "sun": "ഞാ",
                  "mon": "തി",
                  "tue": "ചൊ",
                  "wed": "ബു",
                  "thu": "വ്യാ",
                  "fri": "വെ",
                  "sat": "ശ"
                },
                "wide": {
                  "sun": "ഞായറാഴ്‌ച",
                  "mon": "തിങ്കളാഴ്‌ച",
                  "tue": "ചൊവ്വാഴ്‌ച",
                  "wed": "ബുധനാഴ്‌ച",
                  "thu": "വ്യാഴാഴ്‌ച",
                  "fri": "വെള്ളിയാഴ്‌ച",
                  "sat": "ശനിയാഴ്‌ച"
                }
              }
            },
            "quarters": {
              "format": {
                "abbreviated": {
                  "1": "ഒന്നാം പാദം",
                  "2": "രണ്ടാം പാദം",
                  "3": "മൂന്നാം പാദം",
                  "4": "നാലാം പാദം"
                },
                "narrow": {
                  "1": "1",
                  "2": "2",
                  "3": "3",
                  "4": "4"
                },
                "wide": {
                  "1": "ഒന്നാം പാദം",
                  "2": "രണ്ടാം പാദം",
                  "3": "മൂന്നാം പാദം",
                  "4": "നാലാം പാദം"
                }
              },
              "stand-alone": {
                "abbreviated": {
                  "1": "ഒന്നാം പാദം",
                  "2": "രണ്ടാം പാദം",
                  "3": "മൂന്നാം പാദം",
                  "4": "നാലാം പാദം"
                },
                "narrow": {
                  "1": "1",
                  "2": "2",
                  "3": "3",
                  "4": "4"
                },
                "wide": {
                  "1": "ഒന്നാം പാദം",
                  "2": "രണ്ടാം പാദം",
                  "3": "മൂന്നാം പാദം",
                  "4": "നാലാം പാദം"
                }
              }
            },
            "dayPeriods": {
              "format": {
                "abbreviated": {
                  "am": "AM",
                  "noon": "ഉച്ച",
                  "pm": "PM"
                },
                "narrow": {
                  "am": "AM",
                  "noon": "ഉച്ച",
                  "pm": "PM"
                },
                "wide": {
                  "am": "AM",
                  "noon": "ഉച്ച",
                  "pm": "PM"
                }
              },
              "stand-alone": {
                "abbreviated": {
                  "am": "AM",
                  "noon": "ഉച്ച",
                  "pm": "PM"
                },
                "narrow": {
                  "am": "AM",
                  "noon": "ഉച്ച",
                  "pm": "PM"
                },
                "wide": {
                  "am": "AM",
                  "noon": "ഉച്ച",
                  "pm": "PM"
                }
              }
            },
            "eras": {
              "eraNames": {
                "0": "ക്രിസ്‌തുവിന് മുമ്പ്",
                "0-alt-variant": "ബി.സി.ഇ.",
                "1": "ആന്നോ ഡൊമിനി",
                "1-alt-variant": "സി.ഇ."
              },
              "eraAbbr": {
                "0": "ക്രി.മു.",
                "0-alt-variant": "ബിസിഇ",
                "1": "എഡി",
                "1-alt-variant": "സിഇ"
              },
              "eraNarrow": {
                "0": "ക്രി.മു.",
                "0-alt-variant": "ബിസിഇ",
                "1": "എഡി",
                "1-alt-variant": "സിഇ"
              }
            },
            "dateFormats": {
              "full": "y, MMMM d, EEEE",
              "long": "y, MMMM d",
              "medium": "y, MMM d",
              "short": "dd/MM/yy"
            },
            "timeFormats": {
              "full": "h:mm:ss a zzzz",
              "long": "h:mm:ss a z",
              "medium": "h:mm:ss a",
              "short": "h:mm a"
            },
            "dateTimeFormats": {
              "full": "{1} {0}",
              "long": "{1} {0}",
              "medium": "{1} {0}",
              "short": "{1} {0}",
              "availableFormats": {
                "E": "ccc",
                "EHm": "E HH:mm",
                "EHms": "E HH:mm:ss",
                "Ed": "d, E",
                "Ehm": "E h:mm a",
                "Ehms": "E h:mm:ss a",
                "Gy": "G y",
                "GyMMM": "G y MMM",
                "GyMMMEd": "G y MMM d, E",
                "GyMMMd": "G y MMM d",
                "H": "HH",
                "Hm": "HH:mm",
                "Hms": "HH:mm:ss",
                "M": "L",
                "MEd": "M/d, E",
                "MMM": "LLL",
                "MMMEd": "MMM d, E",
                "MMMMEd": "MMMM d, E",
                "MMMMd": "MMMM d",
                "MMMd": "MMM d",
                "MMdd": "dd-MM",
                "Md": "MM-dd",
                "d": "d",
                "h": "h a",
                "hm": "h:mm a",
                "hms": "h:mm:ss a",
                "ms": "mm:ss",
                "y": "y",
                "yM": "M-y",
                "yMEd": "d-M-y, E",
                "yMM": "MM-y",
                "yMMM": "y MMM",
                "yMMMEd": "y MMM d, E",
                "yMMMM": "y MMMM",
                "yMMMd": "y MMM d",
                "yMd": "d/M/y",
                "yQQQ": "y QQQ",
                "yQQQQ": "y QQQQ"
              },
              "appendItems": {
                "Day": "{0} ({2}: {1})",
                "Day-Of-Week": "{0} {1}",
                "Era": "{1} {0}",
                "Hour": "{0} ({2}: {1})",
                "Minute": "{0} ({2}: {1})",
                "Month": "{0} ({2}: {1})",
                "Quarter": "{0} ({2}: {1})",
                "Second": "{0} ({2}: {1})",
                "Timezone": "{0} {1}",
                "Week": "{0} ({2}: {1})",
                "Year": "{1} {0}"
              },
              "intervalFormats": {
                "intervalFormatFallback": "{0} - {1}",
                "H": {
                  "H": "HH – HH"
                },
                "Hm": {
                  "H": "HH:mm – HH:mm",
                  "m": "HH:mm – HH:mm"
                },
                "Hmv": {
                  "H": "HH:mm – HH:mm v",
                  "m": "HH:mm – HH:mm v"
                },
                "Hv": {
                  "H": "HH – HH v"
                },
                "M": {
                  "M": "MM–MM"
                },
                "MEd": {
                  "M": "d/M, E - d/M, E",
                  "d": "d/M, E - d/M, E"
                },
                "MMM": {
                  "M": "MMM-MMM"
                },
                "MMMEd": {
                  "M": "MMM d, E - MMM d, E",
                  "d": "MMM d, E - MMM d, E"
                },
                "MMMM": {
                  "M": "LLLL-LLLL"
                },
                "MMMd": {
                  "M": "MMM d - MMM d",
                  "d": "MMM d-d"
                },
                "Md": {
                  "M": "M/d – M/d",
                  "d": "M/d – M/d"
                },
                "d": {
                  "d": "d – d"
                },
                "h": {
                  "a": "h a – h a",
                  "h": "h – h a"
                },
                "hm": {
                  "a": "h:mm a – h:mm a",
                  "h": "h:mm – h:mm a",
                  "m": "h:mm – h:mm a"
                },
                "hmv": {
                  "a": "h:mm a – h:mm a v",
                  "h": "h:mm – h:mm a v",
                  "m": "h:mm – h:mm a v"
                },
                "hv": {
                  "a": "h a – h a v",
                  "h": "h – h a v"
                },
                "y": {
                  "y": "y - y"
                },
                "yM": {
                  "M": "M/y – M/y",
                  "y": "M/y – M/y"
                },
                "yMEd": {
                  "M": "d/M/y, E - d/M/y, E",
                  "d": "d/M/y, E - d/M/y, E",
                  "y": "d/M/y, E - d/M/y, E"
                },
                "yMMM": {
                  "M": "y MMM – MMM",
                  "y": "y MMM - y MMM"
                },
                "yMMMEd": {
                  "M": "y MMM d, E - MMM d, E",
                  "d": "y MMM d, E – MMM d, E",
                  "y": "y MMM d, E - y MMM d, E"
                },
                "yMMMM": {
                  "M": "y MMMM–MMMM",
                  "y": "y MMMM – y MMMM"
                },
                "yMMMd": {
                  "M": "y MMM d - MMM d",
                  "d": "y MMM d – d",
                  "y": "y MMM d - y MMM d"
                },
                "yMd": {
                  "M": "d/M/y – d/M/y",
                  "d": "d/M/y – d/M/y",
                  "y": "d/M/y – d/M/y"
                }
              }
            }
          }
        }
      }
    }
  }
}
