{
  "main": {
    "ml": {
      "identity": {
        "version": {
          "_cldrVersion": "26",
          "_number": "$Revision: 10809 $"
        },
        "generation": {
          "_date": "$Date: 2014-08-14 15:10:07 -0500 (Thu, 14 Aug 2014) $"
        },
        "language": "ml"
      },
      "dates": {
        "calendars": {
          "indian": {
            "months": {
              "format": {
                "abbreviated": {
                  "1": "ചൈത്രം",
                  "2": "വൈശാഖം",
                  "3": "ജ്യേഷ്ഠം",
                  "4": "ആഷാഢം",
                  "5": "ശ്രാവണം",
                  "6": "ഭാദ്രപാദം",
                  "7": "ആശ്വിനം",
                  "8": "കാർത്തികം",
                  "9": "മാർഗശീർഷം",
                  "10": "പൗഷം",
                  "11": "മാഘം",
                  "12": "ഫൽഗുനം"
                },
                "narrow": {
                  "1": "ചൈ",
                  "2": "വൈ",
                  "3": "ജ്യേ",
                  "4": "ആ",
                  "5": "ശ്രാ",
                  "6": "ഭാ",
                  "7": "ആ",
                  "8": "കാ",
                  "9": "മാ",
                  "10": "പൗ",
                  "11": "മാ",
                  "12": "ഫ"
                },
                "wide": {
                  "1": "ചൈത്രം",
                  "2": "വൈശാഖം",
                  "3": "ജ്യേഷ്ഠം",
                  "4": "ആഷാഢം",
                  "5": "ശ്രാവണം",
                  "6": "ഭാദ്രപാദം",
                  "7": "ആശ്വിനം",
                  "8": "കാർത്തികം",
                  "9": "മാർഗശീർഷം",
                  "10": "പൗഷം",
                  "11": "മാഘം",
                  "12": "ഫൽഗുനം"
                }
              },
              "stand-alone": {
                "abbreviated": {
                  "1": "ചൈത്രം",
                  "2": "വൈശാഖം",
                  "3": "ജ്യേഷ്ഠം",
                  "4": "ആഷാഢം",
                  "5": "ശ്രാവണം",
                  "6": "ഭാദ്രപാദം",
                  "7": "ആശ്വിനം",
                  "8": "കാർത്തികം",
                  "9": "മാർഗശീർഷം",
                  "10": "പൗഷം",
                  "11": "മാഘം",
                  "12": "ഫൽഗുനം"
                },
                "narrow": {
                  "1": "ചൈ",
                  "2": "വൈ",
                  "3": "ജ്യേ",
                  "4": "ആ",
                  "5": "ശ്രാ",
                  "6": "ഭാ",
                  "7": "ആ",
                  "8": "കാ",
                  "9": "മാ",
                  "10": "പൗ",
                  "11": "മാ",
                  "12": "ഫ"
                },
                "wide": {
                  "1": "ചൈത്രം",
                  "2": "വൈശാഖം",
                  "3": "ജ്യേഷ്ഠം",
                  "4": "ആഷാഢം",
                  "5": "ശ്രാവണം",
                  "6": "ഭാദ്രപാദം",
                  "7": "ആശ്വിനം",
                  "8": "കാർത്തികം",
                  "9": "മാർഗശീർഷം",
                  "10": "പൗഷം",
                  "11": "മാഘം",
                  "12": "ഫൽഗുനം"
                }
              }
            },
            "days": {
              "format": {
                "abbreviated": {
                  "sun": "ഞായർ",
                  "mon": "തിങ്കൾ",
                  "tue": "ചൊവ്വ",
                  "wed": "ബുധൻ",
                  "thu": "വ്യാഴം",
                  "fri": "വെള്ളി",
                  "sat": "ശനി"
                },
                "narrow": {
                  "sun": "ഞ",
                  "mon": "തി",
                  "tue": "ച",
                  "wed": "ബു",
                  "thu": "വ",
                  "fri": "വെ",
                  "sat": "ശ"
                },
                "short": {
                  "sun": "ഞാ",
                  "mon": "തി",
                  "tue": "ചൊ",
                  "wed": "ബു",
                  "thu": "വ്യാ",
                  "fri": "വെ",
                  "sat": "ശ"
                },
                "wide": {
                  "sun": "ഞായറാഴ്‌ച",
                  "mon": "തിങ്കളാഴ്‌ച",
                  "tue": "ചൊവ്വാഴ്ച",
                  "wed": "ബുധനാഴ്‌ച",
                  "thu": "വ്യാഴാഴ്‌ച",
                  "fri": "വെള്ളിയാഴ്‌ച",
                  "sat": "ശനിയാഴ്‌ച"
                }
              },
              "stand-alone": {
                "abbreviated": {
                  "sun": "ഞായർ",
                  "mon": "തിങ്കൾ",
                  "tue": "ചൊവ്വ",
                  "wed": "ബുധൻ",
                  "thu": "വ്യാഴം",
                  "fri": "വെള്ളി",
                  "sat": "ശനി"
                },
                "narrow": {
                  "sun": "ഞ",
                  "mon": "തി",
                  "tue": "ച",
                  "wed": "ബു",
                  "thu": "വ",
                  "fri": "വെ",
                  "sat": "ശ"
                },
                "short": {
                  "sun": "ഞാ",
                  "mon": "തി",
                  "tue": "ചൊ",
                  "wed": "ബു",
                  "thu": "വ്യാ",
                  "fri": "വെ",
                  "sat": "ശ"
                },
                "wide": {
                  "sun": "ഞായറാഴ്‌ച",
                  "mon": "തിങ്കളാഴ്‌ച",
                  "tue": "ചൊവ്വാഴ്‌ച",
                  "wed": "ബുധനാഴ്‌ച",
                  "thu": "വ്യാഴാഴ്‌ച",
                  "fri": "വെള്ളിയാഴ്‌ച",
                  "sat": "ശനിയാഴ്‌ച"
                }
              }
            },
            "quarters": {
              "format": {
                "abbreviated": {
                  "1": "ഒന്നാം പാദം",
                  "2": "രണ്ടാം പാദം",
                  "3": "മൂന്നാം പാദം",
                  "4": "നാലാം പാദം"
                },
                "narrow": {
                  "1": "1",
                  "2": "2",
                  "3": "3",
                  "4": "4"
                },
                "wide": {
                  "1": "ഒന്നാം പാദം",
                  "2": "രണ്ടാം പാദം",
                  "3": "മൂന്നാം പാദം",
                  "4": "നാലാം പാദം"
                }
              },
              "stand-alone": {
                "abbreviated": {
                  "1": "ഒന്നാം പാദം",
                  "2": "രണ്ടാം പാദം",
                  "3": "മൂന്നാം പാദം",
                  "4": "നാലാം പാദം"
                },
                "narrow": {
                  "1": "1",
                  "2": "2",
                  "3": "3",
                  "4": "4"
                },
                "wide": {
                  "1": "ഒന്നാം പാദം",
                  "2": "രണ്ടാം പാദം",
                  "3": "മൂന്നാം പാദം",
                  "4": "നാലാം പാദം"
                }
              }
            },
            "dayPeriods": {
              "format": {
                "abbreviated": {
                  "am": "AM",
                  "noon": "ഉച്ച",
                  "pm": "PM"
                },
                "narrow": {
                  "am": "AM",
                  "noon": "ഉച്ച",
                  "pm": "PM"
                },
                "wide": {
                  "am": "AM",
                  "noon": "ഉച്ച",
                  "pm": "PM"
                }
              },
              "stand-alone": {
                "abbreviated": {
                  "am": "AM",
                  "noon": "ഉച്ച",
                  "pm": "PM"
                },
                "narrow": {
                  "am": "AM",
                  "noon": "ഉച്ച",
                  "pm": "PM"
                },
                "wide": {
                  "am": "AM",
                  "noon": "ഉച്ച",
                  "pm": "PM"
                }
              }
            },
            "eras": {
              "eraNames": {
                "0": "ശക"
              },
              "eraAbbr": {
                "0": "ശക"
              },
              "eraNarrow": {
                "0": "ശക"
              }
            },
            "dateFormats": {
              "full": "G y, MMMM d, EEEE",
              "long": "G y, MMMM d",
              "medium": "G y, MMM d",
              "short": "GGGGG y-MM-dd"
            },
            "timeFormats": {
              "full": "h:mm:ss a zzzz",
              "long": "h:mm:ss a z",
              "medium": "h:mm:ss a",
              "short": "h:mm a"
            },
            "dateTimeFormats": {
              "full": "{1} {0}",
              "long": "{1} {0}",
              "medium": "{1} {0}",
              "short": "{1} {0}",
              "availableFormats": {
                "E": "ccc",
                "EHm": "E HH:mm",
                "EHms": "E HH:mm:ss",
                "Ed": "d E",
                "Ehm": "E h:mm a",
                "Ehms": "E h:mm:ss a",
                "Gy": "G y",
                "GyMMM": "G y MMM",
                "GyMMMEd": "G y MMM d, E",
                "GyMMMd": "G y MMM d",
                "H": "HH",
                "Hm": "HH:mm",
                "Hms": "HH:mm:ss",
                "M": "L",
                "MEd": "M/d, E",
                "MMM": "LLL",
                "MMMEd": "MMM d, E",
                "MMMMEd": "MMMM d, E",
                "MMMMd": "MMMM d",
                "MMMd": "MMM d",
                "MMdd": "dd-MM",
                "Md": "MM-dd",
                "d": "d",
                "h": "h a",
                "hm": "h:mm a",
                "hms": "h:mm:ss a",
                "ms": "mm:ss",
                "y": "G y",
                "yyyy": "G y",
                "yyyyM": "GGGGG y-MM",
                "yyyyMEd": "G d-M-y, E",
                "yyyyMM": "MM-y G",
                "yyyyMMM": "G y MMM",
                "yyyyMMMEd": "G y MMM d, E",
                "yyyyMMMM": "G y MMMM",
                "yyyyMMMd": "G y MMM d",
                "yyyyMd": "G d/M/y",
                "yyyyQQQ": "G y QQQ",
                "yyyyQQQQ": "G y QQQQ"
              },
              "appendItems": {
                "Day": "{0} ({2}: {1})",
                "Day-Of-Week": "{0} {1}",
                "Era": "{1} {0}",
                "Hour": "{0} ({2}: {1})",
                "Minute": "{0} ({2}: {1})",
                "Month": "{0} ({2}: {1})",
                "Quarter": "{0} ({2}: {1})",
                "Second": "{0} ({2}: {1})",
                "Timezone": "{0} {1}",
                "Week": "{0} ({2}: {1})",
                "Year": "{1} {0}"
              },
              "intervalFormats": {
                "intervalFormatFallback": "{0} - {1}",
                "H": {
                  "H": "HH–HH"
                },
                "Hm": {
                  "H": "HH:mm–HH:mm",
                  "m": "HH:mm–HH:mm"
                },
                "Hmv": {
                  "H": "HH:mm–HH:mm v",
                  "m": "HH:mm–HH:mm v"
                },
                "Hv": {
                  "H": "HH–HH v"
                },
                "M": {
                  "M": "M – M"
                },
                "MEd": {
                  "M": "d/M, E - d/M, E",
                  "d": "d/M, E - d/M, E"
                },
                "MMM": {
                  "M": "MMM – MMM"
                },
                "MMMEd": {
                  "M": "MMM d, E - MMM d, E",
                  "d": "MMM d, E - MMM d, E"
                },
                "MMMM": {
                  "M": "LLLL-LLLL"
                },
                "MMMd": {
                  "M": "MMM d - MMM d",
                  "d": "MMM d – d"
                },
                "Md": {
                  "M": "M/d – M/d",
                  "d": "M/d – M/d"
                },
                "d": {
                  "d": "d – d"
                },
                "h": {
                  "a": "h a – h a",
                  "h": "h–h a"
                },
                "hm": {
                  "a": "h:mm a – h:mm a",
                  "h": "h:mm–h:mm a",
                  "m": "h:mm–h:mm a"
                },
                "hmv": {
                  "a": "h:mm a – h:mm a v",
                  "h": "h:mm–h:mm a v",
                  "m": "h:mm–h:mm a v"
                },
                "hv": {
                  "a": "h a – h a v",
                  "h": "h–h a v"
                },
                "y": {
                  "y": "G y-y"
                },
                "yM": {
                  "M": "M/y – M/y GGGGG",
                  "y": "M/y – M/y GGGGG"
                },
                "yMEd": {
                  "M": "GGGGG y-MM-dd, E – y-MM-dd, E",
                  "d": "GGGGG y-MM-dd, E – y-MM-dd, E",
                  "y": "GGGGG y-MM-dd, E – y-MM-dd, E"
                },
                "yMMM": {
                  "M": "G y MMM-MMM",
                  "y": "G y MMM - y MMM"
                },
                "yMMMEd": {
                  "M": "G y MMM d, E - MMM d, E",
                  "d": "G y, MMM d, E - d, E",
                  "y": "G y MMM d, E - y MMM d, E"
                },
                "yMMMM": {
                  "M": "G y MMMM-MMMM",
                  "y": "G y MMMM - y MMMM"
                },
                "yMMMd": {
                  "M": "G y MMM d - MMM d",
                  "d": "G y MMM d-d",
                  "y": "G y MMM d - y MMM d"
                },
                "yMd": {
                  "M": "d/M/y – d/M/y G",
                  "d": "d/M/y – d/M/y G",
                  "y": "d/M/y – d/M/y G"
                }
              }
            }
          }
        }
      }
    }
  }
}
