{
  "main": {
    "ml": {
      "identity": {
        "version": {
          "_cldrVersion": "26",
          "_number": "$Revision: 10809 $"
        },
        "generation": {
          "_date": "$Date: 2014-08-14 15:10:07 -0500 (Thu, 14 Aug 2014) $"
        },
        "language": "ml"
      },
      "characters": {
        "exemplarCharacters": "[\u200C\u200D ഃ അ ആ ഇ ഈ ഉ ഊ ഋ ൠ ഌ ൡ എ ഏ ഐ ഒ ഓ ഔ ക ൿ ഖ ഗ ഘ ങ ച ഛ ജ ഝ ഞ ട ഠ ഡ ഢ ണ ൺ ത ഥ ദ ധ ന ൻ പ ഫ ബ ഭ മ ം യ ര ർ ല ൽ വ ശ ഷ സ ഹ ള ൾ ഴ റ ാ ി ീ \u0D41 \u0D42 \u0D43 െ േ ൈ ൊ ോ ൗ ൌ \u0D4D]",
        "auxiliary": "[]",
        "punctuation": "[\\- , ; \\: ! ? . ' ‘ ’ \" “ ” ( ) \\[ \\] \\{ \\}]",
        "index": "[അ ആ ഇ ഈ ഉ ഊ ഋ എ ഏ ഐ ഒ ഓ ഔ ക ഖ ഗ ഘ ങ ച ഛ ജ ഝ ഞ ട ഠ ഡ ഢ ണ ത ഥ ദ ധ ന പ ഫ ബ ഭ മ യ ര ല വ ശ ഷ സ ഹ ള ഴ റ]",
        "ellipsis": {
          "initial": "…{0}",
          "medial": "{0}…{1}",
          "final": "{0}…",
          "word-initial": "… {0}",
          "word-medial": "{0} … {1}",
          "word-final": "{0} …"
        },
        "moreInformation": "?"
      }
    }
  }
}
