{
  "main": {
    "fo": {
      "identity": {
        "version": {
          "_cldrVersion": "26",
          "_number": "$Revision: 10753 $"
        },
        "generation": {
          "_date": "$Date: 2014-08-11 11:10:03 -0500 (Mon, 11 Aug 2014) $"
        },
        "language": "fo"
      },
      "dates": {
        "calendars": {
          "buddhist": {
            "months": {
              "format": {
                "abbreviated": {
                  "1": "jan",
                  "2": "feb",
                  "3": "mar",
                  "4": "apr",
                  "5": "mai",
                  "6": "jun",
                  "7": "jul",
                  "8": "aug",
                  "9": "sep",
                  "10": "okt",
                  "11": "nov",
                  "12": "des"
                },
                "narrow": {
                  "1": "J",
                  "2": "F",
                  "3": "M",
                  "4": "A",
                  "5": "M",
                  "6": "J",
                  "7": "J",
                  "8": "A",
                  "9": "S",
                  "10": "O",
                  "11": "N",
                  "12": "D"
                },
                "wide": {
                  "1": "januar",
                  "2": "februar",
                  "3": "mars",
                  "4": "apríl",
                  "5": "mai",
                  "6": "juni",
                  "7": "juli",
                  "8": "august",
                  "9": "september",
                  "10": "oktober",
                  "11": "november",
                  "12": "desember"
                }
              },
              "stand-alone": {
                "abbreviated": {
                  "1": "jan",
                  "2": "feb",
                  "3": "mar",
                  "4": "apr",
                  "5": "mai",
                  "6": "jun",
                  "7": "jul",
                  "8": "aug",
                  "9": "sep",
                  "10": "okt",
                  "11": "nov",
                  "12": "des"
                },
                "narrow": {
                  "1": "J",
                  "2": "F",
                  "3": "M",
                  "4": "A",
                  "5": "M",
                  "6": "J",
                  "7": "J",
                  "8": "A",
                  "9": "S",
                  "10": "O",
                  "11": "N",
                  "12": "D"
                },
                "wide": {
                  "1": "januar",
                  "2": "februar",
                  "3": "mars",
                  "4": "apríl",
                  "5": "mai",
                  "6": "juni",
                  "7": "juli",
                  "8": "august",
                  "9": "september",
                  "10": "oktober",
                  "11": "november",
                  "12": "desember"
                }
              }
            },
            "days": {
              "format": {
                "abbreviated": {
                  "sun": "sun",
                  "mon": "mán",
                  "tue": "týs",
                  "wed": "mik",
                  "thu": "hós",
                  "fri": "frí",
                  "sat": "ley"
                },
                "narrow": {
                  "sun": "S",
                  "mon": "M",
                  "tue": "T",
                  "wed": "M",
                  "thu": "H",
                  "fri": "F",
                  "sat": "L"
                },
                "short": {
                  "sun": "su",
                  "mon": "má",
                  "tue": "tý",
                  "wed": "mi",
                  "thu": "hó",
                  "fri": "fr",
                  "sat": "le"
                },
                "wide": {
                  "sun": "sunnudagur",
                  "mon": "mánadagur",
                  "tue": "týsdagur",
                  "wed": "mikudagur",
                  "thu": "hósdagur",
                  "fri": "fríggjadagur",
                  "sat": "leygardagur"
                }
              },
              "stand-alone": {
                "abbreviated": {
                  "sun": "sun",
                  "mon": "mán",
                  "tue": "týs",
                  "wed": "mik",
                  "thu": "hós",
                  "fri": "frí",
                  "sat": "ley"
                },
                "narrow": {
                  "sun": "S",
                  "mon": "M",
                  "tue": "T",
                  "wed": "M",
                  "thu": "H",
                  "fri": "F",
                  "sat": "L"
                },
                "short": {
                  "sun": "su",
                  "mon": "má",
                  "tue": "tý",
                  "wed": "mi",
                  "thu": "hó",
                  "fri": "fr",
                  "sat": "le"
                },
                "wide": {
                  "sun": "sunnudagur",
                  "mon": "mánadagur",
                  "tue": "týsdagur",
                  "wed": "mikudagur",
                  "thu": "hósdagur",
                  "fri": "fríggjadagur",
                  "sat": "leygardagur"
                }
              }
            },
            "quarters": {
              "format": {
                "abbreviated": {
                  "1": "K1",
                  "2": "K2",
                  "3": "K3",
                  "4": "K4"
                },
                "narrow": {
                  "1": "1",
                  "2": "2",
                  "3": "3",
                  "4": "4"
                },
                "wide": {
                  "1": "1. kvartal",
                  "2": "2. kvartal",
                  "3": "3. kvartal",
                  "4": "4. kvartal"
                }
              },
              "stand-alone": {
                "abbreviated": {
                  "1": "K1",
                  "2": "K2",
                  "3": "K3",
                  "4": "K4"
                },
                "narrow": {
                  "1": "1",
                  "2": "2",
                  "3": "3",
                  "4": "4"
                },
                "wide": {
                  "1": "1. kvartal",
                  "2": "2. kvartal",
                  "3": "3. kvartal",
                  "4": "4. kvartal"
                }
              }
            },
            "dayPeriods": {
              "format": {
                "abbreviated": {
                  "am": "f.p.",
                  "noon": "noon",
                  "pm": "s.p."
                },
                "narrow": {
                  "am": "a",
                  "noon": "n",
                  "pm": "p"
                },
                "wide": {
                  "am": "um fyrrapartur",
                  "noon": "noon",
                  "pm": "um seinnapartur"
                }
              },
              "stand-alone": {
                "abbreviated": {
                  "am": "f.p.",
                  "noon": "noon",
                  "pm": "s.p."
                },
                "narrow": {
                  "am": "a",
                  "noon": "n",
                  "pm": "p"
                },
                "wide": {
                  "am": "fyrrapartur",
                  "noon": "noon",
                  "pm": "seinnapartur"
                }
              }
            },
            "eras": {
              "eraNames": {
                "0": "BE"
              },
              "eraAbbr": {
                "0": "BE"
              },
              "eraNarrow": {
                "0": "BE"
              }
            },
            "dateFormats": {
              "full": "EEEE dd MMMM y G",
              "long": "d. MMM y G",
              "medium": "dd-MM-y G",
              "short": "dd-MM-yy GGGGG"
            },
            "timeFormats": {
              "full": "HH:mm:ss zzzz",
              "long": "HH:mm:ss z",
              "medium": "HH:mm:ss",
              "short": "HH:mm"
            },
            "dateTimeFormats": {
              "full": "{1} {0}",
              "long": "{1} {0}",
              "medium": "{1} {0}",
              "short": "{1} {0}",
              "availableFormats": {
                "E": "ccc",
                "EHm": "E HH:mm",
                "EHms": "E HH:mm:ss",
                "Ed": "d E",
                "Ehm": "E h:mm a",
                "Ehms": "E h:mm:ss a",
                "Gy": "G y",
                "GyMMM": "G y MMM",
                "GyMMMEd": "G y MMM d, E",
                "GyMMMd": "G y MMM d",
                "H": "HH",
                "Hm": "HH:mm",
                "Hms": "HH:mm:ss",
                "M": "L",
                "MEd": "E, M-d",
                "MMM": "LLL",
                "MMMEd": "E MMM d",
                "MMMd": "MMM d",
                "Md": "M-d",
                "d": "d",
                "h": "h a",
                "hm": "h:mm a",
                "hms": "h:mm:ss a",
                "ms": "mm:ss",
                "y": "y",
                "yM": "y-MM",
                "yMEd": "E, y-MM-dd",
                "yMMM": "y MMM",
                "yMMMEd": "E, y MMM d",
                "yMMMd": "y MMM d",
                "yMd": "y-MM-dd",
                "yQQQ": "y QQQ",
                "yQQQQ": "y QQQQ",
                "yyyy": "G y",
                "yyyyM": "GGGGG y-MM",
                "yyyyMEd": "GGGGG y-MM-dd, E",
                "yyyyMMM": "G y MMM",
                "yyyyMMMEd": "G y MMM d, E",
                "yyyyMMMd": "G y MMM d",
                "yyyyMd": "GGGGG y-MM-dd",
                "yyyyQQQ": "G y QQQ",
                "yyyyQQQQ": "G y QQQQ"
              },
              "appendItems": {
                "Day": "{0} ({2}: {1})",
                "Day-Of-Week": "{0} {1}",
                "Era": "{1} {0}",
                "Hour": "{0} ({2}: {1})",
                "Minute": "{0} ({2}: {1})",
                "Month": "{0} ({2}: {1})",
                "Quarter": "{0} ({2}: {1})",
                "Second": "{0} ({2}: {1})",
                "Timezone": "{0} {1}",
                "Week": "{0} ({2}: {1})",
                "Year": "{1} {0}"
              },
              "intervalFormats": {
                "intervalFormatFallback": "{0} – {1}",
                "H": {
                  "H": "HH–HH"
                },
                "Hm": {
                  "H": "HH:mm–HH:mm",
                  "m": "HH:mm–HH:mm"
                },
                "Hmv": {
                  "H": "HH:mm–HH:mm v",
                  "m": "HH:mm–HH:mm v"
                },
                "Hv": {
                  "H": "HH–HH v"
                },
                "M": {
                  "M": "M–M"
                },
                "MEd": {
                  "M": "E, MM-dd – E, MM-dd",
                  "d": "E, MM-dd – E, MM-dd"
                },
                "MMM": {
                  "M": "LLL–LLL"
                },
                "MMMEd": {
                  "M": "E, MM-d – E, MM-d",
                  "d": "E, MM-d – E, MM-d"
                },
                "MMMd": {
                  "M": "MM-d – MM-d",
                  "d": "MM-d – d"
                },
                "Md": {
                  "M": "MM-dd – MM-dd",
                  "d": "MM-dd – dd"
                },
                "d": {
                  "d": "d–d"
                },
                "h": {
                  "a": "h a – h a",
                  "h": "h–h a"
                },
                "hm": {
                  "a": "h:mm a – h:mm a",
                  "h": "h:mm–h:mm a",
                  "m": "h:mm–h:mm a"
                },
                "hmv": {
                  "a": "h:mm a – h:mm a v",
                  "h": "h:mm–h:mm a v",
                  "m": "h:mm–h:mm a v"
                },
                "hv": {
                  "a": "h a – h a v",
                  "h": "h–h a v"
                },
                "y": {
                  "y": "y–y"
                },
                "yM": {
                  "M": "y-MM – MM",
                  "y": "y-MM – y-MM"
                },
                "yMEd": {
                  "M": "E, y-MM-dd – E, y-MM-dd",
                  "d": "E, y-MM-dd – E, y-MM-dd",
                  "y": "E, y-MM-dd – E, y-MM-dd"
                },
                "yMMM": {
                  "M": "y-MM – MM",
                  "y": "y-MM – y-MM"
                },
                "yMMMEd": {
                  "M": "E, y-MM-dd – E, y-MM-dd",
                  "d": "E, y-MM-dd – E, y-MM-dd",
                  "y": "E, y-MM-dd – E, y-MM-dd"
                },
                "yMMMM": {
                  "M": "y-MM – MM",
                  "y": "y-MM – y-MM"
                },
                "yMMMd": {
                  "M": "y-MM-dd – MM-d",
                  "d": "y-MM-d – d",
                  "y": "y-MM-dd – y-MM-dd"
                },
                "yMd": {
                  "M": "y-MM-dd – MM-dd",
                  "d": "y-MM-dd – dd",
                  "y": "y-MM-dd – y-MM-dd"
                }
              }
            }
          }
        }
      }
    }
  }
}
