{
  "main": {
    "pt-GW": {
      "identity": {
        "version": {
          "_cldrVersion": "26",
          "_number": "$Revision: 10669 $"
        },
        "generation": {
          "_date": "$Date: 2014-07-23 16:10:33 -0500 (Wed, 23 Jul 2014) $"
        },
        "language": "pt",
        "territory": "GW"
      },
      "characters": {
        "exemplarCharacters": "[a á à â ã b c ç d e é ê f g h i í j k l m n o ó ò ô õ p q r s t u ú v w x y z]",
        "auxiliary": "[ª ă å ä ā æ è ĕ ë ē ì ĭ î ï ī ñ º ŏ ö ø ō œ ù ŭ û ü ū ÿ]",
        "punctuation": "[\\- ‐ – — , ; \\: ! ? . … ' \" “ ” « » ( ) \\[ \\] § @ * / \\& # † ‡ ′ ″]",
        "index": "[A B C D E F G H I J K L M N O P Q R S T U V W X Y Z]",
        "ellipsis": {
          "initial": "…{0}",
          "medial": "{0}…{1}",
          "final": "{0}…",
          "word-initial": "… {0}",
          "word-medial": "{0} … {1}",
          "word-final": "{0}…"
        },
        "moreInformation": "?"
      }
    }
  }
}
