{
  "main": {
    "ru-MD": {
      "identity": {
        "version": {
          "_cldrVersion": "26",
          "_number": "$Revision: 10669 $"
        },
        "generation": {
          "_date": "$Date: 2014-07-23 16:10:33 -0500 (Wed, 23 Jul 2014) $"
        },
        "language": "root",
        "territory": "MD"
      },
      "localeDisplayNames": {
        "transformNames": {
          "BGN": "Палата географических названий США",
          "Numeric": "Числовая",
          "Tone": "Тоновая",
          "UNGEGN": "Группа экспертов ООН по географическим названиям",
          "x-Accents": "Диакритические знаки",
          "x-Fullwidth": "Широкие символы",
          "x-Halfwidth": "Краткий формат",
          "x-Jamo": "Джамо",
          "x-Pinyin": "Пиньин",
          "x-Publishing": "Типографская"
        }
      }
    }
  }
}
