{
  "main": {
    "gsw-FR": {
      "identity": {
        "version": {
          "_cldrVersion": "26",
          "_number": "$Revision: 10301 $"
        },
        "generation": {
          "_date": "$Date: 2014-05-14 00:17:36 -0500 (Wed, 14 May 2014) $"
        },
        "language": "gsw",
        "territory": "FR"
      },
      "characters": {
        "exemplarCharacters": "[a ä b c d e f g h i j k l m n o ö p q r s t u ü v w x y z]",
        "auxiliary": "[á à ă â å ā æ ç é è ĕ ê ë ē í ì ĭ î ï ī ñ ó ò ŏ ô ø ō œ ú ù ŭ û ū ÿ]",
        "punctuation": "[\\- , ; \\: ! ? . ( ) \\[ \\] \\{ \\}]",
        "index": "[A B C D E F G H I J K L M N O P Q R S T U V W X Y Z]",
        "ellipsis": {
          "initial": "…{0}",
          "medial": "{0}…{1}",
          "final": "{0}…",
          "word-initial": "… {0}",
          "word-medial": "{0} … {1}",
          "word-final": "{0} …"
        },
        "moreInformation": "?"
      }
    }
  }
}
