{
  "main": {
    "gsw-FR": {
      "identity": {
        "version": {
          "_cldrVersion": "26",
          "_number": "$Revision: 10301 $"
        },
        "generation": {
          "_date": "$Date: 2014-05-14 00:17:36 -0500 (Wed, 14 May 2014) $"
        },
        "language": "gsw",
        "territory": "FR"
      },
      "posix": {
        "messages": {
          "yesstr": "ja:j",
          "nostr": "näi:n"
        }
      }
    }
  }
}
