{
  "main": {
    "gsw-FR": {
      "identity": {
        "version": {
          "_cldrVersion": "26",
          "_number": "$Revision: 10301 $"
        },
        "generation": {
          "_date": "$Date: 2014-05-14 00:17:36 -0500 (Wed, 14 May 2014) $"
        },
        "language": "gsw",
        "territory": "FR"
      },
      "units": {
        "long": {
          "per": {
            "compoundUnitPattern": "{0} pro {1}"
          },
          "acceleration-g-force": {
            "displayName": "-fachi Erdbeschlünigung",
            "unitPattern-count-one": "{0}-fachi Erdbeschlünigung",
            "unitPattern-count-other": "{0}-fachi Erdbeschlünigung"
          },
          "acceleration-meter-per-second-squared": {
            "displayName": "m/s²",
            "unitPattern-count-other": "{0} m/s²"
          },
          "angle-arc-minute": {
            "displayName": "Winkelminute",
            "unitPattern-count-one": "{0} Winkelminute",
            "unitPattern-count-other": "{0} Winkelminute"
          },
          "angle-arc-second": {
            "displayName": "Winkelsekunde",
            "unitPattern-count-one": "{0} Winkelsekunde",
            "unitPattern-count-other": "{0} Winkelsekunde"
          },
          "angle-degree": {
            "displayName": "Grad",
            "unitPattern-count-one": "{0} Grad",
            "unitPattern-count-other": "{0} Grad"
          },
          "angle-radian": {
            "displayName": "rad",
            "unitPattern-count-other": "{0} rad"
          },
          "area-acre": {
            "displayName": "Acre",
            "unitPattern-count-one": "{0} Acre",
            "unitPattern-count-other": "{0} Acre"
          },
          "area-hectare": {
            "displayName": "Hektar",
            "unitPattern-count-one": "{0} Hektar",
            "unitPattern-count-other": "{0} Hektar"
          },
          "area-square-centimeter": {
            "displayName": "cm²",
            "unitPattern-count-other": "{0} cm²"
          },
          "area-square-foot": {
            "displayName": "Quadratfuess",
            "unitPattern-count-one": "{0} Quadratfuess",
            "unitPattern-count-other": "{0} Quadratfuess"
          },
          "area-square-inch": {
            "displayName": "in²",
            "unitPattern-count-other": "{0} in²"
          },
          "area-square-kilometer": {
            "displayName": "Quadratkilometer",
            "unitPattern-count-one": "{0} Quadratkilometer",
            "unitPattern-count-other": "{0} Quadratkilometer"
          },
          "area-square-meter": {
            "displayName": "Quadratmeter",
            "unitPattern-count-one": "{0} Quadratmeter",
            "unitPattern-count-other": "{0} Quadratmeter"
          },
          "area-square-mile": {
            "displayName": "Quadratmeile",
            "unitPattern-count-one": "{0} Quadratmeile",
            "unitPattern-count-other": "{0} Quadratmeile"
          },
          "area-square-yard": {
            "displayName": "yd²",
            "unitPattern-count-other": "{0} yd²"
          },
          "consumption-liter-per-kilometer": {
            "displayName": "L/km",
            "unitPattern-count-other": "{0} L/km"
          },
          "consumption-mile-per-gallon": {
            "displayName": "mpg",
            "unitPattern-count-other": "{0} mpg"
          },
          "digital-bit": {
            "displayName": "bit",
            "unitPattern-count-other": "{0} bit"
          },
          "digital-byte": {
            "displayName": "byte",
            "unitPattern-count-other": "{0} byte"
          },
          "digital-gigabit": {
            "displayName": "Gb",
            "unitPattern-count-other": "{0} Gb"
          },
          "digital-gigabyte": {
            "displayName": "GB",
            "unitPattern-count-other": "{0} GB"
          },
          "digital-kilobit": {
            "displayName": "kb",
            "unitPattern-count-other": "{0} kb"
          },
          "digital-kilobyte": {
            "displayName": "kB",
            "unitPattern-count-other": "{0} kB"
          },
          "digital-megabit": {
            "displayName": "Mb",
            "unitPattern-count-other": "{0} Mb"
          },
          "digital-megabyte": {
            "displayName": "MB",
            "unitPattern-count-other": "{0} MB"
          },
          "digital-terabit": {
            "displayName": "Tb",
            "unitPattern-count-other": "{0} Tb"
          },
          "digital-terabyte": {
            "displayName": "TB",
            "unitPattern-count-other": "{0} TB"
          },
          "duration-day": {
            "displayName": "Tääg",
            "unitPattern-count-one": "{0} Taag",
            "unitPattern-count-other": "{0} Tääg"
          },
          "duration-hour": {
            "displayName": "Schtunde",
            "unitPattern-count-one": "{0} Schtund",
            "unitPattern-count-other": "{0} Schtunde",
            "perUnitPattern": "{0}/h"
          },
          "duration-microsecond": {
            "displayName": "μs",
            "unitPattern-count-other": "{0} μs"
          },
          "duration-millisecond": {
            "displayName": "Millisekunde",
            "unitPattern-count-one": "{0} Millisekunde",
            "unitPattern-count-other": "{0} Millisekunde"
          },
          "duration-minute": {
            "displayName": "Minuute",
            "unitPattern-count-one": "{0} Minuute",
            "unitPattern-count-other": "{0} Minuute"
          },
          "duration-month": {
            "displayName": "Mönet",
            "unitPattern-count-one": "{0} Monet",
            "unitPattern-count-other": "{0} Mönet"
          },
          "duration-nanosecond": {
            "displayName": "ns",
            "unitPattern-count-other": "{0} ns"
          },
          "duration-second": {
            "displayName": "Sekunde",
            "unitPattern-count-one": "{0} Sekunde",
            "unitPattern-count-other": "{0} Sekunde",
            "perUnitPattern": "{0}/s"
          },
          "duration-week": {
            "displayName": "Wuche",
            "unitPattern-count-one": "{0} Wuche",
            "unitPattern-count-other": "{0} Wuche"
          },
          "duration-year": {
            "displayName": "Jahr",
            "unitPattern-count-one": "{0} Jahr",
            "unitPattern-count-other": "{0} Jahr"
          },
          "electric-ampere": {
            "displayName": "amp",
            "unitPattern-count-other": "{0} A"
          },
          "electric-milliampere": {
            "displayName": "mA",
            "unitPattern-count-other": "{0} mA"
          },
          "electric-ohm": {
            "displayName": "ohm",
            "unitPattern-count-other": "{0} Ω"
          },
          "electric-volt": {
            "displayName": "volt",
            "unitPattern-count-other": "{0} V"
          },
          "energy-calorie": {
            "displayName": "cal",
            "unitPattern-count-other": "{0} cal"
          },
          "energy-foodcalorie": {
            "displayName": "Cal",
            "unitPattern-count-other": "{0} Cal"
          },
          "energy-joule": {
            "displayName": "joule",
            "unitPattern-count-other": "{0} J"
          },
          "energy-kilocalorie": {
            "displayName": "kcal",
            "unitPattern-count-other": "{0} kcal"
          },
          "energy-kilojoule": {
            "displayName": "kJ",
            "unitPattern-count-other": "{0} kJ"
          },
          "energy-kilowatt-hour": {
            "displayName": "kWh",
            "unitPattern-count-other": "{0} kWh"
          },
          "frequency-gigahertz": {
            "displayName": "GHz",
            "unitPattern-count-other": "{0} GHz"
          },
          "frequency-hertz": {
            "displayName": "Hz",
            "unitPattern-count-other": "{0} Hz"
          },
          "frequency-kilohertz": {
            "displayName": "kHz",
            "unitPattern-count-other": "{0} kHz"
          },
          "frequency-megahertz": {
            "displayName": "MHz",
            "unitPattern-count-other": "{0} MHz"
          },
          "length-astronomical-unit": {
            "displayName": "au",
            "unitPattern-count-other": "{0} au"
          },
          "length-centimeter": {
            "displayName": "Zentimeter",
            "unitPattern-count-one": "{0} Zentimeter",
            "unitPattern-count-other": "{0} Zentimeter"
          },
          "length-decimeter": {
            "displayName": "dm",
            "unitPattern-count-other": "{0} dm"
          },
          "length-fathom": {
            "displayName": "fm",
            "unitPattern-count-other": "{0} fm"
          },
          "length-foot": {
            "displayName": "Fuess",
            "unitPattern-count-one": "{0} Fuess",
            "unitPattern-count-other": "{0} Fuess"
          },
          "length-furlong": {
            "displayName": "fur",
            "unitPattern-count-other": "{0} fur"
          },
          "length-inch": {
            "displayName": "Zoll",
            "unitPattern-count-one": "{0} Zoll",
            "unitPattern-count-other": "{0} Zoll"
          },
          "length-kilometer": {
            "displayName": "Kilometer",
            "unitPattern-count-one": "{0} Kilometer",
            "unitPattern-count-other": "{0} Kilometer"
          },
          "length-light-year": {
            "displayName": "Liechtjahr",
            "unitPattern-count-one": "{0} Liechtjahr",
            "unitPattern-count-other": "{0} Liechtjahr"
          },
          "length-meter": {
            "displayName": "Meter",
            "unitPattern-count-one": "{0} Meter",
            "unitPattern-count-other": "{0} Meter"
          },
          "length-micrometer": {
            "displayName": "µm",
            "unitPattern-count-other": "{0} µm"
          },
          "length-mile": {
            "displayName": "Meile",
            "unitPattern-count-one": "{0} Meile",
            "unitPattern-count-other": "{0} Meile"
          },
          "length-millimeter": {
            "displayName": "Millimeter",
            "unitPattern-count-one": "{0} Millimeter",
            "unitPattern-count-other": "{0} Millimeter"
          },
          "length-nanometer": {
            "displayName": "nm",
            "unitPattern-count-other": "{0} nm"
          },
          "length-nautical-mile": {
            "displayName": "nmi",
            "unitPattern-count-other": "{0} nmi"
          },
          "length-parsec": {
            "displayName": "pc",
            "unitPattern-count-other": "{0} pc"
          },
          "length-picometer": {
            "displayName": "Pikometer",
            "unitPattern-count-one": "{0} Pikometer",
            "unitPattern-count-other": "{0} Pikometer"
          },
          "length-yard": {
            "displayName": "Yard",
            "unitPattern-count-one": "{0} Yard",
            "unitPattern-count-other": "{0} Yard"
          },
          "light-lux": {
            "displayName": "lx",
            "unitPattern-count-other": "{0} lx"
          },
          "mass-carat": {
            "displayName": "CD",
            "unitPattern-count-other": "{0} CD"
          },
          "mass-gram": {
            "displayName": "Gramm",
            "unitPattern-count-one": "{0} Gramm",
            "unitPattern-count-other": "{0} Gramm"
          },
          "mass-kilogram": {
            "displayName": "Kilogramm",
            "unitPattern-count-one": "{0} Kilogramm",
            "unitPattern-count-other": "{0} Kilogramm"
          },
          "mass-metric-ton": {
            "displayName": "t",
            "unitPattern-count-other": "{0} t"
          },
          "mass-microgram": {
            "displayName": "µg",
            "unitPattern-count-other": "{0} µg"
          },
          "mass-milligram": {
            "displayName": "mg",
            "unitPattern-count-other": "{0} mg"
          },
          "mass-ounce": {
            "displayName": "Unze",
            "unitPattern-count-one": "{0} Unze",
            "unitPattern-count-other": "{0} Unze"
          },
          "mass-ounce-troy": {
            "displayName": "oz t",
            "unitPattern-count-other": "{0} oz t"
          },
          "mass-pound": {
            "displayName": "Pfund",
            "unitPattern-count-one": "{0} Pfund",
            "unitPattern-count-other": "{0} Pfund"
          },
          "mass-stone": {
            "displayName": "st",
            "unitPattern-count-other": "{0} st"
          },
          "mass-ton": {
            "displayName": "tn",
            "unitPattern-count-other": "{0} tn"
          },
          "power-gigawatt": {
            "displayName": "GW",
            "unitPattern-count-other": "{0} GW"
          },
          "power-horsepower": {
            "displayName": "Pferdestärke",
            "unitPattern-count-one": "{0} Pferdestärke",
            "unitPattern-count-other": "{0} Pferdestärke"
          },
          "power-kilowatt": {
            "displayName": "Kilowatt",
            "unitPattern-count-one": "{0} Kilowatt",
            "unitPattern-count-other": "{0} Kilowatt"
          },
          "power-megawatt": {
            "displayName": "MW",
            "unitPattern-count-other": "{0} MW"
          },
          "power-milliwatt": {
            "displayName": "mW",
            "unitPattern-count-other": "{0} mW"
          },
          "power-watt": {
            "displayName": "Watt",
            "unitPattern-count-one": "{0} Watt",
            "unitPattern-count-other": "{0} Watt"
          },
          "pressure-hectopascal": {
            "displayName": "Hektopascal",
            "unitPattern-count-one": "{0} Hektopascal",
            "unitPattern-count-other": "{0} Hektopascal"
          },
          "pressure-inch-hg": {
            "displayName": "Zoll Quecksilbersüüle",
            "unitPattern-count-one": "{0} Zoll Quecksilbersüüle",
            "unitPattern-count-other": "{0} Zoll Quecksilbersüüle"
          },
          "pressure-millibar": {
            "displayName": "Millibar",
            "unitPattern-count-one": "{0} Millibar",
            "unitPattern-count-other": "{0} Millibar"
          },
          "pressure-millimeter-of-mercury": {
            "displayName": "mm Hg",
            "unitPattern-count-other": "{0} mm Hg"
          },
          "pressure-pound-per-square-inch": {
            "displayName": "psi",
            "unitPattern-count-other": "{0} psi"
          },
          "proportion-karat": {
            "displayName": "kt",
            "unitPattern-count-other": "{0} kt"
          },
          "speed-kilometer-per-hour": {
            "displayName": "Kilometer pro Stund",
            "unitPattern-count-one": "{0} Kilometer pro Stund",
            "unitPattern-count-other": "{0} Kilometer pro Stund"
          },
          "speed-meter-per-second": {
            "displayName": "Meter pro Sekunde",
            "unitPattern-count-one": "{0} Meter pro Sekunde",
            "unitPattern-count-other": "{0} Meter pro Sekunde"
          },
          "speed-mile-per-hour": {
            "displayName": "Meile pro Stund",
            "unitPattern-count-one": "{0} Meile pro Stund",
            "unitPattern-count-other": "{0} Meile pro Stund"
          },
          "temperature-celsius": {
            "displayName": "Grad Celsius",
            "unitPattern-count-one": "{0} Grad Celsius",
            "unitPattern-count-other": "{0} Grad Celsius"
          },
          "temperature-fahrenheit": {
            "displayName": "Grad Fahrenheit",
            "unitPattern-count-one": "{0} Grad Fahrenheit",
            "unitPattern-count-other": "{0} Grad Fahrenheit"
          },
          "temperature-kelvin": {
            "displayName": "K",
            "unitPattern-count-other": "{0} K"
          },
          "volume-acre-foot": {
            "displayName": "ac ft",
            "unitPattern-count-other": "{0} ac ft"
          },
          "volume-bushel": {
            "displayName": "bu",
            "unitPattern-count-other": "{0} bu"
          },
          "volume-centiliter": {
            "displayName": "cL",
            "unitPattern-count-other": "{0} cL"
          },
          "volume-cubic-centimeter": {
            "displayName": "cm³",
            "unitPattern-count-other": "{0} cm³"
          },
          "volume-cubic-foot": {
            "displayName": "ft³",
            "unitPattern-count-other": "{0} ft³"
          },
          "volume-cubic-inch": {
            "displayName": "in³",
            "unitPattern-count-other": "{0} in³"
          },
          "volume-cubic-kilometer": {
            "displayName": "Kubikkilometer",
            "unitPattern-count-one": "{0} Kubikkilometer",
            "unitPattern-count-other": "{0} Kubikkilometer"
          },
          "volume-cubic-meter": {
            "displayName": "m³",
            "unitPattern-count-other": "{0} m³"
          },
          "volume-cubic-mile": {
            "displayName": "Kubikmeile",
            "unitPattern-count-one": "{0} Kubikmeile",
            "unitPattern-count-other": "{0} Kubikmeile"
          },
          "volume-cubic-yard": {
            "displayName": "yd³",
            "unitPattern-count-other": "{0} yd³"
          },
          "volume-cup": {
            "displayName": "cup",
            "unitPattern-count-other": "{0} c"
          },
          "volume-deciliter": {
            "displayName": "dL",
            "unitPattern-count-other": "{0} dL"
          },
          "volume-fluid-ounce": {
            "displayName": "fl oz",
            "unitPattern-count-other": "{0} fl oz"
          },
          "volume-gallon": {
            "displayName": "gal",
            "unitPattern-count-other": "{0} gal"
          },
          "volume-hectoliter": {
            "displayName": "hL",
            "unitPattern-count-other": "{0} hL"
          },
          "volume-liter": {
            "displayName": "Liter",
            "unitPattern-count-one": "{0} Liter",
            "unitPattern-count-other": "{0} Liter"
          },
          "volume-megaliter": {
            "displayName": "ML",
            "unitPattern-count-other": "{0} ML"
          },
          "volume-milliliter": {
            "displayName": "mL",
            "unitPattern-count-other": "{0} mL"
          },
          "volume-pint": {
            "displayName": "pt",
            "unitPattern-count-other": "{0} pt"
          },
          "volume-quart": {
            "displayName": "qt",
            "unitPattern-count-other": "{0} qt"
          },
          "volume-tablespoon": {
            "displayName": "tbsp",
            "unitPattern-count-other": "{0} tbsp"
          },
          "volume-teaspoon": {
            "displayName": "tsp",
            "unitPattern-count-other": "{0} tsp"
          }
        },
        "short": {
          "per": {
            "compoundUnitPattern": "{0}/{1}"
          },
          "acceleration-g-force": {
            "displayName": "-fachi Erdbeschlünigung",
            "unitPattern-count-one": "{0} G",
            "unitPattern-count-other": "{0} G"
          },
          "acceleration-meter-per-second-squared": {
            "displayName": "m/s²",
            "unitPattern-count-other": "{0} m/s²"
          },
          "angle-arc-minute": {
            "displayName": "Winkelminute",
            "unitPattern-count-one": "{0}′",
            "unitPattern-count-other": "{0}′"
          },
          "angle-arc-second": {
            "displayName": "Winkelsekunde",
            "unitPattern-count-one": "{0}″",
            "unitPattern-count-other": "{0}″"
          },
          "angle-degree": {
            "displayName": "Grad",
            "unitPattern-count-one": "{0}°",
            "unitPattern-count-other": "{0}°"
          },
          "angle-radian": {
            "displayName": "rad",
            "unitPattern-count-other": "{0} rad"
          },
          "area-acre": {
            "displayName": "Acre",
            "unitPattern-count-one": "{0} ac",
            "unitPattern-count-other": "{0} ac"
          },
          "area-hectare": {
            "displayName": "Hektar",
            "unitPattern-count-one": "{0} ha",
            "unitPattern-count-other": "{0} ha"
          },
          "area-square-centimeter": {
            "displayName": "cm²",
            "unitPattern-count-other": "{0} cm²"
          },
          "area-square-foot": {
            "displayName": "Quadratfuess",
            "unitPattern-count-one": "{0} ft²",
            "unitPattern-count-other": "{0} ft²"
          },
          "area-square-inch": {
            "displayName": "in²",
            "unitPattern-count-other": "{0} in²"
          },
          "area-square-kilometer": {
            "displayName": "Quadratkilometer",
            "unitPattern-count-one": "{0} km²",
            "unitPattern-count-other": "{0} km²"
          },
          "area-square-meter": {
            "displayName": "Quadratmeter",
            "unitPattern-count-one": "{0} m²",
            "unitPattern-count-other": "{0} m²"
          },
          "area-square-mile": {
            "displayName": "Quadratmeile",
            "unitPattern-count-one": "{0} mi²",
            "unitPattern-count-other": "{0} mi²"
          },
          "area-square-yard": {
            "displayName": "yd²",
            "unitPattern-count-other": "{0} yd²"
          },
          "consumption-liter-per-kilometer": {
            "displayName": "L/km",
            "unitPattern-count-other": "{0} L/km"
          },
          "consumption-mile-per-gallon": {
            "displayName": "mpg",
            "unitPattern-count-other": "{0} mpg"
          },
          "digital-bit": {
            "displayName": "bit",
            "unitPattern-count-other": "{0} bit"
          },
          "digital-byte": {
            "displayName": "byte",
            "unitPattern-count-other": "{0} byte"
          },
          "digital-gigabit": {
            "displayName": "Gb",
            "unitPattern-count-other": "{0} Gb"
          },
          "digital-gigabyte": {
            "displayName": "GB",
            "unitPattern-count-other": "{0} GB"
          },
          "digital-kilobit": {
            "displayName": "kb",
            "unitPattern-count-other": "{0} kb"
          },
          "digital-kilobyte": {
            "displayName": "kB",
            "unitPattern-count-other": "{0} kB"
          },
          "digital-megabit": {
            "displayName": "Mb",
            "unitPattern-count-other": "{0} Mb"
          },
          "digital-megabyte": {
            "displayName": "MB",
            "unitPattern-count-other": "{0} MB"
          },
          "digital-terabit": {
            "displayName": "Tb",
            "unitPattern-count-other": "{0} Tb"
          },
          "digital-terabyte": {
            "displayName": "TB",
            "unitPattern-count-other": "{0} TB"
          },
          "duration-day": {
            "displayName": "Tääg",
            "unitPattern-count-one": "{0} d",
            "unitPattern-count-other": "{0} d"
          },
          "duration-hour": {
            "displayName": "Schtunde",
            "unitPattern-count-one": "{0} h",
            "unitPattern-count-other": "{0} h",
            "perUnitPattern": "{0}/h"
          },
          "duration-microsecond": {
            "displayName": "μs",
            "unitPattern-count-other": "{0} μs"
          },
          "duration-millisecond": {
            "displayName": "Millisekunde",
            "unitPattern-count-one": "{0} ms",
            "unitPattern-count-other": "{0} ms"
          },
          "duration-minute": {
            "displayName": "Minuute",
            "unitPattern-count-one": "{0} min",
            "unitPattern-count-other": "{0} min"
          },
          "duration-month": {
            "displayName": "Mönet",
            "unitPattern-count-other": "{0} m"
          },
          "duration-nanosecond": {
            "displayName": "ns",
            "unitPattern-count-other": "{0} ns"
          },
          "duration-second": {
            "displayName": "Sekunde",
            "unitPattern-count-one": "{0} s",
            "unitPattern-count-other": "{0} s",
            "perUnitPattern": "{0}/s"
          },
          "duration-week": {
            "displayName": "Wuche",
            "unitPattern-count-other": "{0} w"
          },
          "duration-year": {
            "displayName": "Jahr",
            "unitPattern-count-other": "{0} y"
          },
          "electric-ampere": {
            "displayName": "amp",
            "unitPattern-count-other": "{0} A"
          },
          "electric-milliampere": {
            "displayName": "mA",
            "unitPattern-count-other": "{0} mA"
          },
          "electric-ohm": {
            "displayName": "ohm",
            "unitPattern-count-other": "{0} Ω"
          },
          "electric-volt": {
            "displayName": "volt",
            "unitPattern-count-other": "{0} V"
          },
          "energy-calorie": {
            "displayName": "cal",
            "unitPattern-count-other": "{0} cal"
          },
          "energy-foodcalorie": {
            "displayName": "Cal",
            "unitPattern-count-other": "{0} Cal"
          },
          "energy-joule": {
            "displayName": "joule",
            "unitPattern-count-other": "{0} J"
          },
          "energy-kilocalorie": {
            "displayName": "kcal",
            "unitPattern-count-other": "{0} kcal"
          },
          "energy-kilojoule": {
            "displayName": "kJ",
            "unitPattern-count-other": "{0} kJ"
          },
          "energy-kilowatt-hour": {
            "displayName": "kWh",
            "unitPattern-count-other": "{0} kWh"
          },
          "frequency-gigahertz": {
            "displayName": "GHz",
            "unitPattern-count-other": "{0} GHz"
          },
          "frequency-hertz": {
            "displayName": "Hz",
            "unitPattern-count-other": "{0} Hz"
          },
          "frequency-kilohertz": {
            "displayName": "kHz",
            "unitPattern-count-other": "{0} kHz"
          },
          "frequency-megahertz": {
            "displayName": "MHz",
            "unitPattern-count-other": "{0} MHz"
          },
          "length-astronomical-unit": {
            "displayName": "au",
            "unitPattern-count-other": "{0} au"
          },
          "length-centimeter": {
            "displayName": "Zentimeter",
            "unitPattern-count-one": "{0} cm",
            "unitPattern-count-other": "{0} cm"
          },
          "length-decimeter": {
            "displayName": "dm",
            "unitPattern-count-other": "{0} dm"
          },
          "length-fathom": {
            "displayName": "fm",
            "unitPattern-count-other": "{0} fm"
          },
          "length-foot": {
            "displayName": "Fuess",
            "unitPattern-count-one": "{0} Fuess",
            "unitPattern-count-other": "{0} Fuess"
          },
          "length-furlong": {
            "displayName": "fur",
            "unitPattern-count-other": "{0} fur"
          },
          "length-inch": {
            "displayName": "Zoll",
            "unitPattern-count-one": "{0} Zoll",
            "unitPattern-count-other": "{0} Zoll"
          },
          "length-kilometer": {
            "displayName": "Kilometer",
            "unitPattern-count-one": "{0} km",
            "unitPattern-count-other": "{0} km"
          },
          "length-light-year": {
            "displayName": "Liechtjahr",
            "unitPattern-count-one": "{0} Liechtjahr",
            "unitPattern-count-other": "{0} Liechtjahr"
          },
          "length-meter": {
            "displayName": "Meter",
            "unitPattern-count-one": "{0} m",
            "unitPattern-count-other": "{0} m"
          },
          "length-micrometer": {
            "displayName": "µm",
            "unitPattern-count-other": "{0} µm"
          },
          "length-mile": {
            "displayName": "Meile",
            "unitPattern-count-one": "{0} mi",
            "unitPattern-count-other": "{0} mi"
          },
          "length-millimeter": {
            "displayName": "Millimeter",
            "unitPattern-count-one": "{0} mm",
            "unitPattern-count-other": "{0} mm"
          },
          "length-nanometer": {
            "displayName": "nm",
            "unitPattern-count-other": "{0} nm"
          },
          "length-nautical-mile": {
            "displayName": "nmi",
            "unitPattern-count-other": "{0} nmi"
          },
          "length-parsec": {
            "displayName": "pc",
            "unitPattern-count-other": "{0} pc"
          },
          "length-picometer": {
            "displayName": "Pikometer",
            "unitPattern-count-one": "{0} pm",
            "unitPattern-count-other": "{0} pm"
          },
          "length-yard": {
            "displayName": "Yard",
            "unitPattern-count-one": "{0} yd",
            "unitPattern-count-other": "{0} yd"
          },
          "light-lux": {
            "displayName": "lx",
            "unitPattern-count-other": "{0} lx"
          },
          "mass-carat": {
            "displayName": "CD",
            "unitPattern-count-other": "{0} CD"
          },
          "mass-gram": {
            "displayName": "Gramm",
            "unitPattern-count-one": "{0} g",
            "unitPattern-count-other": "{0} g"
          },
          "mass-kilogram": {
            "displayName": "Kilogramm",
            "unitPattern-count-one": "{0} kg",
            "unitPattern-count-other": "{0} kg"
          },
          "mass-metric-ton": {
            "displayName": "t",
            "unitPattern-count-other": "{0} t"
          },
          "mass-microgram": {
            "displayName": "µg",
            "unitPattern-count-other": "{0} µg"
          },
          "mass-milligram": {
            "displayName": "mg",
            "unitPattern-count-other": "{0} mg"
          },
          "mass-ounce": {
            "displayName": "Unze",
            "unitPattern-count-one": "{0} Unze",
            "unitPattern-count-other": "{0} Unze"
          },
          "mass-ounce-troy": {
            "displayName": "oz t",
            "unitPattern-count-other": "{0} oz t"
          },
          "mass-pound": {
            "displayName": "Pfund",
            "unitPattern-count-one": "{0} Pfund",
            "unitPattern-count-other": "{0} Pfund"
          },
          "mass-stone": {
            "displayName": "st",
            "unitPattern-count-other": "{0} st"
          },
          "mass-ton": {
            "displayName": "tn",
            "unitPattern-count-other": "{0} tn"
          },
          "power-gigawatt": {
            "displayName": "GW",
            "unitPattern-count-other": "{0} GW"
          },
          "power-horsepower": {
            "displayName": "Pferdestärke",
            "unitPattern-count-one": "{0} PS",
            "unitPattern-count-other": "{0} PS"
          },
          "power-kilowatt": {
            "displayName": "Kilowatt",
            "unitPattern-count-one": "{0} kW",
            "unitPattern-count-other": "{0} kW"
          },
          "power-megawatt": {
            "displayName": "MW",
            "unitPattern-count-other": "{0} MW"
          },
          "power-milliwatt": {
            "displayName": "mW",
            "unitPattern-count-other": "{0} mW"
          },
          "power-watt": {
            "displayName": "Watt",
            "unitPattern-count-one": "{0} W",
            "unitPattern-count-other": "{0} W"
          },
          "pressure-hectopascal": {
            "displayName": "Hektopascal",
            "unitPattern-count-one": "{0} hPa",
            "unitPattern-count-other": "{0} hPa"
          },
          "pressure-inch-hg": {
            "displayName": "Zoll Quecksilbersüüle",
            "unitPattern-count-one": "{0} inHg",
            "unitPattern-count-other": "{0} inHg"
          },
          "pressure-millibar": {
            "displayName": "Millibar",
            "unitPattern-count-one": "{0} mbar",
            "unitPattern-count-other": "{0} mbar"
          },
          "pressure-millimeter-of-mercury": {
            "displayName": "mm Hg",
            "unitPattern-count-other": "{0} mm Hg"
          },
          "pressure-pound-per-square-inch": {
            "displayName": "psi",
            "unitPattern-count-other": "{0} psi"
          },
          "proportion-karat": {
            "displayName": "kt",
            "unitPattern-count-other": "{0} kt"
          },
          "speed-kilometer-per-hour": {
            "displayName": "Kilometer pro Stund",
            "unitPattern-count-one": "{0} km/h",
            "unitPattern-count-other": "{0} km/h"
          },
          "speed-meter-per-second": {
            "displayName": "Meter pro Sekunde",
            "unitPattern-count-one": "{0} m/s",
            "unitPattern-count-other": "{0} m/s"
          },
          "speed-mile-per-hour": {
            "displayName": "Meile pro Stund",
            "unitPattern-count-one": "{0} mi/h",
            "unitPattern-count-other": "{0} mi/h"
          },
          "temperature-celsius": {
            "displayName": "Grad Celsius",
            "unitPattern-count-one": "{0}°C",
            "unitPattern-count-other": "{0}°C"
          },
          "temperature-fahrenheit": {
            "displayName": "Grad Fahrenheit",
            "unitPattern-count-one": "{0}°F",
            "unitPattern-count-other": "{0}°F"
          },
          "temperature-kelvin": {
            "displayName": "K",
            "unitPattern-count-other": "{0} K"
          },
          "volume-acre-foot": {
            "displayName": "ac ft",
            "unitPattern-count-other": "{0} ac ft"
          },
          "volume-bushel": {
            "displayName": "bu",
            "unitPattern-count-other": "{0} bu"
          },
          "volume-centiliter": {
            "displayName": "cL",
            "unitPattern-count-other": "{0} cL"
          },
          "volume-cubic-centimeter": {
            "displayName": "cm³",
            "unitPattern-count-other": "{0} cm³"
          },
          "volume-cubic-foot": {
            "displayName": "ft³",
            "unitPattern-count-other": "{0} ft³"
          },
          "volume-cubic-inch": {
            "displayName": "in³",
            "unitPattern-count-other": "{0} in³"
          },
          "volume-cubic-kilometer": {
            "displayName": "Kubikkilometer",
            "unitPattern-count-one": "{0} km³",
            "unitPattern-count-other": "{0} km³"
          },
          "volume-cubic-meter": {
            "displayName": "m³",
            "unitPattern-count-other": "{0} m³"
          },
          "volume-cubic-mile": {
            "displayName": "Kubikmeile",
            "unitPattern-count-one": "{0} mi³",
            "unitPattern-count-other": "{0} mi³"
          },
          "volume-cubic-yard": {
            "displayName": "yd³",
            "unitPattern-count-other": "{0} yd³"
          },
          "volume-cup": {
            "displayName": "cup",
            "unitPattern-count-other": "{0} c"
          },
          "volume-deciliter": {
            "displayName": "dL",
            "unitPattern-count-other": "{0} dL"
          },
          "volume-fluid-ounce": {
            "displayName": "fl oz",
            "unitPattern-count-other": "{0} fl oz"
          },
          "volume-gallon": {
            "displayName": "gal",
            "unitPattern-count-other": "{0} gal"
          },
          "volume-hectoliter": {
            "displayName": "hL",
            "unitPattern-count-other": "{0} hL"
          },
          "volume-liter": {
            "displayName": "Liter",
            "unitPattern-count-one": "{0} l",
            "unitPattern-count-other": "{0} l"
          },
          "volume-megaliter": {
            "displayName": "ML",
            "unitPattern-count-other": "{0} ML"
          },
          "volume-milliliter": {
            "displayName": "mL",
            "unitPattern-count-other": "{0} mL"
          },
          "volume-pint": {
            "displayName": "pt",
            "unitPattern-count-other": "{0} pt"
          },
          "volume-quart": {
            "displayName": "qt",
            "unitPattern-count-other": "{0} qt"
          },
          "volume-tablespoon": {
            "displayName": "tbsp",
            "unitPattern-count-other": "{0} tbsp"
          },
          "volume-teaspoon": {
            "displayName": "tsp",
            "unitPattern-count-other": "{0} tsp"
          }
        },
        "narrow": {
          "per": {
            "compoundUnitPattern": "{0}/{1}"
          },
          "acceleration-g-force": {
            "displayName": "-fachi Erdbeschlünigung",
            "unitPattern-count-one": "{0}G",
            "unitPattern-count-other": "{0}G"
          },
          "acceleration-meter-per-second-squared": {
            "displayName": "m/s²",
            "unitPattern-count-other": "{0} m/s²"
          },
          "angle-arc-minute": {
            "displayName": "Winkelminute",
            "unitPattern-count-one": "{0}′",
            "unitPattern-count-other": "{0}′"
          },
          "angle-arc-second": {
            "displayName": "Winkelsekunde",
            "unitPattern-count-one": "{0}″",
            "unitPattern-count-other": "{0}″"
          },
          "angle-degree": {
            "displayName": "Grad",
            "unitPattern-count-one": "{0}°",
            "unitPattern-count-other": "{0}°"
          },
          "angle-radian": {
            "displayName": "rad",
            "unitPattern-count-other": "{0} rad"
          },
          "area-acre": {
            "displayName": "Acre",
            "unitPattern-count-one": "{0} ac",
            "unitPattern-count-other": "{0} ac"
          },
          "area-hectare": {
            "displayName": "Hektar",
            "unitPattern-count-one": "{0}ha",
            "unitPattern-count-other": "{0}ha"
          },
          "area-square-centimeter": {
            "displayName": "cm²",
            "unitPattern-count-other": "{0} cm²"
          },
          "area-square-foot": {
            "displayName": "Quadratfuess",
            "unitPattern-count-one": "{0} ft²",
            "unitPattern-count-other": "{0} ft²"
          },
          "area-square-inch": {
            "displayName": "in²",
            "unitPattern-count-other": "{0} in²"
          },
          "area-square-kilometer": {
            "displayName": "Quadratkilometer",
            "unitPattern-count-one": "{0}km²",
            "unitPattern-count-other": "{0}km²"
          },
          "area-square-meter": {
            "displayName": "Quadratmeter",
            "unitPattern-count-one": "{0}m²",
            "unitPattern-count-other": "{0}m²"
          },
          "area-square-mile": {
            "displayName": "Quadratmeile",
            "unitPattern-count-one": "{0} mi²",
            "unitPattern-count-other": "{0} mi²"
          },
          "area-square-yard": {
            "displayName": "yd²",
            "unitPattern-count-other": "{0} yd²"
          },
          "consumption-liter-per-kilometer": {
            "displayName": "L/km",
            "unitPattern-count-other": "{0} L/km"
          },
          "consumption-mile-per-gallon": {
            "displayName": "mpg",
            "unitPattern-count-other": "{0} mpg"
          },
          "digital-bit": {
            "displayName": "bit",
            "unitPattern-count-other": "{0} bit"
          },
          "digital-byte": {
            "displayName": "byte",
            "unitPattern-count-other": "{0} byte"
          },
          "digital-gigabit": {
            "displayName": "Gb",
            "unitPattern-count-other": "{0} Gb"
          },
          "digital-gigabyte": {
            "displayName": "GB",
            "unitPattern-count-other": "{0} GB"
          },
          "digital-kilobit": {
            "displayName": "kb",
            "unitPattern-count-other": "{0} kb"
          },
          "digital-kilobyte": {
            "displayName": "kB",
            "unitPattern-count-other": "{0} kB"
          },
          "digital-megabit": {
            "displayName": "Mb",
            "unitPattern-count-other": "{0} Mb"
          },
          "digital-megabyte": {
            "displayName": "MB",
            "unitPattern-count-other": "{0} MB"
          },
          "digital-terabit": {
            "displayName": "Tb",
            "unitPattern-count-other": "{0} Tb"
          },
          "digital-terabyte": {
            "displayName": "TB",
            "unitPattern-count-other": "{0} TB"
          },
          "duration-day": {
            "displayName": "Tääg",
            "unitPattern-count-one": "{0}d",
            "unitPattern-count-other": "{0}d"
          },
          "duration-hour": {
            "displayName": "Schtunde",
            "unitPattern-count-one": "{0}h",
            "unitPattern-count-other": "{0}h",
            "perUnitPattern": "{0}/h"
          },
          "duration-microsecond": {
            "displayName": "μs",
            "unitPattern-count-other": "{0} μs"
          },
          "duration-millisecond": {
            "displayName": "Millisekunde",
            "unitPattern-count-one": "{0}ms",
            "unitPattern-count-other": "{0}ms"
          },
          "duration-minute": {
            "displayName": "Minuute",
            "unitPattern-count-one": "{0}m",
            "unitPattern-count-other": "{0}m"
          },
          "duration-month": {
            "displayName": "Mönet",
            "unitPattern-count-other": "{0} m"
          },
          "duration-nanosecond": {
            "displayName": "ns",
            "unitPattern-count-other": "{0} ns"
          },
          "duration-second": {
            "displayName": "Sekunde",
            "unitPattern-count-one": "{0}s",
            "unitPattern-count-other": "{0}s",
            "perUnitPattern": "{0}/s"
          },
          "duration-week": {
            "displayName": "Wuche",
            "unitPattern-count-other": "{0} w"
          },
          "duration-year": {
            "displayName": "Jahr",
            "unitPattern-count-other": "{0} y"
          },
          "electric-ampere": {
            "displayName": "amp",
            "unitPattern-count-other": "{0} A"
          },
          "electric-milliampere": {
            "displayName": "mA",
            "unitPattern-count-other": "{0} mA"
          },
          "electric-ohm": {
            "displayName": "ohm",
            "unitPattern-count-other": "{0} Ω"
          },
          "electric-volt": {
            "displayName": "volt",
            "unitPattern-count-other": "{0} V"
          },
          "energy-calorie": {
            "displayName": "cal",
            "unitPattern-count-other": "{0} cal"
          },
          "energy-foodcalorie": {
            "displayName": "Cal",
            "unitPattern-count-other": "{0} Cal"
          },
          "energy-joule": {
            "displayName": "joule",
            "unitPattern-count-other": "{0} J"
          },
          "energy-kilocalorie": {
            "displayName": "kcal",
            "unitPattern-count-other": "{0} kcal"
          },
          "energy-kilojoule": {
            "displayName": "kJ",
            "unitPattern-count-other": "{0} kJ"
          },
          "energy-kilowatt-hour": {
            "displayName": "kWh",
            "unitPattern-count-other": "{0} kWh"
          },
          "frequency-gigahertz": {
            "displayName": "GHz",
            "unitPattern-count-other": "{0} GHz"
          },
          "frequency-hertz": {
            "displayName": "Hz",
            "unitPattern-count-other": "{0} Hz"
          },
          "frequency-kilohertz": {
            "displayName": "kHz",
            "unitPattern-count-other": "{0} kHz"
          },
          "frequency-megahertz": {
            "displayName": "MHz",
            "unitPattern-count-other": "{0} MHz"
          },
          "length-astronomical-unit": {
            "displayName": "au",
            "unitPattern-count-other": "{0} au"
          },
          "length-centimeter": {
            "displayName": "Zentimeter",
            "unitPattern-count-one": "{0}cm",
            "unitPattern-count-other": "{0}cm"
          },
          "length-decimeter": {
            "displayName": "dm",
            "unitPattern-count-other": "{0} dm"
          },
          "length-fathom": {
            "displayName": "fm",
            "unitPattern-count-other": "{0} fm"
          },
          "length-foot": {
            "displayName": "Fuess",
            "unitPattern-count-one": "{0} Fuess",
            "unitPattern-count-other": "{0} Fuess"
          },
          "length-furlong": {
            "displayName": "fur",
            "unitPattern-count-other": "{0} fur"
          },
          "length-inch": {
            "displayName": "Zoll",
            "unitPattern-count-one": "{0} Zoll",
            "unitPattern-count-other": "{0} Zoll"
          },
          "length-kilometer": {
            "displayName": "Kilometer",
            "unitPattern-count-one": "{0}km",
            "unitPattern-count-other": "{0}km"
          },
          "length-light-year": {
            "displayName": "Liechtjahr",
            "unitPattern-count-one": "{0} Liechtjahr",
            "unitPattern-count-other": "{0} Liechtjahr"
          },
          "length-meter": {
            "displayName": "Meter",
            "unitPattern-count-one": "{0}m",
            "unitPattern-count-other": "{0}m"
          },
          "length-micrometer": {
            "displayName": "µm",
            "unitPattern-count-other": "{0} µm"
          },
          "length-mile": {
            "displayName": "Meile",
            "unitPattern-count-one": "{0} mi",
            "unitPattern-count-other": "{0} mi"
          },
          "length-millimeter": {
            "displayName": "Millimeter",
            "unitPattern-count-one": "{0}mm",
            "unitPattern-count-other": "{0}mm"
          },
          "length-nanometer": {
            "displayName": "nm",
            "unitPattern-count-other": "{0} nm"
          },
          "length-nautical-mile": {
            "displayName": "nmi",
            "unitPattern-count-other": "{0} nmi"
          },
          "length-parsec": {
            "displayName": "pc",
            "unitPattern-count-other": "{0} pc"
          },
          "length-picometer": {
            "displayName": "Pikometer",
            "unitPattern-count-one": "{0}pm",
            "unitPattern-count-other": "{0}pm"
          },
          "length-yard": {
            "displayName": "Yard",
            "unitPattern-count-one": "{0} yd",
            "unitPattern-count-other": "{0} yd"
          },
          "light-lux": {
            "displayName": "lx",
            "unitPattern-count-other": "{0} lx"
          },
          "mass-carat": {
            "displayName": "CD",
            "unitPattern-count-other": "{0} CD"
          },
          "mass-gram": {
            "displayName": "Gramm",
            "unitPattern-count-one": "{0}g",
            "unitPattern-count-other": "{0}g"
          },
          "mass-kilogram": {
            "displayName": "Kilogramm",
            "unitPattern-count-one": "{0}kg",
            "unitPattern-count-other": "{0}kg"
          },
          "mass-metric-ton": {
            "displayName": "t",
            "unitPattern-count-other": "{0} t"
          },
          "mass-microgram": {
            "displayName": "µg",
            "unitPattern-count-other": "{0} µg"
          },
          "mass-milligram": {
            "displayName": "mg",
            "unitPattern-count-other": "{0} mg"
          },
          "mass-ounce": {
            "displayName": "Unze",
            "unitPattern-count-one": "{0} Unze",
            "unitPattern-count-other": "{0} Unze"
          },
          "mass-ounce-troy": {
            "displayName": "oz t",
            "unitPattern-count-other": "{0} oz t"
          },
          "mass-pound": {
            "displayName": "Pfund",
            "unitPattern-count-one": "{0} Pfund",
            "unitPattern-count-other": "{0} Pfund"
          },
          "mass-stone": {
            "displayName": "st",
            "unitPattern-count-other": "{0} st"
          },
          "mass-ton": {
            "displayName": "tn",
            "unitPattern-count-other": "{0} tn"
          },
          "power-gigawatt": {
            "displayName": "GW",
            "unitPattern-count-other": "{0} GW"
          },
          "power-horsepower": {
            "displayName": "Pferdestärke",
            "unitPattern-count-one": "{0} PS",
            "unitPattern-count-other": "{0} PS"
          },
          "power-kilowatt": {
            "displayName": "Kilowatt",
            "unitPattern-count-one": "{0}kW",
            "unitPattern-count-other": "{0}kW"
          },
          "power-megawatt": {
            "displayName": "MW",
            "unitPattern-count-other": "{0} MW"
          },
          "power-milliwatt": {
            "displayName": "mW",
            "unitPattern-count-other": "{0} mW"
          },
          "power-watt": {
            "displayName": "Watt",
            "unitPattern-count-one": "{0}W",
            "unitPattern-count-other": "{0}W"
          },
          "pressure-hectopascal": {
            "displayName": "Hektopascal",
            "unitPattern-count-one": "{0}hPa",
            "unitPattern-count-other": "{0}hPa"
          },
          "pressure-inch-hg": {
            "displayName": "Zoll Quecksilbersüüle",
            "unitPattern-count-one": "{0} inHg",
            "unitPattern-count-other": "{0} inHg"
          },
          "pressure-millibar": {
            "displayName": "Millibar",
            "unitPattern-count-one": "{0}mbar",
            "unitPattern-count-other": "{0}mbar"
          },
          "pressure-millimeter-of-mercury": {
            "displayName": "mm Hg",
            "unitPattern-count-other": "{0} mm Hg"
          },
          "pressure-pound-per-square-inch": {
            "displayName": "psi",
            "unitPattern-count-other": "{0} psi"
          },
          "proportion-karat": {
            "displayName": "kt",
            "unitPattern-count-other": "{0} kt"
          },
          "speed-kilometer-per-hour": {
            "displayName": "Kilometer pro Stund",
            "unitPattern-count-one": "{0}km/h",
            "unitPattern-count-other": "{0}km/h"
          },
          "speed-meter-per-second": {
            "displayName": "Meter pro Sekunde",
            "unitPattern-count-one": "{0}m/s",
            "unitPattern-count-other": "{0}m/s"
          },
          "speed-mile-per-hour": {
            "displayName": "Meile pro Stund",
            "unitPattern-count-one": "{0} mi/h",
            "unitPattern-count-other": "{0} mi/h"
          },
          "temperature-celsius": {
            "displayName": "Grad Celsius",
            "unitPattern-count-one": "{0}°",
            "unitPattern-count-other": "{0}°"
          },
          "temperature-fahrenheit": {
            "displayName": "Grad Fahrenheit",
            "unitPattern-count-one": "{0}°F",
            "unitPattern-count-other": "{0}°F"
          },
          "temperature-kelvin": {
            "displayName": "K",
            "unitPattern-count-other": "{0} K"
          },
          "volume-acre-foot": {
            "displayName": "ac ft",
            "unitPattern-count-other": "{0} ac ft"
          },
          "volume-bushel": {
            "displayName": "bu",
            "unitPattern-count-other": "{0} bu"
          },
          "volume-centiliter": {
            "displayName": "cL",
            "unitPattern-count-other": "{0} cL"
          },
          "volume-cubic-centimeter": {
            "displayName": "cm³",
            "unitPattern-count-other": "{0} cm³"
          },
          "volume-cubic-foot": {
            "displayName": "ft³",
            "unitPattern-count-other": "{0} ft³"
          },
          "volume-cubic-inch": {
            "displayName": "in³",
            "unitPattern-count-other": "{0} in³"
          },
          "volume-cubic-kilometer": {
            "displayName": "Kubikkilometer",
            "unitPattern-count-one": "{0}km³",
            "unitPattern-count-other": "{0}km³"
          },
          "volume-cubic-meter": {
            "displayName": "m³",
            "unitPattern-count-other": "{0} m³"
          },
          "volume-cubic-mile": {
            "displayName": "Kubikmeile",
            "unitPattern-count-one": "{0} mi³",
            "unitPattern-count-other": "{0} mi³"
          },
          "volume-cubic-yard": {
            "displayName": "yd³",
            "unitPattern-count-other": "{0} yd³"
          },
          "volume-cup": {
            "displayName": "cup",
            "unitPattern-count-other": "{0} c"
          },
          "volume-deciliter": {
            "displayName": "dL",
            "unitPattern-count-other": "{0} dL"
          },
          "volume-fluid-ounce": {
            "displayName": "fl oz",
            "unitPattern-count-other": "{0} fl oz"
          },
          "volume-gallon": {
            "displayName": "gal",
            "unitPattern-count-other": "{0} gal"
          },
          "volume-hectoliter": {
            "displayName": "hL",
            "unitPattern-count-other": "{0} hL"
          },
          "volume-liter": {
            "displayName": "Liter",
            "unitPattern-count-one": "{0}L",
            "unitPattern-count-other": "{0}L"
          },
          "volume-megaliter": {
            "displayName": "ML",
            "unitPattern-count-other": "{0} ML"
          },
          "volume-milliliter": {
            "displayName": "mL",
            "unitPattern-count-other": "{0} mL"
          },
          "volume-pint": {
            "displayName": "pt",
            "unitPattern-count-other": "{0} pt"
          },
          "volume-quart": {
            "displayName": "qt",
            "unitPattern-count-other": "{0} qt"
          },
          "volume-tablespoon": {
            "displayName": "tbsp",
            "unitPattern-count-other": "{0} tbsp"
          },
          "volume-teaspoon": {
            "displayName": "tsp",
            "unitPattern-count-other": "{0} tsp"
          }
        },
        "durationUnit-type-hm": {
          "durationUnitPattern": "h:mm"
        },
        "durationUnit-type-hms": {
          "durationUnitPattern": "h:mm:ss"
        },
        "durationUnit-type-ms": {
          "durationUnitPattern": "m:ss"
        }
      }
    }
  }
}
