{
  "main": {
    "dua": {
      "identity": {
        "version": {
          "_cldrVersion": "26",
          "_number": "$Revision: 10669 $"
        },
        "generation": {
          "_date": "$Date: 2014-07-23 16:10:33 -0500 (Wed, 23 Jul 2014) $"
        },
        "language": "dua"
      },
      "dates": {
        "calendars": {
          "buddhist": {
            "months": {
              "format": {
                "abbreviated": {
                  "1": "di",
                  "2": "ŋgɔn",
                  "3": "sɔŋ",
                  "4": "diɓ",
                  "5": "emi",
                  "6": "esɔ",
                  "7": "mad",
                  "8": "diŋ",
                  "9": "nyɛt",
                  "10": "may",
                  "11": "tin",
                  "12": "elá"
                },
                "narrow": {
                  "1": "d",
                  "2": "ŋ",
                  "3": "s",
                  "4": "d",
                  "5": "e",
                  "6": "e",
                  "7": "m",
                  "8": "d",
                  "9": "n",
                  "10": "m",
                  "11": "t",
                  "12": "e"
                },
                "wide": {
                  "1": "dimɔ́di",
                  "2": "ŋgɔndɛ",
                  "3": "sɔŋɛ",
                  "4": "diɓáɓá",
                  "5": "emiasele",
                  "6": "esɔpɛsɔpɛ",
                  "7": "madiɓɛ́díɓɛ́",
                  "8": "diŋgindi",
                  "9": "nyɛtɛki",
                  "10": "mayésɛ́",
                  "11": "tiníní",
                  "12": "eláŋgɛ́"
                }
              },
              "stand-alone": {
                "abbreviated": {
                  "1": "di",
                  "2": "ŋgɔn",
                  "3": "sɔŋ",
                  "4": "diɓ",
                  "5": "emi",
                  "6": "esɔ",
                  "7": "mad",
                  "8": "diŋ",
                  "9": "nyɛt",
                  "10": "may",
                  "11": "tin",
                  "12": "elá"
                },
                "narrow": {
                  "1": "d",
                  "2": "ŋ",
                  "3": "s",
                  "4": "d",
                  "5": "e",
                  "6": "e",
                  "7": "m",
                  "8": "d",
                  "9": "n",
                  "10": "m",
                  "11": "t",
                  "12": "e"
                },
                "wide": {
                  "1": "dimɔ́di",
                  "2": "ŋgɔndɛ",
                  "3": "sɔŋɛ",
                  "4": "diɓáɓá",
                  "5": "emiasele",
                  "6": "esɔpɛsɔpɛ",
                  "7": "madiɓɛ́díɓɛ́",
                  "8": "diŋgindi",
                  "9": "nyɛtɛki",
                  "10": "mayésɛ́",
                  "11": "tiníní",
                  "12": "eláŋgɛ́"
                }
              }
            },
            "days": {
              "format": {
                "abbreviated": {
                  "sun": "ét",
                  "mon": "mɔ́s",
                  "tue": "kwa",
                  "wed": "muk",
                  "thu": "ŋgi",
                  "fri": "ɗón",
                  "sat": "esa"
                },
                "narrow": {
                  "sun": "e",
                  "mon": "m",
                  "tue": "k",
                  "wed": "m",
                  "thu": "ŋ",
                  "fri": "ɗ",
                  "sat": "e"
                },
                "short": {
                  "sun": "ét",
                  "mon": "mɔ́s",
                  "tue": "kwa",
                  "wed": "muk",
                  "thu": "ŋgi",
                  "fri": "ɗón",
                  "sat": "esa"
                },
                "wide": {
                  "sun": "éti",
                  "mon": "mɔ́sú",
                  "tue": "kwasú",
                  "wed": "mukɔ́sú",
                  "thu": "ŋgisú",
                  "fri": "ɗónɛsú",
                  "sat": "esaɓasú"
                }
              },
              "stand-alone": {
                "abbreviated": {
                  "sun": "ét",
                  "mon": "mɔ́s",
                  "tue": "kwa",
                  "wed": "muk",
                  "thu": "ŋgi",
                  "fri": "ɗón",
                  "sat": "esa"
                },
                "narrow": {
                  "sun": "e",
                  "mon": "m",
                  "tue": "k",
                  "wed": "m",
                  "thu": "ŋ",
                  "fri": "ɗ",
                  "sat": "e"
                },
                "short": {
                  "sun": "ét",
                  "mon": "mɔ́s",
                  "tue": "kwa",
                  "wed": "muk",
                  "thu": "ŋgi",
                  "fri": "ɗón",
                  "sat": "esa"
                },
                "wide": {
                  "sun": "éti",
                  "mon": "mɔ́sú",
                  "tue": "kwasú",
                  "wed": "mukɔ́sú",
                  "thu": "ŋgisú",
                  "fri": "ɗónɛsú",
                  "sat": "esaɓasú"
                }
              }
            },
            "quarters": {
              "format": {
                "abbreviated": {
                  "1": "ndu1",
                  "2": "ndu2",
                  "3": "ndu3",
                  "4": "ndu4"
                },
                "narrow": {
                  "1": "1",
                  "2": "2",
                  "3": "3",
                  "4": "4"
                },
                "wide": {
                  "1": "ndúmbū nyá ɓosó",
                  "2": "ndúmbū ní lóndɛ́ íɓaá",
                  "3": "ndúmbū ní lóndɛ́ ílálo",
                  "4": "ndúmbū ní lóndɛ́ ínɛ́y"
                }
              },
              "stand-alone": {
                "abbreviated": {
                  "1": "ndu1",
                  "2": "ndu2",
                  "3": "ndu3",
                  "4": "ndu4"
                },
                "narrow": {
                  "1": "1",
                  "2": "2",
                  "3": "3",
                  "4": "4"
                },
                "wide": {
                  "1": "ndúmbū nyá ɓosó",
                  "2": "ndúmbū ní lóndɛ́ íɓaá",
                  "3": "ndúmbū ní lóndɛ́ ílálo",
                  "4": "ndúmbū ní lóndɛ́ ínɛ́y"
                }
              }
            },
            "dayPeriods": {
              "format": {
                "abbreviated": {
                  "am": "idiɓa",
                  "noon": "noon",
                  "pm": "ebyámu"
                },
                "narrow": {
                  "am": "a",
                  "noon": "n",
                  "pm": "p"
                },
                "wide": {
                  "am": "idiɓa",
                  "noon": "noon",
                  "pm": "ebyámu"
                }
              },
              "stand-alone": {
                "abbreviated": {
                  "am": "idiɓa",
                  "noon": "noon",
                  "pm": "ebyámu"
                },
                "narrow": {
                  "am": "a",
                  "noon": "n",
                  "pm": "p"
                },
                "wide": {
                  "am": "idiɓa",
                  "noon": "noon",
                  "pm": "ebyámu"
                }
              }
            },
            "eras": {
              "eraNames": {
                "0": "BE"
              },
              "eraAbbr": {
                "0": "BE"
              },
              "eraNarrow": {
                "0": "BE"
              }
            },
            "dateFormats": {
              "full": "EEEE d MMMM y G",
              "long": "d MMMM y G",
              "medium": "d MMM y G",
              "short": "d/M/y GGGGG"
            },
            "timeFormats": {
              "full": "HH:mm:ss zzzz",
              "long": "HH:mm:ss z",
              "medium": "HH:mm:ss",
              "short": "HH:mm"
            },
            "dateTimeFormats": {
              "full": "{1} {0}",
              "long": "{1} {0}",
              "medium": "{1} {0}",
              "short": "{1} {0}",
              "availableFormats": {
                "E": "ccc",
                "EHm": "E HH:mm",
                "EHms": "E HH:mm:ss",
                "Ed": "E d",
                "Ehm": "E h:mm a",
                "Ehms": "E h:mm:ss a",
                "Gy": "G y",
                "GyMMM": "G y MMM",
                "GyMMMEd": "G y MMM d, E",
                "GyMMMd": "G y MMM d",
                "H": "HH",
                "Hm": "HH:mm",
                "Hms": "HH:mm:ss",
                "M": "L",
                "MEd": "E d/M",
                "MMM": "LLL",
                "MMMEd": "E d MMM",
                "MMMd": "d MMM",
                "Md": "d/M",
                "d": "d",
                "h": "h a",
                "hm": "h:mm a",
                "hms": "h:mm:ss a",
                "ms": "m:ss",
                "y": "y",
                "yM": "M/y",
                "yMEd": "E d/M/y",
                "yMMM": "MMM y",
                "yMMMEd": "E d MMM y",
                "yMMMd": "d MMM y",
                "yMd": "d/M/y",
                "yQQQ": "QQQ y",
                "yQQQQ": "QQQQ y",
                "yyyy": "G y",
                "yyyyM": "GGGGG y-MM",
                "yyyyMEd": "GGGGG y-MM-dd, E",
                "yyyyMMM": "G y MMM",
                "yyyyMMMEd": "G y MMM d, E",
                "yyyyMMMd": "G y MMM d",
                "yyyyMd": "GGGGG y-MM-dd",
                "yyyyQQQ": "G y QQQ",
                "yyyyQQQQ": "G y QQQQ"
              },
              "appendItems": {
                "Day": "{0} ({2}: {1})",
                "Day-Of-Week": "{0} {1}",
                "Era": "{1} {0}",
                "Hour": "{0} ({2}: {1})",
                "Minute": "{0} ({2}: {1})",
                "Month": "{0} ({2}: {1})",
                "Quarter": "{0} ({2}: {1})",
                "Second": "{0} ({2}: {1})",
                "Timezone": "{0} {1}",
                "Week": "{0} ({2}: {1})",
                "Year": "{1} {0}"
              },
              "intervalFormats": {
                "intervalFormatFallback": "{0} – {1}",
                "H": {
                  "H": "HH–HH"
                },
                "Hm": {
                  "H": "HH:mm–HH:mm",
                  "m": "HH:mm–HH:mm"
                },
                "Hmv": {
                  "H": "HH:mm–HH:mm v",
                  "m": "HH:mm–HH:mm v"
                },
                "Hv": {
                  "H": "HH–HH v"
                },
                "M": {
                  "M": "MM–MM"
                },
                "MEd": {
                  "M": "MM-dd, E – MM-dd, E",
                  "d": "MM-dd, E – MM-dd, E"
                },
                "MMM": {
                  "M": "LLL–LLL"
                },
                "MMMEd": {
                  "M": "MMM d, E – MMM d, E",
                  "d": "MMM d, E – MMM d, E"
                },
                "MMMd": {
                  "M": "MMM d – MMM d",
                  "d": "MMM d–d"
                },
                "Md": {
                  "M": "MM-dd – MM-dd",
                  "d": "MM-dd – MM-dd"
                },
                "d": {
                  "d": "d–d"
                },
                "h": {
                  "a": "h a – h a",
                  "h": "h–h a"
                },
                "hm": {
                  "a": "h:mm a – h:mm a",
                  "h": "h:mm–h:mm a",
                  "m": "h:mm–h:mm a"
                },
                "hmv": {
                  "a": "h:mm a – h:mm a v",
                  "h": "h:mm–h:mm a v",
                  "m": "h:mm–h:mm a v"
                },
                "hv": {
                  "a": "h a – h a v",
                  "h": "h–h a v"
                },
                "y": {
                  "y": "G y–y"
                },
                "yM": {
                  "M": "GGGGG y-MM – y-MM",
                  "y": "GGGGG y-MM – y-MM"
                },
                "yMEd": {
                  "M": "GGGGG y-MM-dd, E – y-MM-dd, E",
                  "d": "GGGGG y-MM-dd, E – y-MM-dd, E",
                  "y": "GGGGG y-MM-dd, E – y-MM-dd, E"
                },
                "yMMM": {
                  "M": "G y MMM–MMM",
                  "y": "G y MMM – y MMM"
                },
                "yMMMEd": {
                  "M": "G y MMM d, E – MMM d, E",
                  "d": "G y MMM d, E – MMM d, E",
                  "y": "G y MMM d, E – y MMM d, E"
                },
                "yMMMM": {
                  "M": "G y MMMM–MMMM",
                  "y": "G y MMMM – y MMMM"
                },
                "yMMMd": {
                  "M": "G y MMM d – MMM d",
                  "d": "G y MMM d–d",
                  "y": "G y MMM d – y MMM d"
                },
                "yMd": {
                  "M": "GGGGG y-MM-dd – y-MM-dd",
                  "d": "GGGGG y-MM-dd – y-MM-dd",
                  "y": "GGGGG y-MM-dd – y-MM-dd"
                }
              }
            }
          }
        }
      }
    }
  }
}
