{
  "main": {
    "qu": {
      "identity": {
        "version": {
          "_cldrVersion": "26",
          "_number": "$Revision: 10671 $"
        },
        "generation": {
          "_date": "$Date: 2014-07-23 17:52:33 -0500 (Wed, 23 Jul 2014) $"
        },
        "language": "qu"
      },
      "dates": {
        "calendars": {
          "gregorian": {
            "months": {
              "format": {
                "abbreviated": {
                  "1": "Qul",
                  "2": "Hat",
                  "3": "Pau",
                  "4": "Ayr",
                  "5": "Aym",
                  "6": "Int",
                  "7": "Ant",
                  "8": "Qha",
                  "9": "Uma",
                  "10": "Kan",
                  "11": "Aya",
                  "12": "Kap"
                },
                "narrow": {
                  "1": "1",
                  "2": "2",
                  "3": "3",
                  "4": "4",
                  "5": "5",
                  "6": "6",
                  "7": "7",
                  "8": "8",
                  "9": "9",
                  "10": "10",
                  "11": "11",
                  "12": "12"
                },
                "wide": {
                  "1": "Qulla puquy",
                  "2": "Hatun puquy",
                  "3": "Pauqar waray",
                  "4": "Ayriwa",
                  "5": "Aymuray",
                  "6": "Inti raymi",
                  "7": "Anta Sitwa",
                  "8": "Qhapaq Sitwa",
                  "9": "Uma raymi",
                  "10": "Kantaray",
                  "11": "Ayamarqʼa",
                  "12": "Kapaq Raymi"
                }
              },
              "stand-alone": {
                "abbreviated": {
                  "1": "Qul",
                  "2": "Hat",
                  "3": "Pau",
                  "4": "Ayr",
                  "5": "Aym",
                  "6": "Int",
                  "7": "Ant",
                  "8": "Qha",
                  "9": "Uma",
                  "10": "Kan",
                  "11": "Aya",
                  "12": "Kap"
                },
                "narrow": {
                  "1": "1",
                  "2": "2",
                  "3": "3",
                  "4": "4",
                  "5": "5",
                  "6": "6",
                  "7": "7",
                  "8": "8",
                  "9": "9",
                  "10": "10",
                  "11": "11",
                  "12": "12"
                },
                "wide": {
                  "1": "Qulla puquy",
                  "2": "Hatun puquy",
                  "3": "Pauqar waray",
                  "4": "Ayriwa",
                  "5": "Aymuray",
                  "6": "Inti raymi",
                  "7": "Anta Sitwa",
                  "8": "Qhapaq Sitwa",
                  "9": "Uma raymi",
                  "10": "Kantaray",
                  "11": "Ayamarqʼa",
                  "12": "Kapaq Raymi"
                }
              }
            },
            "days": {
              "format": {
                "abbreviated": {
                  "sun": "Dom",
                  "mon": "Lun",
                  "tue": "Mar",
                  "wed": "Mié",
                  "thu": "Jue",
                  "fri": "Vie",
                  "sat": "Sab"
                },
                "narrow": {
                  "sun": "D",
                  "mon": "L",
                  "tue": "M",
                  "wed": "X",
                  "thu": "J",
                  "fri": "V",
                  "sat": "S"
                },
                "short": {
                  "sun": "Dom",
                  "mon": "Lun",
                  "tue": "Mar",
                  "wed": "Mié",
                  "thu": "Jue",
                  "fri": "Vie",
                  "sat": "Sab"
                },
                "wide": {
                  "sun": "Domingo",
                  "mon": "Lunes",
                  "tue": "Martes",
                  "wed": "Miércoles",
                  "thu": "Jueves",
                  "fri": "Viernes",
                  "sat": "Sábado"
                }
              },
              "stand-alone": {
                "abbreviated": {
                  "sun": "Dom",
                  "mon": "Lun",
                  "tue": "Mar",
                  "wed": "Mié",
                  "thu": "Jue",
                  "fri": "Vie",
                  "sat": "Sab"
                },
                "narrow": {
                  "sun": "D",
                  "mon": "L",
                  "tue": "M",
                  "wed": "X",
                  "thu": "J",
                  "fri": "V",
                  "sat": "S"
                },
                "short": {
                  "sun": "Dom",
                  "mon": "Lun",
                  "tue": "Mar",
                  "wed": "Mié",
                  "thu": "Jue",
                  "fri": "Vie",
                  "sat": "Sab"
                },
                "wide": {
                  "sun": "Domingo",
                  "mon": "Lunes",
                  "tue": "Martes",
                  "wed": "Miércoles",
                  "thu": "Jueves",
                  "fri": "Viernes",
                  "sat": "Sábado"
                }
              }
            },
            "quarters": {
              "format": {
                "abbreviated": {
                  "1": "Q1",
                  "2": "Q2",
                  "3": "Q3",
                  "4": "Q4"
                },
                "narrow": {
                  "1": "1",
                  "2": "2",
                  "3": "3",
                  "4": "4"
                },
                "wide": {
                  "1": "Q1",
                  "2": "Q2",
                  "3": "Q3",
                  "4": "Q4"
                }
              },
              "stand-alone": {
                "abbreviated": {
                  "1": "Q1",
                  "2": "Q2",
                  "3": "Q3",
                  "4": "Q4"
                },
                "narrow": {
                  "1": "1",
                  "2": "2",
                  "3": "3",
                  "4": "4"
                },
                "wide": {
                  "1": "Q1",
                  "2": "Q2",
                  "3": "Q3",
                  "4": "Q4"
                }
              }
            },
            "dayPeriods": {
              "format": {
                "abbreviated": {
                  "am": "a.m.",
                  "noon": "noon",
                  "pm": "p.m."
                },
                "narrow": {
                  "am": "a",
                  "noon": "n",
                  "pm": "p"
                },
                "wide": {
                  "am": "a.m.",
                  "noon": "noon",
                  "pm": "p.m."
                }
              },
              "stand-alone": {
                "abbreviated": {
                  "am": "a.m.",
                  "noon": "noon",
                  "pm": "p.m."
                },
                "narrow": {
                  "am": "a",
                  "noon": "n",
                  "pm": "p"
                },
                "wide": {
                  "am": "a.m.",
                  "noon": "noon",
                  "pm": "p.m."
                }
              }
            },
            "eras": {
              "eraNames": {
                "0": "BCE",
                "0-alt-variant": "BCE",
                "1": "d.C.",
                "1-alt-variant": "CE"
              },
              "eraAbbr": {
                "0": "BCE",
                "0-alt-variant": "BCE",
                "1": "d.C.",
                "1-alt-variant": "CE"
              },
              "eraNarrow": {
                "0": "BCE",
                "0-alt-variant": "BCE",
                "1": "dC",
                "1-alt-variant": "CE"
              }
            },
            "dateFormats": {
              "full": "EEEE, d MMMM, y",
              "long": "y MMMM d",
              "medium": "y MMM d",
              "short": "dd/MM/y"
            },
            "timeFormats": {
              "full": "HH:mm:ss zzzz",
              "long": "HH:mm:ss z",
              "medium": "hh:mm:ss a",
              "short": "hh:mm a"
            },
            "dateTimeFormats": {
              "full": "{1} {0}",
              "long": "{1} {0}",
              "medium": "{1} {0}",
              "short": "{1} {0}",
              "availableFormats": {
                "E": "ccc",
                "EHm": "E HH:mm",
                "EHms": "E HH:mm:ss",
                "Ed": "d, E",
                "Ehm": "E h:mm a",
                "Ehms": "E h:mm:ss a",
                "Gy": "G y",
                "GyMMM": "G y MMM",
                "GyMMMEd": "G y MMM d, E",
                "GyMMMd": "G y MMM d",
                "H": "HH",
                "Hm": "HH:mm",
                "Hms": "HH:mm:ss",
                "M": "L",
                "MEd": "MM-dd, E",
                "MMM": "LLL",
                "MMMEd": "MMM d, E",
                "MMMd": "MMM d",
                "Md": "MM-dd",
                "d": "d",
                "h": "h a",
                "hm": "h:mm a",
                "hms": "h:mm:ss a",
                "ms": "mm:ss",
                "y": "y",
                "yM": "y-MM",
                "yMEd": "y-MM-dd, E",
                "yMMM": "y MMM",
                "yMMMEd": "E, d MMM, y",
                "yMMMd": "y MMM d",
                "yMd": "dd-MM-y",
                "yQQQ": "y QQQ",
                "yQQQQ": "y QQQQ"
              },
              "appendItems": {
                "Day": "{0} ({2}: {1})",
                "Day-Of-Week": "{0} {1}",
                "Era": "{1} {0}",
                "Hour": "{0} ({2}: {1})",
                "Minute": "{0} ({2}: {1})",
                "Month": "{0} ({2}: {1})",
                "Quarter": "{0} ({2}: {1})",
                "Second": "{0} ({2}: {1})",
                "Timezone": "{0} {1}",
                "Week": "{0} ({2}: {1})",
                "Year": "{1} {0}"
              },
              "intervalFormats": {
                "intervalFormatFallback": "{0} – {1}",
                "H": {
                  "H": "HH–HH"
                },
                "Hm": {
                  "H": "HH:mm–HH:mm",
                  "m": "HH:mm–HH:mm"
                },
                "Hmv": {
                  "H": "HH:mm–HH:mm v",
                  "m": "HH:mm–HH:mm v"
                },
                "Hv": {
                  "H": "HH–HH v"
                },
                "M": {
                  "M": "MM–MM"
                },
                "MEd": {
                  "M": "MM-dd, E – MM-dd, E",
                  "d": "MM-dd, E – MM-dd, E"
                },
                "MMM": {
                  "M": "LLL–LLL"
                },
                "MMMEd": {
                  "M": "MMM d, E – MMM d, E",
                  "d": "MMM d, E – MMM d, E"
                },
                "MMMd": {
                  "M": "MMM d – MMM d",
                  "d": "MMM d–d"
                },
                "Md": {
                  "M": "MM-dd – MM-dd",
                  "d": "MM-dd – MM-dd"
                },
                "d": {
                  "d": "d–d"
                },
                "h": {
                  "a": "h a – h a",
                  "h": "h–h a"
                },
                "hm": {
                  "a": "h:mm a – h:mm a",
                  "h": "h:mm–h:mm a",
                  "m": "h:mm–h:mm a"
                },
                "hmv": {
                  "a": "h:mm a – h:mm a v",
                  "h": "h:mm–h:mm a v",
                  "m": "h:mm–h:mm a v"
                },
                "hv": {
                  "a": "h a – h a v",
                  "h": "h–h a v"
                },
                "y": {
                  "y": "y–y"
                },
                "yM": {
                  "M": "y-MM – y-MM",
                  "y": "y-MM – y-MM"
                },
                "yMEd": {
                  "M": "y-MM-dd, E – y-MM-dd, E",
                  "d": "y-MM-dd, E – y-MM-dd, E",
                  "y": "y-MM-dd, E – y-MM-dd, E"
                },
                "yMMM": {
                  "M": "y MMM–MMM",
                  "y": "y MMM – y MMM"
                },
                "yMMMEd": {
                  "M": "y MMM d, E – MMM d, E",
                  "d": "y MMM d, E – MMM d, E",
                  "y": "y MMM d, E – y MMM d, E"
                },
                "yMMMM": {
                  "M": "y MMMM–MMMM",
                  "y": "y MMMM – y MMMM"
                },
                "yMMMd": {
                  "M": "y MMM d – MMM d",
                  "d": "y MMM d–d",
                  "y": "y MMM d – y MMM d"
                },
                "yMd": {
                  "M": "y-MM-dd – y-MM-dd",
                  "d": "y-MM-dd – y-MM-dd",
                  "y": "y-MM-dd – y-MM-dd"
                }
              }
            }
          }
        }
      }
    }
  }
}
