{
  "main": {
    "mgh-MZ": {
      "identity": {
        "version": {
          "_cldrVersion": "26",
          "_number": "$Revision: 10669 $"
        },
        "generation": {
          "_date": "$Date: 2014-07-23 16:10:33 -0500 (Wed, 23 Jul 2014) $"
        },
        "language": "mgh",
        "territory": "MZ"
      },
      "localeDisplayNames": {
        "territories": {
          "001": "001",
          "002": "002",
          "003": "003",
          "005": "005",
          "009": "009",
          "011": "011",
          "013": "013",
          "014": "014",
          "015": "015",
          "017": "017",
          "018": "018",
          "019": "019",
          "021": "021",
          "029": "029",
          "030": "030",
          "034": "034",
          "035": "035",
          "039": "039",
          "053": "053",
          "054": "054",
          "057": "057",
          "061": "061",
          "142": "142",
          "143": "143",
          "145": "145",
          "150": "150",
          "151": "151",
          "154": "154",
          "155": "155",
          "419": "419",
          "AC": "AC",
          "AD": "Uandora",
          "AE": "AE",
          "AF": "Ufugustani",
          "AG": "AG",
          "AI": "AI",
          "AL": "Ualbania",
          "AM": "AM",
          "AO": "AO",
          "AQ": "AQ",
          "AR": "AR",
          "AS": "Usamoa ya Marekani",
          "AT": "AT",
          "AU": "AU",
          "AW": "AW",
          "AX": "AX",
          "AZ": "Uazabajani",
          "BA": "BA",
          "BB": "BB",
          "BD": "BD",
          "BE": "BE",
          "BF": "BF",
          "BG": "BG",
          "BH": "BH",
          "BI": "Urundi",
          "BJ": "Ubelin",
          "BL": "BL",
          "BM": "BM",
          "BN": "BN",
          "BO": "BO",
          "BQ": "BQ",
          "BR": "BR",
          "BS": "BS",
          "BT": "BT",
          "BV": "BV",
          "BW": "BW",
          "BY": "BY",
          "BZ": "BZ",
          "CA": "Ukanada",
          "CC": "CC",
          "CD": "CD",
          "CD-alt-variant": "CD",
          "CF": "CF",
          "CG": "Ukongo",
          "CG-alt-variant": "CG",
          "CH": "Uswisi",
          "CI": "Ukodiva",
          "CI-alt-variant": "CI",
          "CK": "CK",
          "CL": "Uchile",
          "CM": "CM",
          "CN": "Uchina",
          "CO": "Ukolombia",
          "CP": "CP",
          "CR": "CR",
          "CU": "Ukuba",
          "CV": "CV",
          "CW": "CW",
          "CX": "CX",
          "CY": "Ukuprosi",
          "CZ": "Ucheki",
          "DE": "DE",
          "DG": "DG",
          "DJ": "Ujibuti",
          "DK": "Udenimaka",
          "DM": "Udominika",
          "DO": "DO",
          "DZ": "Alujeria",
          "EA": "EA",
          "EC": "EC",
          "EE": "EE",
          "EG": "Umisiri",
          "EH": "EH",
          "ER": "Uriterea",
          "ES": "Uhispania",
          "ET": "Uhabeshi",
          "EU": "EU",
          "FI": "Ufini",
          "FJ": "Ufiji",
          "FK": "FK",
          "FK-alt-variant": "FK",
          "FM": "FM",
          "FO": "FO",
          "FR": "Ufaransa",
          "GA": "Ugaboni",
          "GB": "GB",
          "GB-alt-short": "GB",
          "GD": "Ugrenada",
          "GE": "Ujojia",
          "GF": "Ufaransa yo Gwaya",
          "GG": "GG",
          "GH": "Ugana",
          "GI": "Ujibralta",
          "GL": "Ugrinlandi",
          "GM": "Ugambia",
          "GN": "Ugine",
          "GP": "Ugwadelupe",
          "GQ": "GQ",
          "GR": "GR",
          "GS": "GS",
          "GT": "Ugwatemala",
          "GU": "Ugwam",
          "GW": "Uginebisau",
          "GY": "Uguyana",
          "HK": "HK",
          "HK-alt-short": "HK",
          "HM": "HM",
          "HN": "Uhondurasi",
          "HR": "Ukorasia",
          "HT": "Uhaiti",
          "HU": "Uhungaria",
          "IC": "IC",
          "ID": "Undonesia",
          "IE": "Uayalandi",
          "IL": "Uisraeli",
          "IM": "IM",
          "IN": "Uhindini",
          "IO": "IO",
          "IQ": "Wiraki",
          "IR": "IR",
          "IS": "IS",
          "IT": "Italia",
          "JE": "JE",
          "JM": "Ujamaika",
          "JO": "Uyordani",
          "JP": "Ujapani",
          "KE": "Ukenya",
          "KG": "KG",
          "KH": "Ukambodia",
          "KI": "KI",
          "KM": "Ukomoro",
          "KN": "Usantakitzi na Nevis",
          "KP": "Ukorea Kaskazini",
          "KR": "Ukorea Kusini",
          "KW": "KW",
          "KY": "KY",
          "KZ": "Ukazakistani",
          "LA": "LA",
          "LB": "Ulebanoni",
          "LC": "Usantalusia",
          "LI": "Ushenteni",
          "LK": "Usirilanka",
          "LR": "Uliberia",
          "LS": "Ulesoto",
          "LT": "Utwania",
          "LU": "Usembaji",
          "LV": "Ulativia",
          "LY": "Ulibya",
          "MA": "MA",
          "MC": "MC",
          "MD": "MD",
          "ME": "Umantegro",
          "MF": "MF",
          "MG": "Ubukini",
          "MH": "MH",
          "MK": "Umasedonia",
          "MK-alt-variant": "MK",
          "ML": "ML",
          "MM": "MM",
          "MN": "MN",
          "MO": "MO",
          "MO-alt-short": "MO",
          "MP": "MP",
          "MQ": "MQ",
          "MR": "MR",
          "MS": "MS",
          "MT": "MT",
          "MU": "MU",
          "MV": "MV",
          "MW": "Umalawi",
          "MX": "MX",
          "MY": "MY",
          "MZ": "Umozambiki",
          "NA": "NA",
          "NC": "NC",
          "NE": "Unijeri",
          "NF": "NF",
          "NG": "Unijeria",
          "NI": "NI",
          "NL": "NL",
          "NO": "Unorwe",
          "NP": "NP",
          "NR": "NR",
          "NU": "NU",
          "NZ": "NZ",
          "OM": "Uomani",
          "PA": "Upanama",
          "PE": "Uperuu",
          "PF": "Ufaransa yo Potina",
          "PG": "Upapua",
          "PH": "Ufilipino",
          "PK": "Upakistani",
          "PL": "Upolandi",
          "PM": "Usantapieri na Mikeloni",
          "PN": "Upitkairni",
          "PR": "Upwetoriko",
          "PS": "PS",
          "PS-alt-short": "PS",
          "PT": "PT",
          "PW": "PW",
          "PY": "Paragwai",
          "QA": "Ukatari",
          "QO": "QO",
          "RE": "Uriyunioni",
          "RO": "Uromania",
          "RS": "RS",
          "RU": "RU",
          "RW": "Urwanda",
          "SA": "Usaudi",
          "SB": "SB",
          "SC": "Ushelisheli",
          "SD": "Usudani",
          "SE": "Uswidi",
          "SG": "Usingapoo",
          "SH": "Usantahelena",
          "SI": "Uslovenia",
          "SJ": "SJ",
          "SK": "Uslovakia",
          "SL": "SL",
          "SM": "Usamarino",
          "SN": "Usenegali",
          "SO": "Usomalia",
          "SR": "Usurinamu",
          "SS": "SS",
          "ST": "Usao Tome na Principe",
          "SV": "Usalavado",
          "SX": "SX",
          "SY": "Usiria",
          "SZ": "Uswazi",
          "TA": "TA",
          "TC": "TC",
          "TD": "Uchadi",
          "TF": "TF",
          "TG": "Utogo",
          "TH": "Utailandi",
          "TJ": "Ujikistani",
          "TK": "Utokelau",
          "TL": "Utimo Mashariki",
          "TL-alt-variant": "TL",
          "TM": "Uturukimenistani",
          "TN": "Utunisia",
          "TO": "Utonga",
          "TR": "Utuki",
          "TT": "Utrinidad na Tobago",
          "TV": "Utuvalu",
          "TW": "TW",
          "TZ": "Utanzania",
          "UA": "UA",
          "UG": "UG",
          "UM": "UM",
          "US": "Umarekani",
          "US-alt-short": "US",
          "UY": "UY",
          "UZ": "UZ",
          "VA": "Uvatikani",
          "VC": "Usantavisenti na Grenadini",
          "VE": "Uvenezuela",
          "VG": "VG",
          "VI": "VI",
          "VN": "Uvietinamu",
          "VU": "Uvanuatu",
          "WF": "Uwalis na Futuna",
          "WS": "Usamoa",
          "XK": "XK",
          "YE": "Uyemeni",
          "YT": "YT",
          "ZA": "Afrika du Sulu",
          "ZM": "Uzambia",
          "ZW": "Uzimbabwe",
          "ZZ": "ZZ"
        }
      }
    }
  }
}
