{
  "main": {
    "fr-GP": {
      "identity": {
        "version": {
          "_cldrVersion": "26",
          "_number": "$Revision: 10669 $"
        },
        "generation": {
          "_date": "$Date: 2014-07-23 16:10:33 -0500 (Wed, 23 Jul 2014) $"
        },
        "language": "fr",
        "territory": "GP"
      },
      "contextTransforms": {
        "day-format-except-narrow": {
          "stand-alone": "titlecase-firstword"
        },
        "day-standalone-except-narrow": {
          "stand-alone": "titlecase-firstword"
        },
        "languages": {
          "uiListOrMenu": "titlecase-firstword"
        },
        "month-format-except-narrow": {
          "stand-alone": "titlecase-firstword"
        },
        "month-standalone-except-narrow": {
          "stand-alone": "titlecase-firstword"
        }
      }
    }
  }
}
