{
  "main": {
    "ki-KE": {
      "identity": {
        "version": {
          "_cldrVersion": "26",
          "_number": "$Revision: 10669 $"
        },
        "generation": {
          "_date": "$Date: 2014-07-23 16:10:33 -0500 (Wed, 23 Jul 2014) $"
        },
        "language": "ki",
        "territory": "KE"
      },
      "dates": {
        "calendars": {
          "gregorian": {
            "months": {
              "format": {
                "abbreviated": {
                  "1": "JEN",
                  "2": "WKR",
                  "3": "WGT",
                  "4": "WKN",
                  "5": "WTN",
                  "6": "WTD",
                  "7": "WMJ",
                  "8": "WNN",
                  "9": "WKD",
                  "10": "WIK",
                  "11": "WMW",
                  "12": "DIT"
                },
                "narrow": {
                  "1": "J",
                  "2": "K",
                  "3": "G",
                  "4": "K",
                  "5": "G",
                  "6": "G",
                  "7": "M",
                  "8": "K",
                  "9": "K",
                  "10": "I",
                  "11": "I",
                  "12": "D"
                },
                "wide": {
                  "1": "Njenuarĩ",
                  "2": "Mwere wa kerĩ",
                  "3": "Mwere wa gatatũ",
                  "4": "Mwere wa kana",
                  "5": "Mwere wa gatano",
                  "6": "Mwere wa gatandatũ",
                  "7": "Mwere wa mũgwanja",
                  "8": "Mwere wa kanana",
                  "9": "Mwere wa kenda",
                  "10": "Mwere wa ikũmi",
                  "11": "Mwere wa ikũmi na ũmwe",
                  "12": "Ndithemba"
                }
              },
              "stand-alone": {
                "abbreviated": {
                  "1": "JEN",
                  "2": "WKR",
                  "3": "WGT",
                  "4": "WKN",
                  "5": "WTN",
                  "6": "WTD",
                  "7": "WMJ",
                  "8": "WNN",
                  "9": "WKD",
                  "10": "WIK",
                  "11": "WMW",
                  "12": "DIT"
                },
                "narrow": {
                  "1": "J",
                  "2": "K",
                  "3": "G",
                  "4": "K",
                  "5": "G",
                  "6": "G",
                  "7": "M",
                  "8": "K",
                  "9": "K",
                  "10": "I",
                  "11": "I",
                  "12": "D"
                },
                "wide": {
                  "1": "Njenuarĩ",
                  "2": "Mwere wa kerĩ",
                  "3": "Mwere wa gatatũ",
                  "4": "Mwere wa kana",
                  "5": "Mwere wa gatano",
                  "6": "Mwere wa gatandatũ",
                  "7": "Mwere wa mũgwanja",
                  "8": "Mwere wa kanana",
                  "9": "Mwere wa kenda",
                  "10": "Mwere wa ikũmi",
                  "11": "Mwere wa ikũmi na ũmwe",
                  "12": "Ndithemba"
                }
              }
            },
            "days": {
              "format": {
                "abbreviated": {
                  "sun": "KMA",
                  "mon": "NTT",
                  "tue": "NMN",
                  "wed": "NMT",
                  "thu": "ART",
                  "fri": "NMA",
                  "sat": "NMM"
                },
                "narrow": {
                  "sun": "K",
                  "mon": "N",
                  "tue": "N",
                  "wed": "N",
                  "thu": "A",
                  "fri": "N",
                  "sat": "N"
                },
                "short": {
                  "sun": "KMA",
                  "mon": "NTT",
                  "tue": "NMN",
                  "wed": "NMT",
                  "thu": "ART",
                  "fri": "NMA",
                  "sat": "NMM"
                },
                "wide": {
                  "sun": "Kiumia",
                  "mon": "Njumatatũ",
                  "tue": "Njumaine",
                  "wed": "Njumatana",
                  "thu": "Aramithi",
                  "fri": "Njumaa",
                  "sat": "Njumamothi"
                }
              },
              "stand-alone": {
                "abbreviated": {
                  "sun": "KMA",
                  "mon": "NTT",
                  "tue": "NMN",
                  "wed": "NMT",
                  "thu": "ART",
                  "fri": "NMA",
                  "sat": "NMM"
                },
                "narrow": {
                  "sun": "K",
                  "mon": "N",
                  "tue": "N",
                  "wed": "N",
                  "thu": "A",
                  "fri": "N",
                  "sat": "N"
                },
                "short": {
                  "sun": "KMA",
                  "mon": "NTT",
                  "tue": "NMN",
                  "wed": "NMT",
                  "thu": "ART",
                  "fri": "NMA",
                  "sat": "NMM"
                },
                "wide": {
                  "sun": "Kiumia",
                  "mon": "Njumatatũ",
                  "tue": "Njumaine",
                  "wed": "Njumatana",
                  "thu": "Aramithi",
                  "fri": "Njumaa",
                  "sat": "Njumamothi"
                }
              }
            },
            "quarters": {
              "format": {
                "abbreviated": {
                  "1": "R1",
                  "2": "R2",
                  "3": "R3",
                  "4": "R4"
                },
                "narrow": {
                  "1": "1",
                  "2": "2",
                  "3": "3",
                  "4": "4"
                },
                "wide": {
                  "1": "Robo ya mbere",
                  "2": "Robo ya kerĩ",
                  "3": "Robo ya gatatũ",
                  "4": "Robo ya kana"
                }
              },
              "stand-alone": {
                "abbreviated": {
                  "1": "R1",
                  "2": "R2",
                  "3": "R3",
                  "4": "R4"
                },
                "narrow": {
                  "1": "1",
                  "2": "2",
                  "3": "3",
                  "4": "4"
                },
                "wide": {
                  "1": "Robo ya mbere",
                  "2": "Robo ya kerĩ",
                  "3": "Robo ya gatatũ",
                  "4": "Robo ya kana"
                }
              }
            },
            "dayPeriods": {
              "format": {
                "abbreviated": {
                  "am": "Kiroko",
                  "noon": "noon",
                  "pm": "Hwaĩ-inĩ"
                },
                "narrow": {
                  "am": "a",
                  "noon": "n",
                  "pm": "p"
                },
                "wide": {
                  "am": "Kiroko",
                  "noon": "noon",
                  "pm": "Hwaĩ-inĩ"
                }
              },
              "stand-alone": {
                "abbreviated": {
                  "am": "Kiroko",
                  "noon": "noon",
                  "pm": "Hwaĩ-inĩ"
                },
                "narrow": {
                  "am": "a",
                  "noon": "n",
                  "pm": "p"
                },
                "wide": {
                  "am": "Kiroko",
                  "noon": "noon",
                  "pm": "Hwaĩ-inĩ"
                }
              }
            },
            "eras": {
              "eraNames": {
                "0": "Mbere ya Kristo",
                "0-alt-variant": "BCE",
                "1": "Thutha wa Kristo",
                "1-alt-variant": "CE"
              },
              "eraAbbr": {
                "0": "MK",
                "0-alt-variant": "BCE",
                "1": "TK",
                "1-alt-variant": "CE"
              },
              "eraNarrow": {
                "0": "MK",
                "0-alt-variant": "BCE",
                "1": "TK",
                "1-alt-variant": "CE"
              }
            },
            "dateFormats": {
              "full": "EEEE, d MMMM y",
              "long": "d MMMM y",
              "medium": "d MMM y",
              "short": "dd/MM/y"
            },
            "timeFormats": {
              "full": "h:mm:ss a zzzz",
              "long": "h:mm:ss a z",
              "medium": "h:mm:ss a",
              "short": "h:mm a"
            },
            "dateTimeFormats": {
              "full": "{1} {0}",
              "long": "{1} {0}",
              "medium": "{1} {0}",
              "short": "{1} {0}",
              "availableFormats": {
                "E": "ccc",
                "EHm": "E HH:mm",
                "EHms": "E HH:mm:ss",
                "Ed": "d, E",
                "Ehm": "E h:mm a",
                "Ehms": "E h:mm:ss a",
                "Gy": "G y",
                "GyMMM": "G y MMM",
                "GyMMMEd": "G y MMM d, E",
                "GyMMMd": "G y MMM d",
                "H": "HH",
                "Hm": "HH:mm",
                "Hms": "HH:mm:ss",
                "M": "L",
                "MEd": "E, M/d",
                "MMM": "LLL",
                "MMMEd": "E, MMM d",
                "MMMMEd": "E, MMMM d",
                "MMMMd": "MMMM d",
                "MMMd": "MMM d",
                "Md": "M/d",
                "d": "d",
                "h": "h a",
                "hm": "h:mm a",
                "hms": "h:mm:ss a",
                "ms": "mm:ss",
                "y": "y",
                "yM": "M/y",
                "yMEd": "E, M/d/y",
                "yMMM": "MMM y",
                "yMMMEd": "E, MMM d, y",
                "yMMMM": "MMMM y",
                "yMMMd": "y MMM d",
                "yMd": "y-MM-dd",
                "yQQQ": "QQQ y",
                "yQQQQ": "QQQQ y"
              },
              "appendItems": {
                "Day": "{0} ({2}: {1})",
                "Day-Of-Week": "{0} {1}",
                "Era": "{1} {0}",
                "Hour": "{0} ({2}: {1})",
                "Minute": "{0} ({2}: {1})",
                "Month": "{0} ({2}: {1})",
                "Quarter": "{0} ({2}: {1})",
                "Second": "{0} ({2}: {1})",
                "Timezone": "{0} {1}",
                "Week": "{0} ({2}: {1})",
                "Year": "{1} {0}"
              },
              "intervalFormats": {
                "intervalFormatFallback": "{0} – {1}",
                "H": {
                  "H": "HH–HH"
                },
                "Hm": {
                  "H": "HH:mm–HH:mm",
                  "m": "HH:mm–HH:mm"
                },
                "Hmv": {
                  "H": "HH:mm–HH:mm v",
                  "m": "HH:mm–HH:mm v"
                },
                "Hv": {
                  "H": "HH–HH v"
                },
                "M": {
                  "M": "MM–MM"
                },
                "MEd": {
                  "M": "MM-dd, E – MM-dd, E",
                  "d": "MM-dd, E – MM-dd, E"
                },
                "MMM": {
                  "M": "LLL–LLL"
                },
                "MMMEd": {
                  "M": "MMM d, E – MMM d, E",
                  "d": "MMM d, E – MMM d, E"
                },
                "MMMd": {
                  "M": "MMM d – MMM d",
                  "d": "MMM d–d"
                },
                "Md": {
                  "M": "MM-dd – MM-dd",
                  "d": "MM-dd – MM-dd"
                },
                "d": {
                  "d": "d–d"
                },
                "h": {
                  "a": "h a – h a",
                  "h": "h–h a"
                },
                "hm": {
                  "a": "h:mm a – h:mm a",
                  "h": "h:mm–h:mm a",
                  "m": "h:mm–h:mm a"
                },
                "hmv": {
                  "a": "h:mm a – h:mm a v",
                  "h": "h:mm–h:mm a v",
                  "m": "h:mm–h:mm a v"
                },
                "hv": {
                  "a": "h a – h a v",
                  "h": "h–h a v"
                },
                "y": {
                  "y": "y–y"
                },
                "yM": {
                  "M": "y-MM – y-MM",
                  "y": "y-MM – y-MM"
                },
                "yMEd": {
                  "M": "y-MM-dd, E – y-MM-dd, E",
                  "d": "y-MM-dd, E – y-MM-dd, E",
                  "y": "y-MM-dd, E – y-MM-dd, E"
                },
                "yMMM": {
                  "M": "y MMM–MMM",
                  "y": "y MMM – y MMM"
                },
                "yMMMEd": {
                  "M": "y MMM d, E – MMM d, E",
                  "d": "y MMM d, E – MMM d, E",
                  "y": "y MMM d, E – y MMM d, E"
                },
                "yMMMM": {
                  "M": "y MMMM–MMMM",
                  "y": "y MMMM – y MMMM"
                },
                "yMMMd": {
                  "M": "y MMM d – MMM d",
                  "d": "y MMM d–d",
                  "y": "y MMM d – y MMM d"
                },
                "yMd": {
                  "M": "y-MM-dd – y-MM-dd",
                  "d": "y-MM-dd – y-MM-dd",
                  "y": "y-MM-dd – y-MM-dd"
                }
              }
            }
          }
        }
      }
    }
  }
}
