{
  "main": {
    "kn-IN": {
      "identity": {
        "version": {
          "_cldrVersion": "26",
          "_number": "$Revision: 10669 $"
        },
        "generation": {
          "_date": "$Date: 2014-07-23 16:10:33 -0500 (Wed, 23 Jul 2014) $"
        },
        "language": "kn",
        "territory": "IN"
      },
      "dates": {
        "calendars": {
          "islamic": {
            "months": {
              "format": {
                "abbreviated": {
                  "1": "Muh.",
                  "2": "Saf.",
                  "3": "Rab. I",
                  "4": "Rab. II",
                  "5": "Jum. I",
                  "6": "Jum. II",
                  "7": "Raj.",
                  "8": "Sha.",
                  "9": "Ram.",
                  "10": "Shaw.",
                  "11": "Dhuʻl-Q.",
                  "12": "Dhuʻl-H."
                },
                "narrow": {
                  "1": "1",
                  "2": "2",
                  "3": "3",
                  "4": "4",
                  "5": "5",
                  "6": "6",
                  "7": "7",
                  "8": "8",
                  "9": "9",
                  "10": "10",
                  "11": "11",
                  "12": "12"
                },
                "wide": {
                  "1": "Muharram",
                  "2": "Safar",
                  "3": "Rabiʻ I",
                  "4": "Rabiʻ II",
                  "5": "Jumada I",
                  "6": "Jumada II",
                  "7": "Rajab",
                  "8": "Shaʻban",
                  "9": "Ramadan",
                  "10": "Shawwal",
                  "11": "Dhuʻl-Qiʻdah",
                  "12": "Dhuʻl-Hijjah"
                }
              },
              "stand-alone": {
                "abbreviated": {
                  "1": "Muh.",
                  "2": "Saf.",
                  "3": "Rab. I",
                  "4": "Rab. II",
                  "5": "Jum. I",
                  "6": "Jum. II",
                  "7": "Raj.",
                  "8": "Sha.",
                  "9": "Ram.",
                  "10": "Shaw.",
                  "11": "Dhuʻl-Q.",
                  "12": "Dhuʻl-H."
                },
                "narrow": {
                  "1": "1",
                  "2": "2",
                  "3": "3",
                  "4": "4",
                  "5": "5",
                  "6": "6",
                  "7": "7",
                  "8": "8",
                  "9": "9",
                  "10": "10",
                  "11": "11",
                  "12": "12"
                },
                "wide": {
                  "1": "Muharram",
                  "2": "Safar",
                  "3": "Rabiʻ I",
                  "4": "Rabiʻ II",
                  "5": "Jumada I",
                  "6": "Jumada II",
                  "7": "Rajab",
                  "8": "Shaʻban",
                  "9": "Ramadan",
                  "10": "Shawwal",
                  "11": "Dhuʻl-Qiʻdah",
                  "12": "Dhuʻl-Hijjah"
                }
              }
            },
            "days": {
              "format": {
                "abbreviated": {
                  "sun": "ಭಾನು",
                  "mon": "ಸೋಮ",
                  "tue": "ಮಂಗಳ",
                  "wed": "ಬುಧ",
                  "thu": "ಗುರು",
                  "fri": "ಶುಕ್ರ",
                  "sat": "ಶನಿ"
                },
                "narrow": {
                  "sun": "ಭಾ",
                  "mon": "ಸೋ",
                  "tue": "ಮಂ",
                  "wed": "ಬು",
                  "thu": "ಗು",
                  "fri": "ಶು",
                  "sat": "ಶ"
                },
                "short": {
                  "sun": "ಭಾನು",
                  "mon": "ಸೋಮ",
                  "tue": "ಮಂಗಳ",
                  "wed": "ಬುಧ",
                  "thu": "ಗುರು",
                  "fri": "ಶುಕ್ರ",
                  "sat": "ಶನಿ"
                },
                "wide": {
                  "sun": "ಭಾನುವಾರ",
                  "mon": "ಸೋಮವಾರ",
                  "tue": "ಮಂಗಳವಾರ",
                  "wed": "ಬುಧವಾರ",
                  "thu": "ಗುರುವಾರ",
                  "fri": "ಶುಕ್ರವಾರ",
                  "sat": "ಶನಿವಾರ"
                }
              },
              "stand-alone": {
                "abbreviated": {
                  "sun": "ಭಾನು",
                  "mon": "ಸೋಮ",
                  "tue": "ಮಂಗಳ",
                  "wed": "ಬುಧ",
                  "thu": "ಗುರು",
                  "fri": "ಶುಕ್ರ",
                  "sat": "ಶನಿ"
                },
                "narrow": {
                  "sun": "ಭಾ",
                  "mon": "ಸೋ",
                  "tue": "ಮಂ",
                  "wed": "ಬು",
                  "thu": "ಗು",
                  "fri": "ಶು",
                  "sat": "ಶ"
                },
                "short": {
                  "sun": "ಭಾನು",
                  "mon": "ಸೋಮ",
                  "tue": "ಮಂಗಳ",
                  "wed": "ಬುಧ",
                  "thu": "ಗುರು",
                  "fri": "ಶುಕ್ರ",
                  "sat": "ಶನಿ"
                },
                "wide": {
                  "sun": "ಭಾನುವಾರ",
                  "mon": "ಸೋಮವಾರ",
                  "tue": "ಮಂಗಳವಾರ",
                  "wed": "ಬುಧವಾರ",
                  "thu": "ಗುರುವಾರ",
                  "fri": "ಶುಕ್ರವಾರ",
                  "sat": "ಶನಿವಾರ"
                }
              }
            },
            "quarters": {
              "format": {
                "abbreviated": {
                  "1": "ತ್ರೈ 1",
                  "2": "ತ್ರೈ 2",
                  "3": "ತ್ರೈ 3",
                  "4": "ತ್ರೈ 4"
                },
                "narrow": {
                  "1": "1",
                  "2": "2",
                  "3": "3",
                  "4": "4"
                },
                "wide": {
                  "1": "1ನೇ ತ್ರೈಮಾಸಿಕ",
                  "2": "2ನೇ ತ್ರೈಮಾಸಿಕ",
                  "3": "3ನೇ ತ್ರೈಮಾಸಿಕ",
                  "4": "4ನೇ ತ್ರೈಮಾಸಿಕ"
                }
              },
              "stand-alone": {
                "abbreviated": {
                  "1": "ತ್ರೈ 1",
                  "2": "ತ್ರೈ 2",
                  "3": "ತ್ರೈ 3",
                  "4": "ತ್ರೈ 4"
                },
                "narrow": {
                  "1": "1",
                  "2": "2",
                  "3": "3",
                  "4": "4"
                },
                "wide": {
                  "1": "1ನೇ ತ್ರೈಮಾಸಿಕ",
                  "2": "2ನೇ ತ್ರೈಮಾಸಿಕ",
                  "3": "3ನೇ ತ್ರೈಮಾಸಿಕ",
                  "4": "4ನೇ ತ್ರೈಮಾಸಿಕ"
                }
              }
            },
            "dayPeriods": {
              "format": {
                "abbreviated": {
                  "am": "AM",
                  "noon": "ಮಧ್ಯಾಹ್ನ",
                  "pm": "PM"
                },
                "narrow": {
                  "am": "ಪೂ",
                  "noon": "ಮ",
                  "pm": "ಅ"
                },
                "wide": {
                  "am": "ಪೂರ್ವಾಹ್ನ",
                  "noon": "ಮಧ್ಯಾಹ್ನ",
                  "pm": "ಅಪರಾಹ್ನ"
                }
              },
              "stand-alone": {
                "abbreviated": {
                  "am": "AM",
                  "noon": "ಮಧ್ಯಾಹ್ನ",
                  "pm": "PM"
                },
                "narrow": {
                  "am": "ಪೂ",
                  "noon": "ಮ",
                  "pm": "ಅ"
                },
                "wide": {
                  "am": "ಪೂರ್ವಾಹ್ನ",
                  "noon": "ಮಧ್ಯಾಹ್ನ",
                  "pm": "ಅಪರಾಹ್ನ"
                }
              }
            },
            "eras": {
              "eraNames": {
                "0": "AH"
              },
              "eraAbbr": {
                "0": "AH"
              },
              "eraNarrow": {
                "0": "AH"
              }
            },
            "dateFormats": {
              "full": "G y MMMM d, EEEE",
              "long": "G y MMMM d",
              "medium": "G y MMM d",
              "short": "GGGGG y-MM-dd"
            },
            "timeFormats": {
              "full": "hh:mm:ss a zzzz",
              "long": "hh:mm:ss a z",
              "medium": "hh:mm:ss a",
              "short": "hh:mm a"
            },
            "dateTimeFormats": {
              "full": "{1} {0}ದಲ್ಲಿ",
              "long": "{1} {0}ದಲ್ಲಿ",
              "medium": "{1} {0}",
              "short": "{1} {0}",
              "availableFormats": {
                "E": "ccc",
                "EHm": "E HH:mm",
                "EHms": "E HH:mm:ss",
                "Ed": "d E",
                "Ehm": "E h:mm a",
                "Ehms": "E h:mm:ss a",
                "Gy": "G y",
                "GyMMM": "G y MMM",
                "GyMMMEd": "G y MMM d, E",
                "GyMMMd": "G y MMM d",
                "H": "HH",
                "Hm": "HH:mm",
                "Hms": "HH:mm:ss",
                "M": "L",
                "MEd": "E, d/M",
                "MMM": "LLL",
                "MMMEd": "E, d MMM",
                "MMMMd": "d MMMM",
                "MMMd": "d MMM",
                "MMdd": "dd-MM",
                "Md": "d/M",
                "d": "d",
                "h": "h a",
                "hm": "h:mm a",
                "hms": "h:mm:ss a",
                "ms": "mm:ss",
                "y": "G y",
                "yyyy": "G y",
                "yyyyM": "M/y GGGGG",
                "yyyyMEd": "GGGGG y-MM-dd, E",
                "yyyyMM": "MM-y G",
                "yyyyMMM": "G y MMM",
                "yyyyMMMEd": "G y MMM d, E",
                "yyyyMMMM": "G y MMMM",
                "yyyyMMMd": "G y MMM d",
                "yyyyMd": "GGGGG y-MM-dd",
                "yyyyQQQ": "G y QQQ",
                "yyyyQQQQ": "G y QQQQ"
              },
              "appendItems": {
                "Day": "{0} ({2}: {1})",
                "Day-Of-Week": "{0} {1}",
                "Era": "{1} {0}",
                "Hour": "{0} ({2}: {1})",
                "Minute": "{0} ({2}: {1})",
                "Month": "{0} ({2}: {1})",
                "Quarter": "{0} ({2}: {1})",
                "Second": "{0} ({2}: {1})",
                "Timezone": "{0} {1}",
                "Week": "{0} ({2}: {1})",
                "Year": "{1} {0}"
              },
              "intervalFormats": {
                "intervalFormatFallback": "{0} – {1}",
                "H": {
                  "H": "HH–HH"
                },
                "Hm": {
                  "H": "HH:mm–HH:mm",
                  "m": "HH:mm–HH:mm"
                },
                "Hmv": {
                  "H": "HH:mm–HH:mm v",
                  "m": "HH:mm–HH:mm v"
                },
                "Hv": {
                  "H": "HH–HH v"
                },
                "M": {
                  "M": "M–M"
                },
                "MEd": {
                  "M": "d/M, E - d/M, E",
                  "d": "d/M, E - d/M, E"
                },
                "MMM": {
                  "M": "MMM–MMM"
                },
                "MMMEd": {
                  "M": "MMM d, E – MMM d, E",
                  "d": "MMM d, E – MMM d, E"
                },
                "MMMd": {
                  "M": "d MMM - d MMM",
                  "d": "d –d MMM"
                },
                "Md": {
                  "M": "d/M – d/M",
                  "d": "d/M - d/M"
                },
                "d": {
                  "d": "d–d"
                },
                "h": {
                  "a": "h a – h a",
                  "h": "h–h a"
                },
                "hm": {
                  "a": "h:mm a – h:mm a",
                  "h": "h:mm–h:mm a",
                  "m": "h:mm–h:mm a"
                },
                "hmv": {
                  "a": "h:mm a – h:mm a v",
                  "h": "h:mm–h:mm a v",
                  "m": "h:mm–h:mm a v"
                },
                "hv": {
                  "a": "h a – h a v",
                  "h": "h-h a v"
                },
                "y": {
                  "y": "y–y G"
                },
                "yM": {
                  "M": "M/y – M/y GGGGG",
                  "y": "M/y – M/y GGGGG"
                },
                "yMEd": {
                  "M": "d/M/y, E - d/M/y G",
                  "d": "GGGGG y-MM-dd, E – y-MM-dd, E",
                  "y": "d/M/y, E - d/M/y, E G"
                },
                "yMMM": {
                  "M": "G y MMM–MMM",
                  "y": "G y MMM – y MMM"
                },
                "yMMMEd": {
                  "M": "G y MMM d, E – MMM d, E",
                  "d": "G y MMM d, E – MMM d, E",
                  "y": "G y MMM d, E – y MMM d, E"
                },
                "yMMMM": {
                  "M": "G y MMMM–MMMM",
                  "y": "G y MMMM – y MMMM"
                },
                "yMMMd": {
                  "M": "G y MMM d – MMM d",
                  "d": "G y MMM d–d",
                  "y": "G y MMM d – y MMM d"
                },
                "yMd": {
                  "M": "d/M/y – d/M/y G",
                  "d": "d/M/y – d/M/y GGGGG",
                  "y": "d/M/y – d/M/y G"
                }
              }
            }
          }
        }
      }
    }
  }
}
