{
  "main": {
    "sv-AX": {
      "identity": {
        "version": {
          "_cldrVersion": "26",
          "_number": "$Revision: 10819 $"
        },
        "generation": {
          "_date": "$Date: 2014-08-14 22:53:08 -0500 (Thu, 14 Aug 2014) $"
        },
        "language": "root",
        "territory": "AX"
      },
      "dates": {
        "calendars": {
          "islamic-umalqura": {
            "months": {
              "format": {
                "abbreviated": {
                  "1": "Muh.",
                  "2": "Saf.",
                  "3": "Rab. I",
                  "4": "Rab. II",
                  "5": "Jum. I",
                  "6": "Jum. II",
                  "7": "Raj.",
                  "8": "Sha.",
                  "9": "Ram.",
                  "10": "Shaw.",
                  "11": "Dhuʻl-Q.",
                  "12": "Dhuʻl-H."
                },
                "narrow": {
                  "1": "1",
                  "2": "2",
                  "3": "3",
                  "4": "4",
                  "5": "5",
                  "6": "6",
                  "7": "7",
                  "8": "8",
                  "9": "9",
                  "10": "10",
                  "11": "11",
                  "12": "12"
                },
                "wide": {
                  "1": "muharram",
                  "2": "safar",
                  "3": "rabi’ al-awwal",
                  "4": "rabi’ al-akhir",
                  "5": "jumada-l-ula",
                  "6": "jumada-l-akhira",
                  "7": "rajab",
                  "8": "sha’ban",
                  "9": "ramadan",
                  "10": "shawwal",
                  "11": "dhu-l-ga’da",
                  "12": "dhu-l-hijja"
                }
              },
              "stand-alone": {
                "abbreviated": {
                  "1": "Muh.",
                  "2": "Saf.",
                  "3": "Rab. I",
                  "4": "Rab. II",
                  "5": "Jum. I",
                  "6": "Jum. II",
                  "7": "Raj.",
                  "8": "Sha.",
                  "9": "Ram.",
                  "10": "Shaw.",
                  "11": "Dhuʻl-Q.",
                  "12": "Dhuʻl-H."
                },
                "narrow": {
                  "1": "1",
                  "2": "2",
                  "3": "3",
                  "4": "4",
                  "5": "5",
                  "6": "6",
                  "7": "7",
                  "8": "8",
                  "9": "9",
                  "10": "10",
                  "11": "11",
                  "12": "12"
                },
                "wide": {
                  "1": "Muharram",
                  "2": "Safar",
                  "3": "Rabi’ al-awwal",
                  "4": "Rabi’ al-akhir",
                  "5": "Jumada-l-ula",
                  "6": "Jumada-l-akhira",
                  "7": "Rajab",
                  "8": "Sha’ban",
                  "9": "Ramadan",
                  "10": "Shawwal",
                  "11": "Dhu-l-ga’da",
                  "12": "Dhu-l-hijja"
                }
              }
            },
            "days": {
              "format": {
                "abbreviated": {
                  "sun": "sön",
                  "mon": "mån",
                  "tue": "tis",
                  "wed": "ons",
                  "thu": "tors",
                  "fri": "fre",
                  "sat": "lör"
                },
                "narrow": {
                  "sun": "S",
                  "mon": "M",
                  "tue": "T",
                  "wed": "O",
                  "thu": "T",
                  "fri": "F",
                  "sat": "L"
                },
                "short": {
                  "sun": "sö",
                  "mon": "må",
                  "tue": "ti",
                  "wed": "on",
                  "thu": "to",
                  "fri": "fr",
                  "sat": "lö"
                },
                "wide": {
                  "sun": "söndag",
                  "mon": "måndag",
                  "tue": "tisdag",
                  "wed": "onsdag",
                  "thu": "torsdag",
                  "fri": "fredag",
                  "sat": "lördag"
                }
              },
              "stand-alone": {
                "abbreviated": {
                  "sun": "Sön",
                  "mon": "Mån",
                  "tue": "Tis",
                  "wed": "Ons",
                  "thu": "Tor",
                  "fri": "Fre",
                  "sat": "Lör"
                },
                "narrow": {
                  "sun": "S",
                  "mon": "M",
                  "tue": "T",
                  "wed": "O",
                  "thu": "T",
                  "fri": "F",
                  "sat": "L"
                },
                "short": {
                  "sun": "Sö",
                  "mon": "Må",
                  "tue": "Ti",
                  "wed": "On",
                  "thu": "To",
                  "fri": "Fr",
                  "sat": "Lö"
                },
                "wide": {
                  "sun": "Söndag",
                  "mon": "Måndag",
                  "tue": "Tisdag",
                  "wed": "Onsdag",
                  "thu": "Torsdag",
                  "fri": "Fredag",
                  "sat": "Lördag"
                }
              }
            },
            "quarters": {
              "format": {
                "abbreviated": {
                  "1": "K1",
                  "2": "K2",
                  "3": "K3",
                  "4": "K4"
                },
                "narrow": {
                  "1": "1",
                  "2": "2",
                  "3": "3",
                  "4": "4"
                },
                "wide": {
                  "1": "1:a kvartalet",
                  "2": "2:a kvartalet",
                  "3": "3:e kvartalet",
                  "4": "4:e kvartalet"
                }
              },
              "stand-alone": {
                "abbreviated": {
                  "1": "K1",
                  "2": "K2",
                  "3": "K3",
                  "4": "K4"
                },
                "narrow": {
                  "1": "1",
                  "2": "2",
                  "3": "3",
                  "4": "4"
                },
                "wide": {
                  "1": "1:a kvartalet",
                  "2": "2:a kvartalet",
                  "3": "3:e kvartalet",
                  "4": "4:e kvartalet"
                }
              }
            },
            "dayPeriods": {
              "format": {
                "abbreviated": {
                  "am": "FM",
                  "noon": "på dagen",
                  "pm": "EM"
                },
                "narrow": {
                  "am": "f",
                  "noon": "p.d.",
                  "pm": "e"
                },
                "wide": {
                  "am": "fm",
                  "noon": "på dagen",
                  "pm": "em"
                }
              },
              "stand-alone": {
                "abbreviated": {
                  "am": "fm",
                  "noon": "på dagen",
                  "pm": "em"
                },
                "narrow": {
                  "am": "f.m.",
                  "noon": "p.d.",
                  "pm": "e.m."
                },
                "wide": {
                  "am": "förmiddag",
                  "noon": "på dagen",
                  "pm": "eftermiddag"
                }
              }
            },
            "eras": {
              "eraNames": {
                "0": "AH"
              },
              "eraAbbr": {
                "0": "AH"
              },
              "eraNarrow": {
                "0": "AH"
              }
            },
            "dateFormats": {
              "full": "EEEE d MMMM y G",
              "long": "d MMMM y G",
              "medium": "d MMM y G",
              "short": "G y-MM-dd"
            },
            "timeFormats": {
              "full": "'kl'. HH:mm:ss zzzz",
              "long": "HH:mm:ss z",
              "medium": "HH:mm:ss",
              "short": "HH:mm"
            },
            "dateTimeFormats": {
              "full": "{1} {0}",
              "long": "{1} {0}",
              "medium": "{1} {0}",
              "short": "{1} {0}",
              "availableFormats": {
                "E": "ccc",
                "EHm": "E HH:mm",
                "EHms": "E HH:mm:ss",
                "Ed": "E d",
                "Ehm": "E h:mm a",
                "Ehms": "E h:mm:ss a",
                "Gy": "y G",
                "GyMMM": "MMM y G",
                "GyMMMEd": "E d MMM y G",
                "GyMMMd": "d MMM y G",
                "H": "HH",
                "Hm": "HH:mm",
                "Hms": "HH:mm:ss",
                "M": "L",
                "MEd": "E d/M",
                "MMM": "LLL",
                "MMMEd": "E d MMM",
                "MMMMEd": "E d MMMM",
                "MMMMd": "d MMMM",
                "MMMd": "d MMM",
                "MMd": "d/M",
                "MMdd": "dd/MM",
                "Md": "d/M",
                "d": "d",
                "h": "h a",
                "hm": "h:mm a",
                "hms": "h:mm:ss a",
                "ms": "mm:ss",
                "y": "y G",
                "yyyy": "y G",
                "yyyyM": "G y-MM",
                "yyyyMEd": "E, y-MM-dd G",
                "yyyyMM": "G y-MM",
                "yyyyMMM": "MMM y G",
                "yyyyMMMEd": "E d MMM y G",
                "yyyyMMMd": "d MMM y G",
                "yyyyMd": "G y-MM-dd",
                "yyyyQQQ": "G y QQQ",
                "yyyyQQQQ": "G y QQQQ"
              },
              "appendItems": {
                "Day": "{0} ({2}: {1})",
                "Day-Of-Week": "{0} {1}",
                "Era": "{1} {0}",
                "Hour": "{0} ({2}: {1})",
                "Minute": "{0} ({2}: {1})",
                "Month": "{0} ({2}: {1})",
                "Quarter": "{0} ({2}: {1})",
                "Second": "{0} ({2}: {1})",
                "Timezone": "{0} {1}",
                "Week": "{0} ({2}: {1})",
                "Year": "{1} {0}"
              },
              "intervalFormats": {
                "intervalFormatFallback": "{0} – {1}",
                "H": {
                  "H": "HH-HH"
                },
                "Hm": {
                  "H": "HH:mm–HH:mm",
                  "m": "HH:mm–HH:mm"
                },
                "Hmv": {
                  "H": "HH:mm–HH:mm v",
                  "m": "HH:mm–HH:mm v"
                },
                "Hv": {
                  "H": "HH–HH v"
                },
                "M": {
                  "M": "M–M"
                },
                "MEd": {
                  "M": "E d/M – E d/M",
                  "d": "E d/M – E d/M"
                },
                "MMM": {
                  "M": "MMM–MMM"
                },
                "MMMEd": {
                  "M": "E d MMM – E d MMM",
                  "d": "E d – E d MMM"
                },
                "MMMd": {
                  "M": "d MMM – d MMM",
                  "d": "d–d MMM"
                },
                "Md": {
                  "M": "d/M – d/M",
                  "d": "d–d/M"
                },
                "d": {
                  "d": "d–d"
                },
                "h": {
                  "a": "h a – h a",
                  "h": "h-h a"
                },
                "hm": {
                  "a": "h:mm a – h:mm a",
                  "h": "h:mm–h:mm a",
                  "m": "h:mm–h:mm a"
                },
                "hmv": {
                  "a": "h:mm a – h:mm a v",
                  "h": "h:mm–h:mm a v",
                  "m": "h:mm–h:mm a v"
                },
                "hv": {
                  "a": "h a – h a v",
                  "h": "h–h a v"
                },
                "y": {
                  "y": "y–y G"
                },
                "yM": {
                  "M": "G y-MM – MM",
                  "y": "G y-MM – y-MM"
                },
                "yMEd": {
                  "M": "E, y-MM-dd – E, y-MM-dd G",
                  "d": "E, y-MM-dd – E, y-MM-dd G",
                  "y": "E, y-MM-dd – E, y-MM-dd G"
                },
                "yMMM": {
                  "M": "MMM–MMM y G",
                  "y": "MMM y – MMM y G"
                },
                "yMMMEd": {
                  "M": "E dd MMM–E dd MMM y G",
                  "d": "E dd MMM–E dd MMM y G",
                  "y": "E dd MMM y–E dd MMM y G"
                },
                "yMMMM": {
                  "M": "MMMM–MMMM y G",
                  "y": "MMMM y – MMMM y G"
                },
                "yMMMd": {
                  "M": "d MMM–d MMM y G",
                  "d": "d–d MMM y G",
                  "y": "d MMM y–d MMM y G"
                },
                "yMd": {
                  "M": "G y-MM-dd – MM-dd",
                  "d": "G y-MM-dd – dd",
                  "y": "G y-MM-dd – y-MM-dd"
                }
              }
            }
          }
        }
      }
    }
  }
}
