{
  "main": {
    "sv-AX": {
      "identity": {
        "version": {
          "_cldrVersion": "26",
          "_number": "$Revision: 10819 $"
        },
        "generation": {
          "_date": "$Date: 2014-08-14 22:53:08 -0500 (Thu, 14 Aug 2014) $"
        },
        "language": "root",
        "territory": "AX"
      },
      "localeDisplayNames": {
        "languages": {
          "aa": "afar",
          "ab": "abchaziska",
          "ace": "acehnesiska",
          "ach": "acholi",
          "ada": "adangme",
          "ady": "adygeiska",
          "ae": "avestiska",
          "aeb": "tunisisk arabiska",
          "af": "afrikaans",
          "afh": "afrihili",
          "agq": "aghem",
          "ain": "ainu",
          "ak": "akan",
          "akk": "akkadiska",
          "akz": "akz",
          "ale": "aleutiska",
          "aln": "gegiska",
          "alt": "sydaltaiska",
          "am": "amhariska",
          "an": "aragonesiska",
          "ang": "fornengelska",
          "anp": "angika",
          "ar": "arabiska",
          "ar-001": "modern standardarabiska",
          "arc": "arameiska",
          "arn": "araukanska",
          "aro": "araoniska",
          "arp": "arapaho",
          "arq": "algerisk arabiska",
          "arw": "arawakiska",
          "ary": "marockansk arabiska",
          "arz": "egyptisk arabiska",
          "as": "assamesiska",
          "asa": "asu",
          "ase": "amerikanskt teckenspråk",
          "ast": "asturiska",
          "av": "avariska",
          "avk": "kotava",
          "awa": "awadhi",
          "ay": "aymara",
          "az": "azerbajdzjanska",
          "az-alt-short": "azeriska",
          "azb": "sydazerbadjanska",
          "ba": "basjkiriska",
          "bal": "baluchiska",
          "ban": "balinesiska",
          "bar": "bayerska",
          "bas": "basa",
          "bax": "bamunska",
          "bbc": "bbc",
          "bbj": "ghomala",
          "be": "vitryska",
          "bej": "beja",
          "bem": "bemba",
          "bew": "betawiska",
          "bez": "bena",
          "bfd": "bafut",
          "bfq": "bagada",
          "bg": "bulgariska",
          "bho": "bhojpuri",
          "bi": "bislama",
          "bik": "bikol",
          "bin": "bini",
          "bjn": "banjariska",
          "bkm": "bamekon",
          "bla": "siksika",
          "bm": "bambara",
          "bn": "bengali",
          "bo": "tibetanska",
          "bpy": "bishnupriya",
          "bqi": "bakhtiari",
          "br": "bretonska",
          "bra": "braj",
          "brh": "brahuiska",
          "brx": "bodo",
          "bs": "bosniska",
          "bss": "bakossi",
          "bua": "burjätiska",
          "bug": "buginesiska",
          "bum": "boulou",
          "byn": "blin",
          "byv": "bagangte",
          "ca": "katalanska",
          "cad": "caddo",
          "car": "karibiska",
          "cay": "cayuga",
          "cch": "atsam",
          "ce": "tjetjenska",
          "ceb": "cebuano",
          "cgg": "chiga",
          "ch": "chamorro",
          "chb": "chibcha",
          "chg": "chagatai",
          "chk": "chuukesiska",
          "chm": "mariska",
          "chn": "chinook",
          "cho": "choctaw",
          "chp": "chipewyan",
          "chr": "cherokesiska",
          "chy": "cheyenne",
          "ckb": "soranisk kurdiska",
          "co": "korsikanska",
          "cop": "koptiska",
          "cps": "cps",
          "cr": "cree",
          "crh": "krimtatariska",
          "cs": "tjeckiska",
          "csb": "kasjubiska",
          "cu": "kyrkslaviska",
          "cv": "tjuvasjiska",
          "cy": "walesiska",
          "da": "danska",
          "dak": "dakota",
          "dar": "darginska",
          "dav": "taita",
          "de": "tyska",
          "de-AT": "österrikisk tyska",
          "de-CH": "schweizisk högtyska",
          "del": "delaware",
          "den": "slavej",
          "dgr": "dogrib",
          "din": "dinka",
          "dje": "zarma",
          "doi": "dogri",
          "dsb": "lågsorbiska",
          "dtp": "dtp",
          "dua": "duala",
          "dum": "medelnederländska",
          "dv": "divehi",
          "dyo": "jola-fonyi",
          "dyu": "dyula",
          "dz": "bhutanesiska",
          "dzg": "dazaga",
          "ebu": "embu",
          "ee": "ewe",
          "efi": "efik",
          "egl": "emiliska",
          "egy": "fornegyptiska",
          "eka": "ekajuk",
          "el": "grekiska",
          "elx": "elamitiska",
          "en": "engelska",
          "en-AU": "australisk engelska",
          "en-CA": "kanadensisk engelska",
          "en-GB": "brittisk engelska",
          "en-GB-alt-short": "engelska (UK)",
          "en-US": "amerikansk engelska",
          "en-US-alt-short": "en_US",
          "enm": "medelengelska",
          "eo": "esperanto",
          "es": "spanska",
          "es-419": "latinamerikansk spanska",
          "es-ES": "europeisk spanska",
          "es-MX": "mexikansk spanska",
          "esu": "esu",
          "et": "estniska",
          "eu": "baskiska",
          "ewo": "ewondo",
          "ext": "ext",
          "fa": "persiska",
          "fan": "fang",
          "fat": "fanti",
          "ff": "fulani",
          "fi": "finska",
          "fil": "filippinska",
          "fit": "meänkieli",
          "fj": "fijianska",
          "fo": "färöiska",
          "fon": "fonspråket",
          "fr": "franska",
          "fr-CA": "kanadensisk franska",
          "fr-CH": "schweizisk franska",
          "frc": "cajun-franska",
          "frm": "medelfranska",
          "fro": "fornfranska",
          "frp": "frankoprovensalska",
          "frr": "nordfrisiska",
          "frs": "östfrisiska",
          "fur": "friulianska",
          "fy": "västfrisiska",
          "ga": "iriska",
          "gaa": "gã",
          "gag": "gagauziska",
          "gan": "gan",
          "gay": "gayo",
          "gba": "gbaya",
          "gbz": "zoroastrisk dari",
          "gd": "höglandsskotska",
          "gez": "etiopiska",
          "gil": "gilbertiska",
          "gl": "galiciska",
          "glk": "gilaki",
          "gmh": "medelhögtyska",
          "gn": "guaraní",
          "goh": "fornhögtyska",
          "gom": "Goa-konkani",
          "gon": "gondi",
          "gor": "gorontalo",
          "got": "gotiska",
          "grb": "grebo",
          "grc": "forngrekiska",
          "gsw": "schweizertyska",
          "gu": "gujarati",
          "guc": "guc",
          "gur": "gur",
          "guz": "gusii",
          "gv": "manx",
          "gwi": "gwichin",
          "ha": "hausa",
          "hai": "haida",
          "hak": "hakka",
          "haw": "hawaiiska",
          "he": "hebreiska",
          "hi": "hindi",
          "hif": "Fiji-hindi",
          "hil": "hiligaynon",
          "hit": "hettitiska",
          "hmn": "hmongspråk",
          "ho": "hirimotu",
          "hr": "kroatiska",
          "hsb": "högsorbiska",
          "hsn": "xiang",
          "ht": "haitiska",
          "hu": "ungerska",
          "hup": "hupa",
          "hy": "armeniska",
          "hz": "herero",
          "ia": "interlingua",
          "iba": "ibanska",
          "ibb": "ibibio",
          "id": "indonesiska",
          "ie": "interlingue",
          "ig": "igbo",
          "ii": "szezuan i",
          "ik": "inupiak",
          "ilo": "iloko",
          "inh": "ingusjiska",
          "io": "ido",
          "is": "isländska",
          "it": "italienska",
          "iu": "inuktitut",
          "izh": "ingriska",
          "ja": "japanska",
          "jam": "jamaikansk engelsk kreol",
          "jbo": "lojban",
          "jgo": "ngomba",
          "jmc": "kimashami",
          "jpr": "judisk persiska",
          "jrb": "judisk arabiska",
          "jut": "jylländska",
          "jv": "javanesiska",
          "ka": "georgiska",
          "kaa": "karakalpakiska",
          "kab": "kabyliska",
          "kac": "kachin",
          "kaj": "jju",
          "kam": "kamba",
          "kaw": "kawi",
          "kbd": "kabardinska",
          "kbl": "kanembu",
          "kcg": "tyap",
          "kde": "makonde",
          "kea": "kapverdiska",
          "ken": "ken",
          "kfo": "koro",
          "kg": "kikongo",
          "kgp": "kgp",
          "kha": "khasi",
          "kho": "khotanesiska",
          "khq": "Timbuktu-songhoy",
          "khw": "khowar",
          "ki": "kikuyu",
          "kiu": "kiu",
          "kj": "kuanyama",
          "kk": "kazakiska",
          "kkj": "mkako",
          "kl": "grönländska",
          "kln": "kalenjin",
          "km": "kambodjanska",
          "kmb": "kimbundu",
          "kn": "kannada",
          "ko": "koreanska",
          "koi": "komi-permjakiska",
          "kok": "konkani",
          "kos": "kosreanska",
          "kpe": "kpelle",
          "kr": "kanuri",
          "krc": "karachay-balkar",
          "kri": "kri",
          "krj": "krj",
          "krl": "karelska",
          "kru": "kurukh",
          "ks": "kashmiriska",
          "ksb": "kisambaa",
          "ksf": "bafia",
          "ksh": "kölniska",
          "ku": "kurdiska",
          "kum": "kumykiska",
          "kut": "kutenaj",
          "kv": "kome",
          "kw": "korniska",
          "ky": "kirgisiska",
          "la": "latin",
          "lad": "ladino",
          "lag": "langi",
          "lah": "lahnda",
          "lam": "lamba",
          "lb": "luxemburgiska",
          "lez": "lezghien",
          "lfn": "lfn",
          "lg": "luganda",
          "li": "limburgiska",
          "lij": "liguriska",
          "liv": "livoniska",
          "lkt": "lakota",
          "lmo": "lombardiska",
          "ln": "lingala",
          "lo": "laotiska",
          "lol": "mongo",
          "loz": "lozi",
          "lt": "litauiska",
          "ltg": "lettgalliska",
          "lu": "luba-katanga",
          "lua": "luba-lulua",
          "lui": "luiseño",
          "lun": "lunda",
          "luo": "luo",
          "lus": "lushai",
          "luy": "luhya",
          "lv": "lettiska",
          "lzh": "lzh",
          "lzz": "lzz",
          "mad": "maduresiska",
          "maf": "mafa",
          "mag": "magahi",
          "mai": "maithili",
          "mak": "makasar",
          "man": "mande",
          "mas": "massajiska",
          "mde": "maba",
          "mdf": "moksja",
          "mdr": "mandar",
          "men": "mende",
          "mer": "meru",
          "mfe": "mauritansk kreol",
          "mg": "malagassiska",
          "mga": "medeliriska",
          "mgh": "makhuwa-meetto",
          "mgo": "meta’",
          "mh": "marshalliska",
          "mi": "maori",
          "mic": "mi’kmaq",
          "min": "minangkabau",
          "mk": "makedonska",
          "ml": "malayalam",
          "mn": "mongoliska",
          "mnc": "manchuriska",
          "mni": "manipuri",
          "moh": "mohawk",
          "mos": "mossi",
          "mr": "marathi",
          "mrj": "västmariska",
          "ms": "malajiska",
          "mt": "maltesiska",
          "mua": "mundang",
          "mul": "flera språk",
          "mus": "muskogee",
          "mwl": "mirandesiska",
          "mwr": "marwari",
          "mwv": "mwv",
          "my": "burmesiska",
          "mye": "myene",
          "myv": "erjya",
          "mzn": "mazanderani",
          "na": "nauru",
          "nan": "min nan",
          "nap": "napolitanska",
          "naq": "nama",
          "nb": "norskt bokmål",
          "nd": "nordndebele",
          "nds": "lågtyska",
          "ne": "nepalesiska",
          "new": "newariska",
          "ng": "ndonga",
          "nia": "nias",
          "niu": "niueanska",
          "njo": "njo",
          "nl": "nederländska",
          "nl-BE": "flamländska",
          "nmg": "kwasio",
          "nn": "nynorska",
          "nnh": "bamileké-ngiemboon",
          "no": "norska",
          "nog": "nogai",
          "non": "fornnordiska",
          "nov": "nov",
          "nqo": "n-kå",
          "nr": "sydndebele",
          "nso": "nordsotho",
          "nus": "nuer",
          "nv": "navaho",
          "nwc": "klassisk newariska",
          "ny": "nyanja",
          "nym": "nyamwezi",
          "nyn": "nyankole",
          "nyo": "nyoro",
          "nzi": "nzima",
          "oc": "occitanska",
          "oj": "odjibwa",
          "om": "oromo",
          "or": "oriya",
          "os": "ossetiska",
          "osa": "osage",
          "ota": "ottomanska",
          "pa": "punjabi",
          "pag": "pangasinan",
          "pal": "medelpersiska",
          "pam": "pampanga",
          "pap": "papiamento",
          "pau": "palau",
          "pcd": "pikardiska",
          "pdc": "Pennsylvaniatyska",
          "pdt": "mennonitisk lågtyska",
          "peo": "fornpersiska",
          "pfl": "Pfalz-tyska",
          "phn": "feniciska",
          "pi": "pali",
          "pl": "polska",
          "pms": "piemontesiska",
          "pnt": "pontiska",
          "pon": "ponape",
          "prg": "fornpreussiska",
          "pro": "fornprovensalska",
          "ps": "afghanska",
          "ps-alt-variant": "pashto",
          "pt": "portugisiska",
          "pt-BR": "brasiliansk portugisiska",
          "pt-PT": "europeisk portugisiska",
          "qu": "quechua",
          "quc": "kʼicheʼ",
          "qug": "Chimborazo-höglandskichwa",
          "raj": "rajasthani",
          "rap": "rapanui",
          "rar": "rarotonganska",
          "rgn": "romagnol",
          "rif": "riffianska",
          "rm": "rätoromanska",
          "rn": "rundi",
          "ro": "rumänska",
          "ro-MD": "moldaviska",
          "rof": "rombo",
          "rom": "romani",
          "root": "rot",
          "rtm": "rotumänska",
          "ru": "ryska",
          "rue": "rusyn",
          "rug": "rovianska",
          "rup": "arumänska",
          "rw": "kinjarwanda",
          "rwk": "rwa",
          "sa": "sanskrit",
          "sad": "sandawe",
          "sah": "jakutiska",
          "sam": "samaritanska",
          "saq": "samburu",
          "sas": "sasak",
          "sat": "santali",
          "saz": "saurashtra",
          "sba": "ngambay",
          "sbp": "sangu",
          "sc": "sardiska",
          "scn": "sicilianska",
          "sco": "skotska",
          "sd": "sindhi",
          "sdc": "sassaresisk sardiska",
          "se": "nordsamiska",
          "see": "seneca",
          "seh": "sena",
          "sei": "sei",
          "sel": "selkup",
          "ses": "Gao-songhay",
          "sg": "sango",
          "sga": "forniriska",
          "sgs": "samogitiska",
          "sh": "serbokroatiska",
          "shi": "tachelhit",
          "shn": "shan",
          "shu": "Chad-arabiska",
          "si": "singalesiska",
          "sid": "sidamo",
          "sk": "slovakiska",
          "sl": "slovenska",
          "sli": "lågsilesiska",
          "sly": "sly",
          "sm": "samoanska",
          "sma": "sydsamiska",
          "smj": "lulesamiska",
          "smn": "enaresamiska",
          "sms": "skoltsamiska",
          "sn": "shona",
          "snk": "soninke",
          "so": "somaliska",
          "sog": "sogdiska",
          "sq": "albanska",
          "sr": "serbiska",
          "srn": "sranan tongo",
          "srr": "serer",
          "ss": "swati",
          "ssy": "saho",
          "st": "sydsotho",
          "stq": "saterfrisiska",
          "su": "sundanesiska",
          "suk": "sukuma",
          "sus": "susu",
          "sux": "sumeriska",
          "sv": "svenska",
          "sw": "swahili",
          "swb": "shimaoré",
          "swc": "Kongo-swahili",
          "syc": "klassisk syriska",
          "syr": "syriska",
          "szl": "silesiska",
          "ta": "tamil",
          "tcy": "tulu",
          "te": "telugiska",
          "tem": "temne",
          "teo": "teso",
          "ter": "tereno",
          "tet": "tetum",
          "tg": "tadzjikiska",
          "th": "thailändska",
          "ti": "tigrinja",
          "tig": "tigré",
          "tiv": "tivi",
          "tk": "turkmeniska",
          "tkl": "tokelauiska",
          "tkr": "tkr",
          "tl": "tagalog",
          "tlh": "klingonska",
          "tli": "tlingit",
          "tly": "talysh",
          "tmh": "tamashek",
          "tn": "tswana",
          "to": "tonganska",
          "tog": "nyasatonganska",
          "tpi": "tok pisin",
          "tr": "turkiska",
          "tru": "tru",
          "trv": "taroko",
          "ts": "tsonga",
          "tsd": "tsakodiska",
          "tsi": "tsimshian",
          "tt": "tatariska",
          "ttt": "ttt",
          "tum": "tumbuka",
          "tvl": "tuvaluanska",
          "tw": "twi",
          "twq": "tasawaq",
          "ty": "tahitiska",
          "tyv": "tuviniska",
          "tzm": "centralmarockansk tamazight",
          "udm": "udmurtiska",
          "ug": "uiguriska",
          "ug-alt-variant": "östturkiska",
          "uga": "ugaritiska",
          "uk": "ukrainska",
          "umb": "umbundu",
          "und": "obestämt språk",
          "ur": "urdu",
          "uz": "uzbekiska",
          "vai": "vaj",
          "ve": "venda",
          "vec": "venetianska",
          "vep": "veps",
          "vi": "vietnamesiska",
          "vls": "västflamländska",
          "vmf": "Main-frankiska",
          "vo": "volapük",
          "vot": "votiska",
          "vro": "võru",
          "vun": "vunjo",
          "wa": "vallonska",
          "wae": "walsertyska",
          "wal": "walamo",
          "war": "waray",
          "was": "washo",
          "wo": "wolof",
          "wuu": "wu",
          "xal": "kalmuckiska",
          "xh": "xhosa",
          "xmf": "xmf",
          "xog": "lusoga",
          "yao": "kiyao",
          "yap": "japetiska",
          "yav": "yangben",
          "ybb": "bamileké-jemba",
          "yi": "jiddisch",
          "yo": "yoruba",
          "yrl": "yrl",
          "yue": "kantonesiska",
          "za": "zhuang",
          "zap": "zapotek",
          "zbl": "blissymboler",
          "zea": "zeeländska",
          "zen": "zenaga",
          "zgh": "marockansk standard-tamazight",
          "zh": "kinesiska",
          "zh-Hans": "förenklad kinesiska",
          "zh-Hant": "traditionell kinesiska",
          "zu": "zulu",
          "zun": "zuni",
          "zxx": "inget språkligt innehåll",
          "zza": "zazaiska"
        }
      }
    }
  }
}
