{
  "main": {
    "ta-SG": {
      "identity": {
        "version": {
          "_cldrVersion": "26",
          "_number": "$Revision: 10669 $"
        },
        "generation": {
          "_date": "$Date: 2014-07-23 16:10:33 -0500 (Wed, 23 Jul 2014) $"
        },
        "language": "root",
        "territory": "SG"
      },
      "localeDisplayNames": {
        "localeDisplayPattern": {
          "localePattern": "{0} ({1})",
          "localeSeparator": "{0}, {1}",
          "localeKeyTypePattern": "{0}: {1}"
        },
        "keys": {
          "calendar": "நாள்காட்டி",
          "colAlternate": "சின்னங்கள் வரிசைப்படுத்தலைப் புறக்கணி",
          "colBackwards": "நேர்மறையான உச்சரிப்பு வரிசைபடுத்துதல்",
          "colCaseFirst": "பெரெழுத்து/சிற்றெழுத்து வரிசைமுறை",
          "colCaseLevel": "எழுத்து உணர்ந்து வரிசைபடுத்துதல்",
          "colHiraganaQuaternary": "கானா வரிசைபடுத்துதல்",
          "colNormalization": "இயல்பாக்கப்பட்ட வரிசைபடுத்துதல்",
          "colNumeric": "எண்முறை வரிசைபடுத்துதல்",
          "colStrength": "வரிசைப்படுத்தல் வலிமை",
          "collation": "வரிசைப்படுத்தல் முறை",
          "currency": "நாணயம்",
          "numbers": "எண்கள்",
          "timezone": "நேர மண்டலம்",
          "va": "மொழி மாறிலி",
          "variableTop": "சின்னங்களாக வரிசைப்படுத்து",
          "x": "தனிப்பட்ட பயன்"
        },
        "types": {
          "numbers": {
            "arab": "அரபிய-இந்திய இலக்கங்கள்",
            "arabext": "நீட்டிக்கப்பட்ட அரபிய-இந்திய இலக்கங்கள்",
            "armn": "ஆர்மேனியன் எண்கள்",
            "armnlow": "ஆர்மேனியன் சிற்றெழுத்து எண்கள்",
            "bali": "bali",
            "beng": "பெங்காலி இலக்கங்கள்"
          },
          "collation": {
            "big5han": "பாரம்பரிய சீன வரிசை வடிவம் - Big5"
          },
          "numbers": {
            "brah": "brah"
          },
          "calendar": {
            "buddhist": "புத்த நாள்காட்டி"
          },
          "numbers": {
            "cakm": "cakm",
            "cham": "cham"
          },
          "calendar": {
            "chinese": "சீன நாள்காட்டி",
            "coptic": "காப்டிக் நாள்காட்டி",
            "dangi": "டேங்கி நாள்காட்டி"
          },
          "numbers": {
            "deva": "தேவநாகரி இலக்கங்கள்"
          },
          "collation": {
            "dictionary": "அகராதி வரிசை முறை",
            "ducet": "இயல்புநிலை யுனிகோட் வரிசை முறை",
            "eor": "eor"
          },
          "numbers": {
            "ethi": "எத்தியோப்பிக் எண்கள்"
          },
          "calendar": {
            "ethiopic": "எத்தியோப்பிக் நாள்காட்டி",
            "ethiopic-amete-alem": "எத்தியோபிக் அமேதே ஆலெம் நாள்காட்டி"
          },
          "numbers": {
            "finance": "நிதி எண்கள்",
            "fullwide": "முழு அகல இலக்கங்கள்"
          },
          "collation": {
            "gb2312han": "எளிமையாக்கப்பட்ட சீன வரிசை வடிவம் - GB2312"
          },
          "numbers": {
            "geor": "ஜியாரிஜியன் எண்கள்"
          },
          "calendar": {
            "gregorian": "கிரிகோரியன் நாள்காட்டி"
          },
          "numbers": {
            "grek": "கிரீக் எண்கள்",
            "greklow": "கிரீக் சிறியஎழுத்து எண்கள்",
            "gujr": "குஜராத்தி இலக்கங்கள்",
            "guru": "குர்முகி இலக்கங்கள்",
            "hanidec": "சீன பின்ன எண்கள்",
            "hans": "எளிதாக்கப்பட்ட சீன எண்கள்",
            "hansfin": "எளிதாக்கப்பட்ட சீன நிதி எண்கள்",
            "hant": "பாரம்பரிய சீன எண்கள்",
            "hantfin": "பாரம்பரிய சீன நிதி எண்கள்",
            "hebr": "ஹீப்ரு எண்கள்"
          },
          "calendar": {
            "hebrew": "ஹீப்ரு நாள்காட்டி"
          },
          "colStrength": {
            "identical": "அனைத்தையும் வரிசைப்படுத்து"
          },
          "calendar": {
            "indian": "இந்திய தேச நாள்காட்டி",
            "islamic": "இஸ்லாமிய நாள்காட்டி",
            "islamic-civil": "இஸ்லாமிய சிவில் நாள்காட்டி",
            "islamic-rgsa": "islamic-rgsa",
            "islamic-tbla": "islamic-tbla",
            "islamic-umalqura": "islamic-umalqura",
            "iso8601": "ISO-8601 நாள்காட்டி",
            "japanese": "ஜப்பானிய நாள்காட்டி"
          },
          "numbers": {
            "java": "java",
            "jpan": "ஜப்பானிய எண்கள்",
            "jpanfin": "ஜப்பானிய நிதி எண்கள்",
            "kali": "kali",
            "khmr": "கெமெர் இலக்கங்கள்",
            "knda": "கன்னட இலக்கங்கள்",
            "lana": "lana",
            "lanatham": "lanatham",
            "laoo": "லாவோ இலக்கங்கள்",
            "latn": "மேற்கத்திய இலக்கங்கள்",
            "lepc": "lepc",
            "limb": "limb"
          },
          "colCaseFirst": {
            "lower": "முதலில் சிற்றெழுத்துகளை வரிசைப்படுத்து"
          },
          "numbers": {
            "mlym": "மலையாள இலக்கங்கள்",
            "mong": "மங்கோலியன் இலக்கங்கள்",
            "mtei": "mtei",
            "mymr": "மியான்மர் இலக்கங்கள்",
            "mymrshan": "mymrshan",
            "native": "சொந்த இலக்கங்கள்",
            "nkoo": "nkoo"
          },
          "colBackwards": {
            "no": "உச்சரிப்புகளை இயல்பாக வரிசைபடுத்து"
          },
          "colCaseFirst": {
            "no": "இயல்பான எழுத்து வடிவில் வரிசைபடுத்து"
          },
          "colCaseLevel": {
            "no": "எழுத்து உணர்வின்றி வரிசைபடுத்து"
          },
          "colHiraganaQuaternary": {
            "no": "கானாவை தனியாக வரிசைப்படுத்து"
          },
          "colNormalization": {
            "no": "இயல்பாக்கம் இல்லாமல் வரிசைபடுத்து"
          },
          "colNumeric": {
            "no": "இலக்கங்களை, தனியாக வரிசைப்படுத்து"
          },
          "colAlternate": {
            "non-ignorable": "சின்னங்களை வரிசைப்படுத்து"
          },
          "numbers": {
            "olck": "olck",
            "orya": "ஒரியா இலக்கங்கள்",
            "osma": "osma"
          },
          "calendar": {
            "persian": "பெர்சியன் நாள்காட்டி"
          },
          "collation": {
            "phonebook": "தொலைபேசி புத்தக வரிசை முறை",
            "phonetic": "ஒலியியல் வரிசைப்படுத்தல் முறை",
            "pinyin": "பின்யின் வரிசை முறை"
          },
          "colStrength": {
            "primary": "அடிப்படை எழுத்துகளை மட்டும் வரிசைபடுத்து",
            "quaternary": "உச்சரிப்புகள்/எழுத்து/அகலம்/கானாவை வரிசைப்படுத்து"
          },
          "collation": {
            "reformed": "சீர்திருத்தப்பட்ட வரிசை முறை"
          },
          "calendar": {
            "roc": "மின்கோ நாள்காட்டி"
          },
          "numbers": {
            "roman": "ரோமன் எண்கள்",
            "romanlow": "சிறிய ரோமானிய எண்கள்",
            "saur": "saur"
          },
          "collation": {
            "search": "பொதுப்படையான தேடல்",
            "searchjl": "ஹங்குல் முதன்மை மெய்யெழுத்தின்படி தேடு"
          },
          "colStrength": {
            "secondary": "உச்சரிப்புகளை வரிசைபடுத்து"
          },
          "colAlternate": {
            "shifted": "சின்னங்களைப் புறக்கணித்து வரிசைப்படுத்து"
          },
          "numbers": {
            "shrd": "shrd",
            "sora": "sora"
          },
          "collation": {
            "standard": "நிலையான வரிசை முறை",
            "stroke": "ஸ்ட்ரோக் வரிசை முறை"
          },
          "numbers": {
            "sund": "sund",
            "takr": "takr",
            "talu": "talu",
            "taml": "பாரம்பரிய தமிழ் எண்கள்",
            "tamldec": "தமிழ் இலக்கங்கள்",
            "telu": "தெலுங்கு இலக்கங்கள்"
          },
          "colStrength": {
            "tertiary": "உச்சரிப்புகள்/எழுத்து/அகலத்தை வரிசைப்படுத்து"
          },
          "numbers": {
            "thai": "தாய் இலக்கங்கள்",
            "tibt": "திபெத்தியன் எண்கள்"
          },
          "collation": {
            "traditional": "பாரம்பரிய வரிசை முறை"
          },
          "numbers": {
            "traditional": "பாரம்பரிய எண்கள்"
          },
          "collation": {
            "unihan": "ரேடியன் ஸ்ட்ரோக் வரிசை முறை"
          },
          "colCaseFirst": {
            "upper": "முதலில் பேரெழுத்துகளை வரிசைப்படுத்து"
          },
          "numbers": {
            "vaii": "வை எண்கள்"
          },
          "colBackwards": {
            "yes": "உச்சரிப்புகளை நேர்மறையாக வரிசைபடுத்து"
          },
          "colCaseLevel": {
            "yes": "எழுத்து உணர்வில் வரிசைபடுத்து"
          },
          "colHiraganaQuaternary": {
            "yes": "கானாவை வேறுபட்டதாக வரிசைப்படுத்து"
          },
          "colNormalization": {
            "yes": "இயல்பாக்கப்பட்ட யூனிகோடை வரிசைப்படுத்து"
          },
          "colNumeric": {
            "yes": "இலக்கங்களை எண்களாக வரிசைப்படுத்து"
          },
          "collation": {
            "zhuyin": "zhuyin"
          }
        },
        "codePatterns": {
          "language": "மொழி: {0}",
          "script": "எழுத்து: {0}",
          "territory": "பிரதேசம்: {0}"
        }
      }
    }
  }
}
