{
  "main": {
    "ta-SG": {
      "identity": {
        "version": {
          "_cldrVersion": "26",
          "_number": "$Revision: 10669 $"
        },
        "generation": {
          "_date": "$Date: 2014-07-23 16:10:33 -0500 (Wed, 23 Jul 2014) $"
        },
        "language": "root",
        "territory": "SG"
      },
      "localeDisplayNames": {
        "transformNames": {
          "BGN": "BGN",
          "Numeric": "எண்",
          "Tone": "டோன்",
          "UNGEGN": "UNGEGN",
          "x-Accents": "ஒலிப்புகள்",
          "x-Fullwidth": "முழு அகலம்",
          "x-Halfwidth": "அரை அகலம்",
          "x-Jamo": "ஜமோ",
          "x-Pinyin": "பின்யின்",
          "x-Publishing": "வெளியிடுகிறது"
        }
      }
    }
  }
}
