{
  "main": {
    "ig": {
      "identity": {
        "version": {
          "_cldrVersion": "26",
          "_number": "$Revision: 10739 $"
        },
        "generation": {
          "_date": "$Date: 2014-08-07 12:54:13 -0500 (Thu, 07 Aug 2014) $"
        },
        "language": "ig"
      },
      "dates": {
        "calendars": {
          "buddhist": {
            "months": {
              "format": {
                "abbreviated": {
                  "1": "Jen",
                  "2": "Feb",
                  "3": "Maa",
                  "4": "Epr",
                  "5": "Mee",
                  "6": "Juu",
                  "7": "Jul",
                  "8": "Ọgọ",
                  "9": "Sep",
                  "10": "Ọkt",
                  "11": "Nov",
                  "12": "Dis"
                },
                "narrow": {
                  "1": "1",
                  "2": "2",
                  "3": "3",
                  "4": "4",
                  "5": "5",
                  "6": "6",
                  "7": "7",
                  "8": "8",
                  "9": "9",
                  "10": "10",
                  "11": "11",
                  "12": "12"
                },
                "wide": {
                  "1": "Jenụwarị",
                  "2": "Febrụwarị",
                  "3": "Maachị",
                  "4": "Eprel",
                  "5": "Mee",
                  "6": "Juun",
                  "7": "Julaị",
                  "8": "Ọgọọst",
                  "9": "Septemba",
                  "10": "Ọktoba",
                  "11": "Novemba",
                  "12": "Disemba"
                }
              },
              "stand-alone": {
                "abbreviated": {
                  "1": "Jen",
                  "2": "Feb",
                  "3": "Maa",
                  "4": "Epr",
                  "5": "Mee",
                  "6": "Juu",
                  "7": "Jul",
                  "8": "Ọgọ",
                  "9": "Sep",
                  "10": "Ọkt",
                  "11": "Nov",
                  "12": "Dis"
                },
                "narrow": {
                  "1": "1",
                  "2": "2",
                  "3": "3",
                  "4": "4",
                  "5": "5",
                  "6": "6",
                  "7": "7",
                  "8": "8",
                  "9": "9",
                  "10": "10",
                  "11": "11",
                  "12": "12"
                },
                "wide": {
                  "1": "Jenụwarị",
                  "2": "Febrụwarị",
                  "3": "Maachị",
                  "4": "Eprel",
                  "5": "Mee",
                  "6": "Juun",
                  "7": "Julaị",
                  "8": "Ọgọọst",
                  "9": "Septemba",
                  "10": "Ọktoba",
                  "11": "Novemba",
                  "12": "Disemba"
                }
              }
            },
            "days": {
              "format": {
                "abbreviated": {
                  "sun": "Ụka",
                  "mon": "Mọn",
                  "tue": "Tiu",
                  "wed": "Wen",
                  "thu": "Tọọ",
                  "fri": "Fraị",
                  "sat": "Sat"
                },
                "narrow": {
                  "sun": "S",
                  "mon": "M",
                  "tue": "T",
                  "wed": "W",
                  "thu": "T",
                  "fri": "F",
                  "sat": "S"
                },
                "short": {
                  "sun": "Ụka",
                  "mon": "Mọn",
                  "tue": "Tiu",
                  "wed": "Wen",
                  "thu": "Tọọ",
                  "fri": "Fraị",
                  "sat": "Sat"
                },
                "wide": {
                  "sun": "Mbọsị Ụka",
                  "mon": "Mọnde",
                  "tue": "Tiuzdee",
                  "wed": "Wenezdee",
                  "thu": "Tọọzdee",
                  "fri": "Fraịdee",
                  "sat": "Satọdee"
                }
              },
              "stand-alone": {
                "abbreviated": {
                  "sun": "Ụka",
                  "mon": "Mọn",
                  "tue": "Tiu",
                  "wed": "Wen",
                  "thu": "Tọọ",
                  "fri": "Fraị",
                  "sat": "Sat"
                },
                "narrow": {
                  "sun": "S",
                  "mon": "M",
                  "tue": "T",
                  "wed": "W",
                  "thu": "T",
                  "fri": "F",
                  "sat": "S"
                },
                "short": {
                  "sun": "Ụka",
                  "mon": "Mọn",
                  "tue": "Tiu",
                  "wed": "Wen",
                  "thu": "Tọọ",
                  "fri": "Fraị",
                  "sat": "Sat"
                },
                "wide": {
                  "sun": "Mbọsị Ụka",
                  "mon": "Mọnde",
                  "tue": "Tiuzdee",
                  "wed": "Wenezdee",
                  "thu": "Tọọzdee",
                  "fri": "Fraịdee",
                  "sat": "Satọdee"
                }
              }
            },
            "quarters": {
              "format": {
                "abbreviated": {
                  "1": "Ọ1",
                  "2": "Ọ2",
                  "3": "Ọ3",
                  "4": "Ọ4"
                },
                "narrow": {
                  "1": "1",
                  "2": "2",
                  "3": "3",
                  "4": "4"
                },
                "wide": {
                  "1": "Ọkara 1",
                  "2": "Ọkara 2",
                  "3": "Ọkara 3",
                  "4": "Ọkara 4"
                }
              },
              "stand-alone": {
                "abbreviated": {
                  "1": "Ọ1",
                  "2": "Ọ2",
                  "3": "Ọ3",
                  "4": "Ọ4"
                },
                "narrow": {
                  "1": "1",
                  "2": "2",
                  "3": "3",
                  "4": "4"
                },
                "wide": {
                  "1": "Ọkara 1",
                  "2": "Ọkara 2",
                  "3": "Ọkara 3",
                  "4": "Ọkara 4"
                }
              }
            },
            "dayPeriods": {
              "format": {
                "abbreviated": {
                  "am": "A.M.",
                  "noon": "noon",
                  "pm": "P.M."
                },
                "narrow": {
                  "am": "a",
                  "noon": "n",
                  "pm": "p"
                },
                "wide": {
                  "am": "A.M.",
                  "noon": "noon",
                  "pm": "P.M."
                }
              },
              "stand-alone": {
                "abbreviated": {
                  "am": "A.M.",
                  "noon": "noon",
                  "pm": "P.M."
                },
                "narrow": {
                  "am": "a",
                  "noon": "n",
                  "pm": "p"
                },
                "wide": {
                  "am": "A.M.",
                  "noon": "noon",
                  "pm": "P.M."
                }
              }
            },
            "eras": {
              "eraNames": {
                "0": "BE"
              },
              "eraAbbr": {
                "0": "BE"
              },
              "eraNarrow": {
                "0": "BE"
              }
            },
            "dateFormats": {
              "full": "EEEE, d MMMM y G",
              "long": "d MMMM y G",
              "medium": "d MMM y G",
              "short": "dd/MM/y GGGGG"
            },
            "timeFormats": {
              "full": "h:mm:ss a zzzz",
              "long": "h:mm:ss a z",
              "medium": "h:mm:ss a",
              "short": "h:mm a"
            },
            "dateTimeFormats": {
              "full": "{1} {0}",
              "long": "{1} {0}",
              "medium": "{1} {0}",
              "short": "{1} {0}",
              "availableFormats": {
                "E": "ccc",
                "EHm": "E HH:mm",
                "EHms": "E HH:mm:ss",
                "Ed": "d, E",
                "Ehm": "E h:mm a",
                "Ehms": "E h:mm:ss a",
                "Gy": "G y",
                "GyMMM": "G y MMM",
                "GyMMMEd": "G y MMM d, E",
                "GyMMMd": "G y MMM d",
                "H": "HH",
                "Hm": "HH:mm",
                "Hms": "HH:mm:ss",
                "M": "L",
                "MEd": "E, M/d",
                "MMM": "LLL",
                "MMMEd": "E, MMM d",
                "MMMMEd": "E, MMMM d",
                "MMMMd": "MMMM d",
                "MMMd": "MMM d",
                "Md": "M/d",
                "d": "d",
                "h": "h a",
                "hm": "h:mm a",
                "hms": "h:mm:ss a",
                "ms": "mm:ss",
                "y": "y",
                "yM": "M/y",
                "yMEd": "E, M/d/y",
                "yMMM": "MMM y",
                "yMMMEd": "E, MMM d, y",
                "yMMMM": "MMMM y",
                "yQQQ": "QQQ y",
                "yQQQQ": "QQQQ y",
                "yyyy": "G y",
                "yyyyM": "GGGGG y-MM",
                "yyyyMEd": "GGGGG y-MM-dd, E",
                "yyyyMMM": "G y MMM",
                "yyyyMMMEd": "G y MMM d, E",
                "yyyyMMMd": "G y MMM d",
                "yyyyMd": "GGGGG y-MM-dd",
                "yyyyQQQ": "G y QQQ",
                "yyyyQQQQ": "G y QQQQ"
              },
              "appendItems": {
                "Day": "{0} ({2}: {1})",
                "Day-Of-Week": "{0} {1}",
                "Era": "{1} {0}",
                "Hour": "{0} ({2}: {1})",
                "Minute": "{0} ({2}: {1})",
                "Month": "{0} ({2}: {1})",
                "Quarter": "{0} ({2}: {1})",
                "Second": "{0} ({2}: {1})",
                "Timezone": "{0} {1}",
                "Week": "{0} ({2}: {1})",
                "Year": "{1} {0}"
              },
              "intervalFormats": {
                "intervalFormatFallback": "{0} – {1}",
                "H": {
                  "H": "HH–HH"
                },
                "Hm": {
                  "H": "HH:mm–HH:mm",
                  "m": "HH:mm–HH:mm"
                },
                "Hmv": {
                  "H": "HH:mm–HH:mm v",
                  "m": "HH:mm–HH:mm v"
                },
                "Hv": {
                  "H": "HH–HH v"
                },
                "M": {
                  "M": "MM–MM"
                },
                "MEd": {
                  "M": "MM-dd, E – MM-dd, E",
                  "d": "MM-dd, E – MM-dd, E"
                },
                "MMM": {
                  "M": "LLL–LLL"
                },
                "MMMEd": {
                  "M": "MMM d, E – MMM d, E",
                  "d": "MMM d, E – MMM d, E"
                },
                "MMMd": {
                  "M": "MMM d – MMM d",
                  "d": "MMM d–d"
                },
                "Md": {
                  "M": "MM-dd – MM-dd",
                  "d": "MM-dd – MM-dd"
                },
                "d": {
                  "d": "d–d"
                },
                "h": {
                  "a": "h a – h a",
                  "h": "h–h a"
                },
                "hm": {
                  "a": "h:mm a – h:mm a",
                  "h": "h:mm–h:mm a",
                  "m": "h:mm–h:mm a"
                },
                "hmv": {
                  "a": "h:mm a – h:mm a v",
                  "h": "h:mm–h:mm a v",
                  "m": "h:mm–h:mm a v"
                },
                "hv": {
                  "a": "h a – h a v",
                  "h": "h–h a v"
                },
                "y": {
                  "y": "G y–y"
                },
                "yM": {
                  "M": "GGGGG y-MM – y-MM",
                  "y": "GGGGG y-MM – y-MM"
                },
                "yMEd": {
                  "M": "GGGGG y-MM-dd, E – y-MM-dd, E",
                  "d": "GGGGG y-MM-dd, E – y-MM-dd, E",
                  "y": "GGGGG y-MM-dd, E – y-MM-dd, E"
                },
                "yMMM": {
                  "M": "G y MMM–MMM",
                  "y": "G y MMM – y MMM"
                },
                "yMMMEd": {
                  "M": "G y MMM d, E – MMM d, E",
                  "d": "G y MMM d, E – MMM d, E",
                  "y": "G y MMM d, E – y MMM d, E"
                },
                "yMMMM": {
                  "M": "G y MMMM–MMMM",
                  "y": "G y MMMM – y MMMM"
                },
                "yMMMd": {
                  "M": "G y MMM d – MMM d",
                  "d": "G y MMM d–d",
                  "y": "G y MMM d – y MMM d"
                },
                "yMd": {
                  "M": "GGGGG y-MM-dd – y-MM-dd",
                  "d": "GGGGG y-MM-dd – y-MM-dd",
                  "y": "GGGGG y-MM-dd – y-MM-dd"
                }
              }
            }
          }
        }
      }
    }
  }
}
