{
  "main": {
    "nnh-CM": {
      "identity": {
        "version": {
          "_cldrVersion": "26",
          "_number": "$Revision: 10669 $"
        },
        "generation": {
          "_date": "$Date: 2014-07-23 16:10:33 -0500 (Wed, 23 Jul 2014) $"
        },
        "language": "nnh",
        "territory": "CM"
      },
      "dates": {
        "calendars": {
          "gregorian": {
            "months": {
              "format": {
                "abbreviated": {
                  "1": "saŋ tsetsɛ̀ɛ lùm",
                  "2": "saŋ kàg ngwóŋ",
                  "3": "saŋ lepyè shúm",
                  "4": "saŋ cÿó",
                  "5": "saŋ tsɛ̀ɛ cÿó",
                  "6": "saŋ njÿoláʼ",
                  "7": "saŋ tyɛ̀b tyɛ̀b mbʉ̀",
                  "8": "saŋ mbʉ̀ŋ",
                  "9": "saŋ ngwɔ̀ʼ mbÿɛ",
                  "10": "saŋ tàŋa tsetsáʼ",
                  "11": "saŋ mejwoŋó",
                  "12": "saŋ lùm"
                },
                "narrow": {
                  "1": "1",
                  "2": "2",
                  "3": "3",
                  "4": "4",
                  "5": "5",
                  "6": "6",
                  "7": "7",
                  "8": "8",
                  "9": "9",
                  "10": "10",
                  "11": "11",
                  "12": "12"
                },
                "wide": {
                  "1": "saŋ tsetsɛ̀ɛ lùm",
                  "2": "saŋ kàg ngwóŋ",
                  "3": "saŋ lepyè shúm",
                  "4": "saŋ cÿó",
                  "5": "saŋ tsɛ̀ɛ cÿó",
                  "6": "saŋ njÿoláʼ",
                  "7": "saŋ tyɛ̀b tyɛ̀b mbʉ̀",
                  "8": "saŋ mbʉ̀ŋ",
                  "9": "saŋ ngwɔ̀ʼ mbÿɛ",
                  "10": "saŋ tàŋa tsetsáʼ",
                  "11": "saŋ mejwoŋó",
                  "12": "saŋ lùm"
                }
              },
              "stand-alone": {
                "abbreviated": {
                  "1": "saŋ tsetsɛ̀ɛ lùm",
                  "2": "saŋ kàg ngwóŋ",
                  "3": "saŋ lepyè shúm",
                  "4": "saŋ cÿó",
                  "5": "saŋ tsɛ̀ɛ cÿó",
                  "6": "saŋ njÿoláʼ",
                  "7": "saŋ tyɛ̀b tyɛ̀b mbʉ̀",
                  "8": "saŋ mbʉ̀ŋ",
                  "9": "saŋ ngwɔ̀ʼ mbÿɛ",
                  "10": "saŋ tàŋa tsetsáʼ",
                  "11": "saŋ mejwoŋó",
                  "12": "saŋ lùm"
                },
                "narrow": {
                  "1": "1",
                  "2": "2",
                  "3": "3",
                  "4": "4",
                  "5": "5",
                  "6": "6",
                  "7": "7",
                  "8": "8",
                  "9": "9",
                  "10": "10",
                  "11": "11",
                  "12": "12"
                },
                "wide": {
                  "1": "saŋ tsetsɛ̀ɛ lùm",
                  "2": "saŋ kàg ngwóŋ",
                  "3": "saŋ lepyè shúm",
                  "4": "saŋ cÿó",
                  "5": "saŋ tsɛ̀ɛ cÿó",
                  "6": "saŋ njÿoláʼ",
                  "7": "saŋ tyɛ̀b tyɛ̀b mbʉ̀",
                  "8": "saŋ mbʉ̀ŋ",
                  "9": "saŋ ngwɔ̀ʼ mbÿɛ",
                  "10": "saŋ tàŋa tsetsáʼ",
                  "11": "saŋ mejwoŋó",
                  "12": "saŋ lùm"
                }
              }
            },
            "days": {
              "format": {
                "abbreviated": {
                  "sun": "lyɛʼɛ́ sẅíŋtè",
                  "mon": "mvfò lyɛ̌ʼ",
                  "tue": "mbɔ́ɔntè mvfò lyɛ̌ʼ",
                  "wed": "tsètsɛ̀ɛ lyɛ̌ʼ",
                  "thu": "mbɔ́ɔntè tsetsɛ̀ɛ lyɛ̌ʼ",
                  "fri": "mvfò màga lyɛ̌ʼ",
                  "sat": "màga lyɛ̌ʼ"
                },
                "narrow": {
                  "sun": "S",
                  "mon": "M",
                  "tue": "T",
                  "wed": "W",
                  "thu": "T",
                  "fri": "F",
                  "sat": "S"
                },
                "short": {
                  "sun": "lyɛʼɛ́ sẅíŋtè",
                  "mon": "mvfò lyɛ̌ʼ",
                  "tue": "mbɔ́ɔntè mvfò lyɛ̌ʼ",
                  "wed": "tsètsɛ̀ɛ lyɛ̌ʼ",
                  "thu": "mbɔ́ɔntè tsetsɛ̀ɛ lyɛ̌ʼ",
                  "fri": "mvfò màga lyɛ̌ʼ",
                  "sat": "màga lyɛ̌ʼ"
                },
                "wide": {
                  "sun": "lyɛʼɛ́ sẅíŋtè",
                  "mon": "mvfò lyɛ̌ʼ",
                  "tue": "mbɔ́ɔntè mvfò lyɛ̌ʼ",
                  "wed": "tsètsɛ̀ɛ lyɛ̌ʼ",
                  "thu": "mbɔ́ɔntè tsetsɛ̀ɛ lyɛ̌ʼ",
                  "fri": "mvfò màga lyɛ̌ʼ",
                  "sat": "màga lyɛ̌ʼ"
                }
              },
              "stand-alone": {
                "abbreviated": {
                  "sun": "lyɛʼɛ́ sẅíŋtè",
                  "mon": "mvfò lyɛ̌ʼ",
                  "tue": "mbɔ́ɔntè mvfò lyɛ̌ʼ",
                  "wed": "tsètsɛ̀ɛ lyɛ̌ʼ",
                  "thu": "mbɔ́ɔntè tsetsɛ̀ɛ lyɛ̌ʼ",
                  "fri": "mvfò màga lyɛ̌ʼ",
                  "sat": "màga lyɛ̌ʼ"
                },
                "narrow": {
                  "sun": "S",
                  "mon": "M",
                  "tue": "T",
                  "wed": "W",
                  "thu": "T",
                  "fri": "F",
                  "sat": "S"
                },
                "short": {
                  "sun": "lyɛʼɛ́ sẅíŋtè",
                  "mon": "mvfò lyɛ̌ʼ",
                  "tue": "mbɔ́ɔntè mvfò lyɛ̌ʼ",
                  "wed": "tsètsɛ̀ɛ lyɛ̌ʼ",
                  "thu": "mbɔ́ɔntè tsetsɛ̀ɛ lyɛ̌ʼ",
                  "fri": "mvfò màga lyɛ̌ʼ",
                  "sat": "màga lyɛ̌ʼ"
                },
                "wide": {
                  "sun": "lyɛʼɛ́ sẅíŋtè",
                  "mon": "mvfò lyɛ̌ʼ",
                  "tue": "mbɔ́ɔntè mvfò lyɛ̌ʼ",
                  "wed": "tsètsɛ̀ɛ lyɛ̌ʼ",
                  "thu": "mbɔ́ɔntè tsetsɛ̀ɛ lyɛ̌ʼ",
                  "fri": "mvfò màga lyɛ̌ʼ",
                  "sat": "màga lyɛ̌ʼ"
                }
              }
            },
            "quarters": {
              "format": {
                "abbreviated": {
                  "1": "Q1",
                  "2": "Q2",
                  "3": "Q3",
                  "4": "Q4"
                },
                "narrow": {
                  "1": "1",
                  "2": "2",
                  "3": "3",
                  "4": "4"
                },
                "wide": {
                  "1": "Q1",
                  "2": "Q2",
                  "3": "Q3",
                  "4": "Q4"
                }
              },
              "stand-alone": {
                "abbreviated": {
                  "1": "Q1",
                  "2": "Q2",
                  "3": "Q3",
                  "4": "Q4"
                },
                "narrow": {
                  "1": "1",
                  "2": "2",
                  "3": "3",
                  "4": "4"
                },
                "wide": {
                  "1": "Q1",
                  "2": "Q2",
                  "3": "Q3",
                  "4": "Q4"
                }
              }
            },
            "dayPeriods": {
              "format": {
                "abbreviated": {
                  "am": "mbaʼámbaʼ",
                  "noon": "noon",
                  "pm": "ncwònzém"
                },
                "narrow": {
                  "am": "a",
                  "noon": "n",
                  "pm": "p"
                },
                "wide": {
                  "am": "mbaʼámbaʼ",
                  "noon": "noon",
                  "pm": "ncwònzém"
                }
              },
              "stand-alone": {
                "abbreviated": {
                  "am": "mbaʼámbaʼ",
                  "noon": "noon",
                  "pm": "ncwònzém"
                },
                "narrow": {
                  "am": "a",
                  "noon": "n",
                  "pm": "p"
                },
                "wide": {
                  "am": "mbaʼámbaʼ",
                  "noon": "noon",
                  "pm": "ncwònzém"
                }
              }
            },
            "eras": {
              "eraNames": {
                "0": "mé zyé Yěsô",
                "0-alt-variant": "BCE",
                "1": "mé gÿo ńzyé Yěsô",
                "1-alt-variant": "CE"
              },
              "eraAbbr": {
                "0": "m.z.Y.",
                "0-alt-variant": "BCE",
                "1": "m.g.n.Y.",
                "1-alt-variant": "CE"
              },
              "eraNarrow": {
                "0": "m.z.Y.",
                "0-alt-variant": "BCE",
                "1": "m.g.n.Y.",
                "1-alt-variant": "CE"
              }
            },
            "dateFormats": {
              "full": "EEEE , 'lyɛ'̌ʼ d 'na' MMMM, y",
              "long": "'lyɛ'̌ʼ d 'na' MMMM, y",
              "medium": "d MMM, y",
              "short": "dd/MM/yy"
            },
            "timeFormats": {
              "full": "HH:mm:ss zzzz",
              "long": "HH:mm:ss z",
              "medium": "HH:mm:ss",
              "short": "HH:mm"
            },
            "dateTimeFormats": {
              "full": "{1},{0}",
              "long": "{1}, {0}",
              "medium": "{1} {0}",
              "short": "{1} {0}",
              "availableFormats": {
                "E": "ccc",
                "EHm": "E HH:mm",
                "EHms": "E HH:mm:ss",
                "Ed": "d, E",
                "Ehm": "E h:mm a",
                "Ehms": "E h:mm:ss a",
                "Gy": "G y",
                "GyMMM": "G y MMM",
                "GyMMMEd": "G y MMM d, E",
                "GyMMMd": "G y MMM d",
                "H": "HH",
                "Hm": "HH:mm",
                "Hms": "HH:mm:ss",
                "M": "L",
                "MEd": "MM-dd, E",
                "MMM": "LLL",
                "MMMEd": "MMM d, E",
                "MMMd": "MMM d",
                "Md": "MM-dd",
                "d": "d",
                "h": "h a",
                "hm": "h:mm a",
                "hms": "h:mm:ss a",
                "ms": "mm:ss",
                "y": "y",
                "yM": "y-MM",
                "yMEd": "E , 'lyɛ'̌ʼ d 'na' M, y",
                "yMMM": "MMM y",
                "yMMMEd": "E , 'lyɛ'̌ʼ d 'na' MMM, y",
                "yMMMd": "'lyɛ'̌ʼ d 'na' MMMM, y",
                "yMd": "d/M/y",
                "yQQQ": "y QQQ",
                "yQQQQ": "y QQQQ"
              },
              "appendItems": {
                "Day": "{0} ({2}: {1})",
                "Day-Of-Week": "{0} {1}",
                "Era": "{1} {0}",
                "Hour": "{0} ({2}: {1})",
                "Minute": "{0} ({2}: {1})",
                "Month": "{0} ({2}: {1})",
                "Quarter": "{0} ({2}: {1})",
                "Second": "{0} ({2}: {1})",
                "Timezone": "{0} {1}",
                "Week": "{0} ({2}: {1})",
                "Year": "{1} {0}"
              },
              "intervalFormats": {
                "intervalFormatFallback": "{0} – {1}",
                "H": {
                  "H": "HH–HH"
                },
                "Hm": {
                  "H": "HH:mm–HH:mm",
                  "m": "HH:mm–HH:mm"
                },
                "Hmv": {
                  "H": "HH:mm–HH:mm v",
                  "m": "HH:mm–HH:mm v"
                },
                "Hv": {
                  "H": "HH–HH v"
                },
                "M": {
                  "M": "MM–MM"
                },
                "MEd": {
                  "M": "MM-dd, E – MM-dd, E",
                  "d": "MM-dd, E – MM-dd, E"
                },
                "MMM": {
                  "M": "LLL–LLL"
                },
                "MMMEd": {
                  "M": "MMM d, E – MMM d, E",
                  "d": "MMM d, E – MMM d, E"
                },
                "MMMd": {
                  "M": "MMM d – MMM d",
                  "d": "MMM d–d"
                },
                "Md": {
                  "M": "MM-dd – MM-dd",
                  "d": "MM-dd – MM-dd"
                },
                "d": {
                  "d": "d–d"
                },
                "h": {
                  "a": "h a – h a",
                  "h": "h–h a"
                },
                "hm": {
                  "a": "h:mm a – h:mm a",
                  "h": "h:mm–h:mm a",
                  "m": "h:mm–h:mm a"
                },
                "hmv": {
                  "a": "h:mm a – h:mm a v",
                  "h": "h:mm–h:mm a v",
                  "m": "h:mm–h:mm a v"
                },
                "hv": {
                  "a": "h a – h a v",
                  "h": "h–h a v"
                },
                "y": {
                  "y": "y–y"
                },
                "yM": {
                  "M": "y-MM – y-MM",
                  "y": "y-MM – y-MM"
                },
                "yMEd": {
                  "M": "y-MM-dd, E – y-MM-dd, E",
                  "d": "y-MM-dd, E – y-MM-dd, E",
                  "y": "y-MM-dd, E – y-MM-dd, E"
                },
                "yMMM": {
                  "M": "y MMM–MMM",
                  "y": "y MMM – y MMM"
                },
                "yMMMEd": {
                  "M": "y MMM d, E – MMM d, E",
                  "d": "y MMM d, E – MMM d, E",
                  "y": "y MMM d, E – y MMM d, E"
                },
                "yMMMM": {
                  "M": "y MMMM–MMMM",
                  "y": "y MMMM – y MMMM"
                },
                "yMMMd": {
                  "M": "y MMM d – MMM d",
                  "d": "y MMM d–d",
                  "y": "y MMM d – y MMM d"
                },
                "yMd": {
                  "M": "y-MM-dd – y-MM-dd",
                  "d": "y-MM-dd – y-MM-dd",
                  "y": "y-MM-dd – y-MM-dd"
                }
              }
            }
          }
        }
      }
    }
  }
}
