{
  "main": {
    "os-RU": {
      "identity": {
        "version": {
          "_cldrVersion": "26",
          "_number": "$Revision: 10669 $"
        },
        "generation": {
          "_date": "$Date: 2014-07-23 16:10:33 -0500 (Wed, 23 Jul 2014) $"
        },
        "language": "os",
        "territory": "RU"
      },
      "characters": {
        "exemplarCharacters": "[а ӕ б в г {гъ} д {дж} {дз} е ё ж з и й к {къ} л м н о п {пъ} р с т {тъ} у ф х {хъ} ц {цъ} ч {чъ} ш щ ъ ы ь э ю я]",
        "auxiliary": "[]",
        "punctuation": "[\\- ‐ – — , ; \\: ! ? . … ' ‘ ‚ \" “ „ « » ( ) \\[ \\] \\{ \\} § @ * / \\& #]",
        "index": "[А Ӕ Б В Г {Гъ} Д {Дж} {Дз} Е Ё Ж З И Й К {Къ} Л М Н О П {Пъ} Р С Т {Тъ} У Ф Х {Хъ} Ц {Цъ} Ч {Чъ} Ш Щ Ы Э Ю Я]",
        "ellipsis": {
          "initial": "…{0}",
          "medial": "{0}…{1}",
          "final": "{0}…",
          "word-initial": "… {0}",
          "word-medial": "{0} … {1}",
          "word-final": "{0} …"
        },
        "moreInformation": "?"
      }
    }
  }
}
