{
  "main": {
    "fa": {
      "identity": {
        "version": {
          "_cldrVersion": "26",
          "_number": "$Revision: 10809 $"
        },
        "generation": {
          "_date": "$Date: 2014-08-14 15:10:07 -0500 (Thu, 14 Aug 2014) $"
        },
        "language": "fa"
      },
      "dates": {
        "calendars": {
          "islamic-tbla": {
            "months": {
              "format": {
                "abbreviated": {
                  "1": "محرم",
                  "2": "صفر",
                  "3": "ربیع الاول",
                  "4": "ربیع الثانی",
                  "5": "جمادی الاول",
                  "6": "جمادی الثانی",
                  "7": "رجب",
                  "8": "شعبان",
                  "9": "رمضان",
                  "10": "شوال",
                  "11": "ذیقعدهٔ",
                  "12": "ذیحجهٔ"
                },
                "narrow": {
                  "1": "م",
                  "2": "ص",
                  "3": "ر",
                  "4": "ر",
                  "5": "ج",
                  "6": "ج",
                  "7": "ر",
                  "8": "ش",
                  "9": "ر",
                  "10": "ش",
                  "11": "ذ",
                  "12": "ذ"
                },
                "wide": {
                  "1": "محرم",
                  "2": "صفر",
                  "3": "ربیع الاول",
                  "4": "ربیع الثانی",
                  "5": "جمادی الاول",
                  "6": "جمادی الثانی",
                  "7": "رجب",
                  "8": "شعبان",
                  "9": "رمضان",
                  "10": "شوال",
                  "11": "ذیقعدهٔ",
                  "12": "ذیحجهٔ"
                }
              },
              "stand-alone": {
                "abbreviated": {
                  "1": "محرم",
                  "2": "صفر",
                  "3": "ربیع الاول",
                  "4": "ربیع الثانی",
                  "5": "جمادی الاول",
                  "6": "جمادی الثانی",
                  "7": "رجب",
                  "8": "شعبان",
                  "9": "رمضان",
                  "10": "شوال",
                  "11": "ذیقعده",
                  "12": "ذیحجه"
                },
                "narrow": {
                  "1": "م",
                  "2": "ص",
                  "3": "ر",
                  "4": "ر",
                  "5": "ج",
                  "6": "ج",
                  "7": "ر",
                  "8": "ش",
                  "9": "ر",
                  "10": "ش",
                  "11": "ذ",
                  "12": "ذ"
                },
                "wide": {
                  "1": "محرم",
                  "2": "صفر",
                  "3": "ربیع الاول",
                  "4": "ربیع الثانی",
                  "5": "جمادی الاول",
                  "6": "جمادی الثانی",
                  "7": "رجب",
                  "8": "شعبان",
                  "9": "رمضان",
                  "10": "شوال",
                  "11": "ذیقعده",
                  "12": "ذیحجه"
                }
              }
            },
            "days": {
              "format": {
                "abbreviated": {
                  "sun": "یکشنبه",
                  "mon": "دوشنبه",
                  "tue": "سه‌شنبه",
                  "wed": "چهارشنبه",
                  "thu": "پنجشنبه",
                  "fri": "جمعه",
                  "sat": "شنبه"
                },
                "narrow": {
                  "sun": "ی",
                  "mon": "د",
                  "tue": "س",
                  "wed": "چ",
                  "thu": "پ",
                  "fri": "ج",
                  "sat": "ش"
                },
                "short": {
                  "sun": "۱ش",
                  "mon": "۲ش",
                  "tue": "۳ش",
                  "wed": "۴ش",
                  "thu": "۵ش",
                  "fri": "ج",
                  "sat": "ش"
                },
                "wide": {
                  "sun": "یکشنبه",
                  "mon": "دوشنبه",
                  "tue": "سه‌شنبه",
                  "wed": "چهارشنبه",
                  "thu": "پنجشنبه",
                  "fri": "جمعه",
                  "sat": "شنبه"
                }
              },
              "stand-alone": {
                "abbreviated": {
                  "sun": "یکشنبه",
                  "mon": "دوشنبه",
                  "tue": "سه‌شنبه",
                  "wed": "چهارشنبه",
                  "thu": "پنجشنبه",
                  "fri": "جمعه",
                  "sat": "شنبه"
                },
                "narrow": {
                  "sun": "ی",
                  "mon": "د",
                  "tue": "س",
                  "wed": "چ",
                  "thu": "پ",
                  "fri": "ج",
                  "sat": "ش"
                },
                "short": {
                  "sun": "۱ش",
                  "mon": "۲ش",
                  "tue": "۳ش",
                  "wed": "۴ش",
                  "thu": "۵ش",
                  "fri": "ج",
                  "sat": "ش"
                },
                "wide": {
                  "sun": "یکشنبه",
                  "mon": "دوشنبه",
                  "tue": "سه‌شنبه",
                  "wed": "چهارشنبه",
                  "thu": "پنجشنبه",
                  "fri": "جمعه",
                  "sat": "شنبه"
                }
              }
            },
            "quarters": {
              "format": {
                "abbreviated": {
                  "1": "س‌م۱",
                  "2": "س‌م۲",
                  "3": "س‌م۳",
                  "4": "س‌م۴"
                },
                "narrow": {
                  "1": "۱",
                  "2": "۲",
                  "3": "۳",
                  "4": "۴"
                },
                "wide": {
                  "1": "سه‌ماههٔ اول",
                  "2": "سه‌ماههٔ دوم",
                  "3": "سه‌ماههٔ سوم",
                  "4": "سه‌ماههٔ چهارم"
                }
              },
              "stand-alone": {
                "abbreviated": {
                  "1": "س‌م۱",
                  "2": "س‌م۲",
                  "3": "س‌م۳",
                  "4": "س‌م۴"
                },
                "narrow": {
                  "1": "۱",
                  "2": "۲",
                  "3": "۳",
                  "4": "۴"
                },
                "wide": {
                  "1": "سه‌ماههٔ اول",
                  "2": "سه‌ماههٔ دوم",
                  "3": "سه‌ماههٔ سوم",
                  "4": "سه‌ماههٔ چهارم"
                }
              }
            },
            "dayPeriods": {
              "format": {
                "abbreviated": {
                  "afternoon": "عصر",
                  "am": "قبل‌ازظهر",
                  "earlyMorning": "بامداد",
                  "midDay": "بعدازظهر",
                  "morning": "صبح",
                  "night": "شب",
                  "noon": "ظهر",
                  "pm": "بعدازظهر",
                  "weeHours": "نیمه‌شب"
                },
                "narrow": {
                  "am": "ق",
                  "noon": "ظ",
                  "pm": "ب"
                },
                "wide": {
                  "afternoon": "عصر",
                  "am": "قبل‌ازظهر",
                  "earlyMorning": "بامداد",
                  "midDay": "بعدازظهر",
                  "morning": "صبح",
                  "night": "شب",
                  "noon": "ظهر",
                  "pm": "بعدازظهر",
                  "weeHours": "نیمه‌شب"
                }
              },
              "stand-alone": {
                "abbreviated": {
                  "afternoon": "عصر",
                  "am": "قبل‌ازظهر",
                  "earlyMorning": "بامداد",
                  "midDay": "بعدازظهر",
                  "morning": "صبح",
                  "night": "شب",
                  "noon": "ظهر",
                  "pm": "بعدازظهر",
                  "weeHours": "نیمه‌شب"
                },
                "narrow": {
                  "am": "ق",
                  "noon": "ظ",
                  "pm": "ب"
                },
                "wide": {
                  "afternoon": "عصر",
                  "am": "قبل‌ازظهر",
                  "earlyMorning": "بامداد",
                  "midDay": "بعدازظهر",
                  "morning": "صبح",
                  "night": "شب",
                  "noon": "ظهر",
                  "pm": "بعدازظهر",
                  "weeHours": "نیمه‌شب"
                }
              }
            },
            "eras": {
              "eraNames": {
                "0": "هجری قمری"
              },
              "eraAbbr": {
                "0": "ه‍.ق."
              },
              "eraNarrow": {
                "0": "ه‍.ق."
              }
            },
            "dateFormats": {
              "full": "EEEE d MMMM y GGGG",
              "long": "d MMMM y G",
              "medium": "y/M/d G",
              "short": "yy/M/d G"
            },
            "timeFormats": {
              "full": "H:mm:ss (zzzz)",
              "long": "H:mm:ss (z)",
              "medium": "H:mm:ss",
              "short": "H:mm"
            },
            "dateTimeFormats": {
              "full": "{1}، ساعت {0}",
              "long": "{1}، ساعت {0}",
              "medium": "{1}،‏ {0}",
              "short": "{1}،‏ {0}",
              "availableFormats": {
                "E": "ccc",
                "EHm": "E HH:mm",
                "EHms": "E HH:mm:ss",
                "Ed": "E d",
                "Ehm": "E h:mm a",
                "Ehms": "E h:mm:ss a",
                "Gy": "y G",
                "GyMMM": "MMM y G",
                "GyMMMEd": "E d MMM y G",
                "GyMMMd": "d MMM y G",
                "H": "H",
                "HHmmZ": "HH:mm (Z)",
                "Hm": "H:mm",
                "HmZ": "HH:mm (Z)",
                "Hms": "H:mm:ss",
                "M": "L",
                "MEd": "E M/d",
                "MMM": "LLL",
                "MMMEd": "E d LLL",
                "MMMMEd": "E d LLLL",
                "MMMMd": "d LLLL",
                "MMMd": "d LLL",
                "Md": "M/d",
                "d": "d",
                "h": "h a",
                "hm": "h:mm a",
                "hms": "h:mm:ss a",
                "ms": "mm:ss",
                "y": "y",
                "yM": "y/M",
                "yMEd": "E y/M/d",
                "yMMM": "MMM y",
                "yMMMEd": "E d MMM y",
                "yMMMM": "MMMM y",
                "yQQQ": "QQQ y",
                "yQQQQ": "QQQQ y",
                "yyyy": "y G",
                "yyyyM": "y/M G",
                "yyyyMEd": "E y/M/d G",
                "yyyyMMM": "MMM y G",
                "yyyyMMMEd": "E d MMM y G",
                "yyyyMMMd": "d MMM y G",
                "yyyyMd": "y/M/d G",
                "yyyyQQQ": "QQQQ y G",
                "yyyyQQQQ": "QQQQ y G"
              },
              "appendItems": {
                "Day": "{0} ({2}: {1})",
                "Day-Of-Week": "{1} {0}",
                "Era": "{1} {0}",
                "Hour": "{0} ({2}: {1})",
                "Minute": "{0} ({2}: {1})",
                "Month": "{0} ({2}: {1})",
                "Quarter": "{0} ({2}: {1})",
                "Second": "{0} ({2}: {1})",
                "Timezone": "{0} ({1})",
                "Week": "{0} ({2}: {1})",
                "Year": "{1} {0}"
              },
              "intervalFormats": {
                "intervalFormatFallback": "{0} تا {1}",
                "H": {
                  "H": "H تا H"
                },
                "Hm": {
                  "H": "H:mm تا H:mm",
                  "m": "H:mm تا H:mm"
                },
                "Hmv": {
                  "H": "H:mm تا H:mm (v)",
                  "m": "H:mm تا H:mm (v)"
                },
                "Hv": {
                  "H": "H تا H (v)"
                },
                "M": {
                  "M": "M تا M"
                },
                "MEd": {
                  "M": "E M/d تا E M/d",
                  "d": "E M/d تا E M/d"
                },
                "MMM": {
                  "M": "LLL تا LLL"
                },
                "MMMEd": {
                  "M": "E d LLL تا E d LLL",
                  "d": "E d LLL تا E d LLL"
                },
                "MMMd": {
                  "M": "d LLL تا d LLL",
                  "d": "d تا d LLL"
                },
                "Md": {
                  "M": "M/d تا M/d",
                  "d": "M/d تا M/d"
                },
                "d": {
                  "d": "d تا d"
                },
                "h": {
                  "a": "h a تا h a",
                  "h": "h تا h a"
                },
                "hm": {
                  "a": "h:mm a تا h:mm a",
                  "h": "h:mm تا h:mm a",
                  "m": "h:mm تا h:mm a"
                },
                "hmv": {
                  "a": "h:mm a تا h:mm a (v)",
                  "h": "h:mm تا h:mm a (v)",
                  "m": "h:mm تا h:mm a (v)"
                },
                "hv": {
                  "a": "h a تا h a (v)",
                  "h": "h تا h a (v)"
                },
                "y": {
                  "y": "y تا y G"
                },
                "yM": {
                  "M": "y/M تا y/M G",
                  "y": "y/M تا y/M G"
                },
                "yMEd": {
                  "M": "E y/M/d تا E y/M/d G",
                  "d": "E y/M/d تا E y/M/d G",
                  "y": "E y/M/d تا E y/M/d G"
                },
                "yMMM": {
                  "M": "LLL تا MMM y G",
                  "y": "MMM y تا MMM y G"
                },
                "yMMMEd": {
                  "M": "E d LLL تا E d MMM y G",
                  "d": "E d LLL تا E d MMM y G",
                  "y": "E d MMM y تا E d MMM y G"
                },
                "yMMMM": {
                  "M": "LLLL تا MMMM y G",
                  "y": "MMMM y تا MMMM y G"
                },
                "yMMMd": {
                  "M": "d LLL تا d MMM y G",
                  "d": "d تا d MMM y G",
                  "y": "d MMM y تا d MMM y G"
                },
                "yMd": {
                  "M": "y/M/d تا y/M/d G",
                  "d": "y/M/d تا y/M/d G",
                  "y": "y/M/d تا y/M/d G"
                }
              }
            }
          }
        }
      }
    }
  }
}
