{
  "main": {
    "ru-BY": {
      "identity": {
        "version": {
          "_cldrVersion": "26",
          "_number": "$Revision: 10669 $"
        },
        "generation": {
          "_date": "$Date: 2014-07-23 16:10:33 -0500 (Wed, 23 Jul 2014) $"
        },
        "language": "root",
        "territory": "BY"
      },
      "dates": {
        "calendars": {
          "japanese": {
            "months": {
              "format": {
                "abbreviated": {
                  "1": "янв.",
                  "2": "февр.",
                  "3": "марта",
                  "4": "апр.",
                  "5": "мая",
                  "6": "июня",
                  "7": "июля",
                  "8": "авг.",
                  "9": "сент.",
                  "10": "окт.",
                  "11": "нояб.",
                  "12": "дек."
                },
                "narrow": {
                  "1": "Я",
                  "2": "Ф",
                  "3": "М",
                  "4": "А",
                  "5": "М",
                  "6": "И",
                  "7": "И",
                  "8": "А",
                  "9": "С",
                  "10": "О",
                  "11": "Н",
                  "12": "Д"
                },
                "wide": {
                  "1": "января",
                  "2": "февраля",
                  "3": "марта",
                  "4": "апреля",
                  "5": "мая",
                  "6": "июня",
                  "7": "июля",
                  "8": "августа",
                  "9": "сентября",
                  "10": "октября",
                  "11": "ноября",
                  "12": "декабря"
                }
              },
              "stand-alone": {
                "abbreviated": {
                  "1": "янв.",
                  "2": "февр.",
                  "3": "март",
                  "4": "апр.",
                  "5": "май",
                  "6": "июнь",
                  "7": "июль",
                  "8": "авг.",
                  "9": "сент.",
                  "10": "окт.",
                  "11": "нояб.",
                  "12": "дек."
                },
                "narrow": {
                  "1": "Я",
                  "2": "Ф",
                  "3": "М",
                  "4": "А",
                  "5": "М",
                  "6": "И",
                  "7": "И",
                  "8": "А",
                  "9": "С",
                  "10": "О",
                  "11": "Н",
                  "12": "Д"
                },
                "wide": {
                  "1": "январь",
                  "2": "февраль",
                  "3": "март",
                  "4": "апрель",
                  "5": "май",
                  "6": "июнь",
                  "7": "июль",
                  "8": "август",
                  "9": "сентябрь",
                  "10": "октябрь",
                  "11": "ноябрь",
                  "12": "декабрь"
                }
              }
            },
            "days": {
              "format": {
                "abbreviated": {
                  "sun": "вс",
                  "mon": "пн",
                  "tue": "вт",
                  "wed": "ср",
                  "thu": "чт",
                  "fri": "пт",
                  "sat": "сб"
                },
                "narrow": {
                  "sun": "вс",
                  "mon": "пн",
                  "tue": "вт",
                  "wed": "ср",
                  "thu": "чт",
                  "fri": "пт",
                  "sat": "сб"
                },
                "short": {
                  "sun": "вс",
                  "mon": "пн",
                  "tue": "вт",
                  "wed": "ср",
                  "thu": "чт",
                  "fri": "пт",
                  "sat": "сб"
                },
                "wide": {
                  "sun": "воскресенье",
                  "mon": "понедельник",
                  "tue": "вторник",
                  "wed": "среда",
                  "thu": "четверг",
                  "fri": "пятница",
                  "sat": "суббота"
                }
              },
              "stand-alone": {
                "abbreviated": {
                  "sun": "Вс",
                  "mon": "Пн",
                  "tue": "Вт",
                  "wed": "Ср",
                  "thu": "Чт",
                  "fri": "Пт",
                  "sat": "Сб"
                },
                "narrow": {
                  "sun": "В",
                  "mon": "П",
                  "tue": "В",
                  "wed": "С",
                  "thu": "Ч",
                  "fri": "П",
                  "sat": "С"
                },
                "short": {
                  "sun": "вс",
                  "mon": "пн",
                  "tue": "вт",
                  "wed": "ср",
                  "thu": "чт",
                  "fri": "пт",
                  "sat": "сб"
                },
                "wide": {
                  "sun": "Воскресенье",
                  "mon": "Понедельник",
                  "tue": "Вторник",
                  "wed": "Среда",
                  "thu": "Четверг",
                  "fri": "Пятница",
                  "sat": "Суббота"
                }
              }
            },
            "quarters": {
              "format": {
                "abbreviated": {
                  "1": "1-й кв.",
                  "2": "2-й кв.",
                  "3": "3-й кв.",
                  "4": "4-й кв."
                },
                "narrow": {
                  "1": "1",
                  "2": "2",
                  "3": "3",
                  "4": "4"
                },
                "wide": {
                  "1": "1-й квартал",
                  "2": "2-й квартал",
                  "3": "3-й квартал",
                  "4": "4-й квартал"
                }
              },
              "stand-alone": {
                "abbreviated": {
                  "1": "1-й кв.",
                  "2": "2-й кв.",
                  "3": "3-й кв.",
                  "4": "4-й кв."
                },
                "narrow": {
                  "1": "1",
                  "2": "2",
                  "3": "3",
                  "4": "4"
                },
                "wide": {
                  "1": "1-й квартал",
                  "2": "2-й квартал",
                  "3": "3-й квартал",
                  "4": "4-й квартал"
                }
              }
            },
            "dayPeriods": {
              "format": {
                "abbreviated": {
                  "am": "AM",
                  "noon": "полдень",
                  "pm": "PM"
                },
                "narrow": {
                  "am": "AM",
                  "noon": "полдень",
                  "pm": "PM"
                },
                "wide": {
                  "am": "AM",
                  "noon": "полдень",
                  "pm": "PM"
                }
              },
              "stand-alone": {
                "abbreviated": {
                  "am": "AM",
                  "noon": "полдень",
                  "pm": "PM"
                },
                "narrow": {
                  "am": "AM",
                  "noon": "полдень",
                  "pm": "PM"
                },
                "wide": {
                  "am": "AM",
                  "noon": "полдень",
                  "pm": "PM"
                }
              }
            },
            "eras": {
              "eraNames": {
                "0": "Эпоха Тайка (645-650)",
                "1": "Эпоха Хакути (650-671)",
                "10": "Эпоха Темпьё (729-749)",
                "100": "Эпоха Као (1169-1171)",
                "101": "Эпоха Сёан (1171-1175)",
                "102": "Эпоха Ангэн (1175-1177)",
                "103": "Эпоха Дзисё (1177-1181)",
                "104": "Эпоха Ёва (1181-1182)",
                "105": "Эпоха Дзюэй (1182-1184)",
                "106": "Эпоха Гэнрюку (1184-1185)",
                "107": "Эпоха Бундзи (1185-1190)",
                "108": "Эпоха Кэнкю (1190-1199)",
                "109": "Эпоха Сёдзи (1199-1201)",
                "11": "Эпоха Темпьё (749-749)",
                "110": "Эпоха Кэннин (1201-1204)",
                "111": "Эпоха Гэнкю (1204-1206)",
                "112": "Эпоха Кэнъэй (1206-1207)",
                "113": "Эпоха Сёгэн (1207-1211)",
                "114": "Эпоха Кэнряку (1211-1213)",
                "115": "Эпоха Кэмпо (1213-1219)",
                "116": "Эпоха Сёкю (1219-1222)",
                "117": "Эпоха Дзёо (1222-1224)",
                "118": "Эпоха Гэннин (1224-1225)",
                "119": "Эпоха Кароку (1225-1227)",
                "12": "Эпоха Темпьё-Сьохо (749-757)",
                "120": "Эпоха Антэй (1227-1229)",
                "121": "Эпоха Канки (1229-1232)",
                "122": "Эпоха Дзёэй (1232-1233)",
                "123": "Эпоха Тэмпуку (1233-1234)",
                "124": "Эпоха Бунряку (1234-1235)",
                "125": "Эпоха Катэй (1235-1238)",
                "126": "Эпоха Рякунин (1238-1239)",
                "127": "Эпоха Энъо (1239-1240)",
                "128": "Эпоха Ниндзи (1240-1243)",
                "129": "Эпоха Кангэн (1243-1247)",
                "13": "Эпоха Темпьё-Ходзи (757-765)",
                "130": "Эпоха Ходзи (1247-1249)",
                "131": "Эпоха Кэнтё (1249-1256)",
                "132": "Эпоха Когэн (1256-1257)",
                "133": "Эпоха Сёка (1257-1259)",
                "134": "Эпоха Сёгэн (1259-1260)",
                "135": "Эпоха Бунъо (1260-1261)",
                "136": "Эпоха Котё (1261-1264)",
                "137": "Эпоха Бунъэй (1264-1275)",
                "138": "Эпоха Кэндзи (1275-1278)",
                "139": "Эпоха Коан (1278-1288)",
                "14": "Эпоха Темпьё-Ходзи (765-767)",
                "140": "Эпоха Сёо (1288-1293)",
                "141": "Эпоха Эйнин (1293-1299)",
                "142": "Эпоха Сёан (1299-1302)",
                "143": "Эпоха Кэнгэн (1302-1303)",
                "144": "Эпоха Кагэн (1303-1306)",
                "145": "Эпоха Токудзи (1306-1308)",
                "146": "Эпоха Энкэй (1308-1311)",
                "147": "Эпоха Отё (1311-1312)",
                "148": "Эпоха Сёва (1312-1317)",
                "149": "Эпоха Бумпо (1317-1319)",
                "15": "Эпоха Джинго-Кёюн (767-770)",
                "150": "Эпоха Гэно (1319-1321)",
                "151": "Эпоха Гэнкё (1321-1324)",
                "152": "Эпоха Сётю (1324-1326)",
                "153": "Эпоха Карэки (1326-1329)",
                "154": "Эпоха Гэнтоку (1329-1331)",
                "155": "Эпоха Гэнко (1331-1334)",
                "156": "Эпоха Кэмму (1334-1336)",
                "157": "Эпоха Энгэн (1336-1340)",
                "158": "Эпоха Кококу (1340-1346)",
                "159": "Эпоха Сёхэй (1346-1370)",
                "16": "Эпоха Хоки (770-780)",
                "160": "Эпоха Кэнтоку (1370-1372)",
                "161": "Эпоха Бунтю (1372-1375)",
                "162": "Эпоха Иэндзю (1375-1379)",
                "163": "Эпоха Коряку (1379-1381)",
                "164": "Эпоха Кова (1381-1384)",
                "165": "Эпоха Гэнтю (1384-1392)",
                "166": "Эпоха Мэйтоку (1384-1387)",
                "167": "Эпоха Какэй (1387-1389)",
                "168": "Эпоха Коо (1389-1390)",
                "169": "Эпоха Мэйтоку (1390-1394)",
                "17": "Эпоха Теньё (781-782)",
                "170": "Эпоха Оэй (1394-1428)",
                "171": "Эпоха Сётё (1428-1429)",
                "172": "Эпоха Эйкё (1429-1441)",
                "173": "Эпоха Какицу (1441-1444)",
                "174": "Эпоха Банъан (1444-1449)",
                "175": "Эпоха Хотоку (1449-1452)",
                "176": "Эпоха Кётоку (1452-1455)",
                "177": "Эпоха Косё (1455-1457)",
                "178": "Эпоха Тёроку (1457-1460)",
                "179": "Эпоха Кансё (1460-1466)",
                "18": "Эпоха Енряку (782-806)",
                "180": "Эпоха Бунсё (1466-1467)",
                "181": "Эпоха Онин (1467-1469)",
                "182": "Эпоха Буммэй (1469-1487)",
                "183": "Эпоха Тёкё (1487-1489)",
                "184": "Эпоха Энтоку (1489-1492)",
                "185": "Эпоха Мэйо (1492-1501)",
                "186": "Эпоха Бунки (1501-1504)",
                "187": "Эпоха Эйсё (1504-1521)",
                "188": "Эпоха Тайэй (1521-1528)",
                "189": "Эпоха Кёроку (1528-1532)",
                "19": "Эпоха Дайдо (806-810)",
                "190": "Эпоха Тэммон (1532-1555)",
                "191": "Эпоха Кодзи (1555-1558)",
                "192": "Эпоха Эйроку (1558-1570)",
                "193": "Эпоха Гэнки (1570-1573)",
                "194": "Эпоха Тэнсё (1573-1592)",
                "195": "Эпоха Бунроку (1592-1596)",
                "196": "Эпоха Кэйтё (1596-1615)",
                "197": "Эпоха Гэнва (1615-1624)",
                "198": "Эпоха Канъэй (1624-1644)",
                "199": "Эпоха Сёхо (1644-1648)",
                "2": "Эпоха Хакухо (672-686)",
                "20": "Эпоха Конин (810-824)",
                "200": "Эпоха Кэйан (1648-1652)",
                "201": "Эпоха Сё (1652-1655)",
                "202": "Эпоха Мэйряку (1655-1658)",
                "203": "Эпоха Мандзи (1658-1661)",
                "204": "Эпоха Камбун (1661-1673)",
                "205": "Эпоха Эмпо (1673-1681)",
                "206": "Эпоха Тэнва (1681-1684)",
                "207": "Эпоха Дзёкё (1684-1688)",
                "208": "Эпоха Гэнроку (1688-1704)",
                "209": "Эпоха Хоэй (1704-1711)",
                "21": "Эпоха Тентьо (824-834)",
                "210": "Эпоха Сётоку (1711-1716)",
                "211": "Эпоха Кёхо (1716-1736)",
                "212": "Эпоха Гэмбун (1736-1741)",
                "213": "Эпоха Кампо (1741-1744)",
                "214": "Эпоха Энкё (1744-1748)",
                "215": "Эпоха Канъэн (1748-1751)",
                "216": "Эпоха Хоряку (1751-1764)",
                "217": "Эпоха Мэйва (1764-1772)",
                "218": "Эпоха Анъэй (1772-1781)",
                "219": "Эпоха Тэммэй (1781-1789)",
                "22": "Эпоха Шова (834-848)",
                "220": "Эпоха Кансэй (1789-1801)",
                "221": "Эпоха Кёва (1801-1804)",
                "222": "Эпоха Бунка (1804-1818)",
                "223": "Эпоха Бунсэй (1818-1830)",
                "224": "Эпоха Тэмпо (1830-1844)",
                "225": "Эпоха Кока (1844-1848)",
                "226": "Эпоха Каэй (1848-1854)",
                "227": "Эпоха Ансэй (1854-1860)",
                "228": "Эпоха Манъэн (1860-1861)",
                "229": "Эпоха Бункю (1861-1864)",
                "23": "Эпоха Кайо (848-851)",
                "230": "Эпоха Гендзи (1864-1865)",
                "231": "Эпоха Кейо (1865-1868)",
                "232": "Эпоха Мэйдзи",
                "233": "Эпоха Тайсьо",
                "234": "Сьова",
                "235": "Эпоха Хэйсэй",
                "24": "Эпоха Ниндзю (851-854)",
                "25": "Эпоха Сайко (854-857)",
                "26": "Эпоха Теннан (857-859)",
                "27": "Эпоха Йоган (859-877)",
                "28": "Эпоха Генкей (877-885)",
                "29": "Эпоха Нинна (885-889)",
                "3": "Эпоха Сючё (686-701)",
                "30": "Эпоха Кампьё (889-898)",
                "31": "Эпоха Сьотай (898-901)",
                "32": "Эпоха Энги (901-923)",
                "33": "Эпоха Ентьо (923-931)",
                "34": "Эпоха Сьёхэй (931-938)",
                "35": "Эпоха Тенгьо (938-947)",
                "36": "Эпоха Тенрияку (947-957)",
                "37": "Эпоха Тентоку (957-961)",
                "38": "Эпоха Ова (961-964)",
                "39": "Эпоха Кохо (964-968)",
                "4": "Эпоха Тайхо (701-704)",
                "40": "Эпоха Анна (968-970)",
                "41": "Эпоха Тенроку (970-973)",
                "42": "Эпоха Теньен (973-976)",
                "43": "Эпоха Дзьоген (976-978)",
                "44": "Эпоха Тенген (978-983)",
                "45": "Эпоха Ейкан (983-985)",
                "46": "Эпоха Канна (985-987)",
                "47": "Эпоха Ейен (987-989)",
                "48": "Эпоха Ейсо (989-990)",
                "49": "Эпоха Сёряку (990-995)",
                "5": "Эпоха Кёюн (704-708)",
                "50": "Эпоха Тётоку (995-999)",
                "51": "Эпоха Тёхо (999-1004)",
                "52": "Эпоха Канко (1004-1012)",
                "53": "Эпоха Тёва (1012-1017)",
                "54": "Эпоха Каннин (1017-1021)",
                "55": "Эпоха Дзиан (1021-1024)",
                "56": "Эпоха Мандзю (1024-1028)",
                "57": "Эпоха Тёгэн (1028-1037)",
                "58": "Эпоха Тёряку (1037-1040)",
                "59": "Эпоха Тёкю (1040-1044)",
                "6": "Эпоха Вадо (708-715)",
                "60": "Эпоха Катоку (1044-1046)",
                "61": "Эпоха Эйсо (1046-1053)",
                "62": "Эпоха Тэнги (1053-1058)",
                "63": "Эпоха Кохэй (1058-1065)",
                "64": "Эпоха Дзиряку (1065-1069)",
                "65": "Эпоха Энкю (1069-1074)",
                "66": "Эпоха Сёхо (1074-1077)",
                "67": "Эпоха Сёряку (1077-1081)",
                "68": "Эпоха Эйхо (1081-1084)",
                "69": "Эпоха Отоку (1084-1087)",
                "7": "Эпоха Рэйки (715-717)",
                "70": "Эпоха Кандзи (1087-1094)",
                "71": "Эпоха Кахо (1094-1096)",
                "72": "Эпоха Эйтё (1096-1097)",
                "73": "Эпоха Сётоку (1097-1099)",
                "74": "Эпоха Кова (1099-1104)",
                "75": "Эпоха Тёдзи (1104-1106)",
                "76": "Эпоха Касё (1106-1108)",
                "77": "Эпоха Тэннин (1108-1110)",
                "78": "Эпоха Тэнъэй (1110-1113)",
                "79": "Эпоха Эйкю (1113-1118)",
                "8": "Эпоха Ёро (717-724)",
                "80": "Эпоха Гэнъэй (1118-1120)",
                "81": "Эпоха Хоан (1120-1124)",
                "82": "Эпоха Тэндзи (1124-1126)",
                "83": "Эпоха Дайдзи (1126-1131)",
                "84": "Эпоха Тэнсё (1131-1132)",
                "85": "Эпоха Тёсё (1132-1135)",
                "86": "Эпоха Хоэн (1135-1141)",
                "87": "Эпоха Эйдзи (1141-1142)",
                "88": "Эпоха Кодзи (1142-1144)",
                "89": "Эпоха Тэнё (1144-1145)",
                "9": "Эпоха Дзинки (724-729)",
                "90": "Эпоха Кюан (1145-1151)",
                "91": "Эпоха Нимпэй (1151-1154)",
                "92": "Эпоха Кюдзю (1154-1156)",
                "93": "Эпоха Хогэн (1156-1159)",
                "94": "Эпоха Хэйдзи (1159-1160)",
                "95": "Эпоха Эйряку (1160-1161)",
                "96": "Эпоха Охо (1161-1163)",
                "97": "Эпоха Тёкан (1163-1165)",
                "98": "Эпоха Эйман (1165-1166)",
                "99": "Эпоха Нинъан (1166-1169)"
              },
              "eraAbbr": {
                "0": "Эпоха Тайка (645-650)",
                "1": "Эпоха Хакути (650-671)",
                "10": "Эпоха Темпьё (729-749)",
                "100": "Эпоха Као (1169-1171)",
                "101": "Эпоха Сёан (1171-1175)",
                "102": "Эпоха Ангэн (1175-1177)",
                "103": "Эпоха Дзисё (1177-1181)",
                "104": "Эпоха Ёва (1181-1182)",
                "105": "Эпоха Дзюэй (1182-1184)",
                "106": "Эпоха Гэнрюку (1184-1185)",
                "107": "Эпоха Бундзи (1185-1190)",
                "108": "Эпоха Кэнкю (1190-1199)",
                "109": "Эпоха Сёдзи (1199-1201)",
                "11": "Эпоха Темпьё (749-749)",
                "110": "Эпоха Кэннин (1201-1204)",
                "111": "Эпоха Гэнкю (1204-1206)",
                "112": "Эпоха Кэнъэй (1206-1207)",
                "113": "Эпоха Сёгэн (1207-1211)",
                "114": "Эпоха Кэнряку (1211-1213)",
                "115": "Эпоха Кэмпо (1213-1219)",
                "116": "Эпоха Сёкю (1219-1222)",
                "117": "Эпоха Дзёо (1222-1224)",
                "118": "Эпоха Гэннин (1224-1225)",
                "119": "Эпоха Кароку (1225-1227)",
                "12": "Эпоха Темпьё-Сьохо (749-757)",
                "120": "Эпоха Антэй (1227-1229)",
                "121": "Эпоха Канки (1229-1232)",
                "122": "Эпоха Дзёэй (1232-1233)",
                "123": "Эпоха Тэмпуку (1233-1234)",
                "124": "Эпоха Бунряку (1234-1235)",
                "125": "Эпоха Катэй (1235-1238)",
                "126": "Эпоха Рякунин (1238-1239)",
                "127": "Эпоха Энъо (1239-1240)",
                "128": "Эпоха Ниндзи (1240-1243)",
                "129": "Эпоха Кангэн (1243-1247)",
                "13": "Эпоха Темпьё-Ходзи (757-765)",
                "130": "Эпоха Ходзи (1247-1249)",
                "131": "Эпоха Кэнтё (1249-1256)",
                "132": "Эпоха Когэн (1256-1257)",
                "133": "Эпоха Сёка (1257-1259)",
                "134": "Эпоха Сёгэн (1259-1260)",
                "135": "Эпоха Бунъо (1260-1261)",
                "136": "Эпоха Котё (1261-1264)",
                "137": "Эпоха Бунъэй (1264-1275)",
                "138": "Эпоха Кэндзи (1275-1278)",
                "139": "Эпоха Коан (1278-1288)",
                "14": "Эпоха Темпьё-Ходзи (765-767)",
                "140": "Эпоха Сёо (1288-1293)",
                "141": "Эпоха Эйнин (1293-1299)",
                "142": "Эпоха Сёан (1299-1302)",
                "143": "Эпоха Кэнгэн (1302-1303)",
                "144": "Эпоха Кагэн (1303-1306)",
                "145": "Эпоха Токудзи (1306-1308)",
                "146": "Эпоха Энкэй (1308-1311)",
                "147": "Эпоха Отё (1311-1312)",
                "148": "Эпоха Сёва (1312-1317)",
                "149": "Эпоха Бумпо (1317-1319)",
                "15": "Эпоха Джинго-Кёюн (767-770)",
                "150": "Эпоха Гэно (1319-1321)",
                "151": "Эпоха Гэнкё (1321-1324)",
                "152": "Эпоха Сётю (1324-1326)",
                "153": "Эпоха Карэки (1326-1329)",
                "154": "Эпоха Гэнтоку (1329-1331)",
                "155": "Эпоха Гэнко (1331-1334)",
                "156": "Эпоха Кэмму (1334-1336)",
                "157": "Эпоха Энгэн (1336-1340)",
                "158": "Эпоха Кококу (1340-1346)",
                "159": "Эпоха Сёхэй (1346-1370)",
                "16": "Эпоха Хоки (770-780)",
                "160": "Эпоха Кэнтоку (1370-1372)",
                "161": "Эпоха Бунтю (1372-1375)",
                "162": "Эпоха Иэндзю (1375-1379)",
                "163": "Эпоха Коряку (1379-1381)",
                "164": "Эпоха Кова (1381-1384)",
                "165": "Эпоха Гэнтю (1384-1392)",
                "166": "Эпоха Мэйтоку (1384-1387)",
                "167": "Эпоха Какэй (1387-1389)",
                "168": "Эпоха Коо (1389-1390)",
                "169": "Эпоха Мэйтоку (1390-1394)",
                "17": "Эпоха Теньё (781-782)",
                "170": "Эпоха Оэй (1394-1428)",
                "171": "Эпоха Сётё (1428-1429)",
                "172": "Эпоха Эйкё (1429-1441)",
                "173": "Эпоха Какицу (1441-1444)",
                "174": "Эпоха Банъан (1444-1449)",
                "175": "Эпоха Хотоку (1449-1452)",
                "176": "Эпоха Кётоку (1452-1455)",
                "177": "Эпоха Косё (1455-1457)",
                "178": "Эпоха Тёроку (1457-1460)",
                "179": "Эпоха Кансё (1460-1466)",
                "18": "Эпоха Енряку (782-806)",
                "180": "Эпоха Бунсё (1466-1467)",
                "181": "Эпоха Онин (1467-1469)",
                "182": "Эпоха Буммэй (1469-1487)",
                "183": "Эпоха Тёкё (1487-1489)",
                "184": "Эпоха Энтоку (1489-1492)",
                "185": "Эпоха Мэйо (1492-1501)",
                "186": "Эпоха Бунки (1501-1504)",
                "187": "Эпоха Эйсё (1504-1521)",
                "188": "Эпоха Тайэй (1521-1528)",
                "189": "Эпоха Кёроку (1528-1532)",
                "19": "Эпоха Дайдо (806-810)",
                "190": "Эпоха Тэммон (1532-1555)",
                "191": "Эпоха Кодзи (1555-1558)",
                "192": "Эпоха Эйроку (1558-1570)",
                "193": "Эпоха Гэнки (1570-1573)",
                "194": "Эпоха Тэнсё (1573-1592)",
                "195": "Эпоха Бунроку (1592-1596)",
                "196": "Эпоха Кэйтё (1596-1615)",
                "197": "Эпоха Гэнва (1615-1624)",
                "198": "Эпоха Канъэй (1624-1644)",
                "199": "Эпоха Сёхо (1644-1648)",
                "2": "Эпоха Хакухо (672-686)",
                "20": "Эпоха Конин (810-824)",
                "200": "Эпоха Кэйан (1648-1652)",
                "201": "Эпоха Сё (1652-1655)",
                "202": "Эпоха Мэйряку (1655-1658)",
                "203": "Эпоха Мандзи (1658-1661)",
                "204": "Эпоха Камбун (1661-1673)",
                "205": "Эпоха Эмпо (1673-1681)",
                "206": "Эпоха Тэнва (1681-1684)",
                "207": "Эпоха Дзёкё (1684-1688)",
                "208": "Эпоха Гэнроку (1688-1704)",
                "209": "Эпоха Хоэй (1704-1711)",
                "21": "Эпоха Тентьо (824-834)",
                "210": "Эпоха Сётоку (1711-1716)",
                "211": "Эпоха Кёхо (1716-1736)",
                "212": "Эпоха Гэмбун (1736-1741)",
                "213": "Эпоха Кампо (1741-1744)",
                "214": "Эпоха Энкё (1744-1748)",
                "215": "Эпоха Канъэн (1748-1751)",
                "216": "Эпоха Хоряку (1751-1764)",
                "217": "Эпоха Мэйва (1764-1772)",
                "218": "Эпоха Анъэй (1772-1781)",
                "219": "Эпоха Тэммэй (1781-1789)",
                "22": "Эпоха Шова (834-848)",
                "220": "Эпоха Кансэй (1789-1801)",
                "221": "Эпоха Кёва (1801-1804)",
                "222": "Эпоха Бунка (1804-1818)",
                "223": "Эпоха Бунсэй (1818-1830)",
                "224": "Эпоха Тэмпо (1830-1844)",
                "225": "Эпоха Кока (1844-1848)",
                "226": "Эпоха Каэй (1848-1854)",
                "227": "Эпоха Ансэй (1854-1860)",
                "228": "Эпоха Манъэн (1860-1861)",
                "229": "Эпоха Бункю (1861-1864)",
                "23": "Эпоха Кайо (848-851)",
                "230": "Эпоха Гендзи (1864-1865)",
                "231": "Эпоха Кейо (1865-1868)",
                "232": "Эпоха Мэйдзи",
                "233": "Эпоха Тайсьо",
                "234": "Сьова",
                "235": "Эпоха Хэйсэй",
                "24": "Эпоха Ниндзю (851-854)",
                "25": "Эпоха Сайко (854-857)",
                "26": "Эпоха Теннан (857-859)",
                "27": "Эпоха Йоган (859-877)",
                "28": "Эпоха Генкей (877-885)",
                "29": "Эпоха Нинна (885-889)",
                "3": "Эпоха Сючё (686-701)",
                "30": "Эпоха Кампьё (889-898)",
                "31": "Эпоха Сьотай (898-901)",
                "32": "Эпоха Энги (901-923)",
                "33": "Эпоха Ентьо (923-931)",
                "34": "Эпоха Сьёхэй (931-938)",
                "35": "Эпоха Тенгьо (938-947)",
                "36": "Эпоха Тенрияку (947-957)",
                "37": "Эпоха Тентоку (957-961)",
                "38": "Эпоха Ова (961-964)",
                "39": "Эпоха Кохо (964-968)",
                "4": "Эпоха Тайхо (701-704)",
                "40": "Эпоха Анна (968-970)",
                "41": "Эпоха Тенроку (970-973)",
                "42": "Эпоха Теньен (973-976)",
                "43": "Эпоха Дзьоген (976-978)",
                "44": "Эпоха Тенген (978-983)",
                "45": "Эпоха Ейкан (983-985)",
                "46": "Эпоха Канна (985-987)",
                "47": "Эпоха Ейен (987-989)",
                "48": "Эпоха Ейсо (989-990)",
                "49": "Эпоха Сёряку (990-995)",
                "5": "Эпоха Кёюн (704-708)",
                "50": "Эпоха Тётоку (995-999)",
                "51": "Эпоха Тёхо (999-1004)",
                "52": "Эпоха Канко (1004-1012)",
                "53": "Эпоха Тёва (1012-1017)",
                "54": "Эпоха Каннин (1017-1021)",
                "55": "Эпоха Дзиан (1021-1024)",
                "56": "Эпоха Мандзю (1024-1028)",
                "57": "Эпоха Тёгэн (1028-1037)",
                "58": "Эпоха Тёряку (1037-1040)",
                "59": "Эпоха Тёкю (1040-1044)",
                "6": "Эпоха Вадо (708-715)",
                "60": "Эпоха Катоку (1044-1046)",
                "61": "Эпоха Эйсо (1046-1053)",
                "62": "Эпоха Тэнги (1053-1058)",
                "63": "Эпоха Кохэй (1058-1065)",
                "64": "Эпоха Дзиряку (1065-1069)",
                "65": "Эпоха Энкю (1069-1074)",
                "66": "Эпоха Сёхо (1074-1077)",
                "67": "Эпоха Сёряку (1077-1081)",
                "68": "Эпоха Эйхо (1081-1084)",
                "69": "Эпоха Отоку (1084-1087)",
                "7": "Эпоха Рэйки (715-717)",
                "70": "Эпоха Кандзи (1087-1094)",
                "71": "Эпоха Кахо (1094-1096)",
                "72": "Эпоха Эйтё (1096-1097)",
                "73": "Эпоха Сётоку (1097-1099)",
                "74": "Эпоха Кова (1099-1104)",
                "75": "Эпоха Тёдзи (1104-1106)",
                "76": "Эпоха Касё (1106-1108)",
                "77": "Эпоха Тэннин (1108-1110)",
                "78": "Эпоха Тэнъэй (1110-1113)",
                "79": "Эпоха Эйкю (1113-1118)",
                "8": "Эпоха Ёро (717-724)",
                "80": "Эпоха Гэнъэй (1118-1120)",
                "81": "Эпоха Хоан (1120-1124)",
                "82": "Эпоха Тэндзи (1124-1126)",
                "83": "Эпоха Дайдзи (1126-1131)",
                "84": "Эпоха Тэнсё (1131-1132)",
                "85": "Эпоха Тёсё (1132-1135)",
                "86": "Эпоха Хоэн (1135-1141)",
                "87": "Эпоха Эйдзи (1141-1142)",
                "88": "Эпоха Кодзи (1142-1144)",
                "89": "Эпоха Тэнё (1144-1145)",
                "9": "Эпоха Дзинки (724-729)",
                "90": "Эпоха Кюан (1145-1151)",
                "91": "Эпоха Нимпэй (1151-1154)",
                "92": "Эпоха Кюдзю (1154-1156)",
                "93": "Эпоха Хогэн (1156-1159)",
                "94": "Эпоха Хэйдзи (1159-1160)",
                "95": "Эпоха Эйряку (1160-1161)",
                "96": "Эпоха Охо (1161-1163)",
                "97": "Эпоха Тёкан (1163-1165)",
                "98": "Эпоха Эйман (1165-1166)",
                "99": "Эпоха Нинъан (1166-1169)"
              },
              "eraNarrow": {
                "0": "Taika (645-650)",
                "1": "Hakuchi (650-671)",
                "10": "Tempyō (729-749)",
                "100": "Kaō (1169-1171)",
                "101": "Shōan (1171-1175)",
                "102": "Angen (1175-1177)",
                "103": "Jishō (1177-1181)",
                "104": "Yōwa (1181-1182)",
                "105": "Juei (1182-1184)",
                "106": "Genryuku (1184-1185)",
                "107": "Bunji (1185-1190)",
                "108": "Kenkyū (1190-1199)",
                "109": "Shōji (1199-1201)",
                "11": "Tempyō-kampō (749-749)",
                "110": "Kennin (1201-1204)",
                "111": "Genkyū (1204-1206)",
                "112": "Ken-ei (1206-1207)",
                "113": "Shōgen (1207-1211)",
                "114": "Kenryaku (1211-1213)",
                "115": "Kenpō (1213-1219)",
                "116": "Shōkyū (1219-1222)",
                "117": "Jōō (1222-1224)",
                "118": "Gennin (1224-1225)",
                "119": "Karoku (1225-1227)",
                "12": "Tempyō-shōhō (749-757)",
                "120": "Antei (1227-1229)",
                "121": "Kanki (1229-1232)",
                "122": "Jōei (1232-1233)",
                "123": "Tempuku (1233-1234)",
                "124": "Bunryaku (1234-1235)",
                "125": "Katei (1235-1238)",
                "126": "Ryakunin (1238-1239)",
                "127": "En-ō (1239-1240)",
                "128": "Ninji (1240-1243)",
                "129": "Kangen (1243-1247)",
                "13": "Tempyō-hōji (757-765)",
                "130": "Hōji (1247-1249)",
                "131": "Kenchō (1249-1256)",
                "132": "Kōgen (1256-1257)",
                "133": "Shōka (1257-1259)",
                "134": "Shōgen (1259-1260)",
                "135": "Bun-ō (1260-1261)",
                "136": "Kōchō (1261-1264)",
                "137": "Bun-ei (1264-1275)",
                "138": "Kenji (1275-1278)",
                "139": "Kōan (1278-1288)",
                "14": "Temphō-jingo (765-767)",
                "140": "Shōō (1288-1293)",
                "141": "Einin (1293-1299)",
                "142": "Shōan (1299-1302)",
                "143": "Kengen (1302-1303)",
                "144": "Kagen (1303-1306)",
                "145": "Tokuji (1306-1308)",
                "146": "Enkei (1308-1311)",
                "147": "Ōchō (1311-1312)",
                "148": "Shōwa (1312-1317)",
                "149": "Bunpō (1317-1319)",
                "15": "Jingo-keiun (767-770)",
                "150": "Genō (1319-1321)",
                "151": "Genkyō (1321-1324)",
                "152": "Shōchū (1324-1326)",
                "153": "Kareki (1326-1329)",
                "154": "Gentoku (1329-1331)",
                "155": "Genkō (1331-1334)",
                "156": "Kemmu (1334-1336)",
                "157": "Engen (1336-1340)",
                "158": "Kōkoku (1340-1346)",
                "159": "Shōhei (1346-1370)",
                "16": "Hōki (770-780)",
                "160": "Kentoku (1370-1372)",
                "161": "Bunchũ (1372-1375)",
                "162": "Tenju (1375-1379)",
                "163": "Kōryaku (1379-1381)",
                "164": "Kōwa (1381-1384)",
                "165": "Genchũ (1384-1392)",
                "166": "Meitoku (1384-1387)",
                "167": "Kakei (1387-1389)",
                "168": "Kōō (1389-1390)",
                "169": "Meitoku (1390-1394)",
                "17": "Ten-ō (781-782)",
                "170": "Ōei (1394-1428)",
                "171": "Shōchō (1428-1429)",
                "172": "Eikyō (1429-1441)",
                "173": "Kakitsu (1441-1444)",
                "174": "Bun-an (1444-1449)",
                "175": "Hōtoku (1449-1452)",
                "176": "Kyōtoku (1452-1455)",
                "177": "Kōshō (1455-1457)",
                "178": "Chōroku (1457-1460)",
                "179": "Kanshō (1460-1466)",
                "18": "Enryaku (782-806)",
                "180": "Bunshō (1466-1467)",
                "181": "Ōnin (1467-1469)",
                "182": "Bunmei (1469-1487)",
                "183": "Chōkyō (1487-1489)",
                "184": "Entoku (1489-1492)",
                "185": "Meiō (1492-1501)",
                "186": "Bunki (1501-1504)",
                "187": "Eishō (1504-1521)",
                "188": "Taiei (1521-1528)",
                "189": "Kyōroku (1528-1532)",
                "19": "Daidō (806-810)",
                "190": "Tenmon (1532-1555)",
                "191": "Kōji (1555-1558)",
                "192": "Eiroku (1558-1570)",
                "193": "Genki (1570-1573)",
                "194": "Tenshō (1573-1592)",
                "195": "Bunroku (1592-1596)",
                "196": "Keichō (1596-1615)",
                "197": "Genwa (1615-1624)",
                "198": "Kan-ei (1624-1644)",
                "199": "Shōho (1644-1648)",
                "2": "Hakuhō (672-686)",
                "20": "Kōnin (810-824)",
                "200": "Keian (1648-1652)",
                "201": "Shōō (1652-1655)",
                "202": "Meiryaku (1655-1658)",
                "203": "Manji (1658-1661)",
                "204": "Kanbun (1661-1673)",
                "205": "Enpō (1673-1681)",
                "206": "Tenwa (1681-1684)",
                "207": "Jōkyō (1684-1688)",
                "208": "Genroku (1688-1704)",
                "209": "Hōei (1704-1711)",
                "21": "Tenchō (824-834)",
                "210": "Shōtoku (1711-1716)",
                "211": "Kyōhō (1716-1736)",
                "212": "Genbun (1736-1741)",
                "213": "Kanpō (1741-1744)",
                "214": "Enkyō (1744-1748)",
                "215": "Kan-en (1748-1751)",
                "216": "Hōryaku (1751-1764)",
                "217": "Meiwa (1764-1772)",
                "218": "An-ei (1772-1781)",
                "219": "Tenmei (1781-1789)",
                "22": "Jōwa (834-848)",
                "220": "Kansei (1789-1801)",
                "221": "Kyōwa (1801-1804)",
                "222": "Bunka (1804-1818)",
                "223": "Bunsei (1818-1830)",
                "224": "Tenpō (1830-1844)",
                "225": "Kōka (1844-1848)",
                "226": "Kaei (1848-1854)",
                "227": "Ansei (1854-1860)",
                "228": "Man-en (1860-1861)",
                "229": "Bunkyū (1861-1864)",
                "23": "Kajō (848-851)",
                "230": "Genji (1864-1865)",
                "231": "Keiō (1865-1868)",
                "232": "M",
                "233": "T",
                "234": "S",
                "235": "H",
                "24": "Ninju (851-854)",
                "25": "Saiko (854-857)",
                "26": "Tennan (857-859)",
                "27": "Jōgan (859-877)",
                "28": "Genkei (877-885)",
                "29": "Ninna (885-889)",
                "3": "Shuchō (686-701)",
                "30": "Kampyō (889-898)",
                "31": "Shōtai (898-901)",
                "32": "Engi (901-923)",
                "33": "Enchō (923-931)",
                "34": "Shōhei (931-938)",
                "35": "Tengyō (938-947)",
                "36": "Tenryaku (947-957)",
                "37": "Tentoku (957-961)",
                "38": "Ōwa (961-964)",
                "39": "Kōhō (964-968)",
                "4": "Taihō (701-704)",
                "40": "Anna (968-970)",
                "41": "Tenroku (970-973)",
                "42": "Ten-en (973-976)",
                "43": "Jōgen (976-978)",
                "44": "Tengen (978-983)",
                "45": "Eikan (983-985)",
                "46": "Kanna (985-987)",
                "47": "Ei-en (987-989)",
                "48": "Eiso (989-990)",
                "49": "Shōryaku (990-995)",
                "5": "Keiun (704-708)",
                "50": "Chōtoku (995-999)",
                "51": "Chōhō (999-1004)",
                "52": "Kankō (1004-1012)",
                "53": "Chōwa (1012-1017)",
                "54": "Kannin (1017-1021)",
                "55": "Jian (1021-1024)",
                "56": "Manju (1024-1028)",
                "57": "Chōgen (1028-1037)",
                "58": "Chōryaku (1037-1040)",
                "59": "Chōkyū (1040-1044)",
                "6": "Wadō (708-715)",
                "60": "Kantoku (1044-1046)",
                "61": "Eishō (1046-1053)",
                "62": "Tengi (1053-1058)",
                "63": "Kōhei (1058-1065)",
                "64": "Jiryaku (1065-1069)",
                "65": "Enkyū (1069-1074)",
                "66": "Shōho (1074-1077)",
                "67": "Shōryaku (1077-1081)",
                "68": "Eiho (1081-1084)",
                "69": "Ōtoku (1084-1087)",
                "7": "Reiki (715-717)",
                "70": "Kanji (1087-1094)",
                "71": "Kaho (1094-1096)",
                "72": "Eichō (1096-1097)",
                "73": "Shōtoku (1097-1099)",
                "74": "Kōwa (1099-1104)",
                "75": "Chōji (1104-1106)",
                "76": "Kashō (1106-1108)",
                "77": "Tennin (1108-1110)",
                "78": "Ten-ei (1110-1113)",
                "79": "Eikyū (1113-1118)",
                "8": "Yōrō (717-724)",
                "80": "Gen-ei (1118-1120)",
                "81": "Hoan (1120-1124)",
                "82": "Tenji (1124-1126)",
                "83": "Daiji (1126-1131)",
                "84": "Tenshō (1131-1132)",
                "85": "Chōshō (1132-1135)",
                "86": "Hoen (1135-1141)",
                "87": "Eiji (1141-1142)",
                "88": "Kōji (1142-1144)",
                "89": "Tenyō (1144-1145)",
                "9": "Jinki (724-729)",
                "90": "Kyūan (1145-1151)",
                "91": "Ninpei (1151-1154)",
                "92": "Kyūju (1154-1156)",
                "93": "Hogen (1156-1159)",
                "94": "Heiji (1159-1160)",
                "95": "Eiryaku (1160-1161)",
                "96": "Ōho (1161-1163)",
                "97": "Chōkan (1163-1165)",
                "98": "Eiman (1165-1166)",
                "99": "Nin-an (1166-1169)"
              }
            },
            "dateFormats": {
              "full": "EEEE, d MMMM y 'г'. G",
              "long": "d MMMM y 'г'. G",
              "medium": "dd.MM.y G",
              "short": "dd.MM.y G"
            },
            "timeFormats": {
              "full": "H:mm:ss zzzz",
              "long": "H:mm:ss z",
              "medium": "H:mm:ss",
              "short": "H:mm"
            },
            "dateTimeFormats": {
              "full": "{1}, {0}",
              "long": "{1}, {0}",
              "medium": "{1}, {0}",
              "short": "{1}, {0}",
              "availableFormats": {
                "E": "ccc",
                "EHm": "E HH:mm",
                "EHms": "E HH:mm:ss",
                "Ed": "E, d",
                "Ehm": "E h:mm a",
                "Ehms": "E h:mm:ss a",
                "Gy": "y G",
                "GyMMM": "LLL y G",
                "GyMMMEd": "E, d MMM y G",
                "GyMMMd": "d MMM y G",
                "H": "H",
                "Hm": "H:mm",
                "Hms": "H:mm:ss",
                "M": "L",
                "MEd": "E, dd.MM",
                "MMM": "LLL",
                "MMMEd": "ccc, d MMM",
                "MMMd": "d MMM",
                "Md": "dd.MM",
                "d": "d",
                "h": "h a",
                "hm": "h:mm a",
                "hms": "h:mm:ss a",
                "ms": "mm:ss",
                "y": "y G",
                "yyyy": "y G",
                "yyyyM": "MM.y G",
                "yyyyMEd": "E, dd.MM.y G",
                "yyyyMMM": "LLL y G",
                "yyyyMMMEd": "E, d MMM y G",
                "yyyyMMMM": "LLLL y G",
                "yyyyMMMd": "d MMM y G",
                "yyyyMd": "dd.MM.y G",
                "yyyyQQQ": "QQQ y G",
                "yyyyQQQQ": "QQQQ y 'г'. G"
              },
              "appendItems": {
                "Day": "{0} ({2}: {1})",
                "Day-Of-Week": "{0} {1}",
                "Era": "{1} {0}",
                "Hour": "{0} ({2}: {1})",
                "Minute": "{0} ({2}: {1})",
                "Month": "{0} ({2}: {1})",
                "Quarter": "{0} ({2}: {1})",
                "Second": "{0} ({2}: {1})",
                "Timezone": "{0} {1}",
                "Week": "{0} ({2}: {1})",
                "Year": "{1} {0}"
              },
              "intervalFormats": {
                "intervalFormatFallback": "{0} - {1}",
                "H": {
                  "H": "H-H"
                },
                "Hm": {
                  "H": "H:mm-H:mm",
                  "m": "H:mm-H:mm"
                },
                "Hmv": {
                  "H": "H:mm-H:mm v",
                  "m": "H:mm-H:mm v"
                },
                "Hv": {
                  "H": "H-H v"
                },
                "M": {
                  "M": "M-M"
                },
                "MEd": {
                  "M": "E, dd.MM - E, dd.MM",
                  "d": "E, dd.MM - E, dd.MM"
                },
                "MMM": {
                  "M": "LLL-MMM"
                },
                "MMMEd": {
                  "M": "ccc, d MMM - ccc, d MMM",
                  "d": "ccc, d - E, d MMM"
                },
                "MMMM": {
                  "M": "LLLL-LLLL"
                },
                "MMMd": {
                  "M": "d MMM - d MMM",
                  "d": "d-d MMM"
                },
                "Md": {
                  "M": "dd.MM - dd.MM",
                  "d": "dd.MM - dd.MM"
                },
                "d": {
                  "d": "d-d"
                },
                "h": {
                  "a": "h a - h a",
                  "h": "h-h a"
                },
                "hm": {
                  "a": "h:mm a - h:mm a",
                  "h": "h:mm-h:mm a",
                  "m": "h:mm-h:mm a"
                },
                "hmv": {
                  "a": "h:mm a - h:mm a v",
                  "h": "h:mm-h:mm a v",
                  "m": "h:mm-h:mm a v"
                },
                "hv": {
                  "a": "h a - h a v",
                  "h": "h-h a v"
                },
                "y": {
                  "y": "y-y G"
                },
                "yM": {
                  "M": "MM.y - MM.y G",
                  "y": "MM.y - MM.y G"
                },
                "yMEd": {
                  "M": "ccc, dd.MM.y - ccc, dd.MM.y G",
                  "d": "ccc, dd.MM.y - ccc, dd.MM.y G",
                  "y": "ccc, dd.MM.y - ccc, dd.MM.y G"
                },
                "yMMM": {
                  "M": "LLL-LLL y 'г'. G",
                  "y": "LLL y - LLL y 'г'. G"
                },
                "yMMMEd": {
                  "M": "ccc, d MMM - ccc, d MMM y 'г'. G",
                  "d": "ccc, d - ccc, d MMM y 'г'. G",
                  "y": "ccc, d MMM y - ccc, d MMM y 'г'. G"
                },
                "yMMMM": {
                  "M": "LLLL-LLLL y 'г'. G",
                  "y": "LLLL y - LLLL y 'г'. G"
                },
                "yMMMd": {
                  "M": "d MMM - d MMM y 'г'. G",
                  "d": "d-d MMM y 'г'. G",
                  "y": "d MMM y - d MMM y 'г'. G"
                },
                "yMd": {
                  "M": "dd.MM.y - dd.MM.y G",
                  "d": "dd.MM.y - dd.MM.y G",
                  "y": "dd.MM.y - dd.MM.y G"
                }
              }
            }
          }
        }
      }
    }
  }
}
