{
  "main": {
    "ar-EG": {
      "identity": {
        "version": {
          "_cldrVersion": "26",
          "_number": "$Revision: 10819 $"
        },
        "generation": {
          "_date": "$Date: 2014-08-14 22:53:08 -0500 (Thu, 14 Aug 2014) $"
        },
        "language": "ar",
        "territory": "EG"
      },
      "dates": {
        "calendars": {
          "japanese": {
            "months": {
              "format": {
                "abbreviated": {
                  "1": "يناير",
                  "2": "فبراير",
                  "3": "مارس",
                  "4": "أبريل",
                  "5": "مايو",
                  "6": "يونيو",
                  "7": "يوليو",
                  "8": "أغسطس",
                  "9": "سبتمبر",
                  "10": "أكتوبر",
                  "11": "نوفمبر",
                  "12": "ديسمبر"
                },
                "narrow": {
                  "1": "ي",
                  "2": "ف",
                  "3": "م",
                  "4": "أ",
                  "5": "و",
                  "6": "ن",
                  "7": "ل",
                  "8": "غ",
                  "9": "س",
                  "10": "ك",
                  "11": "ب",
                  "12": "د"
                },
                "wide": {
                  "1": "يناير",
                  "2": "فبراير",
                  "3": "مارس",
                  "4": "أبريل",
                  "5": "مايو",
                  "6": "يونيو",
                  "7": "يوليو",
                  "8": "أغسطس",
                  "9": "سبتمبر",
                  "10": "أكتوبر",
                  "11": "نوفمبر",
                  "12": "ديسمبر"
                }
              },
              "stand-alone": {
                "abbreviated": {
                  "1": "يناير",
                  "2": "فبراير",
                  "3": "مارس",
                  "4": "أبريل",
                  "5": "مايو",
                  "6": "يونيو",
                  "7": "يوليو",
                  "8": "أغسطس",
                  "9": "سبتمبر",
                  "10": "أكتوبر",
                  "11": "نوفمبر",
                  "12": "ديسمبر"
                },
                "narrow": {
                  "1": "ي",
                  "2": "ف",
                  "3": "م",
                  "4": "أ",
                  "5": "و",
                  "6": "ن",
                  "7": "ل",
                  "8": "غ",
                  "9": "س",
                  "10": "ك",
                  "11": "ب",
                  "12": "د"
                },
                "wide": {
                  "1": "يناير",
                  "2": "فبراير",
                  "3": "مارس",
                  "4": "أبريل",
                  "5": "مايو",
                  "6": "يونيو",
                  "7": "يوليو",
                  "8": "أغسطس",
                  "9": "سبتمبر",
                  "10": "أكتوبر",
                  "11": "نوفمبر",
                  "12": "ديسمبر"
                }
              }
            },
            "days": {
              "format": {
                "abbreviated": {
                  "sun": "الأحد",
                  "mon": "الاثنين",
                  "tue": "الثلاثاء",
                  "wed": "الأربعاء",
                  "thu": "الخميس",
                  "fri": "الجمعة",
                  "sat": "السبت"
                },
                "narrow": {
                  "sun": "ح",
                  "mon": "ن",
                  "tue": "ث",
                  "wed": "ر",
                  "thu": "خ",
                  "fri": "ج",
                  "sat": "س"
                },
                "short": {
                  "sun": "الأحد",
                  "mon": "الاثنين",
                  "tue": "الثلاثاء",
                  "wed": "الأربعاء",
                  "thu": "الخميس",
                  "fri": "الجمعة",
                  "sat": "السبت"
                },
                "wide": {
                  "sun": "الأحد",
                  "mon": "الاثنين",
                  "tue": "الثلاثاء",
                  "wed": "الأربعاء",
                  "thu": "الخميس",
                  "fri": "الجمعة",
                  "sat": "السبت"
                }
              },
              "stand-alone": {
                "abbreviated": {
                  "sun": "الأحد",
                  "mon": "الاثنين",
                  "tue": "الثلاثاء",
                  "wed": "الأربعاء",
                  "thu": "الخميس",
                  "fri": "الجمعة",
                  "sat": "السبت"
                },
                "narrow": {
                  "sun": "ح",
                  "mon": "ن",
                  "tue": "ث",
                  "wed": "ر",
                  "thu": "خ",
                  "fri": "ج",
                  "sat": "س"
                },
                "short": {
                  "sun": "الأحد",
                  "mon": "الاثنين",
                  "tue": "الثلاثاء",
                  "wed": "الأربعاء",
                  "thu": "الخميس",
                  "fri": "الجمعة",
                  "sat": "السبت"
                },
                "wide": {
                  "sun": "الأحد",
                  "mon": "الاثنين",
                  "tue": "الثلاثاء",
                  "wed": "الأربعاء",
                  "thu": "الخميس",
                  "fri": "الجمعة",
                  "sat": "السبت"
                }
              }
            },
            "quarters": {
              "format": {
                "abbreviated": {
                  "1": "الربع الأول",
                  "2": "الربع الثاني",
                  "3": "الربع الثالث",
                  "4": "الربع الرابع"
                },
                "narrow": {
                  "1": "١",
                  "2": "٢",
                  "3": "٣",
                  "4": "٤"
                },
                "wide": {
                  "1": "الربع الأول",
                  "2": "الربع الثاني",
                  "3": "الربع الثالث",
                  "4": "الربع الرابع"
                }
              },
              "stand-alone": {
                "abbreviated": {
                  "1": "الربع الأول",
                  "2": "الربع الثاني",
                  "3": "الربع الثالث",
                  "4": "الربع الرابع"
                },
                "narrow": {
                  "1": "١",
                  "2": "٢",
                  "3": "٣",
                  "4": "٤"
                },
                "wide": {
                  "1": "الربع الأول",
                  "2": "الربع الثاني",
                  "3": "الربع الثالث",
                  "4": "الربع الرابع"
                }
              }
            },
            "dayPeriods": {
              "format": {
                "abbreviated": {
                  "am": "ص",
                  "noon": "ظ",
                  "pm": "م"
                },
                "narrow": {
                  "am": "ص",
                  "noon": "ظ",
                  "pm": "م"
                },
                "wide": {
                  "am": "ص",
                  "noon": "ظ",
                  "pm": "م"
                }
              },
              "stand-alone": {
                "abbreviated": {
                  "am": "ص",
                  "noon": "ظ",
                  "pm": "م"
                },
                "narrow": {
                  "am": "ص",
                  "noon": "ظ",
                  "pm": "م"
                },
                "wide": {
                  "am": "ص",
                  "noon": "ظ",
                  "pm": "م"
                }
              }
            },
            "eras": {
              "eraNames": {
                "0": "تيكا",
                "1": "هاكتشي",
                "10": "تمبيو",
                "100": "كاو",
                "101": "شون",
                "102": "أنجين",
                "103": "جيشو",
                "104": "يووا",
                "105": "جيي",
                "106": "جنريوكو",
                "107": "بنجي",
                "108": "كنكيو",
                "109": "شوجي",
                "11": "تمبيو-كامبو",
                "110": "كنين",
                "111": "جنكيو (١٢٠٤–١٢٠٦)‏",
                "112": "كن-اي",
                "113": "شوجن (١٢٠٧–١٢١١)‏",
                "114": "كنرياكو",
                "115": "كنبو (١٢١٣–١٢١٩)‏",
                "116": "شوكيو",
                "117": "جو",
                "118": "جيننين",
                "119": "كروكو",
                "12": "تمبيو-شوهو",
                "120": "أنتيي",
                "121": "كنكي",
                "122": "جويي",
                "123": "تمبكو",
                "124": "بنرياكو",
                "125": "كاتيي",
                "126": "رياكنين",
                "127": "ان-أو",
                "128": "نينجي",
                "129": "كنجين",
                "13": "تمبيو-هوجي",
                "130": "هوجي",
                "131": "كنتشو",
                "132": "كوجن",
                "133": "شوكا",
                "134": "شوجن (١٢٥٩–١٢٦٠)‏",
                "135": "بن-أو",
                "136": "كوتشو",
                "137": "بن-اي",
                "138": "كنجي",
                "139": "كوان",
                "14": "تمفو-جينجو",
                "140": "شوو (١٢٨٨–١٢٩٣)‏",
                "141": "اينين",
                "142": "شوان",
                "143": "كنجن",
                "144": "كجن",
                "145": "توكجي",
                "146": "انكي",
                "147": "أوتشو",
                "148": "شووا (١٣١٢–١٣١٧)‏",
                "149": "بنبو",
                "15": "جينجو-كيين",
                "150": "جنو",
                "151": "جنكيو (١٣٢١–١٣٢٤)‏",
                "152": "شوتشو (١٣٢٤–١٣٢٦)‏",
                "153": "كريكي",
                "154": "جنتكو",
                "155": "جنكو",
                "156": "كمو",
                "157": "إنجن",
                "158": "كوككو",
                "159": "شوهي",
                "16": "هوكي",
                "160": "كنتكو",
                "161": "بنتشو",
                "162": "تنجو",
                "163": "كورياكو",
                "164": "كووا (١٣٨١–١٣٨٤)‏",
                "165": "جنتشو",
                "166": "مييتكو (١٣٨٤–١٣٨٧)‏",
                "167": "كاكي",
                "168": "كو",
                "169": "مييتكو (١٣٩٠–١٣٩٤)‏",
                "17": "تن-أو",
                "170": "أويي",
                "171": "شوتشو (١٤٢٨–١٤٢٩)‏",
                "172": "ايكيو (١٤٢٩–١٤٤١)‏",
                "173": "ككيتسو",
                "174": "بن-أن",
                "175": "هوتكو",
                "176": "كيوتكو",
                "177": "كوشو",
                "178": "تشوركو",
                "179": "كنشو",
                "18": "إنرياكو",
                "180": "بنشو",
                "181": "أونين",
                "182": "بنمي",
                "183": "تشوكيو (١٤٨٧–١٤٨٩)‏",
                "184": "انتكو",
                "185": "ميو",
                "186": "بنكي",
                "187": "ايشو (١٥٠٤–١٥٢١)‏",
                "188": "تييي",
                "189": "كيوركو",
                "19": "ديدو",
                "190": "تنمن",
                "191": "كوجي (١٥٥٥–١٥٥٨)‏",
                "192": "ايركو",
                "193": "جنكي",
                "194": "تنشو (١٥٧٣–١٥٩٢)‏",
                "195": "بنركو",
                "196": "كيتشو",
                "197": "جنوا",
                "198": "كان-اي",
                "199": "شوهو (١٦٤٤–١٦٤٨)‏",
                "2": "هاكهو",
                "20": "كونين",
                "200": "كيان",
                "201": "شوو (١٦٥٢–١٦٥٥)‏",
                "202": "ميرياكو",
                "203": "منجي",
                "204": "كنبن",
                "205": "انبو",
                "206": "تنوا",
                "207": "جوكيو",
                "208": "جنركو",
                "209": "هويي",
                "21": "تنتشو",
                "210": "شوتكو",
                "211": "كيوهو",
                "212": "جنبن",
                "213": "كنبو (١٧٤١–١٧٤٤)‏",
                "214": "انكيو (١٧٤٤–١٧٤٨)‏",
                "215": "كان-ان",
                "216": "هورياكو",
                "217": "مييوا",
                "218": "ان-اي",
                "219": "تنمي",
                "22": "شووا (٨٣٤–٨٤٨)‏",
                "220": "كنسي",
                "221": "كيووا",
                "222": "بنكا",
                "223": "بنسي",
                "224": "تنبو",
                "225": "كوكا",
                "226": "كاي",
                "227": "أنسي",
                "228": "من-ان",
                "229": "بنكيو",
                "23": "كاجو",
                "230": "جنجي",
                "231": "كيو",
                "232": "ميجي",
                "233": "تيشو",
                "234": "شووا",
                "235": "هيسي",
                "24": "نينجو",
                "25": "سيكو",
                "26": "تنان",
                "27": "جوجان",
                "28": "جينكيي",
                "29": "نينا",
                "3": "شتشو",
                "30": "كامبيو",
                "31": "شوتاي",
                "32": "انجي",
                "33": "انتشو",
                "34": "شوهيي",
                "35": "تنجيو",
                "36": "تنرياكو",
                "37": "تنتوكو",
                "38": "أووا",
                "39": "كوهو",
                "4": "تيهو",
                "40": "آنا",
                "41": "تينروكو",
                "42": "تن-نن",
                "43": "جوجن",
                "44": "تنجن",
                "45": "إيكان",
                "46": "كانا",
                "47": "اي-ان",
                "48": "ايسو",
                "49": "شورياكو (٩٩٠–٩٩٥)‏",
                "5": "كيين",
                "50": "تشوتوكو",
                "51": "تشوهو",
                "52": "كانكو",
                "53": "تشووا",
                "54": "كانين",
                "55": "جاين",
                "56": "مانجو",
                "57": "تشوجين",
                "58": "تشورياكو",
                "59": "تشوكيو (١٠٤٠–١٠٤٤)‏",
                "6": "وادو",
                "60": "كانتوكو",
                "61": "ايشو (١٠٤٦–١٠٥٣)‏",
                "62": "تينجي",
                "63": "كوهيي",
                "64": "جيرياكو",
                "65": "انكيو (١٠٦٩–١٠٧٤)‏",
                "66": "شوهو (١٠٧٤–١٠٧٧)‏",
                "67": "شورياكو (١٠٧٧–١٠٨١)‏",
                "68": "ايهو",
                "69": "أوتوكو",
                "7": "رييكي",
                "70": "كانجي",
                "71": "كاهو",
                "72": "ايتشو",
                "73": "شوتوكو",
                "74": "كووا (١٠٩٩–١١٠٤)‏",
                "75": "تشوجي",
                "76": "كاشو",
                "77": "تنين",
                "78": "تن-اي",
                "79": "ايكيو (١١١٣–١١١٨)‏",
                "8": "يورو",
                "80": "جن-اي",
                "81": "هوان",
                "82": "تنجي",
                "83": "ديجي",
                "84": "تنشو (١١٣١–١١٣٢)‏",
                "85": "تشوشو",
                "86": "هوين",
                "87": "ايجي",
                "88": "كوجي (١١٤٢–١١٤٤)‏",
                "89": "تنيو",
                "9": "جينكي",
                "90": "كيوان",
                "91": "نينبيي",
                "92": "كيوجو",
                "93": "هجين",
                "94": "هيجي",
                "95": "ايرياكو",
                "96": "أوهو",
                "97": "تشوكان",
                "98": "ايمان",
                "99": "نين-ان"
              },
              "eraAbbr": {
                "0": "تيكا",
                "1": "هاكتشي",
                "10": "تمبيو",
                "100": "كاو",
                "101": "شون",
                "102": "أنجين",
                "103": "جيشو",
                "104": "يووا",
                "105": "جيي",
                "106": "جنريوكو",
                "107": "بنجي",
                "108": "كنكيو",
                "109": "شوجي",
                "11": "تمبيو-كامبو",
                "110": "كنين",
                "111": "جنكيو (١٢٠٤–١٢٠٦)‏",
                "112": "كن-اي",
                "113": "شوجن (١٢٠٧–١٢١١)‏",
                "114": "كنرياكو",
                "115": "كنبو (١٢١٣–١٢١٩)‏",
                "116": "شوكيو",
                "117": "جو",
                "118": "جيننين",
                "119": "كروكو",
                "12": "تمبيو-شوهو",
                "120": "أنتيي",
                "121": "كنكي",
                "122": "جويي",
                "123": "تمبكو",
                "124": "بنرياكو",
                "125": "كاتيي",
                "126": "رياكنين",
                "127": "ان-أو",
                "128": "نينجي",
                "129": "كنجين",
                "13": "تمبيو-هوجي",
                "130": "هوجي",
                "131": "كنتشو",
                "132": "كوجن",
                "133": "شوكا",
                "134": "شوجن (١٢٥٩–١٢٦٠)‏",
                "135": "بن-أو",
                "136": "كوتشو",
                "137": "بن-اي",
                "138": "كنجي",
                "139": "كوان",
                "14": "تمفو-جينجو",
                "140": "شوو (١٢٨٨–١٢٩٣)‏",
                "141": "اينين",
                "142": "شوان",
                "143": "كنجن",
                "144": "كجن",
                "145": "توكجي",
                "146": "انكي",
                "147": "أوتشو",
                "148": "شووا (١٣١٢–١٣١٧)‏",
                "149": "بنبو",
                "15": "جينجو-كيين",
                "150": "جنو",
                "151": "جنكيو (١٣٢١–١٣٢٤)‏",
                "152": "شوتشو (١٣٢٤–١٣٢٦)‏",
                "153": "كريكي",
                "154": "جنتكو",
                "155": "جنكو",
                "156": "كمو",
                "157": "إنجن",
                "158": "كوككو",
                "159": "شوهي",
                "16": "هوكي",
                "160": "كنتكو",
                "161": "بنتشو",
                "162": "تنجو",
                "163": "كورياكو",
                "164": "كووا (١٣٨١–١٣٨٤)‏",
                "165": "جنتشو",
                "166": "مييتكو (١٣٨٤–١٣٨٧)‏",
                "167": "كاكي",
                "168": "كو",
                "169": "مييتكو (١٣٩٠–١٣٩٤)‏",
                "17": "تن-أو",
                "170": "أويي",
                "171": "شوتشو (١٤٢٨–١٤٢٩)‏",
                "172": "ايكيو (١٤٢٩–١٤٤١)‏",
                "173": "ككيتسو",
                "174": "بن-أن",
                "175": "هوتكو",
                "176": "كيوتكو",
                "177": "كوشو",
                "178": "تشوركو",
                "179": "كنشو",
                "18": "إنرياكو",
                "180": "بنشو",
                "181": "أونين",
                "182": "بنمي",
                "183": "تشوكيو (١٤٨٧–١٤٨٩)‏",
                "184": "انتكو",
                "185": "ميو",
                "186": "بنكي",
                "187": "ايشو (١٥٠٤–١٥٢١)‏",
                "188": "تييي",
                "189": "كيوركو",
                "19": "ديدو",
                "190": "تنمن",
                "191": "كوجي (١٥٥٥–١٥٥٨)‏",
                "192": "ايركو",
                "193": "جنكي",
                "194": "تنشو (١٥٧٣–١٥٩٢)‏",
                "195": "بنركو",
                "196": "كيتشو",
                "197": "جنوا",
                "198": "كان-اي",
                "199": "شوهو (١٦٤٤–١٦٤٨)‏",
                "2": "هاكهو",
                "20": "كونين",
                "200": "كيان",
                "201": "شوو (١٦٥٢–١٦٥٥)‏",
                "202": "ميرياكو",
                "203": "منجي",
                "204": "كنبن",
                "205": "انبو",
                "206": "تنوا",
                "207": "جوكيو",
                "208": "جنركو",
                "209": "هويي",
                "21": "تنتشو",
                "210": "شوتكو",
                "211": "كيوهو",
                "212": "جنبن",
                "213": "كنبو (١٧٤١–١٧٤٤)‏",
                "214": "انكيو (١٧٤٤–١٧٤٨)‏",
                "215": "كان-ان",
                "216": "هورياكو",
                "217": "مييوا",
                "218": "ان-اي",
                "219": "تنمي",
                "22": "شووا (٨٣٤–٨٤٨)‏",
                "220": "كنسي",
                "221": "كيووا",
                "222": "بنكا",
                "223": "بنسي",
                "224": "تنبو",
                "225": "كوكا",
                "226": "كاي",
                "227": "أنسي",
                "228": "من-ان",
                "229": "بنكيو",
                "23": "كاجو",
                "230": "جنجي",
                "231": "كيو",
                "232": "ميجي",
                "233": "تيشو",
                "234": "شووا",
                "235": "هيسي",
                "24": "نينجو",
                "25": "سيكو",
                "26": "تنان",
                "27": "جوجان",
                "28": "جينكيي",
                "29": "نينا",
                "3": "شتشو",
                "30": "كامبيو",
                "31": "شوتاي",
                "32": "انجي",
                "33": "انتشو",
                "34": "شوهيي",
                "35": "تنجيو",
                "36": "تنرياكو",
                "37": "تنتوكو",
                "38": "أووا",
                "39": "كوهو",
                "4": "تيهو",
                "40": "آنا",
                "41": "تينروكو",
                "42": "تن-نن",
                "43": "جوجن",
                "44": "تنجن",
                "45": "إيكان",
                "46": "كانا",
                "47": "اي-ان",
                "48": "ايسو",
                "49": "شورياكو (٩٩٠–٩٩٥)‏",
                "5": "كيين",
                "50": "تشوتوكو",
                "51": "تشوهو",
                "52": "كانكو",
                "53": "تشووا",
                "54": "كانين",
                "55": "جاين",
                "56": "مانجو",
                "57": "تشوجين",
                "58": "تشورياكو",
                "59": "تشوكيو (١٠٤٠–١٠٤٤)‏",
                "6": "وادو",
                "60": "كانتوكو",
                "61": "ايشو (١٠٤٦–١٠٥٣)‏",
                "62": "تينجي",
                "63": "كوهيي",
                "64": "جيرياكو",
                "65": "انكيو (١٠٦٩–١٠٧٤)‏",
                "66": "شوهو (١٠٧٤–١٠٧٧)‏",
                "67": "شورياكو (١٠٧٧–١٠٨١)‏",
                "68": "ايهو",
                "69": "أوتوكو",
                "7": "رييكي",
                "70": "كانجي",
                "71": "كاهو",
                "72": "ايتشو",
                "73": "شوتوكو",
                "74": "كووا (١٠٩٩–١١٠٤)‏",
                "75": "تشوجي",
                "76": "كاشو",
                "77": "تنين",
                "78": "تن-اي",
                "79": "ايكيو (١١١٣–١١١٨)‏",
                "8": "يورو",
                "80": "جن-اي",
                "81": "هوان",
                "82": "تنجي",
                "83": "ديجي",
                "84": "تنشو (١١٣١–١١٣٢)‏",
                "85": "تشوشو",
                "86": "هوين",
                "87": "ايجي",
                "88": "كوجي (١١٤٢–١١٤٤)‏",
                "89": "تنيو",
                "9": "جينكي",
                "90": "كيوان",
                "91": "نينبيي",
                "92": "كيوجو",
                "93": "هجين",
                "94": "هيجي",
                "95": "ايرياكو",
                "96": "أوهو",
                "97": "تشوكان",
                "98": "ايمان",
                "99": "نين-ان"
              },
              "eraNarrow": {
                "0": "Taika (645-650)",
                "1": "Hakuchi (650-671)",
                "10": "Tempyō (729-749)",
                "100": "Kaō (1169-1171)",
                "101": "Shōan (1171-1175)",
                "102": "Angen (1175-1177)",
                "103": "Jishō (1177-1181)",
                "104": "Yōwa (1181-1182)",
                "105": "Juei (1182-1184)",
                "106": "Genryuku (1184-1185)",
                "107": "Bunji (1185-1190)",
                "108": "Kenkyū (1190-1199)",
                "109": "Shōji (1199-1201)",
                "11": "Tempyō-kampō (749-749)",
                "110": "Kennin (1201-1204)",
                "111": "Genkyū (1204-1206)",
                "112": "Ken-ei (1206-1207)",
                "113": "Shōgen (1207-1211)",
                "114": "Kenryaku (1211-1213)",
                "115": "Kenpō (1213-1219)",
                "116": "Shōkyū (1219-1222)",
                "117": "Jōō (1222-1224)",
                "118": "Gennin (1224-1225)",
                "119": "Karoku (1225-1227)",
                "12": "Tempyō-shōhō (749-757)",
                "120": "Antei (1227-1229)",
                "121": "Kanki (1229-1232)",
                "122": "Jōei (1232-1233)",
                "123": "Tempuku (1233-1234)",
                "124": "Bunryaku (1234-1235)",
                "125": "Katei (1235-1238)",
                "126": "Ryakunin (1238-1239)",
                "127": "En-ō (1239-1240)",
                "128": "Ninji (1240-1243)",
                "129": "Kangen (1243-1247)",
                "13": "Tempyō-hōji (757-765)",
                "130": "Hōji (1247-1249)",
                "131": "Kenchō (1249-1256)",
                "132": "Kōgen (1256-1257)",
                "133": "Shōka (1257-1259)",
                "134": "Shōgen (1259-1260)",
                "135": "Bun-ō (1260-1261)",
                "136": "Kōchō (1261-1264)",
                "137": "Bun-ei (1264-1275)",
                "138": "Kenji (1275-1278)",
                "139": "Kōan (1278-1288)",
                "14": "Temphō-jingo (765-767)",
                "140": "Shōō (1288-1293)",
                "141": "Einin (1293-1299)",
                "142": "Shōan (1299-1302)",
                "143": "Kengen (1302-1303)",
                "144": "Kagen (1303-1306)",
                "145": "Tokuji (1306-1308)",
                "146": "Enkei (1308-1311)",
                "147": "Ōchō (1311-1312)",
                "148": "Shōwa (1312-1317)",
                "149": "Bunpō (1317-1319)",
                "15": "Jingo-keiun (767-770)",
                "150": "Genō (1319-1321)",
                "151": "Genkyō (1321-1324)",
                "152": "Shōchū (1324-1326)",
                "153": "Kareki (1326-1329)",
                "154": "Gentoku (1329-1331)",
                "155": "Genkō (1331-1334)",
                "156": "Kemmu (1334-1336)",
                "157": "Engen (1336-1340)",
                "158": "Kōkoku (1340-1346)",
                "159": "Shōhei (1346-1370)",
                "16": "Hōki (770-780)",
                "160": "Kentoku (1370-1372)",
                "161": "Bunchũ (1372-1375)",
                "162": "Tenju (1375-1379)",
                "163": "Kōryaku (1379-1381)",
                "164": "Kōwa (1381-1384)",
                "165": "Genchũ (1384-1392)",
                "166": "Meitoku (1384-1387)",
                "167": "Kakei (1387-1389)",
                "168": "Kōō (1389-1390)",
                "169": "Meitoku (1390-1394)",
                "17": "Ten-ō (781-782)",
                "170": "Ōei (1394-1428)",
                "171": "Shōchō (1428-1429)",
                "172": "Eikyō (1429-1441)",
                "173": "Kakitsu (1441-1444)",
                "174": "Bun-an (1444-1449)",
                "175": "Hōtoku (1449-1452)",
                "176": "Kyōtoku (1452-1455)",
                "177": "Kōshō (1455-1457)",
                "178": "Chōroku (1457-1460)",
                "179": "Kanshō (1460-1466)",
                "18": "Enryaku (782-806)",
                "180": "Bunshō (1466-1467)",
                "181": "Ōnin (1467-1469)",
                "182": "Bunmei (1469-1487)",
                "183": "Chōkyō (1487-1489)",
                "184": "Entoku (1489-1492)",
                "185": "Meiō (1492-1501)",
                "186": "Bunki (1501-1504)",
                "187": "Eishō (1504-1521)",
                "188": "Taiei (1521-1528)",
                "189": "Kyōroku (1528-1532)",
                "19": "Daidō (806-810)",
                "190": "Tenmon (1532-1555)",
                "191": "Kōji (1555-1558)",
                "192": "Eiroku (1558-1570)",
                "193": "Genki (1570-1573)",
                "194": "Tenshō (1573-1592)",
                "195": "Bunroku (1592-1596)",
                "196": "Keichō (1596-1615)",
                "197": "Genwa (1615-1624)",
                "198": "Kan-ei (1624-1644)",
                "199": "Shōho (1644-1648)",
                "2": "Hakuhō (672-686)",
                "20": "Kōnin (810-824)",
                "200": "Keian (1648-1652)",
                "201": "Shōō (1652-1655)",
                "202": "Meiryaku (1655-1658)",
                "203": "Manji (1658-1661)",
                "204": "Kanbun (1661-1673)",
                "205": "Enpō (1673-1681)",
                "206": "Tenwa (1681-1684)",
                "207": "Jōkyō (1684-1688)",
                "208": "Genroku (1688-1704)",
                "209": "Hōei (1704-1711)",
                "21": "Tenchō (824-834)",
                "210": "Shōtoku (1711-1716)",
                "211": "Kyōhō (1716-1736)",
                "212": "Genbun (1736-1741)",
                "213": "Kanpō (1741-1744)",
                "214": "Enkyō (1744-1748)",
                "215": "Kan-en (1748-1751)",
                "216": "Hōryaku (1751-1764)",
                "217": "Meiwa (1764-1772)",
                "218": "An-ei (1772-1781)",
                "219": "Tenmei (1781-1789)",
                "22": "Jōwa (834-848)",
                "220": "Kansei (1789-1801)",
                "221": "Kyōwa (1801-1804)",
                "222": "Bunka (1804-1818)",
                "223": "Bunsei (1818-1830)",
                "224": "Tenpō (1830-1844)",
                "225": "Kōka (1844-1848)",
                "226": "Kaei (1848-1854)",
                "227": "Ansei (1854-1860)",
                "228": "Man-en (1860-1861)",
                "229": "Bunkyū (1861-1864)",
                "23": "Kajō (848-851)",
                "230": "Genji (1864-1865)",
                "231": "Keiō (1865-1868)",
                "232": "M",
                "233": "T",
                "234": "S",
                "235": "H",
                "24": "Ninju (851-854)",
                "25": "Saiko (854-857)",
                "26": "Tennan (857-859)",
                "27": "Jōgan (859-877)",
                "28": "Genkei (877-885)",
                "29": "Ninna (885-889)",
                "3": "Shuchō (686-701)",
                "30": "Kampyō (889-898)",
                "31": "Shōtai (898-901)",
                "32": "Engi (901-923)",
                "33": "Enchō (923-931)",
                "34": "Shōhei (931-938)",
                "35": "Tengyō (938-947)",
                "36": "Tenryaku (947-957)",
                "37": "Tentoku (957-961)",
                "38": "Ōwa (961-964)",
                "39": "Kōhō (964-968)",
                "4": "Taihō (701-704)",
                "40": "Anna (968-970)",
                "41": "Tenroku (970-973)",
                "42": "Ten-en (973-976)",
                "43": "Jōgen (976-978)",
                "44": "Tengen (978-983)",
                "45": "Eikan (983-985)",
                "46": "Kanna (985-987)",
                "47": "Ei-en (987-989)",
                "48": "Eiso (989-990)",
                "49": "Shōryaku (990-995)",
                "5": "Keiun (704-708)",
                "50": "Chōtoku (995-999)",
                "51": "Chōhō (999-1004)",
                "52": "Kankō (1004-1012)",
                "53": "Chōwa (1012-1017)",
                "54": "Kannin (1017-1021)",
                "55": "Jian (1021-1024)",
                "56": "Manju (1024-1028)",
                "57": "Chōgen (1028-1037)",
                "58": "Chōryaku (1037-1040)",
                "59": "Chōkyū (1040-1044)",
                "6": "Wadō (708-715)",
                "60": "Kantoku (1044-1046)",
                "61": "Eishō (1046-1053)",
                "62": "Tengi (1053-1058)",
                "63": "Kōhei (1058-1065)",
                "64": "Jiryaku (1065-1069)",
                "65": "Enkyū (1069-1074)",
                "66": "Shōho (1074-1077)",
                "67": "Shōryaku (1077-1081)",
                "68": "Eiho (1081-1084)",
                "69": "Ōtoku (1084-1087)",
                "7": "Reiki (715-717)",
                "70": "Kanji (1087-1094)",
                "71": "Kaho (1094-1096)",
                "72": "Eichō (1096-1097)",
                "73": "Shōtoku (1097-1099)",
                "74": "Kōwa (1099-1104)",
                "75": "Chōji (1104-1106)",
                "76": "Kashō (1106-1108)",
                "77": "Tennin (1108-1110)",
                "78": "Ten-ei (1110-1113)",
                "79": "Eikyū (1113-1118)",
                "8": "Yōrō (717-724)",
                "80": "Gen-ei (1118-1120)",
                "81": "Hoan (1120-1124)",
                "82": "Tenji (1124-1126)",
                "83": "Daiji (1126-1131)",
                "84": "Tenshō (1131-1132)",
                "85": "Chōshō (1132-1135)",
                "86": "Hoen (1135-1141)",
                "87": "Eiji (1141-1142)",
                "88": "Kōji (1142-1144)",
                "89": "Tenyō (1144-1145)",
                "9": "Jinki (724-729)",
                "90": "Kyūan (1145-1151)",
                "91": "Ninpei (1151-1154)",
                "92": "Kyūju (1154-1156)",
                "93": "Hogen (1156-1159)",
                "94": "Heiji (1159-1160)",
                "95": "Eiryaku (1160-1161)",
                "96": "Ōho (1161-1163)",
                "97": "Chōkan (1163-1165)",
                "98": "Eiman (1165-1166)",
                "99": "Nin-an (1166-1169)"
              }
            },
            "dateFormats": {
              "full": "EEEE، d MMMM، y G",
              "long": "d MMMM، y G",
              "medium": "dd‏/MM‏/y G",
              "short": "d‏/M‏/y GGGGG"
            },
            "timeFormats": {
              "full": "h:mm:ss a zzzz",
              "long": "h:mm:ss a z",
              "medium": "h:mm:ss a",
              "short": "h:mm a"
            },
            "dateTimeFormats": {
              "full": "{1} {0}",
              "long": "{1} {0}",
              "medium": "{1} {0}",
              "short": "{1} {0}",
              "availableFormats": {
                "E": "ccc",
                "EHm": "E HH:mm",
                "EHms": "E HH:mm:ss",
                "Ed": "E، d",
                "Ehm": "E h:mm a",
                "Ehms": "E h:mm:ss a",
                "Gy": "y G",
                "GyMMM": "MMM y G",
                "GyMMMEd": "E، d MMM، y G",
                "GyMMMd": "d MMM، y G",
                "H": "HH",
                "Hm": "HH:mm",
                "Hms": "HH:mm:ss",
                "M": "L",
                "MEd": "E، d/M",
                "MMM": "LLL",
                "MMMEd": "E، d MMM",
                "MMMd": "d MMM",
                "Md": "d/‏M",
                "d": "d",
                "h": "h a",
                "hm": "h:mm a",
                "hms": "h:mm:ss a",
                "ms": "mm:ss",
                "y": "y G",
                "yyyy": "y G",
                "yyyyM": "M‏/y G",
                "yyyyMEd": "E، d/‏M/‏y G",
                "yyyyMMM": "MMM، y G",
                "yyyyMMMEd": "E، d MMM، y G",
                "yyyyMMMM": "MMMM، y G",
                "yyyyMMMd": "d MMM، y G",
                "yyyyMd": "d‏/M‏/y G",
                "yyyyQQQ": "QQQ y G",
                "yyyyQQQQ": "QQQQ y G"
              },
              "appendItems": {
                "Day": "{0} ({2}: {1})",
                "Day-Of-Week": "{0} {1}",
                "Era": "{1} {0}",
                "Hour": "{0} ({2}: {1})",
                "Minute": "{0} ({2}: {1})",
                "Month": "{0} ({2}: {1})",
                "Quarter": "{0} ({2}: {1})",
                "Second": "{0} ({2}: {1})",
                "Timezone": "{0} {1}",
                "Week": "{0} ({2}: {1})",
                "Year": "{1} {0}"
              },
              "intervalFormats": {
                "intervalFormatFallback": "{0} – {1}",
                "H": {
                  "H": "HH–HH"
                },
                "Hm": {
                  "H": "HH:mm–HH:mm",
                  "m": "HH:mm–HH:mm"
                },
                "Hmv": {
                  "H": "HH:mm–HH:mm v",
                  "m": "HH:mm–HH:mm v"
                },
                "Hv": {
                  "H": "HH–HH v"
                },
                "M": {
                  "M": "M–M"
                },
                "MEd": {
                  "M": "E، d/‏M – E، d/‏M",
                  "d": "E، d/‏M –‏ E، d/‏M"
                },
                "MMM": {
                  "M": "MMM–MMM"
                },
                "MMMEd": {
                  "M": "E، d MMM – E، d MMM",
                  "d": "E، d – E، d MMM"
                },
                "MMMM": {
                  "M": "LLLL–LLLL"
                },
                "MMMd": {
                  "M": "d MMM – d MMM",
                  "d": "MMM d–d"
                },
                "Md": {
                  "M": "M/d – M/d",
                  "d": "M/d – M/d"
                },
                "d": {
                  "d": "d–d"
                },
                "h": {
                  "a": "h a – h a",
                  "h": "h–h a"
                },
                "hm": {
                  "a": "h:mm a – h:mm a",
                  "h": "h:mm–h:mm a",
                  "m": "h:mm–h:mm a"
                },
                "hmv": {
                  "a": "h:mm a – h:mm a v",
                  "h": "h:mm–h:mm a v",
                  "m": "h:mm–h:mm a v"
                },
                "hv": {
                  "a": "h a – h a v",
                  "h": "h–h a v"
                },
                "y": {
                  "y": "y–y G"
                },
                "yM": {
                  "M": "M‏/y – M‏/y G",
                  "y": "M‏/y – M‏/y G"
                },
                "yMEd": {
                  "M": "E، d‏/M‏/y – E، d‏/M‏/y G",
                  "d": "E، dd‏/MM‏/y – E، dd‏/MM‏/y G",
                  "y": "E، d‏/M‏/y – E، d‏/M‏/y G"
                },
                "yMMM": {
                  "M": "MMM – MMM، y G",
                  "y": "MMM، y – MMM، y G"
                },
                "yMMMEd": {
                  "M": "E، d MMM – E، d MMM، y G",
                  "d": "E، d – E، d MMM، y G",
                  "y": "E، d MMM، y – E، d MMM، y G"
                },
                "yMMMM": {
                  "M": "MMMM – MMMM، y G",
                  "y": "MMMM، y – MMMM، y G"
                },
                "yMMMd": {
                  "M": "d MMM – d MMM، y G",
                  "d": "d–d MMM، y G",
                  "y": "d MMM، y – d MMM، y G"
                },
                "yMd": {
                  "M": "d‏/M‏/y – d‏/M‏/y G",
                  "d": "d‏/M‏/y – d‏/M‏/y G",
                  "y": "d‏/M‏/y – d‏/M‏/y G"
                }
              }
            }
          }
        }
      }
    }
  }
}
