{
  "main": {
    "nl-BE": {
      "identity": {
        "version": {
          "_cldrVersion": "26",
          "_number": "$Revision: 10819 $"
        },
        "generation": {
          "_date": "$Date: 2014-08-14 22:53:08 -0500 (Thu, 14 Aug 2014) $"
        },
        "language": "nl",
        "territory": "BE"
      },
      "localeDisplayNames": {
        "transformNames": {
          "BGN": "BGN",
          "Numeric": "Numeriek",
          "Tone": "Toon",
          "UNGEGN": "UNGEGN",
          "x-Accents": "Accenten",
          "x-Fullwidth": "Volledige breedte",
          "x-Halfwidth": "Halve breedte",
          "x-Jamo": "Jamo",
          "x-Pinyin": "Pinyin",
          "x-Publishing": "Publicatie"
        }
      }
    }
  }
}
