{
  "main": {
    "eo-001": {
      "identity": {
        "version": {
          "_cldrVersion": "26",
          "_number": "$Revision: 10669 $"
        },
        "generation": {
          "_date": "$Date: 2014-07-23 16:10:33 -0500 (Wed, 23 Jul 2014) $"
        },
        "language": "eo",
        "territory": "001"
      },
      "dates": {
        "calendars": {
          "islamic": {
            "months": {
              "format": {
                "abbreviated": {
                  "1": "Muh.",
                  "2": "Saf.",
                  "3": "Rab. I",
                  "4": "Rab. II",
                  "5": "Jum. I",
                  "6": "Jum. II",
                  "7": "Raj.",
                  "8": "Sha.",
                  "9": "Ram.",
                  "10": "Shaw.",
                  "11": "Dhuʻl-Q.",
                  "12": "Dhuʻl-H."
                },
                "narrow": {
                  "1": "1",
                  "2": "2",
                  "3": "3",
                  "4": "4",
                  "5": "5",
                  "6": "6",
                  "7": "7",
                  "8": "8",
                  "9": "9",
                  "10": "10",
                  "11": "11",
                  "12": "12"
                },
                "wide": {
                  "1": "Muharram",
                  "2": "Safar",
                  "3": "Rabiʻ I",
                  "4": "Rabiʻ II",
                  "5": "Jumada I",
                  "6": "Jumada II",
                  "7": "Rajab",
                  "8": "Shaʻban",
                  "9": "Ramadan",
                  "10": "Shawwal",
                  "11": "Dhuʻl-Qiʻdah",
                  "12": "Dhuʻl-Hijjah"
                }
              },
              "stand-alone": {
                "abbreviated": {
                  "1": "Muh.",
                  "2": "Saf.",
                  "3": "Rab. I",
                  "4": "Rab. II",
                  "5": "Jum. I",
                  "6": "Jum. II",
                  "7": "Raj.",
                  "8": "Sha.",
                  "9": "Ram.",
                  "10": "Shaw.",
                  "11": "Dhuʻl-Q.",
                  "12": "Dhuʻl-H."
                },
                "narrow": {
                  "1": "1",
                  "2": "2",
                  "3": "3",
                  "4": "4",
                  "5": "5",
                  "6": "6",
                  "7": "7",
                  "8": "8",
                  "9": "9",
                  "10": "10",
                  "11": "11",
                  "12": "12"
                },
                "wide": {
                  "1": "Muharram",
                  "2": "Safar",
                  "3": "Rabiʻ I",
                  "4": "Rabiʻ II",
                  "5": "Jumada I",
                  "6": "Jumada II",
                  "7": "Rajab",
                  "8": "Shaʻban",
                  "9": "Ramadan",
                  "10": "Shawwal",
                  "11": "Dhuʻl-Qiʻdah",
                  "12": "Dhuʻl-Hijjah"
                }
              }
            },
            "days": {
              "format": {
                "abbreviated": {
                  "sun": "di",
                  "mon": "lu",
                  "tue": "ma",
                  "wed": "me",
                  "thu": "ĵa",
                  "fri": "ve",
                  "sat": "sa"
                },
                "narrow": {
                  "sun": "D",
                  "mon": "L",
                  "tue": "M",
                  "wed": "M",
                  "thu": "Ĵ",
                  "fri": "V",
                  "sat": "S"
                },
                "short": {
                  "sun": "di",
                  "mon": "lu",
                  "tue": "ma",
                  "wed": "me",
                  "thu": "ĵa",
                  "fri": "ve",
                  "sat": "sa"
                },
                "wide": {
                  "sun": "dimanĉo",
                  "mon": "lundo",
                  "tue": "mardo",
                  "wed": "merkredo",
                  "thu": "ĵaŭdo",
                  "fri": "vendredo",
                  "sat": "sabato"
                }
              },
              "stand-alone": {
                "abbreviated": {
                  "sun": "di",
                  "mon": "lu",
                  "tue": "ma",
                  "wed": "me",
                  "thu": "ĵa",
                  "fri": "ve",
                  "sat": "sa"
                },
                "narrow": {
                  "sun": "D",
                  "mon": "L",
                  "tue": "M",
                  "wed": "M",
                  "thu": "Ĵ",
                  "fri": "V",
                  "sat": "S"
                },
                "short": {
                  "sun": "di",
                  "mon": "lu",
                  "tue": "ma",
                  "wed": "me",
                  "thu": "ĵa",
                  "fri": "ve",
                  "sat": "sa"
                },
                "wide": {
                  "sun": "dimanĉo",
                  "mon": "lundo",
                  "tue": "mardo",
                  "wed": "merkredo",
                  "thu": "ĵaŭdo",
                  "fri": "vendredo",
                  "sat": "sabato"
                }
              }
            },
            "quarters": {
              "format": {
                "abbreviated": {
                  "1": "K1",
                  "2": "K2",
                  "3": "K3",
                  "4": "K4"
                },
                "narrow": {
                  "1": "1",
                  "2": "2",
                  "3": "3",
                  "4": "4"
                },
                "wide": {
                  "1": "1-a kvaronjaro",
                  "2": "2-a kvaronjaro",
                  "3": "3-a kvaronjaro",
                  "4": "4-a kvaronjaro"
                }
              },
              "stand-alone": {
                "abbreviated": {
                  "1": "K1",
                  "2": "K2",
                  "3": "K3",
                  "4": "K4"
                },
                "narrow": {
                  "1": "1",
                  "2": "2",
                  "3": "3",
                  "4": "4"
                },
                "wide": {
                  "1": "1-a kvaronjaro",
                  "2": "2-a kvaronjaro",
                  "3": "3-a kvaronjaro",
                  "4": "4-a kvaronjaro"
                }
              }
            },
            "dayPeriods": {
              "format": {
                "abbreviated": {
                  "am": "atm",
                  "noon": "tagmezo",
                  "pm": "ptm"
                },
                "narrow": {
                  "am": "a",
                  "noon": "t",
                  "pm": "p"
                },
                "wide": {
                  "am": "atm",
                  "noon": "tagmezo",
                  "pm": "ptm"
                }
              },
              "stand-alone": {
                "abbreviated": {
                  "am": "atm",
                  "noon": "tagmezo",
                  "pm": "ptm"
                },
                "narrow": {
                  "am": "a",
                  "noon": "t",
                  "pm": "p"
                },
                "wide": {
                  "am": "atm",
                  "noon": "tagmezo",
                  "pm": "ptm"
                }
              }
            },
            "eras": {
              "eraNames": {
                "0": "AH"
              },
              "eraAbbr": {
                "0": "AH"
              },
              "eraNarrow": {
                "0": "AH"
              }
            },
            "dateFormats": {
              "full": "EEEE, d-'a' 'de' MMMM y G",
              "long": "G y-MMMM-dd",
              "medium": "G y-MMM-dd",
              "short": "GGGGG y-MM-dd"
            },
            "timeFormats": {
              "full": "H-'a' 'horo' 'kaj' m:ss zzzz",
              "long": "HH:mm:ss z",
              "medium": "HH:mm:ss",
              "short": "HH:mm"
            },
            "dateTimeFormats": {
              "full": "{1} {0}",
              "long": "{1} {0}",
              "medium": "{1} {0}",
              "short": "{1} {0}",
              "availableFormats": {
                "E": "ccc",
                "EHm": "E HH:mm",
                "EHms": "E HH:mm:ss",
                "Ed": "d, E",
                "Ehm": "E h:mm a",
                "Ehms": "E h:mm:ss a",
                "Gy": "G y",
                "GyMMM": "G y MMM",
                "GyMMMEd": "G y MMM d, E",
                "GyMMMd": "G y MMM d",
                "H": "HH",
                "Hm": "HH:mm",
                "Hms": "HH:mm:ss",
                "M": "L",
                "MEd": "MM-dd, E",
                "MMM": "LLL",
                "MMMEd": "MMM d, E",
                "MMMd": "MMM d",
                "Md": "MM-dd",
                "d": "d",
                "h": "h a",
                "hm": "h:mm a",
                "hms": "h:mm:ss a",
                "ms": "mm:ss",
                "y": "G y",
                "yyyy": "G y",
                "yyyyM": "GGGGG y-MM",
                "yyyyMEd": "GGGGG y-MM-dd, E",
                "yyyyMMM": "G y MMM",
                "yyyyMMMEd": "G y MMM d, E",
                "yyyyMMMd": "G y MMM d",
                "yyyyMd": "GGGGG y-MM-dd",
                "yyyyQQQ": "G y QQQ",
                "yyyyQQQQ": "G y QQQQ"
              },
              "appendItems": {
                "Day": "{0} ({2}: {1})",
                "Day-Of-Week": "{0} {1}",
                "Era": "{1} {0}",
                "Hour": "{0} ({2}: {1})",
                "Minute": "{0} ({2}: {1})",
                "Month": "{0} ({2}: {1})",
                "Quarter": "{0} ({2}: {1})",
                "Second": "{0} ({2}: {1})",
                "Timezone": "{0} {1}",
                "Week": "{0} ({2}: {1})",
                "Year": "{1} {0}"
              },
              "intervalFormats": {
                "intervalFormatFallback": "{0} – {1}",
                "H": {
                  "H": "HH-HH"
                },
                "Hm": {
                  "H": "HH:mm-HH:mm",
                  "m": "HH:mm-HH:mm"
                },
                "Hmv": {
                  "H": "HH:mm-HH:mm v",
                  "m": "HH:mm-HH:mm v"
                },
                "Hv": {
                  "H": "HH-HH v"
                },
                "M": {
                  "M": "M-M"
                },
                "MEd": {
                  "M": "E, MM-dd - E, MM-dd",
                  "d": "E, MM-dd - E, MM-dd"
                },
                "MMM": {
                  "M": "MMM-MMM"
                },
                "MMMEd": {
                  "M": "E, MMM-dd - E, MMM-dd",
                  "d": "E, MMM-dd - E, MMM-dd"
                },
                "MMMd": {
                  "M": "MMM-dd - MMM-dd",
                  "d": "MMM-dd - MMM-dd"
                },
                "Md": {
                  "M": "MM-dd - MM-dd",
                  "d": "MM-dd - MM-dd"
                },
                "d": {
                  "d": "d-d"
                },
                "h": {
                  "a": "h a – h a",
                  "h": "h-h a"
                },
                "hm": {
                  "a": "h:mm a – h:mm a",
                  "h": "h:mm-h:mm a",
                  "m": "h:mm-h:mm a"
                },
                "hmv": {
                  "a": "h:mm a – h:mm a v",
                  "h": "h:mm-h:mm a v",
                  "m": "h:mm-h:mm a v"
                },
                "hv": {
                  "a": "h a – h a v",
                  "h": "h-h a v"
                },
                "y": {
                  "y": "G y-y"
                },
                "yM": {
                  "M": "G y-MM - y-MM",
                  "y": "G y-MM - y-MM"
                },
                "yMEd": {
                  "M": "E, y-MM-dd - E, y-MM-dd",
                  "d": "E, y-MM-dd - E, y-MM-dd",
                  "y": "E, y-MM-dd - E, y-MM-dd"
                },
                "yMMM": {
                  "M": "G y-MMM - y-MMM",
                  "y": "G y-MMM - y-MMM"
                },
                "yMMMEd": {
                  "M": "E, d-'a' 'de' MMM - E, d-'a' 'de' MMM y G",
                  "d": "E, d-'a' - E, d-'a' 'de' MMM y G",
                  "y": "E, d-'a' 'de' MMM y - E, d-'a' 'de' MMM y G"
                },
                "yMMMM": {
                  "M": "G y MMMM–MMMM",
                  "y": "G y MMMM – y MMMM"
                },
                "yMMMd": {
                  "M": "G y-MMM-dd - y-MMM-dd",
                  "d": "G y-MMM-dd - y-MMM-dd",
                  "y": "G y-MMM-dd - y-MMM-dd"
                },
                "yMd": {
                  "M": "G y-MM-dd - y-MM-dd",
                  "d": "G y-MM-dd - y-MM-dd",
                  "y": "G y-MM-dd - y-MM-dd"
                }
              }
            }
          }
        }
      }
    }
  }
}
