{
  "main": {
    "eo-001": {
      "identity": {
        "version": {
          "_cldrVersion": "26",
          "_number": "$Revision: 10669 $"
        },
        "generation": {
          "_date": "$Date: 2014-07-23 16:10:33 -0500 (Wed, 23 Jul 2014) $"
        },
        "language": "eo",
        "territory": "001"
      },
      "units": {
        "long": {
          "per": {
            "compoundUnitPattern": "{0}/{1}"
          },
          "acceleration-g-force": {
            "displayName": "g-force",
            "unitPattern-count-other": "{0} G"
          },
          "acceleration-meter-per-second-squared": {
            "displayName": "m/s²",
            "unitPattern-count-other": "{0} m/s²"
          },
          "angle-arc-minute": {
            "displayName": "arcmin",
            "unitPattern-count-other": "{0}′"
          },
          "angle-arc-second": {
            "displayName": "arcsec",
            "unitPattern-count-other": "{0}″"
          },
          "angle-degree": {
            "displayName": "deg",
            "unitPattern-count-other": "{0}°"
          },
          "angle-radian": {
            "displayName": "rad",
            "unitPattern-count-other": "{0} rad"
          },
          "area-acre": {
            "displayName": "akreoj",
            "unitPattern-count-one": "{0} akreo",
            "unitPattern-count-other": "{0} akreoj"
          },
          "area-hectare": {
            "displayName": "hektaroj",
            "unitPattern-count-one": "{0} hektaro",
            "unitPattern-count-other": "{0} hektaroj"
          },
          "area-square-centimeter": {
            "displayName": "kvadrataj centimetroj",
            "unitPattern-count-one": "{0} kvadrata centimetro",
            "unitPattern-count-other": "{0} kvadrataj centimetroj"
          },
          "area-square-foot": {
            "displayName": "kvadrataj futoj",
            "unitPattern-count-one": "{0} kvadrata futo",
            "unitPattern-count-other": "{0} kvadrataj futoj"
          },
          "area-square-inch": {
            "displayName": "kvadrataj coloj",
            "unitPattern-count-one": "{0} kvadrata colo",
            "unitPattern-count-other": "{0} kvadrataj coloj"
          },
          "area-square-kilometer": {
            "displayName": "kvadrataj kilometroj",
            "unitPattern-count-one": "{0} kvadrata kilometro",
            "unitPattern-count-other": "{0} kvadrataj kilometroj"
          },
          "area-square-meter": {
            "displayName": "kvadrataj metroj",
            "unitPattern-count-one": "{0} kvadrata metro",
            "unitPattern-count-other": "{0} kvadrataj metroj"
          },
          "area-square-mile": {
            "displayName": "kvadrataj mejloj",
            "unitPattern-count-one": "{0} kvadrata mejlo",
            "unitPattern-count-other": "{0} kvadrataj mejloj"
          },
          "area-square-yard": {
            "displayName": "kvadrataj jardoj",
            "unitPattern-count-one": "{0} kvadrata jardo",
            "unitPattern-count-other": "{0} kvadrataj jardoj"
          },
          "consumption-liter-per-kilometer": {
            "displayName": "L/km",
            "unitPattern-count-other": "{0} L/km"
          },
          "consumption-mile-per-gallon": {
            "displayName": "mpg",
            "unitPattern-count-other": "{0} mpg"
          },
          "digital-bit": {
            "displayName": "bitoj",
            "unitPattern-count-one": "{0} bito",
            "unitPattern-count-other": "{0} bitoj"
          },
          "digital-byte": {
            "displayName": "bajtoj",
            "unitPattern-count-one": "{0} bajto",
            "unitPattern-count-other": "{0} bajtoj"
          },
          "digital-gigabit": {
            "displayName": "gigabitoj",
            "unitPattern-count-one": "{0} gigabito",
            "unitPattern-count-other": "{0} gigabitoj"
          },
          "digital-gigabyte": {
            "displayName": "gigabajtoj",
            "unitPattern-count-one": "{0} gigabajto",
            "unitPattern-count-other": "{0} gigabajtoj"
          },
          "digital-kilobit": {
            "displayName": "kilobitoj",
            "unitPattern-count-one": "{0} kilobito",
            "unitPattern-count-other": "{0} kilobitoj"
          },
          "digital-kilobyte": {
            "displayName": "kilobajtoj",
            "unitPattern-count-one": "{0} kilobajto",
            "unitPattern-count-other": "{0} kilobajtoj"
          },
          "digital-megabit": {
            "displayName": "megabitoj",
            "unitPattern-count-one": "{0} megabito",
            "unitPattern-count-other": "{0} megabitoj"
          },
          "digital-megabyte": {
            "displayName": "megabajtoj",
            "unitPattern-count-one": "{0} megabajto",
            "unitPattern-count-other": "{0} megabajtoj"
          },
          "digital-terabit": {
            "displayName": "terabitoj",
            "unitPattern-count-one": "{0} terabito",
            "unitPattern-count-other": "{0} terabitoj"
          },
          "digital-terabyte": {
            "displayName": "terabajtoj",
            "unitPattern-count-one": "{0} terabajto",
            "unitPattern-count-other": "{0} terabajtoj"
          },
          "duration-day": {
            "displayName": "tagoj",
            "unitPattern-count-one": "{0} tago",
            "unitPattern-count-other": "{0} tagoj"
          },
          "duration-hour": {
            "displayName": "horoj",
            "unitPattern-count-one": "{0} horo",
            "unitPattern-count-other": "{0} horoj",
            "perUnitPattern": "{0} por horo"
          },
          "duration-microsecond": {
            "displayName": "μs",
            "unitPattern-count-other": "{0} μs"
          },
          "duration-millisecond": {
            "displayName": "milisekundoj",
            "unitPattern-count-one": "{0} milisekundo",
            "unitPattern-count-other": "{0} milisekundoj"
          },
          "duration-minute": {
            "displayName": "minutoj",
            "unitPattern-count-one": "{0} minuto",
            "unitPattern-count-other": "{0} minutoj"
          },
          "duration-month": {
            "displayName": "monatoj",
            "unitPattern-count-one": "{0} monato",
            "unitPattern-count-other": "{0} monatoj"
          },
          "duration-nanosecond": {
            "displayName": "ns",
            "unitPattern-count-other": "{0} ns"
          },
          "duration-second": {
            "displayName": "sekundoj",
            "unitPattern-count-one": "{0} sekundo",
            "unitPattern-count-other": "{0} sekundoj",
            "perUnitPattern": "{0} por sekundo"
          },
          "duration-week": {
            "displayName": "semajnoj",
            "unitPattern-count-one": "{0} semajno",
            "unitPattern-count-other": "{0} semajnoj"
          },
          "duration-year": {
            "displayName": "jaroj",
            "unitPattern-count-one": "{0} jaro",
            "unitPattern-count-other": "{0} jaroj"
          },
          "electric-ampere": {
            "displayName": "amp",
            "unitPattern-count-other": "{0} A"
          },
          "electric-milliampere": {
            "displayName": "mA",
            "unitPattern-count-other": "{0} mA"
          },
          "electric-ohm": {
            "displayName": "ohm",
            "unitPattern-count-other": "{0} Ω"
          },
          "electric-volt": {
            "displayName": "volt",
            "unitPattern-count-other": "{0} V"
          },
          "energy-calorie": {
            "displayName": "cal",
            "unitPattern-count-other": "{0} cal"
          },
          "energy-foodcalorie": {
            "displayName": "Cal",
            "unitPattern-count-other": "{0} Cal"
          },
          "energy-joule": {
            "displayName": "joule",
            "unitPattern-count-other": "{0} J"
          },
          "energy-kilocalorie": {
            "displayName": "kcal",
            "unitPattern-count-other": "{0} kcal"
          },
          "energy-kilojoule": {
            "displayName": "kJ",
            "unitPattern-count-other": "{0} kJ"
          },
          "energy-kilowatt-hour": {
            "displayName": "kWh",
            "unitPattern-count-other": "{0} kWh"
          },
          "frequency-gigahertz": {
            "displayName": "GHz",
            "unitPattern-count-other": "{0} GHz"
          },
          "frequency-hertz": {
            "displayName": "Hz",
            "unitPattern-count-other": "{0} Hz"
          },
          "frequency-kilohertz": {
            "displayName": "kHz",
            "unitPattern-count-other": "{0} kHz"
          },
          "frequency-megahertz": {
            "displayName": "MHz",
            "unitPattern-count-other": "{0} MHz"
          },
          "length-astronomical-unit": {
            "displayName": "astronomiaj unuoj",
            "unitPattern-count-one": "{0} astronomia unuo",
            "unitPattern-count-other": "{0} astronomiaj unuoj"
          },
          "length-centimeter": {
            "displayName": "centimetroj",
            "unitPattern-count-one": "{0} centimetro",
            "unitPattern-count-other": "{0} centimetroj"
          },
          "length-decimeter": {
            "displayName": "decimetroj",
            "unitPattern-count-one": "{0} decimetro",
            "unitPattern-count-other": "{0} decimetroj"
          },
          "length-fathom": {
            "displayName": "klaftoj",
            "unitPattern-count-one": "{0} klafto",
            "unitPattern-count-other": "{0} klaftoj"
          },
          "length-foot": {
            "displayName": "futoj",
            "unitPattern-count-one": "{0} futo",
            "unitPattern-count-other": "{0} futoj"
          },
          "length-furlong": {
            "displayName": "stadioj",
            "unitPattern-count-one": "{0} stadio",
            "unitPattern-count-other": "{0} stadioj"
          },
          "length-inch": {
            "displayName": "coloj",
            "unitPattern-count-one": "{0} colo",
            "unitPattern-count-other": "{0} coloj"
          },
          "length-kilometer": {
            "displayName": "kilometroj",
            "unitPattern-count-one": "{0} kilometro",
            "unitPattern-count-other": "{0} kilometroj"
          },
          "length-light-year": {
            "displayName": "lumjaroj",
            "unitPattern-count-one": "{0} lumjaro",
            "unitPattern-count-other": "{0} lumjaroj"
          },
          "length-meter": {
            "displayName": "metroj",
            "unitPattern-count-one": "{0} metro",
            "unitPattern-count-other": "{0} metroj"
          },
          "length-micrometer": {
            "displayName": "mikrometroj",
            "unitPattern-count-one": "{0} mikrometro",
            "unitPattern-count-other": "{0} mikrometroj"
          },
          "length-mile": {
            "displayName": "mejloj",
            "unitPattern-count-one": "{0} mejlo",
            "unitPattern-count-other": "{0} mejloj"
          },
          "length-millimeter": {
            "displayName": "milimetroj",
            "unitPattern-count-one": "{0} milimetro",
            "unitPattern-count-other": "{0} milimetroj"
          },
          "length-nanometer": {
            "displayName": "nanometroj",
            "unitPattern-count-one": "{0} nanometro",
            "unitPattern-count-other": "{0} nanometroj"
          },
          "length-nautical-mile": {
            "displayName": "marmejloj",
            "unitPattern-count-one": "{0} marmejlo",
            "unitPattern-count-other": "{0} marmejloj"
          },
          "length-parsec": {
            "displayName": "parsekoj",
            "unitPattern-count-one": "{0} parseko",
            "unitPattern-count-other": "{0} parsekoj"
          },
          "length-picometer": {
            "displayName": "pikometroj",
            "unitPattern-count-one": "{0} pikometro",
            "unitPattern-count-other": "{0} pikometroj"
          },
          "length-yard": {
            "displayName": "jardoj",
            "unitPattern-count-one": "{0} jardo",
            "unitPattern-count-other": "{0} jardoj"
          },
          "light-lux": {
            "displayName": "lx",
            "unitPattern-count-other": "{0} lx"
          },
          "mass-carat": {
            "displayName": "CD",
            "unitPattern-count-other": "{0} CD"
          },
          "mass-gram": {
            "displayName": "gramoj",
            "unitPattern-count-one": "{0} gramo",
            "unitPattern-count-other": "{0} gramoj"
          },
          "mass-kilogram": {
            "displayName": "kilogramoj",
            "unitPattern-count-one": "{0} kilogramo",
            "unitPattern-count-other": "{0} kilogramoj"
          },
          "mass-metric-ton": {
            "displayName": "t",
            "unitPattern-count-other": "{0} t"
          },
          "mass-microgram": {
            "displayName": "µg",
            "unitPattern-count-other": "{0} µg"
          },
          "mass-milligram": {
            "displayName": "mg",
            "unitPattern-count-other": "{0} mg"
          },
          "mass-ounce": {
            "displayName": "oz",
            "unitPattern-count-other": "{0} oz"
          },
          "mass-ounce-troy": {
            "displayName": "oz t",
            "unitPattern-count-other": "{0} oz t"
          },
          "mass-pound": {
            "displayName": "lb",
            "unitPattern-count-other": "{0} lb"
          },
          "mass-stone": {
            "displayName": "st",
            "unitPattern-count-other": "{0} st"
          },
          "mass-ton": {
            "displayName": "tn",
            "unitPattern-count-other": "{0} tn"
          },
          "power-gigawatt": {
            "displayName": "GW",
            "unitPattern-count-other": "{0} GW"
          },
          "power-horsepower": {
            "displayName": "hp",
            "unitPattern-count-other": "{0} hp"
          },
          "power-kilowatt": {
            "displayName": "kW",
            "unitPattern-count-other": "{0} kW"
          },
          "power-megawatt": {
            "displayName": "MW",
            "unitPattern-count-other": "{0} MW"
          },
          "power-milliwatt": {
            "displayName": "mW",
            "unitPattern-count-other": "{0} mW"
          },
          "power-watt": {
            "displayName": "watt",
            "unitPattern-count-other": "{0} W"
          },
          "pressure-hectopascal": {
            "displayName": "hPa",
            "unitPattern-count-other": "{0} hPa"
          },
          "pressure-inch-hg": {
            "displayName": "inHg",
            "unitPattern-count-other": "{0} inHg"
          },
          "pressure-millibar": {
            "displayName": "mbar",
            "unitPattern-count-other": "{0} mbar"
          },
          "pressure-millimeter-of-mercury": {
            "displayName": "mm Hg",
            "unitPattern-count-other": "{0} mm Hg"
          },
          "pressure-pound-per-square-inch": {
            "displayName": "psi",
            "unitPattern-count-other": "{0} psi"
          },
          "proportion-karat": {
            "displayName": "kt",
            "unitPattern-count-other": "{0} kt"
          },
          "speed-kilometer-per-hour": {
            "displayName": "kilometroj en horo",
            "unitPattern-count-one": "{0} kilometro en horo",
            "unitPattern-count-other": "{0} kilometroj en horo"
          },
          "speed-meter-per-second": {
            "displayName": "m/s",
            "unitPattern-count-other": "{0} m/s"
          },
          "speed-mile-per-hour": {
            "displayName": "mi/h",
            "unitPattern-count-other": "{0} mi/h"
          },
          "temperature-celsius": {
            "displayName": "gradoj celsiaj",
            "unitPattern-count-one": "{0} grado celsia",
            "unitPattern-count-other": "{0} gradoj celsiaj"
          },
          "temperature-fahrenheit": {
            "displayName": "°F",
            "unitPattern-count-other": "{0}°F"
          },
          "temperature-kelvin": {
            "displayName": "K",
            "unitPattern-count-other": "{0} K"
          },
          "volume-acre-foot": {
            "displayName": "ac ft",
            "unitPattern-count-other": "{0} ac ft"
          },
          "volume-bushel": {
            "displayName": "bu",
            "unitPattern-count-other": "{0} bu"
          },
          "volume-centiliter": {
            "displayName": "cL",
            "unitPattern-count-other": "{0} cL"
          },
          "volume-cubic-centimeter": {
            "displayName": "cm³",
            "unitPattern-count-other": "{0} cm³"
          },
          "volume-cubic-foot": {
            "displayName": "ft³",
            "unitPattern-count-other": "{0} ft³"
          },
          "volume-cubic-inch": {
            "displayName": "in³",
            "unitPattern-count-other": "{0} in³"
          },
          "volume-cubic-kilometer": {
            "displayName": "km³",
            "unitPattern-count-other": "{0} km³"
          },
          "volume-cubic-meter": {
            "displayName": "m³",
            "unitPattern-count-other": "{0} m³"
          },
          "volume-cubic-mile": {
            "displayName": "mi³",
            "unitPattern-count-other": "{0} mi³"
          },
          "volume-cubic-yard": {
            "displayName": "yd³",
            "unitPattern-count-other": "{0} yd³"
          },
          "volume-cup": {
            "displayName": "cup",
            "unitPattern-count-other": "{0} c"
          },
          "volume-deciliter": {
            "displayName": "dL",
            "unitPattern-count-other": "{0} dL"
          },
          "volume-fluid-ounce": {
            "displayName": "fl oz",
            "unitPattern-count-other": "{0} fl oz"
          },
          "volume-gallon": {
            "displayName": "gal",
            "unitPattern-count-other": "{0} gal"
          },
          "volume-hectoliter": {
            "displayName": "hL",
            "unitPattern-count-other": "{0} hL"
          },
          "volume-liter": {
            "displayName": "litroj",
            "unitPattern-count-one": "{0} litro",
            "unitPattern-count-other": "{0} litroj"
          },
          "volume-megaliter": {
            "displayName": "ML",
            "unitPattern-count-other": "{0} ML"
          },
          "volume-milliliter": {
            "displayName": "mL",
            "unitPattern-count-other": "{0} mL"
          },
          "volume-pint": {
            "displayName": "pt",
            "unitPattern-count-other": "{0} pt"
          },
          "volume-quart": {
            "displayName": "qt",
            "unitPattern-count-other": "{0} qt"
          },
          "volume-tablespoon": {
            "displayName": "tbsp",
            "unitPattern-count-other": "{0} tbsp"
          },
          "volume-teaspoon": {
            "displayName": "tsp",
            "unitPattern-count-other": "{0} tsp"
          }
        },
        "short": {
          "per": {
            "compoundUnitPattern": "{0}/{1}"
          },
          "acceleration-g-force": {
            "displayName": "g-force",
            "unitPattern-count-other": "{0} G"
          },
          "acceleration-meter-per-second-squared": {
            "displayName": "m/s²",
            "unitPattern-count-other": "{0} m/s²"
          },
          "angle-arc-minute": {
            "displayName": "arcmin",
            "unitPattern-count-other": "{0}′"
          },
          "angle-arc-second": {
            "displayName": "arcsec",
            "unitPattern-count-other": "{0}″"
          },
          "angle-degree": {
            "displayName": "deg",
            "unitPattern-count-other": "{0}°"
          },
          "angle-radian": {
            "displayName": "rad",
            "unitPattern-count-other": "{0} rad"
          },
          "area-acre": {
            "displayName": "acre",
            "unitPattern-count-other": "{0} ac"
          },
          "area-hectare": {
            "displayName": "ha",
            "unitPattern-count-one": "{0} ha",
            "unitPattern-count-other": "{0} ha"
          },
          "area-square-centimeter": {
            "displayName": "cm²",
            "unitPattern-count-one": "{0} cm²",
            "unitPattern-count-other": "{0} cm²"
          },
          "area-square-foot": {
            "displayName": "ft²",
            "unitPattern-count-other": "{0} ft²"
          },
          "area-square-inch": {
            "displayName": "in²",
            "unitPattern-count-other": "{0} in²"
          },
          "area-square-kilometer": {
            "displayName": "km²",
            "unitPattern-count-one": "{0} km²",
            "unitPattern-count-other": "{0} km²"
          },
          "area-square-meter": {
            "displayName": "m²",
            "unitPattern-count-one": "{0} m²",
            "unitPattern-count-other": "{0} m²"
          },
          "area-square-mile": {
            "displayName": "mi²",
            "unitPattern-count-other": "{0} mi²"
          },
          "area-square-yard": {
            "displayName": "yd²",
            "unitPattern-count-other": "{0} yd²"
          },
          "consumption-liter-per-kilometer": {
            "displayName": "L/km",
            "unitPattern-count-other": "{0} L/km"
          },
          "consumption-mile-per-gallon": {
            "displayName": "mpg",
            "unitPattern-count-other": "{0} mpg"
          },
          "digital-bit": {
            "displayName": "bit",
            "unitPattern-count-other": "{0} bit"
          },
          "digital-byte": {
            "displayName": "byte",
            "unitPattern-count-other": "{0} byte"
          },
          "digital-gigabit": {
            "displayName": "Gb",
            "unitPattern-count-other": "{0} Gb"
          },
          "digital-gigabyte": {
            "displayName": "GB",
            "unitPattern-count-other": "{0} GB"
          },
          "digital-kilobit": {
            "displayName": "kb",
            "unitPattern-count-other": "{0} kb"
          },
          "digital-kilobyte": {
            "displayName": "kB",
            "unitPattern-count-other": "{0} kB"
          },
          "digital-megabit": {
            "displayName": "Mb",
            "unitPattern-count-other": "{0} Mb"
          },
          "digital-megabyte": {
            "displayName": "MB",
            "unitPattern-count-other": "{0} MB"
          },
          "digital-terabit": {
            "displayName": "Tb",
            "unitPattern-count-other": "{0} Tb"
          },
          "digital-terabyte": {
            "displayName": "TB",
            "unitPattern-count-other": "{0} TB"
          },
          "duration-day": {
            "displayName": "tago",
            "unitPattern-count-one": "{0} t.",
            "unitPattern-count-other": "{0} t."
          },
          "duration-hour": {
            "displayName": "horo",
            "unitPattern-count-one": "{0} h.",
            "unitPattern-count-other": "{0} h.",
            "perUnitPattern": "{0}/h."
          },
          "duration-microsecond": {
            "displayName": "μs",
            "unitPattern-count-other": "{0} μs"
          },
          "duration-millisecond": {
            "displayName": "milisekundo",
            "unitPattern-count-one": "{0} ms.",
            "unitPattern-count-other": "{0} ms."
          },
          "duration-minute": {
            "displayName": "minuto",
            "unitPattern-count-one": "{0} m.",
            "unitPattern-count-other": "{0} m."
          },
          "duration-month": {
            "displayName": "monato",
            "unitPattern-count-one": "{0} mon.",
            "unitPattern-count-other": "{0} mon."
          },
          "duration-nanosecond": {
            "displayName": "ns",
            "unitPattern-count-other": "{0} ns"
          },
          "duration-second": {
            "displayName": "sekundo",
            "unitPattern-count-one": "{0} s.",
            "unitPattern-count-other": "{0} s.",
            "perUnitPattern": "{0}/s."
          },
          "duration-week": {
            "displayName": "semajno",
            "unitPattern-count-other": "{0} w"
          },
          "duration-year": {
            "displayName": "jaro",
            "unitPattern-count-one": "{0} j.",
            "unitPattern-count-other": "{0} j."
          },
          "electric-ampere": {
            "displayName": "amp",
            "unitPattern-count-other": "{0} A"
          },
          "electric-milliampere": {
            "displayName": "mA",
            "unitPattern-count-other": "{0} mA"
          },
          "electric-ohm": {
            "displayName": "ohm",
            "unitPattern-count-other": "{0} Ω"
          },
          "electric-volt": {
            "displayName": "volt",
            "unitPattern-count-other": "{0} V"
          },
          "energy-calorie": {
            "displayName": "cal",
            "unitPattern-count-other": "{0} cal"
          },
          "energy-foodcalorie": {
            "displayName": "Cal",
            "unitPattern-count-other": "{0} Cal"
          },
          "energy-joule": {
            "displayName": "joule",
            "unitPattern-count-other": "{0} J"
          },
          "energy-kilocalorie": {
            "displayName": "kcal",
            "unitPattern-count-other": "{0} kcal"
          },
          "energy-kilojoule": {
            "displayName": "kJ",
            "unitPattern-count-other": "{0} kJ"
          },
          "energy-kilowatt-hour": {
            "displayName": "kWh",
            "unitPattern-count-other": "{0} kWh"
          },
          "frequency-gigahertz": {
            "displayName": "GHz",
            "unitPattern-count-other": "{0} GHz"
          },
          "frequency-hertz": {
            "displayName": "Hz",
            "unitPattern-count-other": "{0} Hz"
          },
          "frequency-kilohertz": {
            "displayName": "kHz",
            "unitPattern-count-other": "{0} kHz"
          },
          "frequency-megahertz": {
            "displayName": "MHz",
            "unitPattern-count-other": "{0} MHz"
          },
          "length-astronomical-unit": {
            "displayName": "au",
            "unitPattern-count-one": "{0} au",
            "unitPattern-count-other": "{0} au"
          },
          "length-centimeter": {
            "displayName": "cm",
            "unitPattern-count-one": "{0} cm",
            "unitPattern-count-other": "{0} cm"
          },
          "length-decimeter": {
            "displayName": "dm",
            "unitPattern-count-one": "{0} dm",
            "unitPattern-count-other": "{0} dm"
          },
          "length-fathom": {
            "displayName": "fm",
            "unitPattern-count-other": "{0} fm"
          },
          "length-foot": {
            "displayName": "ft",
            "unitPattern-count-other": "{0} ft"
          },
          "length-furlong": {
            "displayName": "fur",
            "unitPattern-count-other": "{0} fur"
          },
          "length-inch": {
            "displayName": "in",
            "unitPattern-count-other": "{0} in"
          },
          "length-kilometer": {
            "displayName": "km",
            "unitPattern-count-one": "{0} km",
            "unitPattern-count-other": "{0} km"
          },
          "length-light-year": {
            "displayName": "lj",
            "unitPattern-count-one": "{0} lj",
            "unitPattern-count-other": "{0} lj"
          },
          "length-meter": {
            "displayName": "m",
            "unitPattern-count-one": "{0} m",
            "unitPattern-count-other": "{0} m"
          },
          "length-micrometer": {
            "displayName": "µm",
            "unitPattern-count-one": "{0} µm",
            "unitPattern-count-other": "{0} µm"
          },
          "length-mile": {
            "displayName": "mi",
            "unitPattern-count-other": "{0} mi"
          },
          "length-millimeter": {
            "displayName": "mm",
            "unitPattern-count-one": "{0} mm",
            "unitPattern-count-other": "{0} mm"
          },
          "length-nanometer": {
            "displayName": "nm",
            "unitPattern-count-one": "{0} nm",
            "unitPattern-count-other": "{0} nm"
          },
          "length-nautical-mile": {
            "displayName": "nmi",
            "unitPattern-count-other": "{0} nmi"
          },
          "length-parsec": {
            "displayName": "pc",
            "unitPattern-count-one": "{0} pc",
            "unitPattern-count-other": "{0} pc"
          },
          "length-picometer": {
            "displayName": "pm",
            "unitPattern-count-one": "{0} pm",
            "unitPattern-count-other": "{0} pm"
          },
          "length-yard": {
            "displayName": "yd",
            "unitPattern-count-other": "{0} yd"
          },
          "light-lux": {
            "displayName": "lx",
            "unitPattern-count-other": "{0} lx"
          },
          "mass-carat": {
            "displayName": "CD",
            "unitPattern-count-other": "{0} CD"
          },
          "mass-gram": {
            "displayName": "g",
            "unitPattern-count-one": "{0} g",
            "unitPattern-count-other": "{0} g"
          },
          "mass-kilogram": {
            "displayName": "kg",
            "unitPattern-count-one": "{0} kg",
            "unitPattern-count-other": "{0} kg"
          },
          "mass-metric-ton": {
            "displayName": "t",
            "unitPattern-count-other": "{0} t"
          },
          "mass-microgram": {
            "displayName": "µg",
            "unitPattern-count-other": "{0} µg"
          },
          "mass-milligram": {
            "displayName": "mg",
            "unitPattern-count-other": "{0} mg"
          },
          "mass-ounce": {
            "displayName": "oz",
            "unitPattern-count-other": "{0} oz"
          },
          "mass-ounce-troy": {
            "displayName": "oz t",
            "unitPattern-count-other": "{0} oz t"
          },
          "mass-pound": {
            "displayName": "lb",
            "unitPattern-count-other": "{0} lb"
          },
          "mass-stone": {
            "displayName": "st",
            "unitPattern-count-other": "{0} st"
          },
          "mass-ton": {
            "displayName": "tn",
            "unitPattern-count-other": "{0} tn"
          },
          "power-gigawatt": {
            "displayName": "GW",
            "unitPattern-count-other": "{0} GW"
          },
          "power-horsepower": {
            "displayName": "hp",
            "unitPattern-count-other": "{0} hp"
          },
          "power-kilowatt": {
            "displayName": "kW",
            "unitPattern-count-other": "{0} kW"
          },
          "power-megawatt": {
            "displayName": "MW",
            "unitPattern-count-other": "{0} MW"
          },
          "power-milliwatt": {
            "displayName": "mW",
            "unitPattern-count-other": "{0} mW"
          },
          "power-watt": {
            "displayName": "watt",
            "unitPattern-count-other": "{0} W"
          },
          "pressure-hectopascal": {
            "displayName": "hPa",
            "unitPattern-count-other": "{0} hPa"
          },
          "pressure-inch-hg": {
            "displayName": "inHg",
            "unitPattern-count-other": "{0} inHg"
          },
          "pressure-millibar": {
            "displayName": "mbar",
            "unitPattern-count-other": "{0} mbar"
          },
          "pressure-millimeter-of-mercury": {
            "displayName": "mm Hg",
            "unitPattern-count-other": "{0} mm Hg"
          },
          "pressure-pound-per-square-inch": {
            "displayName": "psi",
            "unitPattern-count-other": "{0} psi"
          },
          "proportion-karat": {
            "displayName": "kt",
            "unitPattern-count-other": "{0} kt"
          },
          "speed-kilometer-per-hour": {
            "displayName": "km/h",
            "unitPattern-count-one": "{0} km/h",
            "unitPattern-count-other": "{0} km/h"
          },
          "speed-meter-per-second": {
            "displayName": "m/s",
            "unitPattern-count-other": "{0} m/s"
          },
          "speed-mile-per-hour": {
            "displayName": "mi/h",
            "unitPattern-count-other": "{0} mi/h"
          },
          "temperature-celsius": {
            "displayName": "°C",
            "unitPattern-count-one": "{0} °C",
            "unitPattern-count-other": "{0} °C"
          },
          "temperature-fahrenheit": {
            "displayName": "°F",
            "unitPattern-count-other": "{0}°F"
          },
          "temperature-kelvin": {
            "displayName": "K",
            "unitPattern-count-other": "{0} K"
          },
          "volume-acre-foot": {
            "displayName": "ac ft",
            "unitPattern-count-other": "{0} ac ft"
          },
          "volume-bushel": {
            "displayName": "bu",
            "unitPattern-count-other": "{0} bu"
          },
          "volume-centiliter": {
            "displayName": "cL",
            "unitPattern-count-other": "{0} cL"
          },
          "volume-cubic-centimeter": {
            "displayName": "cm³",
            "unitPattern-count-other": "{0} cm³"
          },
          "volume-cubic-foot": {
            "displayName": "ft³",
            "unitPattern-count-other": "{0} ft³"
          },
          "volume-cubic-inch": {
            "displayName": "in³",
            "unitPattern-count-other": "{0} in³"
          },
          "volume-cubic-kilometer": {
            "displayName": "km³",
            "unitPattern-count-other": "{0} km³"
          },
          "volume-cubic-meter": {
            "displayName": "m³",
            "unitPattern-count-other": "{0} m³"
          },
          "volume-cubic-mile": {
            "displayName": "mi³",
            "unitPattern-count-other": "{0} mi³"
          },
          "volume-cubic-yard": {
            "displayName": "yd³",
            "unitPattern-count-other": "{0} yd³"
          },
          "volume-cup": {
            "displayName": "cup",
            "unitPattern-count-other": "{0} c"
          },
          "volume-deciliter": {
            "displayName": "dL",
            "unitPattern-count-other": "{0} dL"
          },
          "volume-fluid-ounce": {
            "displayName": "fl oz",
            "unitPattern-count-other": "{0} fl oz"
          },
          "volume-gallon": {
            "displayName": "gal",
            "unitPattern-count-other": "{0} gal"
          },
          "volume-hectoliter": {
            "displayName": "hL",
            "unitPattern-count-other": "{0} hL"
          },
          "volume-liter": {
            "displayName": "L",
            "unitPattern-count-one": "{0} L",
            "unitPattern-count-other": "{0} L"
          },
          "volume-megaliter": {
            "displayName": "ML",
            "unitPattern-count-other": "{0} ML"
          },
          "volume-milliliter": {
            "displayName": "mL",
            "unitPattern-count-other": "{0} mL"
          },
          "volume-pint": {
            "displayName": "pt",
            "unitPattern-count-other": "{0} pt"
          },
          "volume-quart": {
            "displayName": "qt",
            "unitPattern-count-other": "{0} qt"
          },
          "volume-tablespoon": {
            "displayName": "tbsp",
            "unitPattern-count-other": "{0} tbsp"
          },
          "volume-teaspoon": {
            "displayName": "tsp",
            "unitPattern-count-other": "{0} tsp"
          }
        },
        "narrow": {
          "per": {
            "compoundUnitPattern": "{0}/{1}"
          },
          "acceleration-g-force": {
            "displayName": "g-force",
            "unitPattern-count-other": "{0} G"
          },
          "acceleration-meter-per-second-squared": {
            "displayName": "m/s²",
            "unitPattern-count-other": "{0} m/s²"
          },
          "angle-arc-minute": {
            "displayName": "arcmin",
            "unitPattern-count-other": "{0}′"
          },
          "angle-arc-second": {
            "displayName": "arcsec",
            "unitPattern-count-other": "{0}″"
          },
          "angle-degree": {
            "displayName": "deg",
            "unitPattern-count-one": "{0}°",
            "unitPattern-count-other": "{0}°"
          },
          "angle-radian": {
            "displayName": "rad",
            "unitPattern-count-other": "{0} rad"
          },
          "area-acre": {
            "displayName": "acre",
            "unitPattern-count-other": "{0} ac"
          },
          "area-hectare": {
            "displayName": "ha",
            "unitPattern-count-one": "{0}ha",
            "unitPattern-count-other": "{0}ha"
          },
          "area-square-centimeter": {
            "displayName": "cm²",
            "unitPattern-count-one": "{0}cm²",
            "unitPattern-count-other": "{0}cm²"
          },
          "area-square-foot": {
            "displayName": "ft²",
            "unitPattern-count-other": "{0} ft²"
          },
          "area-square-inch": {
            "displayName": "in²",
            "unitPattern-count-other": "{0} in²"
          },
          "area-square-kilometer": {
            "displayName": "km²",
            "unitPattern-count-one": "{0}km²",
            "unitPattern-count-other": "{0}km²"
          },
          "area-square-meter": {
            "displayName": "m²",
            "unitPattern-count-one": "{0}m²",
            "unitPattern-count-other": "{0}m²"
          },
          "area-square-mile": {
            "displayName": "mi²",
            "unitPattern-count-other": "{0} mi²"
          },
          "area-square-yard": {
            "displayName": "yd²",
            "unitPattern-count-other": "{0} yd²"
          },
          "consumption-liter-per-kilometer": {
            "displayName": "L/km",
            "unitPattern-count-other": "{0} L/km"
          },
          "consumption-mile-per-gallon": {
            "displayName": "mpg",
            "unitPattern-count-other": "{0} mpg"
          },
          "digital-bit": {
            "displayName": "bit",
            "unitPattern-count-other": "{0} bit"
          },
          "digital-byte": {
            "displayName": "byte",
            "unitPattern-count-other": "{0} byte"
          },
          "digital-gigabit": {
            "displayName": "Gb",
            "unitPattern-count-other": "{0} Gb"
          },
          "digital-gigabyte": {
            "displayName": "GB",
            "unitPattern-count-other": "{0} GB"
          },
          "digital-kilobit": {
            "displayName": "kb",
            "unitPattern-count-other": "{0} kb"
          },
          "digital-kilobyte": {
            "displayName": "kB",
            "unitPattern-count-other": "{0} kB"
          },
          "digital-megabit": {
            "displayName": "Mb",
            "unitPattern-count-other": "{0} Mb"
          },
          "digital-megabyte": {
            "displayName": "MB",
            "unitPattern-count-other": "{0} MB"
          },
          "digital-terabit": {
            "displayName": "Tb",
            "unitPattern-count-other": "{0} Tb"
          },
          "digital-terabyte": {
            "displayName": "TB",
            "unitPattern-count-other": "{0} TB"
          },
          "duration-day": {
            "displayName": "t.",
            "unitPattern-count-one": "{0}t.",
            "unitPattern-count-other": "{0}t."
          },
          "duration-hour": {
            "displayName": "h.",
            "unitPattern-count-one": "{0}h.",
            "unitPattern-count-other": "{0}h.",
            "perUnitPattern": "{0}/h."
          },
          "duration-microsecond": {
            "displayName": "μs",
            "unitPattern-count-other": "{0} μs"
          },
          "duration-millisecond": {
            "displayName": "ms.",
            "unitPattern-count-one": "{0}ms.",
            "unitPattern-count-other": "{0}ms."
          },
          "duration-minute": {
            "displayName": "m.",
            "unitPattern-count-one": "{0}m.",
            "unitPattern-count-other": "{0}m."
          },
          "duration-month": {
            "displayName": "monato",
            "unitPattern-count-one": "{0} mon.",
            "unitPattern-count-other": "{0} mon."
          },
          "duration-nanosecond": {
            "displayName": "ns",
            "unitPattern-count-other": "{0} ns"
          },
          "duration-second": {
            "displayName": "s.",
            "unitPattern-count-one": "{0}s.",
            "unitPattern-count-other": "{0}s.",
            "perUnitPattern": "{0}/s."
          },
          "duration-week": {
            "displayName": "semajno",
            "unitPattern-count-other": "{0} w"
          },
          "duration-year": {
            "displayName": "j.",
            "unitPattern-count-one": "{0}j.",
            "unitPattern-count-other": "{0}j."
          },
          "electric-ampere": {
            "displayName": "amp",
            "unitPattern-count-other": "{0} A"
          },
          "electric-milliampere": {
            "displayName": "mA",
            "unitPattern-count-other": "{0} mA"
          },
          "electric-ohm": {
            "displayName": "ohm",
            "unitPattern-count-other": "{0} Ω"
          },
          "electric-volt": {
            "displayName": "volt",
            "unitPattern-count-other": "{0} V"
          },
          "energy-calorie": {
            "displayName": "cal",
            "unitPattern-count-other": "{0} cal"
          },
          "energy-foodcalorie": {
            "displayName": "Cal",
            "unitPattern-count-other": "{0} Cal"
          },
          "energy-joule": {
            "displayName": "joule",
            "unitPattern-count-other": "{0} J"
          },
          "energy-kilocalorie": {
            "displayName": "kcal",
            "unitPattern-count-other": "{0} kcal"
          },
          "energy-kilojoule": {
            "displayName": "kJ",
            "unitPattern-count-other": "{0} kJ"
          },
          "energy-kilowatt-hour": {
            "displayName": "kWh",
            "unitPattern-count-other": "{0} kWh"
          },
          "frequency-gigahertz": {
            "displayName": "GHz",
            "unitPattern-count-other": "{0} GHz"
          },
          "frequency-hertz": {
            "displayName": "Hz",
            "unitPattern-count-other": "{0} Hz"
          },
          "frequency-kilohertz": {
            "displayName": "kHz",
            "unitPattern-count-other": "{0} kHz"
          },
          "frequency-megahertz": {
            "displayName": "MHz",
            "unitPattern-count-other": "{0} MHz"
          },
          "length-astronomical-unit": {
            "displayName": "au",
            "unitPattern-count-one": "{0}au",
            "unitPattern-count-other": "{0}au"
          },
          "length-centimeter": {
            "displayName": "cm",
            "unitPattern-count-one": "{0}cm",
            "unitPattern-count-other": "{0}cm"
          },
          "length-decimeter": {
            "displayName": "dm",
            "unitPattern-count-one": "{0}dm",
            "unitPattern-count-other": "{0}dm"
          },
          "length-fathom": {
            "displayName": "fm",
            "unitPattern-count-other": "{0} fm"
          },
          "length-foot": {
            "displayName": "ft",
            "unitPattern-count-other": "{0} ft"
          },
          "length-furlong": {
            "displayName": "fur",
            "unitPattern-count-other": "{0} fur"
          },
          "length-inch": {
            "displayName": "in",
            "unitPattern-count-other": "{0} in"
          },
          "length-kilometer": {
            "displayName": "km",
            "unitPattern-count-one": "{0}km",
            "unitPattern-count-other": "{0}km"
          },
          "length-light-year": {
            "displayName": "lj",
            "unitPattern-count-one": "{0}lj",
            "unitPattern-count-other": "{0}lj"
          },
          "length-meter": {
            "displayName": "m",
            "unitPattern-count-one": "{0}m",
            "unitPattern-count-other": "{0}m"
          },
          "length-micrometer": {
            "displayName": "µm",
            "unitPattern-count-one": "{0}µm",
            "unitPattern-count-other": "{0}µm"
          },
          "length-mile": {
            "displayName": "mi",
            "unitPattern-count-other": "{0} mi"
          },
          "length-millimeter": {
            "displayName": "mm",
            "unitPattern-count-one": "{0}mm",
            "unitPattern-count-other": "{0}mm"
          },
          "length-nanometer": {
            "displayName": "nm",
            "unitPattern-count-one": "{0}nm",
            "unitPattern-count-other": "{0}nm"
          },
          "length-nautical-mile": {
            "displayName": "nmi",
            "unitPattern-count-other": "{0} nmi"
          },
          "length-parsec": {
            "displayName": "pc",
            "unitPattern-count-one": "{0}pc",
            "unitPattern-count-other": "{0}pc"
          },
          "length-picometer": {
            "displayName": "pm",
            "unitPattern-count-one": "{0}pm",
            "unitPattern-count-other": "{0}pm"
          },
          "length-yard": {
            "displayName": "yd",
            "unitPattern-count-other": "{0} yd"
          },
          "light-lux": {
            "displayName": "lx",
            "unitPattern-count-other": "{0} lx"
          },
          "mass-carat": {
            "displayName": "CD",
            "unitPattern-count-other": "{0} CD"
          },
          "mass-gram": {
            "displayName": "g",
            "unitPattern-count-one": "{0}g",
            "unitPattern-count-other": "{0}g"
          },
          "mass-kilogram": {
            "displayName": "kg",
            "unitPattern-count-one": "{0}kg",
            "unitPattern-count-other": "{0}kg"
          },
          "mass-metric-ton": {
            "displayName": "t",
            "unitPattern-count-other": "{0} t"
          },
          "mass-microgram": {
            "displayName": "µg",
            "unitPattern-count-other": "{0} µg"
          },
          "mass-milligram": {
            "displayName": "mg",
            "unitPattern-count-other": "{0} mg"
          },
          "mass-ounce": {
            "displayName": "oz",
            "unitPattern-count-other": "{0} oz"
          },
          "mass-ounce-troy": {
            "displayName": "oz t",
            "unitPattern-count-other": "{0} oz t"
          },
          "mass-pound": {
            "displayName": "lb",
            "unitPattern-count-other": "{0} lb"
          },
          "mass-stone": {
            "displayName": "st",
            "unitPattern-count-other": "{0} st"
          },
          "mass-ton": {
            "displayName": "tn",
            "unitPattern-count-other": "{0} tn"
          },
          "power-gigawatt": {
            "displayName": "GW",
            "unitPattern-count-other": "{0} GW"
          },
          "power-horsepower": {
            "displayName": "hp",
            "unitPattern-count-other": "{0} hp"
          },
          "power-kilowatt": {
            "displayName": "kW",
            "unitPattern-count-other": "{0} kW"
          },
          "power-megawatt": {
            "displayName": "MW",
            "unitPattern-count-other": "{0} MW"
          },
          "power-milliwatt": {
            "displayName": "mW",
            "unitPattern-count-other": "{0} mW"
          },
          "power-watt": {
            "displayName": "watt",
            "unitPattern-count-other": "{0} W"
          },
          "pressure-hectopascal": {
            "displayName": "hPa",
            "unitPattern-count-other": "{0} hPa"
          },
          "pressure-inch-hg": {
            "displayName": "inHg",
            "unitPattern-count-other": "{0} inHg"
          },
          "pressure-millibar": {
            "displayName": "mbar",
            "unitPattern-count-other": "{0} mbar"
          },
          "pressure-millimeter-of-mercury": {
            "displayName": "mm Hg",
            "unitPattern-count-other": "{0} mm Hg"
          },
          "pressure-pound-per-square-inch": {
            "displayName": "psi",
            "unitPattern-count-other": "{0} psi"
          },
          "proportion-karat": {
            "displayName": "kt",
            "unitPattern-count-other": "{0} kt"
          },
          "speed-kilometer-per-hour": {
            "displayName": "km/h",
            "unitPattern-count-one": "{0}km/h",
            "unitPattern-count-other": "{0}km/h"
          },
          "speed-meter-per-second": {
            "displayName": "m/s",
            "unitPattern-count-other": "{0} m/s"
          },
          "speed-mile-per-hour": {
            "displayName": "mi/h",
            "unitPattern-count-other": "{0} mi/h"
          },
          "temperature-celsius": {
            "displayName": "°C",
            "unitPattern-count-one": "{0}°C",
            "unitPattern-count-other": "{0}°C"
          },
          "temperature-fahrenheit": {
            "displayName": "°F",
            "unitPattern-count-other": "{0}°F"
          },
          "temperature-kelvin": {
            "displayName": "K",
            "unitPattern-count-other": "{0} K"
          },
          "volume-acre-foot": {
            "displayName": "ac ft",
            "unitPattern-count-other": "{0} ac ft"
          },
          "volume-bushel": {
            "displayName": "bu",
            "unitPattern-count-other": "{0} bu"
          },
          "volume-centiliter": {
            "displayName": "cL",
            "unitPattern-count-other": "{0} cL"
          },
          "volume-cubic-centimeter": {
            "displayName": "cm³",
            "unitPattern-count-other": "{0} cm³"
          },
          "volume-cubic-foot": {
            "displayName": "ft³",
            "unitPattern-count-other": "{0} ft³"
          },
          "volume-cubic-inch": {
            "displayName": "in³",
            "unitPattern-count-other": "{0} in³"
          },
          "volume-cubic-kilometer": {
            "displayName": "km³",
            "unitPattern-count-other": "{0} km³"
          },
          "volume-cubic-meter": {
            "displayName": "m³",
            "unitPattern-count-other": "{0} m³"
          },
          "volume-cubic-mile": {
            "displayName": "mi³",
            "unitPattern-count-other": "{0} mi³"
          },
          "volume-cubic-yard": {
            "displayName": "yd³",
            "unitPattern-count-other": "{0} yd³"
          },
          "volume-cup": {
            "displayName": "cup",
            "unitPattern-count-other": "{0} c"
          },
          "volume-deciliter": {
            "displayName": "dL",
            "unitPattern-count-other": "{0} dL"
          },
          "volume-fluid-ounce": {
            "displayName": "fl oz",
            "unitPattern-count-other": "{0} fl oz"
          },
          "volume-gallon": {
            "displayName": "gal",
            "unitPattern-count-other": "{0} gal"
          },
          "volume-hectoliter": {
            "displayName": "hL",
            "unitPattern-count-other": "{0} hL"
          },
          "volume-liter": {
            "displayName": "L",
            "unitPattern-count-one": "{0}L",
            "unitPattern-count-other": "{0}L"
          },
          "volume-megaliter": {
            "displayName": "ML",
            "unitPattern-count-other": "{0} ML"
          },
          "volume-milliliter": {
            "displayName": "mL",
            "unitPattern-count-other": "{0} mL"
          },
          "volume-pint": {
            "displayName": "pt",
            "unitPattern-count-other": "{0} pt"
          },
          "volume-quart": {
            "displayName": "qt",
            "unitPattern-count-other": "{0} qt"
          },
          "volume-tablespoon": {
            "displayName": "tbsp",
            "unitPattern-count-other": "{0} tbsp"
          },
          "volume-teaspoon": {
            "displayName": "tsp",
            "unitPattern-count-other": "{0} tsp"
          }
        },
        "durationUnit-type-hm": {
          "durationUnitPattern": "h:mm"
        },
        "durationUnit-type-hms": {
          "durationUnitPattern": "h:mm:ss"
        },
        "durationUnit-type-ms": {
          "durationUnitPattern": "m:ss"
        }
      }
    }
  }
}
