{
  "main": {
    "sbp": {
      "identity": {
        "version": {
          "_cldrVersion": "26",
          "_number": "$Revision: 10739 $"
        },
        "generation": {
          "_date": "$Date: 2014-08-07 12:54:13 -0500 (Thu, 07 Aug 2014) $"
        },
        "language": "root"
      },
      "dates": {
        "calendars": {
          "hebrew": {
            "months": {
              "format": {
                "abbreviated": {
                  "1": "Tishri",
                  "2": "Heshvan",
                  "3": "Kislev",
                  "4": "Tevet",
                  "5": "Shevat",
                  "6": "Adar I",
                  "7": "Adar",
                  "7-yeartype-leap": "Adar II",
                  "8": "Nisan",
                  "9": "Iyar",
                  "10": "Sivan",
                  "11": "Tamuz",
                  "12": "Av",
                  "13": "Elul"
                },
                "narrow": {
                  "1": "1",
                  "2": "2",
                  "3": "3",
                  "4": "4",
                  "5": "5",
                  "6": "6",
                  "7": "7",
                  "7-yeartype-leap": "7",
                  "8": "8",
                  "9": "9",
                  "10": "10",
                  "11": "11",
                  "12": "12",
                  "13": "13"
                },
                "wide": {
                  "1": "Tishri",
                  "2": "Heshvan",
                  "3": "Kislev",
                  "4": "Tevet",
                  "5": "Shevat",
                  "6": "Adar I",
                  "7": "Adar",
                  "7-yeartype-leap": "Adar II",
                  "8": "Nisan",
                  "9": "Iyar",
                  "10": "Sivan",
                  "11": "Tamuz",
                  "12": "Av",
                  "13": "Elul"
                }
              },
              "stand-alone": {
                "abbreviated": {
                  "1": "Tishri",
                  "2": "Heshvan",
                  "3": "Kislev",
                  "4": "Tevet",
                  "5": "Shevat",
                  "6": "Adar I",
                  "7": "Adar",
                  "7-yeartype-leap": "Adar II",
                  "8": "Nisan",
                  "9": "Iyar",
                  "10": "Sivan",
                  "11": "Tamuz",
                  "12": "Av",
                  "13": "Elul"
                },
                "narrow": {
                  "1": "1",
                  "2": "2",
                  "3": "3",
                  "4": "4",
                  "5": "5",
                  "6": "6",
                  "7": "7",
                  "7-yeartype-leap": "7",
                  "8": "8",
                  "9": "9",
                  "10": "10",
                  "11": "11",
                  "12": "12",
                  "13": "13"
                },
                "wide": {
                  "1": "Tishri",
                  "2": "Heshvan",
                  "3": "Kislev",
                  "4": "Tevet",
                  "5": "Shevat",
                  "6": "Adar I",
                  "7": "Adar",
                  "7-yeartype-leap": "Adar II",
                  "8": "Nisan",
                  "9": "Iyar",
                  "10": "Sivan",
                  "11": "Tamuz",
                  "12": "Av",
                  "13": "Elul"
                }
              }
            },
            "days": {
              "format": {
                "abbreviated": {
                  "sun": "Mul",
                  "mon": "Jtt",
                  "tue": "Jnn",
                  "wed": "Jtn",
                  "thu": "Alh",
                  "fri": "Iju",
                  "sat": "Jmo"
                },
                "narrow": {
                  "sun": "M",
                  "mon": "J",
                  "tue": "J",
                  "wed": "J",
                  "thu": "A",
                  "fri": "I",
                  "sat": "J"
                },
                "short": {
                  "sun": "Mul",
                  "mon": "Jtt",
                  "tue": "Jnn",
                  "wed": "Jtn",
                  "thu": "Alh",
                  "fri": "Iju",
                  "sat": "Jmo"
                },
                "wide": {
                  "sun": "Mulungu",
                  "mon": "Jumatatu",
                  "tue": "Jumanne",
                  "wed": "Jumatano",
                  "thu": "Alahamisi",
                  "fri": "Ijumaa",
                  "sat": "Jumamosi"
                }
              },
              "stand-alone": {
                "abbreviated": {
                  "sun": "Mul",
                  "mon": "Jtt",
                  "tue": "Jnn",
                  "wed": "Jtn",
                  "thu": "Alh",
                  "fri": "Iju",
                  "sat": "Jmo"
                },
                "narrow": {
                  "sun": "M",
                  "mon": "J",
                  "tue": "J",
                  "wed": "J",
                  "thu": "A",
                  "fri": "I",
                  "sat": "J"
                },
                "short": {
                  "sun": "Mul",
                  "mon": "Jtt",
                  "tue": "Jnn",
                  "wed": "Jtn",
                  "thu": "Alh",
                  "fri": "Iju",
                  "sat": "Jmo"
                },
                "wide": {
                  "sun": "Mulungu",
                  "mon": "Jumatatu",
                  "tue": "Jumanne",
                  "wed": "Jumatano",
                  "thu": "Alahamisi",
                  "fri": "Ijumaa",
                  "sat": "Jumamosi"
                }
              }
            },
            "quarters": {
              "format": {
                "abbreviated": {
                  "1": "L1",
                  "2": "L2",
                  "3": "L3",
                  "4": "L4"
                },
                "narrow": {
                  "1": "1",
                  "2": "2",
                  "3": "3",
                  "4": "4"
                },
                "wide": {
                  "1": "Lobo 1",
                  "2": "Lobo 2",
                  "3": "Lobo 3",
                  "4": "Lobo 4"
                }
              },
              "stand-alone": {
                "abbreviated": {
                  "1": "L1",
                  "2": "L2",
                  "3": "L3",
                  "4": "L4"
                },
                "narrow": {
                  "1": "1",
                  "2": "2",
                  "3": "3",
                  "4": "4"
                },
                "wide": {
                  "1": "Lobo 1",
                  "2": "Lobo 2",
                  "3": "Lobo 3",
                  "4": "Lobo 4"
                }
              }
            },
            "dayPeriods": {
              "format": {
                "abbreviated": {
                  "am": "Lwamilawu",
                  "noon": "noon",
                  "pm": "Pashamihe"
                },
                "narrow": {
                  "am": "a",
                  "noon": "n",
                  "pm": "p"
                },
                "wide": {
                  "am": "Lwamilawu",
                  "noon": "noon",
                  "pm": "Pashamihe"
                }
              },
              "stand-alone": {
                "abbreviated": {
                  "am": "Lwamilawu",
                  "noon": "noon",
                  "pm": "Pashamihe"
                },
                "narrow": {
                  "am": "a",
                  "noon": "n",
                  "pm": "p"
                },
                "wide": {
                  "am": "Lwamilawu",
                  "noon": "noon",
                  "pm": "Pashamihe"
                }
              }
            },
            "eras": {
              "eraNames": {
                "0": "AM"
              },
              "eraAbbr": {
                "0": "AM"
              },
              "eraNarrow": {
                "0": "AM"
              }
            },
            "dateFormats": {
              "full": "EEEE, d MMMM y G",
              "long": "d MMMM y G",
              "medium": "d MMM y G",
              "short": "dd/MM/y GGGGG"
            },
            "timeFormats": {
              "full": "h:mm:ss a zzzz",
              "long": "h:mm:ss a z",
              "medium": "h:mm:ss a",
              "short": "h:mm a"
            },
            "dateTimeFormats": {
              "full": "{1} {0}",
              "long": "{1} {0}",
              "medium": "{1} {0}",
              "short": "{1} {0}",
              "availableFormats": {
                "E": "ccc",
                "EHm": "E HH:mm",
                "EHms": "E HH:mm:ss",
                "Ed": "E d",
                "Ehm": "E h:mm a",
                "Ehms": "E h:mm:ss a",
                "Gy": "G y",
                "GyMMM": "G y MMM",
                "GyMMMEd": "G y MMM d, E",
                "GyMMMd": "G y MMM d",
                "H": "HH",
                "Hm": "HH:mm",
                "Hms": "HH:mm:ss",
                "M": "L",
                "MEd": "E, M/d",
                "MMM": "LLL",
                "MMMEd": "E, MMM d",
                "MMMd": "MMM d",
                "Md": "M/d",
                "d": "d",
                "h": "h a",
                "hm": "h:mm a",
                "hms": "h:mm:ss a",
                "ms": "m:ss",
                "y": "y",
                "yM": "M/y",
                "yMEd": "E, M/d/y",
                "yMMM": "MMM y",
                "yMMMEd": "E, MMM d, y",
                "yMMMd": "MMM d y",
                "yMd": "M/d/y",
                "yQQQ": "QQQ y",
                "yQQQQ": "QQQQ y",
                "yyyy": "G y",
                "yyyyM": "GGGGG y-MM",
                "yyyyMEd": "GGGGG y-MM-dd, E",
                "yyyyMMM": "G y MMM",
                "yyyyMMMEd": "G y MMM d, E",
                "yyyyMMMd": "G y MMM d",
                "yyyyMd": "GGGGG y-MM-dd",
                "yyyyQQQ": "G y QQQ",
                "yyyyQQQQ": "G y QQQQ"
              },
              "appendItems": {
                "Day": "{0} ({2}: {1})",
                "Day-Of-Week": "{0} {1}",
                "Era": "{1} {0}",
                "Hour": "{0} ({2}: {1})",
                "Minute": "{0} ({2}: {1})",
                "Month": "{0} ({2}: {1})",
                "Quarter": "{0} ({2}: {1})",
                "Second": "{0} ({2}: {1})",
                "Timezone": "{0} {1}",
                "Week": "{0} ({2}: {1})",
                "Year": "{1} {0}"
              },
              "intervalFormats": {
                "intervalFormatFallback": "{0} – {1}",
                "H": {
                  "H": "HH–HH"
                },
                "Hm": {
                  "H": "HH:mm–HH:mm",
                  "m": "HH:mm–HH:mm"
                },
                "Hmv": {
                  "H": "HH:mm–HH:mm v",
                  "m": "HH:mm–HH:mm v"
                },
                "Hv": {
                  "H": "HH–HH v"
                },
                "M": {
                  "M": "MM–MM"
                },
                "MEd": {
                  "M": "MM-dd, E – MM-dd, E",
                  "d": "MM-dd, E – MM-dd, E"
                },
                "MMM": {
                  "M": "LLL–LLL"
                },
                "MMMEd": {
                  "M": "MMM d, E – MMM d, E",
                  "d": "MMM d, E – MMM d, E"
                },
                "MMMd": {
                  "M": "MMM d – MMM d",
                  "d": "MMM d–d"
                },
                "Md": {
                  "M": "MM-dd – MM-dd",
                  "d": "MM-dd – MM-dd"
                },
                "d": {
                  "d": "d–d"
                },
                "h": {
                  "a": "h a – h a",
                  "h": "h–h a"
                },
                "hm": {
                  "a": "h:mm a – h:mm a",
                  "h": "h:mm–h:mm a",
                  "m": "h:mm–h:mm a"
                },
                "hmv": {
                  "a": "h:mm a – h:mm a v",
                  "h": "h:mm–h:mm a v",
                  "m": "h:mm–h:mm a v"
                },
                "hv": {
                  "a": "h a – h a v",
                  "h": "h–h a v"
                },
                "y": {
                  "y": "G y–y"
                },
                "yM": {
                  "M": "GGGGG y-MM – y-MM",
                  "y": "GGGGG y-MM – y-MM"
                },
                "yMEd": {
                  "M": "GGGGG y-MM-dd, E – y-MM-dd, E",
                  "d": "GGGGG y-MM-dd, E – y-MM-dd, E",
                  "y": "GGGGG y-MM-dd, E – y-MM-dd, E"
                },
                "yMMM": {
                  "M": "G y MMM–MMM",
                  "y": "G y MMM – y MMM"
                },
                "yMMMEd": {
                  "M": "G y MMM d, E – MMM d, E",
                  "d": "G y MMM d, E – MMM d, E",
                  "y": "G y MMM d, E – y MMM d, E"
                },
                "yMMMM": {
                  "M": "G y MMMM–MMMM",
                  "y": "G y MMMM – y MMMM"
                },
                "yMMMd": {
                  "M": "G y MMM d – MMM d",
                  "d": "G y MMM d–d",
                  "y": "G y MMM d – y MMM d"
                },
                "yMd": {
                  "M": "GGGGG y-MM-dd – y-MM-dd",
                  "d": "GGGGG y-MM-dd – y-MM-dd",
                  "y": "GGGGG y-MM-dd – y-MM-dd"
                }
              }
            }
          }
        }
      }
    }
  }
}
