{
  "main": {
    "sk-SK": {
      "identity": {
        "version": {
          "_cldrVersion": "26",
          "_number": "$Revision: 10669 $"
        },
        "generation": {
          "_date": "$Date: 2014-07-23 16:10:33 -0500 (Wed, 23 Jul 2014) $"
        },
        "language": "root",
        "territory": "SK"
      },
      "dates": {
        "calendars": {
          "generic": {
            "months": {
              "format": {
                "abbreviated": {
                  "1": "M01",
                  "2": "M02",
                  "3": "M03",
                  "4": "M04",
                  "5": "M05",
                  "6": "M06",
                  "7": "M07",
                  "8": "M08",
                  "9": "M09",
                  "10": "M10",
                  "11": "M11",
                  "12": "M12"
                },
                "narrow": {
                  "1": "1",
                  "2": "2",
                  "3": "3",
                  "4": "4",
                  "5": "5",
                  "6": "6",
                  "7": "7",
                  "8": "8",
                  "9": "9",
                  "10": "10",
                  "11": "11",
                  "12": "12"
                },
                "wide": {
                  "1": "M01",
                  "2": "M02",
                  "3": "M03",
                  "4": "M04",
                  "5": "M05",
                  "6": "M06",
                  "7": "M07",
                  "8": "M08",
                  "9": "M09",
                  "10": "M10",
                  "11": "M11",
                  "12": "M12"
                }
              },
              "stand-alone": {
                "abbreviated": {
                  "1": "M01",
                  "2": "M02",
                  "3": "M03",
                  "4": "M04",
                  "5": "M05",
                  "6": "M06",
                  "7": "M07",
                  "8": "M08",
                  "9": "M09",
                  "10": "M10",
                  "11": "M11",
                  "12": "M12"
                },
                "narrow": {
                  "1": "1",
                  "2": "2",
                  "3": "3",
                  "4": "4",
                  "5": "5",
                  "6": "6",
                  "7": "7",
                  "8": "8",
                  "9": "9",
                  "10": "10",
                  "11": "11",
                  "12": "12"
                },
                "wide": {
                  "1": "M01",
                  "2": "M02",
                  "3": "M03",
                  "4": "M04",
                  "5": "M05",
                  "6": "M06",
                  "7": "M07",
                  "8": "M08",
                  "9": "M09",
                  "10": "M10",
                  "11": "M11",
                  "12": "M12"
                }
              }
            },
            "days": {
              "format": {
                "abbreviated": {
                  "sun": "ne",
                  "mon": "po",
                  "tue": "ut",
                  "wed": "st",
                  "thu": "št",
                  "fri": "pi",
                  "sat": "so"
                },
                "narrow": {
                  "sun": "N",
                  "mon": "P",
                  "tue": "U",
                  "wed": "S",
                  "thu": "Š",
                  "fri": "P",
                  "sat": "S"
                },
                "short": {
                  "sun": "Ne",
                  "mon": "Po",
                  "tue": "Ut",
                  "wed": "St",
                  "thu": "Št",
                  "fri": "Pi",
                  "sat": "So"
                },
                "wide": {
                  "sun": "nedeľa",
                  "mon": "pondelok",
                  "tue": "utorok",
                  "wed": "streda",
                  "thu": "štvrtok",
                  "fri": "piatok",
                  "sat": "sobota"
                }
              },
              "stand-alone": {
                "abbreviated": {
                  "sun": "ne",
                  "mon": "po",
                  "tue": "ut",
                  "wed": "st",
                  "thu": "št",
                  "fri": "pi",
                  "sat": "so"
                },
                "narrow": {
                  "sun": "N",
                  "mon": "P",
                  "tue": "U",
                  "wed": "S",
                  "thu": "Š",
                  "fri": "P",
                  "sat": "S"
                },
                "short": {
                  "sun": "Ne",
                  "mon": "Po",
                  "tue": "Ut",
                  "wed": "St",
                  "thu": "Št",
                  "fri": "Pi",
                  "sat": "So"
                },
                "wide": {
                  "sun": "nedeľa",
                  "mon": "pondelok",
                  "tue": "utorok",
                  "wed": "streda",
                  "thu": "štvrtok",
                  "fri": "piatok",
                  "sat": "sobota"
                }
              }
            },
            "quarters": {
              "format": {
                "abbreviated": {
                  "1": "Q1",
                  "2": "Q2",
                  "3": "Q3",
                  "4": "Q4"
                },
                "narrow": {
                  "1": "1",
                  "2": "2",
                  "3": "3",
                  "4": "4"
                },
                "wide": {
                  "1": "1. štvrťrok",
                  "2": "2. štvrťrok",
                  "3": "3. štvrťrok",
                  "4": "4. štvrťrok"
                }
              },
              "stand-alone": {
                "abbreviated": {
                  "1": "Q1",
                  "2": "Q2",
                  "3": "Q3",
                  "4": "Q4"
                },
                "narrow": {
                  "1": "1",
                  "2": "2",
                  "3": "3",
                  "4": "4"
                },
                "wide": {
                  "1": "1. štvrťrok",
                  "2": "2. štvrťrok",
                  "3": "3. štvrťrok",
                  "4": "4. štvrťrok"
                }
              }
            },
            "dayPeriods": {
              "format": {
                "abbreviated": {
                  "am": "dopoludnia",
                  "noon": "poludnie",
                  "pm": "odpoludnia"
                },
                "narrow": {
                  "am": "dop.",
                  "noon": "pol.",
                  "pm": "odp."
                },
                "wide": {
                  "am": "dopoludnia",
                  "noon": "poludnie",
                  "pm": "odpoludnia"
                }
              },
              "stand-alone": {
                "abbreviated": {
                  "am": "dopoludnia",
                  "noon": "poludnie",
                  "pm": "odpoludnia"
                },
                "narrow": {
                  "am": "dop.",
                  "noon": "pol.",
                  "pm": "odp."
                },
                "wide": {
                  "am": "dopoludnia",
                  "noon": "poludnie",
                  "pm": "odpoludnia"
                }
              }
            },
            "eras": {
              "eraNames": {
                "0": "ERA0",
                "1": "ERA1"
              },
              "eraAbbr": {
                "0": "ERA0",
                "1": "ERA1"
              },
              "eraNarrow": {
                "0": "ERA0",
                "1": "ERA1"
              }
            },
            "dateFormats": {
              "full": "EEEE, d. MMMM y G",
              "long": "d. MMMM y G",
              "medium": "d.M.y G",
              "short": "d.M.y GGGGG"
            },
            "timeFormats": {
              "full": "H:mm:ss zzzz",
              "long": "H:mm:ss z",
              "medium": "H:mm:ss",
              "short": "H:mm"
            },
            "dateTimeFormats": {
              "full": "{1} {0}",
              "long": "{1} {0}",
              "medium": "{1} {0}",
              "short": "{1} {0}",
              "availableFormats": {
                "E": "ccc",
                "EHm": "E HH:mm",
                "EHms": "E HH:mm:ss",
                "Ed": "E d.",
                "Ehm": "E h:mm a",
                "Ehms": "E h:mm:ss a",
                "Gy": "y G",
                "GyMMM": "LLL y G",
                "GyMMMEd": "E, d. MMM y G",
                "GyMMMMd": "d. MMMM y G",
                "GyMMMd": "d.M.y G",
                "H": "H",
                "Hm": "H:mm",
                "Hms": "H:mm:ss",
                "M": "L.",
                "MEd": "E, d.M.",
                "MMM": "LLL",
                "MMMEd": "E, d. MMM",
                "MMMMEd": "E, d. MMMM",
                "MMMMd": "d. MMMM",
                "MMMd": "d. MMM",
                "Md": "d.M.",
                "d": "d.",
                "h": "h a",
                "hm": "h:mm a",
                "hms": "h:mm:ss a",
                "mmss": "mm:ss",
                "ms": "mm:ss",
                "y": "y G",
                "yyyy": "y G",
                "yyyyM": "M.y G",
                "yyyyMEd": "E d. M. y G",
                "yyyyMMM": "LLL y G",
                "yyyyMMMEd": "E, d. MMM y G",
                "yyyyMMMM": "LLLL y G",
                "yyyyMMMMd": "d. MMMM y G",
                "yyyyMMMd": "d.M.y G",
                "yyyyMd": "d.M.y G",
                "yyyyQQQ": "QQQ y G",
                "yyyyQQQQ": "QQQQ y G"
              },
              "appendItems": {
                "Day": "{0} ({2}: {1})",
                "Day-Of-Week": "{0} {1}",
                "Era": "{1} {0}",
                "Hour": "{0} ({2}: {1})",
                "Minute": "{0} ({2}: {1})",
                "Month": "{0} ({2}: {1})",
                "Quarter": "{0} ({2}: {1})",
                "Second": "{0} ({2}: {1})",
                "Timezone": "{0} {1}",
                "Week": "{0} ({2}: {1})",
                "Year": "{1} {0}"
              },
              "intervalFormats": {
                "intervalFormatFallback": "{0} – {1}",
                "H": {
                  "H": "HH – HH"
                },
                "Hm": {
                  "H": "H:mm – H:mm",
                  "m": "H:mm – H:mm"
                },
                "Hmv": {
                  "H": "H:mm – H:mm v",
                  "m": "H:mm – H:mm v"
                },
                "Hv": {
                  "H": "HH – HH v"
                },
                "M": {
                  "M": "M. – M."
                },
                "MEd": {
                  "M": "E, d.M. - E, d.M.",
                  "d": "E, d.M. - E, d.M."
                },
                "MMM": {
                  "M": "LLL – LLL"
                },
                "MMMEd": {
                  "M": "E, d. MMM - E, d. MMM",
                  "d": "E, d. - E, d. MMM"
                },
                "MMMM": {
                  "M": "LLLL-LLLL"
                },
                "MMMd": {
                  "M": "d. MMM - d. MMM",
                  "d": "d. - d. MMM"
                },
                "Md": {
                  "M": "d.M. - d.M.",
                  "d": "d.M. - d.M."
                },
                "d": {
                  "d": "d. – d."
                },
                "h": {
                  "a": "h a – h a",
                  "h": "h – h a"
                },
                "hm": {
                  "a": "h:mm a - h:mm a",
                  "h": "h:mm - h:mm a",
                  "m": "h:mm - h:mm a"
                },
                "hmv": {
                  "a": "h:mm a - h:mm a v",
                  "h": "h:mm - h:mm a v",
                  "m": "h:mm - h:mm a v"
                },
                "hv": {
                  "a": "h a - h a v",
                  "h": "h – h a v"
                },
                "y": {
                  "y": "y - y G"
                },
                "yM": {
                  "M": "M.y - M.y G",
                  "y": "M.y - M.y G"
                },
                "yMEd": {
                  "M": "E, d.M.y - E, d.M.y G",
                  "d": "E, d.M.y - E, d.M.y G",
                  "y": "E, d.M.y - E, d.M.y G"
                },
                "yMMM": {
                  "M": "LLL - LLL y G",
                  "y": "LLL y - LLL y G"
                },
                "yMMMEd": {
                  "M": "E, d. MMM - E, d. MMM y G",
                  "d": "E, d. - E, d. MMM y G",
                  "y": "E, d. MMM y - E, d. MMM y G"
                },
                "yMMMM": {
                  "M": "LLLL - LLLL y G",
                  "y": "LLLL y - LLLL y G"
                },
                "yMMMd": {
                  "M": "d. MMM - d. MMM y G",
                  "d": "d. - d. MMM y G",
                  "y": "d. MMM y - d. MMM y G"
                },
                "yMd": {
                  "M": "d.M.y - d.M.y G",
                  "d": "d.M.y - d.M.y G",
                  "y": "d.M.y - d.M.y G"
                }
              }
            }
          }
        }
      }
    }
  }
}
