{
  "main": {
    "nmg": {
      "identity": {
        "version": {
          "_cldrVersion": "26",
          "_number": "$Revision: 10739 $"
        },
        "generation": {
          "_date": "$Date: 2014-08-07 12:54:13 -0500 (Thu, 07 Aug 2014) $"
        },
        "language": "nmg"
      },
      "dates": {
        "calendars": {
          "buddhist": {
            "months": {
              "format": {
                "abbreviated": {
                  "1": "ng1",
                  "2": "ng2",
                  "3": "ng3",
                  "4": "ng4",
                  "5": "ng5",
                  "6": "ng6",
                  "7": "ng7",
                  "8": "ng8",
                  "9": "ng9",
                  "10": "ng10",
                  "11": "ng11",
                  "12": "kris"
                },
                "narrow": {
                  "1": "1",
                  "2": "2",
                  "3": "3",
                  "4": "4",
                  "5": "5",
                  "6": "6",
                  "7": "7",
                  "8": "8",
                  "9": "9",
                  "10": "10",
                  "11": "11",
                  "12": "12"
                },
                "wide": {
                  "1": "ngwɛn matáhra",
                  "2": "ngwɛn ńmba",
                  "3": "ngwɛn ńlal",
                  "4": "ngwɛn ńna",
                  "5": "ngwɛn ńtan",
                  "6": "ngwɛn ńtuó",
                  "7": "ngwɛn hɛmbuɛrí",
                  "8": "ngwɛn lɔmbi",
                  "9": "ngwɛn rɛbvuâ",
                  "10": "ngwɛn wum",
                  "11": "ngwɛn wum navǔr",
                  "12": "krísimin"
                }
              },
              "stand-alone": {
                "abbreviated": {
                  "1": "ng1",
                  "2": "ng2",
                  "3": "ng3",
                  "4": "ng4",
                  "5": "ng5",
                  "6": "ng6",
                  "7": "ng7",
                  "8": "ng8",
                  "9": "ng9",
                  "10": "ng10",
                  "11": "ng11",
                  "12": "kris"
                },
                "narrow": {
                  "1": "1",
                  "2": "2",
                  "3": "3",
                  "4": "4",
                  "5": "5",
                  "6": "6",
                  "7": "7",
                  "8": "8",
                  "9": "9",
                  "10": "10",
                  "11": "11",
                  "12": "12"
                },
                "wide": {
                  "1": "ngwɛn matáhra",
                  "2": "ngwɛn ńmba",
                  "3": "ngwɛn ńlal",
                  "4": "ngwɛn ńna",
                  "5": "ngwɛn ńtan",
                  "6": "ngwɛn ńtuó",
                  "7": "ngwɛn hɛmbuɛrí",
                  "8": "ngwɛn lɔmbi",
                  "9": "ngwɛn rɛbvuâ",
                  "10": "ngwɛn wum",
                  "11": "ngwɛn wum navǔr",
                  "12": "krísimin"
                }
              }
            },
            "days": {
              "format": {
                "abbreviated": {
                  "sun": "sɔ́n",
                  "mon": "mɔ́n",
                  "tue": "smb",
                  "wed": "sml",
                  "thu": "smn",
                  "fri": "mbs",
                  "sat": "sas"
                },
                "narrow": {
                  "sun": "s",
                  "mon": "m",
                  "tue": "s",
                  "wed": "s",
                  "thu": "s",
                  "fri": "m",
                  "sat": "s"
                },
                "short": {
                  "sun": "sɔ́n",
                  "mon": "mɔ́n",
                  "tue": "smb",
                  "wed": "sml",
                  "thu": "smn",
                  "fri": "mbs",
                  "sat": "sas"
                },
                "wide": {
                  "sun": "sɔ́ndɔ",
                  "mon": "mɔ́ndɔ",
                  "tue": "sɔ́ndɔ mafú mába",
                  "wed": "sɔ́ndɔ mafú málal",
                  "thu": "sɔ́ndɔ mafú mána",
                  "fri": "mabágá má sukul",
                  "sat": "sásadi"
                }
              },
              "stand-alone": {
                "abbreviated": {
                  "sun": "sɔ́n",
                  "mon": "mɔ́n",
                  "tue": "smb",
                  "wed": "sml",
                  "thu": "smn",
                  "fri": "mbs",
                  "sat": "sas"
                },
                "narrow": {
                  "sun": "s",
                  "mon": "m",
                  "tue": "s",
                  "wed": "s",
                  "thu": "s",
                  "fri": "m",
                  "sat": "s"
                },
                "short": {
                  "sun": "sɔ́n",
                  "mon": "mɔ́n",
                  "tue": "smb",
                  "wed": "sml",
                  "thu": "smn",
                  "fri": "mbs",
                  "sat": "sas"
                },
                "wide": {
                  "sun": "sɔ́ndɔ",
                  "mon": "mɔ́ndɔ",
                  "tue": "sɔ́ndɔ mafú mába",
                  "wed": "sɔ́ndɔ mafú málal",
                  "thu": "sɔ́ndɔ mafú mána",
                  "fri": "mabágá má sukul",
                  "sat": "sásadi"
                }
              }
            },
            "quarters": {
              "format": {
                "abbreviated": {
                  "1": "T1",
                  "2": "T2",
                  "3": "T3",
                  "4": "T4"
                },
                "narrow": {
                  "1": "1",
                  "2": "2",
                  "3": "3",
                  "4": "4"
                },
                "wide": {
                  "1": "Tindɛ nvúr",
                  "2": "Tindɛ ńmba",
                  "3": "Tindɛ ńlal",
                  "4": "Tindɛ ńna"
                }
              },
              "stand-alone": {
                "abbreviated": {
                  "1": "T1",
                  "2": "T2",
                  "3": "T3",
                  "4": "T4"
                },
                "narrow": {
                  "1": "1",
                  "2": "2",
                  "3": "3",
                  "4": "4"
                },
                "wide": {
                  "1": "Tindɛ nvúr",
                  "2": "Tindɛ ńmba",
                  "3": "Tindɛ ńlal",
                  "4": "Tindɛ ńna"
                }
              }
            },
            "dayPeriods": {
              "format": {
                "abbreviated": {
                  "am": "maná",
                  "noon": "noon",
                  "pm": "kugú"
                },
                "narrow": {
                  "am": "a",
                  "noon": "n",
                  "pm": "p"
                },
                "wide": {
                  "am": "maná",
                  "noon": "noon",
                  "pm": "kugú"
                }
              },
              "stand-alone": {
                "abbreviated": {
                  "am": "maná",
                  "noon": "noon",
                  "pm": "kugú"
                },
                "narrow": {
                  "am": "a",
                  "noon": "n",
                  "pm": "p"
                },
                "wide": {
                  "am": "maná",
                  "noon": "noon",
                  "pm": "kugú"
                }
              }
            },
            "eras": {
              "eraNames": {
                "0": "BE"
              },
              "eraAbbr": {
                "0": "BE"
              },
              "eraNarrow": {
                "0": "BE"
              }
            },
            "dateFormats": {
              "full": "EEEE d MMMM y G",
              "long": "d MMMM y G",
              "medium": "d MMM y G",
              "short": "d/M/y GGGGG"
            },
            "timeFormats": {
              "full": "HH:mm:ss zzzz",
              "long": "HH:mm:ss z",
              "medium": "HH:mm:ss",
              "short": "HH:mm"
            },
            "dateTimeFormats": {
              "full": "{1} {0}",
              "long": "{1} {0}",
              "medium": "{1} {0}",
              "short": "{1} {0}",
              "availableFormats": {
                "E": "ccc",
                "EHm": "E HH:mm",
                "EHms": "E HH:mm:ss",
                "Ed": "E d",
                "Ehm": "E h:mm a",
                "Ehms": "E h:mm:ss a",
                "Gy": "G y",
                "GyMMM": "G y MMM",
                "GyMMMEd": "G y MMM d, E",
                "GyMMMd": "G y MMM d",
                "H": "HH",
                "Hm": "HH:mm",
                "Hms": "HH:mm:ss",
                "M": "L",
                "MEd": "E d/M",
                "MMM": "LLL",
                "MMMEd": "E d MMM",
                "MMMd": "d MMM",
                "Md": "d/M",
                "d": "d",
                "h": "h a",
                "hm": "h:mm a",
                "hms": "h:mm:ss a",
                "ms": "m:ss",
                "y": "y",
                "yM": "M/y",
                "yMEd": "E d/M/y",
                "yMMM": "MMM y",
                "yMMMEd": "E d MMM y",
                "yMMMd": "d MMM y",
                "yMd": "d/M/y",
                "yQQQ": "QQQ y",
                "yQQQQ": "QQQQ y",
                "yyyy": "G y",
                "yyyyM": "GGGGG y-MM",
                "yyyyMEd": "GGGGG y-MM-dd, E",
                "yyyyMMM": "G y MMM",
                "yyyyMMMEd": "G y MMM d, E",
                "yyyyMMMd": "G y MMM d",
                "yyyyMd": "GGGGG y-MM-dd",
                "yyyyQQQ": "G y QQQ",
                "yyyyQQQQ": "G y QQQQ"
              },
              "appendItems": {
                "Day": "{0} ({2}: {1})",
                "Day-Of-Week": "{0} {1}",
                "Era": "{1} {0}",
                "Hour": "{0} ({2}: {1})",
                "Minute": "{0} ({2}: {1})",
                "Month": "{0} ({2}: {1})",
                "Quarter": "{0} ({2}: {1})",
                "Second": "{0} ({2}: {1})",
                "Timezone": "{0} {1}",
                "Week": "{0} ({2}: {1})",
                "Year": "{1} {0}"
              },
              "intervalFormats": {
                "intervalFormatFallback": "{0} – {1}",
                "H": {
                  "H": "HH–HH"
                },
                "Hm": {
                  "H": "HH:mm–HH:mm",
                  "m": "HH:mm–HH:mm"
                },
                "Hmv": {
                  "H": "HH:mm–HH:mm v",
                  "m": "HH:mm–HH:mm v"
                },
                "Hv": {
                  "H": "HH–HH v"
                },
                "M": {
                  "M": "MM–MM"
                },
                "MEd": {
                  "M": "MM-dd, E – MM-dd, E",
                  "d": "MM-dd, E – MM-dd, E"
                },
                "MMM": {
                  "M": "LLL–LLL"
                },
                "MMMEd": {
                  "M": "MMM d, E – MMM d, E",
                  "d": "MMM d, E – MMM d, E"
                },
                "MMMd": {
                  "M": "MMM d – MMM d",
                  "d": "MMM d–d"
                },
                "Md": {
                  "M": "MM-dd – MM-dd",
                  "d": "MM-dd – MM-dd"
                },
                "d": {
                  "d": "d–d"
                },
                "h": {
                  "a": "h a – h a",
                  "h": "h–h a"
                },
                "hm": {
                  "a": "h:mm a – h:mm a",
                  "h": "h:mm–h:mm a",
                  "m": "h:mm–h:mm a"
                },
                "hmv": {
                  "a": "h:mm a – h:mm a v",
                  "h": "h:mm–h:mm a v",
                  "m": "h:mm–h:mm a v"
                },
                "hv": {
                  "a": "h a – h a v",
                  "h": "h–h a v"
                },
                "y": {
                  "y": "G y–y"
                },
                "yM": {
                  "M": "GGGGG y-MM – y-MM",
                  "y": "GGGGG y-MM – y-MM"
                },
                "yMEd": {
                  "M": "GGGGG y-MM-dd, E – y-MM-dd, E",
                  "d": "GGGGG y-MM-dd, E – y-MM-dd, E",
                  "y": "GGGGG y-MM-dd, E – y-MM-dd, E"
                },
                "yMMM": {
                  "M": "G y MMM–MMM",
                  "y": "G y MMM – y MMM"
                },
                "yMMMEd": {
                  "M": "G y MMM d, E – MMM d, E",
                  "d": "G y MMM d, E – MMM d, E",
                  "y": "G y MMM d, E – y MMM d, E"
                },
                "yMMMM": {
                  "M": "G y MMMM–MMMM",
                  "y": "G y MMMM – y MMMM"
                },
                "yMMMd": {
                  "M": "G y MMM d – MMM d",
                  "d": "G y MMM d–d",
                  "y": "G y MMM d – y MMM d"
                },
                "yMd": {
                  "M": "GGGGG y-MM-dd – y-MM-dd",
                  "d": "GGGGG y-MM-dd – y-MM-dd",
                  "y": "GGGGG y-MM-dd – y-MM-dd"
                }
              }
            }
          }
        }
      }
    }
  }
}
