{
  "main": {
    "sah": {
      "identity": {
        "version": {
          "_cldrVersion": "26",
          "_number": "$Revision: 10753 $"
        },
        "generation": {
          "_date": "$Date: 2014-08-11 11:10:03 -0500 (Mon, 11 Aug 2014) $"
        },
        "language": "root"
      },
      "dates": {
        "calendars": {
          "roc": {
            "months": {
              "format": {
                "abbreviated": {
                  "1": "Тохс",
                  "2": "Олун",
                  "3": "Клн_ттр",
                  "4": "Мус_уст",
                  "5": "Ыам_йн",
                  "6": "Бэс_йн",
                  "7": "От_йн",
                  "8": "Атрдь_йн",
                  "9": "Блҕн_йн",
                  "10": "Алт",
                  "11": "Сэт",
                  "12": "Ахс"
                },
                "narrow": {
                  "1": "Т",
                  "2": "О",
                  "3": "К",
                  "4": "М",
                  "5": "Ы",
                  "6": "Б",
                  "7": "О",
                  "8": "А",
                  "9": "Б",
                  "10": "А",
                  "11": "С",
                  "12": "А"
                },
                "wide": {
                  "1": "Тохсунньу",
                  "2": "Олунньу",
                  "3": "Кулун тутар",
                  "4": "Муус устар",
                  "5": "Ыам ыйын",
                  "6": "Бэс ыйын",
                  "7": "От ыйын",
                  "8": "Атырдьых ыйын",
                  "9": "Балаҕан ыйын",
                  "10": "Алтынньы",
                  "11": "Сэтинньи",
                  "12": "Ахсынньы"
                }
              },
              "stand-alone": {
                "abbreviated": {
                  "1": "Тохс",
                  "2": "Олун",
                  "3": "Клн_ттр",
                  "4": "Мус_уст",
                  "5": "Ыам_йн",
                  "6": "Бэс_йн",
                  "7": "От_йн",
                  "8": "Атрдь_йн",
                  "9": "Блҕн_йн",
                  "10": "Алт",
                  "11": "Сэт",
                  "12": "Ахс"
                },
                "narrow": {
                  "1": "Т",
                  "2": "О",
                  "3": "К",
                  "4": "М",
                  "5": "Ы",
                  "6": "Б",
                  "7": "О",
                  "8": "А",
                  "9": "Б",
                  "10": "А",
                  "11": "С",
                  "12": "А"
                },
                "wide": {
                  "1": "Тохсунньу",
                  "2": "Олунньу",
                  "3": "Кулун тутар",
                  "4": "Муус устар",
                  "5": "Ыам ыйын",
                  "6": "Бэс ыйын",
                  "7": "От ыйын",
                  "8": "Атырдьых ыйын",
                  "9": "Балаҕан ыйын",
                  "10": "Алтынньы",
                  "11": "Сэтинньи",
                  "12": "Ахсынньы"
                }
              }
            },
            "days": {
              "format": {
                "abbreviated": {
                  "sun": "Бс",
                  "mon": "Бн",
                  "tue": "Оп",
                  "wed": "Сэ",
                  "thu": "Чп",
                  "fri": "Бэ",
                  "sat": "Сб"
                },
                "narrow": {
                  "sun": "Б",
                  "mon": "Б",
                  "tue": "О",
                  "wed": "С",
                  "thu": "Ч",
                  "fri": "Б",
                  "sat": "С"
                },
                "short": {
                  "sun": "Бс",
                  "mon": "Бн",
                  "tue": "Оп",
                  "wed": "Сэ",
                  "thu": "Чп",
                  "fri": "Бэ",
                  "sat": "Сб"
                },
                "wide": {
                  "sun": "Баскыһыанньа",
                  "mon": "Бэнидиэлинньик",
                  "tue": "Оптуорунньук",
                  "wed": "Сэрэдэ",
                  "thu": "Чэппиэр",
                  "fri": "Бээтиҥсэ",
                  "sat": "Субуота"
                }
              },
              "stand-alone": {
                "abbreviated": {
                  "sun": "Бс",
                  "mon": "Бн",
                  "tue": "Оп",
                  "wed": "Сэ",
                  "thu": "Чп",
                  "fri": "Бэ",
                  "sat": "Сб"
                },
                "narrow": {
                  "sun": "Б",
                  "mon": "Б",
                  "tue": "О",
                  "wed": "С",
                  "thu": "Ч",
                  "fri": "Б",
                  "sat": "С"
                },
                "short": {
                  "sun": "Бс",
                  "mon": "Бн",
                  "tue": "Оп",
                  "wed": "Сэ",
                  "thu": "Чп",
                  "fri": "Бэ",
                  "sat": "Сб"
                },
                "wide": {
                  "sun": "Баскыһыанньа",
                  "mon": "Бэнидиэлинньик",
                  "tue": "Оптуорунньук",
                  "wed": "Сэрэдэ",
                  "thu": "Чэппиэр",
                  "fri": "Бээтиҥсэ",
                  "sat": "Субуота"
                }
              }
            },
            "quarters": {
              "format": {
                "abbreviated": {
                  "1": "1-кы кб",
                  "2": "2-с кб",
                  "3": "3-с кб",
                  "4": "4-с кб"
                },
                "narrow": {
                  "1": "1",
                  "2": "2",
                  "3": "3",
                  "4": "4"
                },
                "wide": {
                  "1": "1-кы кыбаартал",
                  "2": "2-с кыбаартал",
                  "3": "3-с кыбаартал",
                  "4": "4-с кыбаартал"
                }
              },
              "stand-alone": {
                "abbreviated": {
                  "1": "1-кы кб",
                  "2": "2-с кб",
                  "3": "3-с кб",
                  "4": "4-с кб"
                },
                "narrow": {
                  "1": "1",
                  "2": "2",
                  "3": "3",
                  "4": "4"
                },
                "wide": {
                  "1": "1-кы кыбаартал",
                  "2": "2-с кыбаартал",
                  "3": "3-с кыбаартал",
                  "4": "4-с кыбаартал"
                }
              }
            },
            "dayPeriods": {
              "format": {
                "abbreviated": {
                  "am": "ЭИ",
                  "noon": "noon",
                  "pm": "ЭК"
                },
                "narrow": {
                  "am": "a",
                  "noon": "n",
                  "pm": "p"
                },
                "wide": {
                  "am": "ЭИ",
                  "noon": "noon",
                  "pm": "ЭК"
                }
              },
              "stand-alone": {
                "abbreviated": {
                  "am": "ЭИ",
                  "noon": "noon",
                  "pm": "ЭК"
                },
                "narrow": {
                  "am": "a",
                  "noon": "n",
                  "pm": "p"
                },
                "wide": {
                  "am": "ЭИ",
                  "noon": "noon",
                  "pm": "ЭК"
                }
              }
            },
            "eras": {
              "eraNames": {
                "0": "Before R.O.C.",
                "1": "R.O.C."
              },
              "eraAbbr": {
                "0": "Before R.O.C.",
                "1": "R.O.C."
              },
              "eraNarrow": {
                "0": "Before R.O.C.",
                "1": "R.O.C."
              }
            },
            "dateFormats": {
              "full": "G y 'сыл' MMMM d 'күнэ', EEEE",
              "long": "G y, MMMM d",
              "medium": "G y, MMM d",
              "short": "GGGGG yy/M/d"
            },
            "timeFormats": {
              "full": "HH:mm:ss zzzz",
              "long": "HH:mm:ss z",
              "medium": "HH:mm:ss",
              "short": "HH:mm"
            },
            "dateTimeFormats": {
              "full": "{1} {0}",
              "long": "{1} {0}",
              "medium": "{1} {0}",
              "short": "{1} {0}",
              "availableFormats": {
                "E": "ccc",
                "EHm": "E HH:mm",
                "EHms": "E HH:mm:ss",
                "Ed": "d, E",
                "Ehm": "E h:mm a",
                "Ehms": "E h:mm:ss a",
                "Gy": "G y",
                "GyMMM": "G y MMM",
                "GyMMMEd": "G y MMM d, E",
                "GyMMMd": "G y MMM d",
                "H": "HH",
                "Hm": "HH:mm",
                "Hms": "HH:mm:ss",
                "M": "L",
                "MEd": "MM-dd, E",
                "MMM": "LLL",
                "MMMEd": "MMM d, E",
                "MMMd": "MMM d",
                "Md": "MM-dd",
                "d": "d",
                "h": "h a",
                "hm": "h:mm a",
                "hms": "h:mm:ss a",
                "ms": "mm:ss",
                "y": "G y",
                "yyyy": "G y",
                "yyyyM": "GGGGG y-MM",
                "yyyyMEd": "GGGGG y-MM-dd, E",
                "yyyyMMM": "G y MMM",
                "yyyyMMMEd": "G y MMM d, E",
                "yyyyMMMd": "G y MMM d",
                "yyyyMd": "GGGGG y-MM-dd",
                "yyyyQQQ": "G y QQQ",
                "yyyyQQQQ": "G y QQQQ"
              },
              "appendItems": {
                "Day": "{0} ({2}: {1})",
                "Day-Of-Week": "{0} {1}",
                "Era": "{1} {0}",
                "Hour": "{0} ({2}: {1})",
                "Minute": "{0} ({2}: {1})",
                "Month": "{0} ({2}: {1})",
                "Quarter": "{0} ({2}: {1})",
                "Second": "{0} ({2}: {1})",
                "Timezone": "{0} {1}",
                "Week": "{0} ({2}: {1})",
                "Year": "{1} {0}"
              },
              "intervalFormats": {
                "intervalFormatFallback": "{0} – {1}",
                "H": {
                  "H": "HH–HH"
                },
                "Hm": {
                  "H": "HH:mm–HH:mm",
                  "m": "HH:mm–HH:mm"
                },
                "Hmv": {
                  "H": "HH:mm–HH:mm v",
                  "m": "HH:mm–HH:mm v"
                },
                "Hv": {
                  "H": "HH–HH v"
                },
                "M": {
                  "M": "MM–MM"
                },
                "MEd": {
                  "M": "MM-dd, E – MM-dd, E",
                  "d": "MM-dd, E – MM-dd, E"
                },
                "MMM": {
                  "M": "LLL–LLL"
                },
                "MMMEd": {
                  "M": "MMM d, E – MMM d, E",
                  "d": "MMM d, E – MMM d, E"
                },
                "MMMd": {
                  "M": "MMM d – MMM d",
                  "d": "MMM d–d"
                },
                "Md": {
                  "M": "MM-dd – MM-dd",
                  "d": "MM-dd – MM-dd"
                },
                "d": {
                  "d": "d–d"
                },
                "h": {
                  "a": "h a – h a",
                  "h": "h–h a"
                },
                "hm": {
                  "a": "h:mm a – h:mm a",
                  "h": "h:mm–h:mm a",
                  "m": "h:mm–h:mm a"
                },
                "hmv": {
                  "a": "h:mm a – h:mm a v",
                  "h": "h:mm–h:mm a v",
                  "m": "h:mm–h:mm a v"
                },
                "hv": {
                  "a": "h a – h a v",
                  "h": "h–h a v"
                },
                "y": {
                  "y": "G y–y"
                },
                "yM": {
                  "M": "GGGGG y-MM – y-MM",
                  "y": "GGGGG y-MM – y-MM"
                },
                "yMEd": {
                  "M": "GGGGG y-MM-dd, E – y-MM-dd, E",
                  "d": "GGGGG y-MM-dd, E – y-MM-dd, E",
                  "y": "GGGGG y-MM-dd, E – y-MM-dd, E"
                },
                "yMMM": {
                  "M": "G y MMM–MMM",
                  "y": "G y MMM – y MMM"
                },
                "yMMMEd": {
                  "M": "G y MMM d, E – MMM d, E",
                  "d": "G y MMM d, E – MMM d, E",
                  "y": "G y MMM d, E – y MMM d, E"
                },
                "yMMMM": {
                  "M": "G y MMMM–MMMM",
                  "y": "G y MMMM – y MMMM"
                },
                "yMMMd": {
                  "M": "G y MMM d – MMM d",
                  "d": "G y MMM d–d",
                  "y": "G y MMM d – y MMM d"
                },
                "yMd": {
                  "M": "GGGGG y-MM-dd – y-MM-dd",
                  "d": "GGGGG y-MM-dd – y-MM-dd",
                  "y": "GGGGG y-MM-dd – y-MM-dd"
                }
              }
            }
          }
        }
      }
    }
  }
}
