{
  "main": {
    "es-NI": {
      "identity": {
        "version": {
          "_cldrVersion": "26",
          "_number": "$Revision: 10669 $"
        },
        "generation": {
          "_date": "$Date: 2014-07-23 16:10:33 -0500 (Wed, 23 Jul 2014) $"
        },
        "language": "es",
        "territory": "419"
      },
      "localeDisplayNames": {
        "localeDisplayPattern": {
          "localePattern": "{0} ({1})",
          "localeSeparator": "{0}, {1}",
          "localeKeyTypePattern": "{0}: {1}"
        },
        "keys": {
          "calendar": "calendario",
          "colAlternate": "Orden ignorando símbolos",
          "colBackwards": "Orden de acentos con inversión",
          "colCaseFirst": "Orden de mayúsculas/minúsculas",
          "colCaseLevel": "Orden con distinción entre mayúsculas y minúsculas",
          "colHiraganaQuaternary": "Orden de kana",
          "colNormalization": "Orden con normalización",
          "colNumeric": "Orden numérico",
          "colStrength": "Intensidad de orden",
          "collation": "orden",
          "currency": "moneda",
          "numbers": "Números",
          "timezone": "Zona horaria",
          "va": "Variante local",
          "variableTop": "Ordenar como símbolos",
          "x": "Uso privado"
        },
        "types": {
          "numbers": {
            "arab": "Dígitos arábigo-índicos",
            "arabext": "Dígitos árabe-hindú extendidos",
            "armn": "Números armenios",
            "armnlow": "Números armenios en minúscula",
            "bali": "bali",
            "beng": "Dígitos en bengalí"
          },
          "collation": {
            "big5han": "orden del chino tradicional - Big5"
          },
          "numbers": {
            "brah": "brah"
          },
          "calendar": {
            "buddhist": "calendario budista"
          },
          "numbers": {
            "cakm": "cakm",
            "cham": "cham"
          },
          "calendar": {
            "chinese": "calendario chino",
            "coptic": "Calendario cóptico",
            "dangi": "calendario dangi"
          },
          "numbers": {
            "deva": "Dígitos en devanagari"
          },
          "collation": {
            "dictionary": "Orden de clasificación del diccionario",
            "ducet": "Orden de clasificación de Unicode predeterminado",
            "eor": "eor"
          },
          "numbers": {
            "ethi": "Números etíopes"
          },
          "calendar": {
            "ethiopic": "Calendario etíope",
            "ethiopic-amete-alem": "Calendario etíope Amete Alem"
          },
          "numbers": {
            "finance": "Números financieros",
            "fullwide": "Dígitos en formato completo"
          },
          "collation": {
            "gb2312han": "orden del chino simplificado - GB2312"
          },
          "numbers": {
            "geor": "Números georgianos"
          },
          "calendar": {
            "gregorian": "calendario gregoriano"
          },
          "numbers": {
            "grek": "Números griegos",
            "greklow": "Números griegos en minúscula",
            "gujr": "Dígitos en guyaratí",
            "guru": "Dígitos en gurumuji",
            "hanidec": "Numerales decimales chinos",
            "hans": "Números simplificados chinos",
            "hansfin": "Números financieros simplificados chinos",
            "hant": "Números chinos tradicionales",
            "hantfin": "Números financieros chinos tradicionales",
            "hebr": "Números hebreos"
          },
          "calendar": {
            "hebrew": "calendario hebreo"
          },
          "colStrength": {
            "identical": "Ordenar todo"
          },
          "calendar": {
            "indian": "calendario nacional hindú",
            "islamic": "calendario islámico",
            "islamic-civil": "calendario civil islámico",
            "islamic-rgsa": "islamic-rgsa",
            "islamic-tbla": "islamic-tbla",
            "islamic-umalqura": "islamic-umalqura",
            "iso8601": "calendario ISO-8601",
            "japanese": "calendario japonés"
          },
          "numbers": {
            "java": "java",
            "jpan": "Números en japonés",
            "jpanfin": "Números financieros japoneses",
            "kali": "kali",
            "khmr": "Dígitos en jemer",
            "knda": "Dígitos en canarés",
            "lana": "lana",
            "lanatham": "lanatham",
            "laoo": "Dígitos de Lao",
            "latn": "Dígitos occidentales",
            "lepc": "lepc",
            "limb": "limb"
          },
          "colCaseFirst": {
            "lower": "Ordenar empezando por minúsculas"
          },
          "numbers": {
            "mlym": "Dígitos malabares",
            "mong": "Dígitos en mongol",
            "mtei": "mtei",
            "mymr": "Dígitos en birmano",
            "mymrshan": "mymrshan",
            "native": "Dígitos nativos",
            "nkoo": "nkoo"
          },
          "colBackwards": {
            "no": "Ordenar acentos normalmente"
          },
          "colCaseFirst": {
            "no": "Ordenar siguiendo orden normal de mayúsculas y minúsculas"
          },
          "colCaseLevel": {
            "no": "Ordenar sin distinguir entre mayúsculas y minúsculas"
          },
          "colHiraganaQuaternary": {
            "no": "Ordenar caracteres kana por separado"
          },
          "colNormalization": {
            "no": "Ordenar sin normalización"
          },
          "colNumeric": {
            "no": "Ordenar dígitos individualmente"
          },
          "colAlternate": {
            "non-ignorable": "Ordenar símbolos"
          },
          "numbers": {
            "olck": "olck",
            "orya": "Dígitos en oriya",
            "osma": "osma"
          },
          "calendar": {
            "persian": "Calendario persa"
          },
          "collation": {
            "phonebook": "orden de listín telefónico",
            "phonetic": "Orden de clasificación fonético",
            "pinyin": "orden pinyin"
          },
          "colStrength": {
            "primary": "Ordenar solo letras base",
            "quaternary": "Ordenar acentos/mayúsculas y minúsculas/ancho/kana"
          },
          "collation": {
            "reformed": "Orden de clasificación reformado"
          },
          "calendar": {
            "roc": "calendario de la República de China"
          },
          "numbers": {
            "roman": "Números romanos",
            "romanlow": "Números romanos en minúscula",
            "saur": "saur"
          },
          "collation": {
            "search": "Búsqueda generalizada",
            "searchjl": "Buscar por consonante inicial de hangul"
          },
          "colStrength": {
            "secondary": "Ordenar acentos"
          },
          "colAlternate": {
            "shifted": "Ordenar ignorando símbolos"
          },
          "numbers": {
            "shrd": "shrd",
            "sora": "sora"
          },
          "collation": {
            "standard": "orden estándar",
            "stroke": "orden de los trazos"
          },
          "numbers": {
            "sund": "sund",
            "takr": "takr",
            "talu": "talu",
            "taml": "Números en Tamil",
            "tamldec": "dígitos en tamil",
            "telu": "Dígitos en telugu"
          },
          "colStrength": {
            "tertiary": "Ordenar acentos/mayúsculas y minúsculas/ancho"
          },
          "numbers": {
            "thai": "Dígitos en tailandés",
            "tibt": "Dígitos tibetanos"
          },
          "collation": {
            "traditional": "orden tradicional"
          },
          "numbers": {
            "traditional": "Números tradicionales"
          },
          "collation": {
            "unihan": "Orden de clasificación de trazos radicales"
          },
          "colCaseFirst": {
            "upper": "Ordenar empezando por mayúsculas"
          },
          "numbers": {
            "vaii": "Dígitos vai"
          },
          "colBackwards": {
            "yes": "Ordenar acentos con inversión"
          },
          "colCaseLevel": {
            "yes": "Ordenar distinguiendo entre mayúsculas y minúsculas"
          },
          "colHiraganaQuaternary": {
            "yes": "Ordenar diferenciando caracteres kana"
          },
          "colNormalization": {
            "yes": "Ordenar con normalización Unicode"
          },
          "colNumeric": {
            "yes": "Ordenar dígitos numéricamente"
          },
          "collation": {
            "zhuyin": "zhuyin"
          }
        },
        "codePatterns": {
          "language": "Idioma: {0}",
          "script": "Alfabeto: {0}",
          "territory": "Región: {0}"
        }
      }
    }
  }
}
