{
  "main": {
    "et-EE": {
      "identity": {
        "version": {
          "_cldrVersion": "26",
          "_number": "$Revision: 10669 $"
        },
        "generation": {
          "_date": "$Date: 2014-07-23 16:10:33 -0500 (Wed, 23 Jul 2014) $"
        },
        "language": "et",
        "territory": "EE"
      },
      "dates": {
        "calendars": {
          "buddhist": {
            "months": {
              "format": {
                "abbreviated": {
                  "1": "jaan",
                  "2": "veebr",
                  "3": "märts",
                  "4": "apr",
                  "5": "mai",
                  "6": "juuni",
                  "7": "juuli",
                  "8": "aug",
                  "9": "sept",
                  "10": "okt",
                  "11": "nov",
                  "12": "dets"
                },
                "narrow": {
                  "1": "J",
                  "2": "V",
                  "3": "M",
                  "4": "A",
                  "5": "M",
                  "6": "J",
                  "7": "J",
                  "8": "A",
                  "9": "S",
                  "10": "O",
                  "11": "N",
                  "12": "D"
                },
                "wide": {
                  "1": "jaanuar",
                  "2": "veebruar",
                  "3": "märts",
                  "4": "aprill",
                  "5": "mai",
                  "6": "juuni",
                  "7": "juuli",
                  "8": "august",
                  "9": "september",
                  "10": "oktoober",
                  "11": "november",
                  "12": "detsember"
                }
              },
              "stand-alone": {
                "abbreviated": {
                  "1": "jaan",
                  "2": "veebr",
                  "3": "märts",
                  "4": "apr",
                  "5": "mai",
                  "6": "juuni",
                  "7": "juuli",
                  "8": "aug",
                  "9": "sept",
                  "10": "okt",
                  "11": "nov",
                  "12": "dets"
                },
                "narrow": {
                  "1": "J",
                  "2": "V",
                  "3": "M",
                  "4": "A",
                  "5": "M",
                  "6": "J",
                  "7": "J",
                  "8": "A",
                  "9": "S",
                  "10": "O",
                  "11": "N",
                  "12": "D"
                },
                "wide": {
                  "1": "jaanuar",
                  "2": "veebruar",
                  "3": "märts",
                  "4": "aprill",
                  "5": "mai",
                  "6": "juuni",
                  "7": "juuli",
                  "8": "august",
                  "9": "september",
                  "10": "oktoober",
                  "11": "november",
                  "12": "detsember"
                }
              }
            },
            "days": {
              "format": {
                "abbreviated": {
                  "sun": "P",
                  "mon": "E",
                  "tue": "T",
                  "wed": "K",
                  "thu": "N",
                  "fri": "R",
                  "sat": "L"
                },
                "narrow": {
                  "sun": "P",
                  "mon": "E",
                  "tue": "T",
                  "wed": "K",
                  "thu": "N",
                  "fri": "R",
                  "sat": "L"
                },
                "short": {
                  "sun": "P",
                  "mon": "E",
                  "tue": "T",
                  "wed": "K",
                  "thu": "N",
                  "fri": "R",
                  "sat": "L"
                },
                "wide": {
                  "sun": "pühapäev",
                  "mon": "esmaspäev",
                  "tue": "teisipäev",
                  "wed": "kolmapäev",
                  "thu": "neljapäev",
                  "fri": "reede",
                  "sat": "laupäev"
                }
              },
              "stand-alone": {
                "abbreviated": {
                  "sun": "P",
                  "mon": "E",
                  "tue": "T",
                  "wed": "K",
                  "thu": "N",
                  "fri": "R",
                  "sat": "L"
                },
                "narrow": {
                  "sun": "P",
                  "mon": "E",
                  "tue": "T",
                  "wed": "K",
                  "thu": "N",
                  "fri": "R",
                  "sat": "L"
                },
                "short": {
                  "sun": "P",
                  "mon": "E",
                  "tue": "T",
                  "wed": "K",
                  "thu": "N",
                  "fri": "R",
                  "sat": "L"
                },
                "wide": {
                  "sun": "pühapäev",
                  "mon": "esmaspäev",
                  "tue": "teisipäev",
                  "wed": "kolmapäev",
                  "thu": "neljapäev",
                  "fri": "reede",
                  "sat": "laupäev"
                }
              }
            },
            "quarters": {
              "format": {
                "abbreviated": {
                  "1": "K1",
                  "2": "K2",
                  "3": "K3",
                  "4": "K4"
                },
                "narrow": {
                  "1": "1",
                  "2": "2",
                  "3": "3",
                  "4": "4"
                },
                "wide": {
                  "1": "1. kvartal",
                  "2": "2. kvartal",
                  "3": "3. kvartal",
                  "4": "4. kvartal"
                }
              },
              "stand-alone": {
                "abbreviated": {
                  "1": "K1",
                  "2": "K2",
                  "3": "K3",
                  "4": "K4"
                },
                "narrow": {
                  "1": "1.",
                  "2": "2.",
                  "3": "3.",
                  "4": "4."
                },
                "wide": {
                  "1": "1. kvartal",
                  "2": "2. kvartal",
                  "3": "3. kvartal",
                  "4": "4. kvartal"
                }
              }
            },
            "dayPeriods": {
              "format": {
                "abbreviated": {
                  "am": "e.k.",
                  "noon": "keskpäev",
                  "pm": "p.k."
                },
                "narrow": {
                  "am": "a",
                  "noon": "n",
                  "pm": "p"
                },
                "wide": {
                  "am": "AM",
                  "noon": "keskpäev",
                  "pm": "PM"
                }
              },
              "stand-alone": {
                "abbreviated": {
                  "am": "e.k.",
                  "noon": "keskpäev",
                  "pm": "p.k."
                },
                "narrow": {
                  "am": "a",
                  "noon": "n",
                  "pm": "p"
                },
                "wide": {
                  "am": "AM",
                  "noon": "keskpäev",
                  "pm": "PM"
                }
              }
            },
            "eras": {
              "eraNames": {
                "0": "BE"
              },
              "eraAbbr": {
                "0": "BE"
              },
              "eraNarrow": {
                "0": "BE"
              }
            },
            "dateFormats": {
              "full": "EEEE, d. MMMM y G",
              "long": "d. MMMM y G",
              "medium": "dd.MM.y G",
              "short": "dd.MM.y GGGGG"
            },
            "timeFormats": {
              "full": "H:mm.ss zzzz",
              "long": "H:mm.ss z",
              "medium": "H:mm.ss",
              "short": "H:mm"
            },
            "dateTimeFormats": {
              "full": "{1} {0}",
              "long": "{1} {0}",
              "medium": "{1} {0}",
              "short": "{1} {0}",
              "availableFormats": {
                "E": "ccc",
                "EHm": "E HH:mm",
                "EHms": "E HH:mm:ss",
                "Ed": "E, d",
                "Ehm": "E h:mm a",
                "Ehms": "E h:mm:ss a",
                "Gy": "y G",
                "GyMMM": "MMM y G",
                "GyMMMEd": "E, d. MMMM y G",
                "GyMMMd": "d. MMM y G",
                "H": "HH",
                "Hm": "HH:mm",
                "Hms": "H:mm.ss",
                "M": "M",
                "MEd": "E, d.M",
                "MMM": "MMMM",
                "MMMEd": "E, d. MMM",
                "MMMMEd": "E, d. MMMM",
                "MMMMd": "d. MMMM",
                "MMMd": "d. MMM",
                "Md": "d.M",
                "d": "d",
                "h": "h a",
                "hm": "h:mm a",
                "hms": "h:mm.ss a",
                "mmss": "mm.ss",
                "ms": "mm.ss",
                "y": "y G",
                "yyyy": "y G",
                "yyyyM": "M.y G",
                "yyyyMEd": "E, d.M y G",
                "yyyyMMM": "MMM y G",
                "yyyyMMMEd": "E, d. MMMM y G",
                "yyyyMMMM": "MMMM y G",
                "yyyyMMMd": "d. MMM y G",
                "yyyyMd": "d.M.y G",
                "yyyyQQQ": "QQQ y G",
                "yyyyQQQQ": "QQQQ y G"
              },
              "appendItems": {
                "Day": "{0} ({2}: {1})",
                "Day-Of-Week": "{0} {1}",
                "Era": "{1} {0}",
                "Hour": "{0} ({2}: {1})",
                "Minute": "{0} ({2}: {1})",
                "Month": "{0} ({2}: {1})",
                "Quarter": "{0} ({2}: {1})",
                "Second": "{0} ({2}: {1})",
                "Timezone": "{0} {1}",
                "Week": "{0} ({2}: {1})",
                "Year": "{1} {0}"
              },
              "intervalFormats": {
                "intervalFormatFallback": "{0}–{1}",
                "H": {
                  "H": "HH–HH"
                },
                "Hm": {
                  "H": "HH.mm–HH.mm",
                  "m": "HH.mm–HH.mm"
                },
                "Hmv": {
                  "H": "HH.mm–HH.mm v",
                  "m": "HH:mm–HH:mm v"
                },
                "Hv": {
                  "H": "HH–HH v"
                },
                "M": {
                  "M": "M–M"
                },
                "MEd": {
                  "M": "E, dd.MM–E, dd.MM",
                  "d": "E, dd.MM–E, dd.MM"
                },
                "MMM": {
                  "M": "MMM–MMM"
                },
                "MMMEd": {
                  "M": "E, d. MMM–E, d. MMM",
                  "d": "E, d. MMM–E, d. MMM"
                },
                "MMMd": {
                  "M": "d. MMM–d. MMM",
                  "d": "d.–d. MMM"
                },
                "Md": {
                  "M": "dd.MM–dd.MM",
                  "d": "dd.MM–dd.MM"
                },
                "d": {
                  "d": "d–d"
                },
                "h": {
                  "a": "h a – h a",
                  "h": "h–h a"
                },
                "hm": {
                  "a": "h:mm a – h:mm a",
                  "h": "h:mm–h:mm a",
                  "m": "h:mm–h:mm a"
                },
                "hmv": {
                  "a": "h:mm a – h:mm a v",
                  "h": "h:mm–h:mm a v",
                  "m": "h:mm–h:mm a v"
                },
                "hv": {
                  "a": "h a – h a v",
                  "h": "h–h a v"
                },
                "y": {
                  "y": "y–y G"
                },
                "yM": {
                  "M": "MM.y–MM.y G",
                  "y": "MM.y–MM.y G"
                },
                "yMEd": {
                  "M": "E, dd.MM.y–E, dd.MM.y G",
                  "d": "E, dd.MM.y–E, dd.MM.y G",
                  "y": "E, dd.MM.y–E, dd.MM.y G"
                },
                "yMMM": {
                  "M": "MMM–MMM y G",
                  "y": "MMM y–MMM y G"
                },
                "yMMMEd": {
                  "M": "E, d. MMM–E, d. MMM y G",
                  "d": "E, d. MMM–E, d. MMM y G",
                  "y": "E, d. MMM y–E, d. MMM y G"
                },
                "yMMMM": {
                  "M": "MMMM–MMMM y G",
                  "y": "MMMM y – MMMM y G"
                },
                "yMMMd": {
                  "M": "d. MMM–d. MMM y G",
                  "d": "d.–d. MMM y G",
                  "y": "d. MMM y–d. MMM y G"
                },
                "yMd": {
                  "M": "dd.MM.y–dd.MM.y G",
                  "d": "dd.MM.y–dd.MM.y G",
                  "y": "dd.MM.y–dd.MM.y G"
                }
              }
            }
          }
        }
      }
    }
  }
}
