{
  "main": {
    "fil-PH": {
      "identity": {
        "version": {
          "_cldrVersion": "26",
          "_number": "$Revision: 10669 $"
        },
        "generation": {
          "_date": "$Date: 2014-07-23 16:10:33 -0500 (Wed, 23 Jul 2014) $"
        },
        "language": "fil",
        "territory": "PH"
      },
      "units": {
        "long": {
          "per": {
            "compoundUnitPattern": "{0} bawat {1}"
          },
          "acceleration-g-force": {
            "displayName": "g-force",
            "unitPattern-count-one": "{0} g-force",
            "unitPattern-count-other": "{0} g-force"
          },
          "acceleration-meter-per-second-squared": {
            "displayName": "metro kada segundo kwadrado",
            "unitPattern-count-one": "{0} metro kada segundo kwadrado",
            "unitPattern-count-other": "{0} metro kada segundo kwadrado"
          },
          "angle-arc-minute": {
            "displayName": "arcminutes",
            "unitPattern-count-one": "{0} minute",
            "unitPattern-count-other": "{0} minutes"
          },
          "angle-arc-second": {
            "displayName": "arcseconds",
            "unitPattern-count-one": "{0} second",
            "unitPattern-count-other": "{0} seconds"
          },
          "angle-degree": {
            "displayName": "degrees",
            "unitPattern-count-one": "{0} degree",
            "unitPattern-count-other": "{0} degrees"
          },
          "angle-radian": {
            "displayName": "radians",
            "unitPattern-count-one": "{0} radian",
            "unitPattern-count-other": "{0} radians"
          },
          "area-acre": {
            "displayName": "acres",
            "unitPattern-count-one": "{0} acre",
            "unitPattern-count-other": "{0} acres"
          },
          "area-hectare": {
            "displayName": "hektarya",
            "unitPattern-count-one": "{0} ektarya",
            "unitPattern-count-other": "{0} ektarya"
          },
          "area-square-centimeter": {
            "displayName": "sentimetro kwadrado",
            "unitPattern-count-one": "{0} sentimetro kwadrado",
            "unitPattern-count-other": "{0} sentimetro kwadrado"
          },
          "area-square-foot": {
            "displayName": "talampakan parisukat",
            "unitPattern-count-one": "{0} talampakan parisukat",
            "unitPattern-count-other": "{0} talampakan parisukat"
          },
          "area-square-inch": {
            "displayName": "pulgada kwadrado",
            "unitPattern-count-one": "{0} pulgada kwadrado",
            "unitPattern-count-other": "{0} pulgada kwadrado"
          },
          "area-square-kilometer": {
            "displayName": "kilometro kwadrado",
            "unitPattern-count-one": "{0} kilometro kwadrado",
            "unitPattern-count-other": "{0} square kilometer"
          },
          "area-square-meter": {
            "displayName": "metro kwadrado",
            "unitPattern-count-one": "{0} metro kwadrado",
            "unitPattern-count-other": "{0} square meter"
          },
          "area-square-mile": {
            "displayName": "milya kwadrado",
            "unitPattern-count-one": "{0} milya parisukat",
            "unitPattern-count-other": "{0} milya parisukat"
          },
          "area-square-yard": {
            "displayName": "yarda parisukat",
            "unitPattern-count-one": "{0} yarda parisukat",
            "unitPattern-count-other": "{0} yarda parisukat"
          },
          "consumption-liter-per-kilometer": {
            "displayName": "litro kada kilometro",
            "unitPattern-count-one": "{0} litro kada kilometro",
            "unitPattern-count-other": "{0} litro kada kilometro"
          },
          "consumption-mile-per-gallon": {
            "displayName": "milya kada galon",
            "unitPattern-count-one": "{0} milya kada galon",
            "unitPattern-count-other": "{0} milya kada galon"
          },
          "digital-bit": {
            "displayName": "bits",
            "unitPattern-count-one": "{0} bit",
            "unitPattern-count-other": "{0} bits"
          },
          "digital-byte": {
            "displayName": "bytes",
            "unitPattern-count-one": "{0} byte",
            "unitPattern-count-other": "{0} byte"
          },
          "digital-gigabit": {
            "displayName": "gigabits",
            "unitPattern-count-one": "{0} gigabit",
            "unitPattern-count-other": "{0} gigabits"
          },
          "digital-gigabyte": {
            "displayName": "gigabytes",
            "unitPattern-count-one": "{0} gigabyte",
            "unitPattern-count-other": "{0} gigabytes"
          },
          "digital-kilobit": {
            "displayName": "kilobits",
            "unitPattern-count-one": "{0} kilobit",
            "unitPattern-count-other": "{0} kilobits"
          },
          "digital-kilobyte": {
            "displayName": "kilobytes",
            "unitPattern-count-one": "{0} kilobyte",
            "unitPattern-count-other": "{0} kilobytes"
          },
          "digital-megabit": {
            "displayName": "megabits",
            "unitPattern-count-one": "{0} megabit",
            "unitPattern-count-other": "{0} megabits"
          },
          "digital-megabyte": {
            "displayName": "megabytes",
            "unitPattern-count-one": "{0} megabyte",
            "unitPattern-count-other": "{0} megabytes"
          },
          "digital-terabit": {
            "displayName": "terabits",
            "unitPattern-count-one": "{0} terabit",
            "unitPattern-count-other": "{0} terabits"
          },
          "digital-terabyte": {
            "displayName": "terabytes",
            "unitPattern-count-one": "{0} terabyte",
            "unitPattern-count-other": "{0} terabytes"
          },
          "duration-day": {
            "displayName": "araw",
            "unitPattern-count-one": "{0} araw",
            "unitPattern-count-other": "{0} araw"
          },
          "duration-hour": {
            "displayName": "oras",
            "unitPattern-count-one": "{0} oras",
            "unitPattern-count-other": "{0} oras",
            "perUnitPattern": "{0} kada oras"
          },
          "duration-microsecond": {
            "displayName": "mikrosegundo",
            "unitPattern-count-one": "{0} mikrosegundo",
            "unitPattern-count-other": "{0} mikrosegundo"
          },
          "duration-millisecond": {
            "displayName": "milisegundo",
            "unitPattern-count-one": "{0} milisegundo",
            "unitPattern-count-other": "{0} milisegundo"
          },
          "duration-minute": {
            "displayName": "minuto",
            "unitPattern-count-one": "{0} minuto",
            "unitPattern-count-other": "{0} minuto"
          },
          "duration-month": {
            "displayName": "buwan",
            "unitPattern-count-one": "{0} buwan",
            "unitPattern-count-other": "{0} buwan"
          },
          "duration-nanosecond": {
            "displayName": "nanosegundo",
            "unitPattern-count-one": "{0} nanosegundo",
            "unitPattern-count-other": "{0} nanosegundo"
          },
          "duration-second": {
            "displayName": "segundo",
            "unitPattern-count-one": "{0} segundo",
            "unitPattern-count-other": "{0} segundo",
            "perUnitPattern": "{0} kada segundo"
          },
          "duration-week": {
            "displayName": "linggo",
            "unitPattern-count-one": "{0} linggo",
            "unitPattern-count-other": "{0} linggo"
          },
          "duration-year": {
            "displayName": "taon",
            "unitPattern-count-one": "{0} taon",
            "unitPattern-count-other": "{0} taon"
          },
          "electric-ampere": {
            "displayName": "amperes",
            "unitPattern-count-one": "{0} ampere",
            "unitPattern-count-other": "{0} amperes"
          },
          "electric-milliampere": {
            "displayName": "milliamperes",
            "unitPattern-count-one": "{0} milliampere",
            "unitPattern-count-other": "{0} milliamperes"
          },
          "electric-ohm": {
            "displayName": "ohms",
            "unitPattern-count-one": "{0} ohm",
            "unitPattern-count-other": "{0} ohms"
          },
          "electric-volt": {
            "displayName": "volts",
            "unitPattern-count-one": "{0} volt",
            "unitPattern-count-other": "{0} volts"
          },
          "energy-calorie": {
            "displayName": "calories",
            "unitPattern-count-one": "{0} calorie",
            "unitPattern-count-other": "{0} calories"
          },
          "energy-foodcalorie": {
            "displayName": "Calories",
            "unitPattern-count-one": "{0} Calorie",
            "unitPattern-count-other": "{0} Calories"
          },
          "energy-joule": {
            "displayName": "joules",
            "unitPattern-count-one": "{0} joule",
            "unitPattern-count-other": "{0} joules"
          },
          "energy-kilocalorie": {
            "displayName": "kilocalories",
            "unitPattern-count-one": "{0} kilocalorie",
            "unitPattern-count-other": "{0} kilocalories"
          },
          "energy-kilojoule": {
            "displayName": "kilojoules",
            "unitPattern-count-one": "{0} kilojoule",
            "unitPattern-count-other": "{0} kilojoules"
          },
          "energy-kilowatt-hour": {
            "displayName": "kilowatt-hours",
            "unitPattern-count-one": "{0} kilowatt hour",
            "unitPattern-count-other": "{0} kilowatt-hours"
          },
          "frequency-gigahertz": {
            "displayName": "gigahertz",
            "unitPattern-count-one": "{0} gigahertz",
            "unitPattern-count-other": "{0} gigahertz"
          },
          "frequency-hertz": {
            "displayName": "hertz",
            "unitPattern-count-one": "{0} hertz",
            "unitPattern-count-other": "{0} hertz"
          },
          "frequency-kilohertz": {
            "displayName": "kilohertz",
            "unitPattern-count-one": "{0} kilohertz",
            "unitPattern-count-other": "{0} kilohertz"
          },
          "frequency-megahertz": {
            "displayName": "megahertz",
            "unitPattern-count-one": "{0} megahertz",
            "unitPattern-count-other": "{0} megahertz"
          },
          "length-astronomical-unit": {
            "displayName": "astronomical units",
            "unitPattern-count-one": "{0} astronomical unit",
            "unitPattern-count-other": "{0} astronomical units"
          },
          "length-centimeter": {
            "displayName": "sentimetro",
            "unitPattern-count-one": "{0} sentimetro",
            "unitPattern-count-other": "{0} sentimetro"
          },
          "length-decimeter": {
            "displayName": "decimetro",
            "unitPattern-count-one": "{0} decimetro",
            "unitPattern-count-other": "{0} decimetro"
          },
          "length-fathom": {
            "displayName": "fm",
            "unitPattern-count-other": "{0} fm"
          },
          "length-foot": {
            "displayName": "talampakan",
            "unitPattern-count-one": "{0} talampakan",
            "unitPattern-count-other": "{0} talampakan"
          },
          "length-furlong": {
            "displayName": "fur",
            "unitPattern-count-other": "{0} fur"
          },
          "length-inch": {
            "displayName": "pulgada",
            "unitPattern-count-one": "{0} pulgada",
            "unitPattern-count-other": "{0} pulgada"
          },
          "length-kilometer": {
            "displayName": "kilometro",
            "unitPattern-count-one": "{0} kilometro",
            "unitPattern-count-other": "{0} kilometro"
          },
          "length-light-year": {
            "displayName": "light year",
            "unitPattern-count-one": "{0} light year",
            "unitPattern-count-other": "{0} light year"
          },
          "length-meter": {
            "displayName": "metro",
            "unitPattern-count-one": "{0} metro",
            "unitPattern-count-other": "{0} metro"
          },
          "length-micrometer": {
            "displayName": "micrometro",
            "unitPattern-count-one": "{0} micrometro",
            "unitPattern-count-other": "{0} micrometro"
          },
          "length-mile": {
            "displayName": "milya",
            "unitPattern-count-one": "{0} milya",
            "unitPattern-count-other": "{0} milya"
          },
          "length-millimeter": {
            "displayName": "milimetro",
            "unitPattern-count-one": "{0} milimetro",
            "unitPattern-count-other": "{0} milimetro"
          },
          "length-nanometer": {
            "displayName": "nanometro",
            "unitPattern-count-one": "{0} nanometro",
            "unitPattern-count-other": "{0} nanometro"
          },
          "length-nautical-mile": {
            "displayName": "nautical miles",
            "unitPattern-count-one": "{0} nautical mile",
            "unitPattern-count-other": "{0} nautical miles"
          },
          "length-parsec": {
            "displayName": "parsecs",
            "unitPattern-count-one": "{0} parsec",
            "unitPattern-count-other": "{0} parsecs"
          },
          "length-picometer": {
            "displayName": "picometer",
            "unitPattern-count-one": "{0} picometer",
            "unitPattern-count-other": "{0} picometer"
          },
          "length-yard": {
            "displayName": "yarda",
            "unitPattern-count-one": "{0} yarda",
            "unitPattern-count-other": "{0} yarda"
          },
          "light-lux": {
            "displayName": "lux",
            "unitPattern-count-one": "{0} lux",
            "unitPattern-count-other": "{0} lux"
          },
          "mass-carat": {
            "displayName": "karat",
            "unitPattern-count-one": "{0} karat",
            "unitPattern-count-other": "{0} karat"
          },
          "mass-gram": {
            "displayName": "gramo",
            "unitPattern-count-one": "{0} gramo",
            "unitPattern-count-other": "{0} gramo"
          },
          "mass-kilogram": {
            "displayName": "kilo",
            "unitPattern-count-one": "{0} kilo",
            "unitPattern-count-other": "{0} kilo"
          },
          "mass-metric-ton": {
            "displayName": "metrikong tonelada",
            "unitPattern-count-one": "{0} metrikong tonelada",
            "unitPattern-count-other": "{0} metrikong tonelada"
          },
          "mass-microgram": {
            "displayName": "micrograms",
            "unitPattern-count-one": "{0} microgram",
            "unitPattern-count-other": "{0} micrograms"
          },
          "mass-milligram": {
            "displayName": "milligrams",
            "unitPattern-count-one": "{0} milligram",
            "unitPattern-count-other": "{0} milligrams"
          },
          "mass-ounce": {
            "displayName": "ounce",
            "unitPattern-count-one": "{0} ounce",
            "unitPattern-count-other": "{0} ounce"
          },
          "mass-ounce-troy": {
            "displayName": "troy ounces",
            "unitPattern-count-one": "{0} troy ounce",
            "unitPattern-count-other": "{0} troy ounces"
          },
          "mass-pound": {
            "displayName": "pound",
            "unitPattern-count-one": "{0} pound",
            "unitPattern-count-other": "{0} pound"
          },
          "mass-stone": {
            "displayName": "st",
            "unitPattern-count-other": "{0} st"
          },
          "mass-ton": {
            "displayName": "tonelada",
            "unitPattern-count-one": "{0} tonelada",
            "unitPattern-count-other": "{0} tonelada"
          },
          "power-gigawatt": {
            "displayName": "gigawatts",
            "unitPattern-count-one": "{0} gigawatt",
            "unitPattern-count-other": "{0} gigawatts"
          },
          "power-horsepower": {
            "displayName": "horsepower",
            "unitPattern-count-one": "{0} horsepower",
            "unitPattern-count-other": "{0} horsepower"
          },
          "power-kilowatt": {
            "displayName": "kilowatts",
            "unitPattern-count-one": "{0} kilowatt",
            "unitPattern-count-other": "{0} kilowatts"
          },
          "power-megawatt": {
            "displayName": "megawatts",
            "unitPattern-count-one": "{0} megawatt",
            "unitPattern-count-other": "{0} megawatts"
          },
          "power-milliwatt": {
            "displayName": "milliwatts",
            "unitPattern-count-one": "{0} milliwatt",
            "unitPattern-count-other": "{0} milliwatts"
          },
          "power-watt": {
            "displayName": "watts",
            "unitPattern-count-one": "{0} watt",
            "unitPattern-count-other": "{0} watts"
          },
          "pressure-hectopascal": {
            "displayName": "hectopascal",
            "unitPattern-count-one": "{0} hectopascal",
            "unitPattern-count-other": "{0} hectopascal"
          },
          "pressure-inch-hg": {
            "displayName": "inch of mercury",
            "unitPattern-count-one": "{0} pulgada ng asoge",
            "unitPattern-count-other": "{0} inch of mercury"
          },
          "pressure-millibar": {
            "displayName": "millibar",
            "unitPattern-count-one": "{0} millibar",
            "unitPattern-count-other": "{0} millibar"
          },
          "pressure-millimeter-of-mercury": {
            "displayName": "milimetro ng asoge",
            "unitPattern-count-one": "{0} milimetro ng asoge",
            "unitPattern-count-other": "{0} milimetro ng asoge"
          },
          "pressure-pound-per-square-inch": {
            "displayName": "libra kada isang pulgadang parisukat",
            "unitPattern-count-one": "{0} libra bawa't isang pulgadang parisukat",
            "unitPattern-count-other": "{0} libra bawa't isang pulgadang parisukat"
          },
          "proportion-karat": {
            "displayName": "karat",
            "unitPattern-count-one": "{0} karat",
            "unitPattern-count-other": "{0} karat"
          },
          "speed-kilometer-per-hour": {
            "displayName": "kilometro kada oras",
            "unitPattern-count-one": "{0} kilometro kada oras",
            "unitPattern-count-other": "{0} kilometro kada oras"
          },
          "speed-meter-per-second": {
            "displayName": "metro kada segundo",
            "unitPattern-count-one": "{0} metro kada segundo",
            "unitPattern-count-other": "{0} metro kada segundo"
          },
          "speed-mile-per-hour": {
            "displayName": "milya kada oras",
            "unitPattern-count-one": "{0} milya kada oras",
            "unitPattern-count-other": "{0} milya kada oras"
          },
          "temperature-celsius": {
            "displayName": "degrees Celsius",
            "unitPattern-count-one": "{0} degree Celsius",
            "unitPattern-count-other": "{0} degrees Celsius"
          },
          "temperature-fahrenheit": {
            "displayName": "degrees Fahrenheit",
            "unitPattern-count-one": "{0} degree Fahrenheit",
            "unitPattern-count-other": "{0} degrees Fahrenheit"
          },
          "temperature-kelvin": {
            "displayName": "degrees kelvin",
            "unitPattern-count-one": "{0} degree kelvin",
            "unitPattern-count-other": "{0} degrees kelvin"
          },
          "volume-acre-foot": {
            "displayName": "acre-feet",
            "unitPattern-count-one": "{0} acre-foot",
            "unitPattern-count-other": "{0} acre-feet"
          },
          "volume-bushel": {
            "displayName": "bu",
            "unitPattern-count-other": "{0} bu"
          },
          "volume-centiliter": {
            "displayName": "sentilitro",
            "unitPattern-count-one": "{0} sentilitro",
            "unitPattern-count-other": "{0} sentilitro"
          },
          "volume-cubic-centimeter": {
            "displayName": "kubiko sentimetro",
            "unitPattern-count-one": "{0} kubiko sentimetro",
            "unitPattern-count-other": "{0} kubiko sentimetro"
          },
          "volume-cubic-foot": {
            "displayName": "kubiko talampakan",
            "unitPattern-count-one": "{0} kubiko talampakan",
            "unitPattern-count-other": "{0} kubiko talampakan"
          },
          "volume-cubic-inch": {
            "displayName": "kubiko pulgada",
            "unitPattern-count-one": "{0} kubiko pulgada",
            "unitPattern-count-other": "{0} kubiko pulgada"
          },
          "volume-cubic-kilometer": {
            "displayName": "kubiko kilometro",
            "unitPattern-count-one": "{0} kubiko kilometro",
            "unitPattern-count-other": "{0} kubiko kilometro"
          },
          "volume-cubic-meter": {
            "displayName": "kubiko metro",
            "unitPattern-count-one": "{0} kubiko metro",
            "unitPattern-count-other": "{0} kubiko metro"
          },
          "volume-cubic-mile": {
            "displayName": "kubiko milya",
            "unitPattern-count-one": "{0} kubiko milya",
            "unitPattern-count-other": "{0} kubiko milya"
          },
          "volume-cubic-yard": {
            "displayName": "kubiko yarda",
            "unitPattern-count-one": "{0} kubiko yarda",
            "unitPattern-count-other": "{0} kubiko yarda"
          },
          "volume-cup": {
            "displayName": "tasa",
            "unitPattern-count-one": "{0} tasa",
            "unitPattern-count-other": "{0} tasa"
          },
          "volume-deciliter": {
            "displayName": "decilitro",
            "unitPattern-count-one": "{0} decilitro",
            "unitPattern-count-other": "{0} decilitro"
          },
          "volume-fluid-ounce": {
            "displayName": "fluid ounces",
            "unitPattern-count-one": "{0} fluid ounce",
            "unitPattern-count-other": "{0} fluid ounces"
          },
          "volume-gallon": {
            "displayName": "galon",
            "unitPattern-count-one": "{0} galon",
            "unitPattern-count-other": "{0} galon"
          },
          "volume-hectoliter": {
            "displayName": "hektolitro",
            "unitPattern-count-one": "{0} hektolitro",
            "unitPattern-count-other": "{0} hektolitro"
          },
          "volume-liter": {
            "displayName": "litro",
            "unitPattern-count-one": "{0} litro",
            "unitPattern-count-other": "{0} litro"
          },
          "volume-megaliter": {
            "displayName": "megalitro",
            "unitPattern-count-one": "{0} megalitro",
            "unitPattern-count-other": "{0} megalitro"
          },
          "volume-milliliter": {
            "displayName": "mililitro",
            "unitPattern-count-one": "{0} mililitro",
            "unitPattern-count-other": "{0} mililitro"
          },
          "volume-pint": {
            "displayName": "pints",
            "unitPattern-count-one": "{0} pint",
            "unitPattern-count-other": "{0} pints"
          },
          "volume-quart": {
            "displayName": "quarts",
            "unitPattern-count-one": "{0} quart",
            "unitPattern-count-other": "{0} quarts"
          },
          "volume-tablespoon": {
            "displayName": "kutsara",
            "unitPattern-count-one": "{0} kutsara",
            "unitPattern-count-other": "{0} kutsara"
          },
          "volume-teaspoon": {
            "displayName": "kutsarita",
            "unitPattern-count-one": "{0} kutsarita",
            "unitPattern-count-other": "{0} kutsarita"
          }
        },
        "short": {
          "per": {
            "compoundUnitPattern": "{0}/{1}"
          },
          "acceleration-g-force": {
            "displayName": "g-force",
            "unitPattern-count-one": "{0} G",
            "unitPattern-count-other": "{0} G"
          },
          "acceleration-meter-per-second-squared": {
            "displayName": "metro/segundo²",
            "unitPattern-count-one": "{0} m/s²",
            "unitPattern-count-other": "{0} m/s²"
          },
          "angle-arc-minute": {
            "displayName": "arcmins",
            "unitPattern-count-one": "{0} min",
            "unitPattern-count-other": "{0} arcmins"
          },
          "angle-arc-second": {
            "displayName": "arcsecs",
            "unitPattern-count-one": "{0} sec",
            "unitPattern-count-other": "{0} secs"
          },
          "angle-degree": {
            "displayName": "degrees",
            "unitPattern-count-one": "{0} deg",
            "unitPattern-count-other": "{0} deg"
          },
          "angle-radian": {
            "displayName": "radians",
            "unitPattern-count-one": "{0} rad",
            "unitPattern-count-other": "{0} rad"
          },
          "area-acre": {
            "displayName": "acres",
            "unitPattern-count-one": "{0} ac",
            "unitPattern-count-other": "{0} ac"
          },
          "area-hectare": {
            "displayName": "hektarya",
            "unitPattern-count-one": "{0} ha",
            "unitPattern-count-other": "{0} ha"
          },
          "area-square-centimeter": {
            "displayName": "cm²",
            "unitPattern-count-one": "{0} cm²",
            "unitPattern-count-other": "{0} cm²"
          },
          "area-square-foot": {
            "displayName": "sq feet",
            "unitPattern-count-one": "{0} sq ft",
            "unitPattern-count-other": "{0} sq ft"
          },
          "area-square-inch": {
            "displayName": "pulgada²",
            "unitPattern-count-one": "{0} in²",
            "unitPattern-count-other": "{0} in²"
          },
          "area-square-kilometer": {
            "displayName": "km²",
            "unitPattern-count-one": "{0} km²",
            "unitPattern-count-other": "{0} km²"
          },
          "area-square-meter": {
            "displayName": "meter²",
            "unitPattern-count-one": "{0} m²",
            "unitPattern-count-other": "{0} m²"
          },
          "area-square-mile": {
            "displayName": "sq mile",
            "unitPattern-count-one": "{0} sq mi",
            "unitPattern-count-other": "{0} sq mi"
          },
          "area-square-yard": {
            "displayName": "yarda²",
            "unitPattern-count-one": "{0} yd²",
            "unitPattern-count-other": "{0} yd²"
          },
          "consumption-liter-per-kilometer": {
            "displayName": "litro/km",
            "unitPattern-count-one": "{0} L/km",
            "unitPattern-count-other": "{0} L/km"
          },
          "consumption-mile-per-gallon": {
            "displayName": "milya kada galon",
            "unitPattern-count-one": "{0} mpg",
            "unitPattern-count-other": "{0} mpg"
          },
          "digital-bit": {
            "displayName": "bit",
            "unitPattern-count-one": "{0} bit",
            "unitPattern-count-other": "{0} bit"
          },
          "digital-byte": {
            "displayName": "byte",
            "unitPattern-count-one": "{0} byte",
            "unitPattern-count-other": "{0} byte"
          },
          "digital-gigabit": {
            "displayName": "Gbit",
            "unitPattern-count-one": "{0} Gb",
            "unitPattern-count-other": "{0} Gb"
          },
          "digital-gigabyte": {
            "displayName": "GByte",
            "unitPattern-count-one": "{0} GB",
            "unitPattern-count-other": "{0} GB"
          },
          "digital-kilobit": {
            "displayName": "kbit",
            "unitPattern-count-one": "{0} kb",
            "unitPattern-count-other": "{0} kb"
          },
          "digital-kilobyte": {
            "displayName": "kByte",
            "unitPattern-count-one": "{0} kB",
            "unitPattern-count-other": "{0} kB"
          },
          "digital-megabit": {
            "displayName": "Mbit",
            "unitPattern-count-one": "{0} Mb",
            "unitPattern-count-other": "{0} Mb"
          },
          "digital-megabyte": {
            "displayName": "MByte",
            "unitPattern-count-one": "{0} MB",
            "unitPattern-count-other": "{0} MB"
          },
          "digital-terabit": {
            "displayName": "Tbit",
            "unitPattern-count-one": "{0} Tb",
            "unitPattern-count-other": "{0} Tb"
          },
          "digital-terabyte": {
            "displayName": "TByte",
            "unitPattern-count-one": "{0} TB",
            "unitPattern-count-other": "{0} TB"
          },
          "duration-day": {
            "displayName": "araw",
            "unitPattern-count-one": "{0} araw",
            "unitPattern-count-other": "{0} araw"
          },
          "duration-hour": {
            "displayName": "oras",
            "unitPattern-count-one": "{0} hr",
            "unitPattern-count-other": "{0} hrs",
            "perUnitPattern": "{0}/h"
          },
          "duration-microsecond": {
            "displayName": "μseg",
            "unitPattern-count-one": "{0} μs",
            "unitPattern-count-other": "{0} μs"
          },
          "duration-millisecond": {
            "displayName": "miliseg",
            "unitPattern-count-one": "{0} ms",
            "unitPattern-count-other": "{0} ms"
          },
          "duration-minute": {
            "displayName": "min.",
            "unitPattern-count-one": "{0} min.",
            "unitPattern-count-other": "{0} min."
          },
          "duration-month": {
            "displayName": "buwan",
            "unitPattern-count-one": "{0} mth",
            "unitPattern-count-other": "{0} mths"
          },
          "duration-nanosecond": {
            "displayName": "nanoseg",
            "unitPattern-count-one": "{0} ns",
            "unitPattern-count-other": "{0} ns"
          },
          "duration-second": {
            "displayName": "seg.",
            "unitPattern-count-one": "{0} seg.",
            "unitPattern-count-other": "{0} seg.",
            "perUnitPattern": "{0}/s"
          },
          "duration-week": {
            "displayName": "linggo",
            "unitPattern-count-one": "{0} wk",
            "unitPattern-count-other": "{0} wks"
          },
          "duration-year": {
            "displayName": "taon",
            "unitPattern-count-one": "{0} yr",
            "unitPattern-count-other": "{0} yrs"
          },
          "electric-ampere": {
            "displayName": "amp",
            "unitPattern-count-one": "{0} A",
            "unitPattern-count-other": "{0} A"
          },
          "electric-milliampere": {
            "displayName": "milliamps",
            "unitPattern-count-one": "{0} mA",
            "unitPattern-count-other": "{0} mA"
          },
          "electric-ohm": {
            "displayName": "ohms",
            "unitPattern-count-one": "{0} Ω",
            "unitPattern-count-other": "{0} Ω"
          },
          "electric-volt": {
            "displayName": "volts",
            "unitPattern-count-one": "{0} V",
            "unitPattern-count-other": "{0} V"
          },
          "energy-calorie": {
            "displayName": "cal",
            "unitPattern-count-one": "{0} cal",
            "unitPattern-count-other": "{0} cal"
          },
          "energy-foodcalorie": {
            "displayName": "Cal",
            "unitPattern-count-one": "{0} Cal",
            "unitPattern-count-other": "{0} Cal"
          },
          "energy-joule": {
            "displayName": "joules",
            "unitPattern-count-one": "{0} J",
            "unitPattern-count-other": "{0} J"
          },
          "energy-kilocalorie": {
            "displayName": "kcal",
            "unitPattern-count-one": "{0} kcal",
            "unitPattern-count-other": "{0} kcal"
          },
          "energy-kilojoule": {
            "displayName": "kilojoule",
            "unitPattern-count-one": "{0} kJ",
            "unitPattern-count-other": "{0} kJ"
          },
          "energy-kilowatt-hour": {
            "displayName": "kW-hour",
            "unitPattern-count-one": "{0} kWh",
            "unitPattern-count-other": "{0} kWh"
          },
          "frequency-gigahertz": {
            "displayName": "GHz",
            "unitPattern-count-one": "{0} GHz",
            "unitPattern-count-other": "{0} GHz"
          },
          "frequency-hertz": {
            "displayName": "Hz",
            "unitPattern-count-one": "{0} Hz",
            "unitPattern-count-other": "{0} Hz"
          },
          "frequency-kilohertz": {
            "displayName": "kHz",
            "unitPattern-count-one": "{0} kHz",
            "unitPattern-count-other": "{0} kHz"
          },
          "frequency-megahertz": {
            "displayName": "MHz",
            "unitPattern-count-one": "{0} MHz",
            "unitPattern-count-other": "{0} MHz"
          },
          "length-astronomical-unit": {
            "displayName": "au",
            "unitPattern-count-one": "{0} au",
            "unitPattern-count-other": "{0} au"
          },
          "length-centimeter": {
            "displayName": "cm",
            "unitPattern-count-one": "{0} cm",
            "unitPattern-count-other": "{0} cm"
          },
          "length-decimeter": {
            "displayName": "dm",
            "unitPattern-count-one": "{0} dm",
            "unitPattern-count-other": "{0} dm"
          },
          "length-fathom": {
            "displayName": "fm",
            "unitPattern-count-other": "{0} fm"
          },
          "length-foot": {
            "displayName": "talampakan",
            "unitPattern-count-one": "{0} ft",
            "unitPattern-count-other": "{0} ft"
          },
          "length-furlong": {
            "displayName": "fur",
            "unitPattern-count-other": "{0} fur"
          },
          "length-inch": {
            "displayName": "pulgada",
            "unitPattern-count-one": "{0} in",
            "unitPattern-count-other": "{0} in"
          },
          "length-kilometer": {
            "displayName": "km",
            "unitPattern-count-one": "{0} km",
            "unitPattern-count-other": "{0} km"
          },
          "length-light-year": {
            "displayName": "light yr",
            "unitPattern-count-one": "{0} ly",
            "unitPattern-count-other": "{0} ly"
          },
          "length-meter": {
            "displayName": "metro",
            "unitPattern-count-one": "{0} m",
            "unitPattern-count-other": "{0} m"
          },
          "length-micrometer": {
            "displayName": "µmetro",
            "unitPattern-count-one": "{0} µm",
            "unitPattern-count-other": "{0} µm"
          },
          "length-mile": {
            "displayName": "milya",
            "unitPattern-count-one": "{0} mi",
            "unitPattern-count-other": "{0} mi"
          },
          "length-millimeter": {
            "displayName": "mm",
            "unitPattern-count-one": "{0} mm",
            "unitPattern-count-other": "{0} mm"
          },
          "length-nanometer": {
            "displayName": "nm",
            "unitPattern-count-one": "{0} nm",
            "unitPattern-count-other": "{0} nm"
          },
          "length-nautical-mile": {
            "displayName": "nmi",
            "unitPattern-count-one": "{0} nmi",
            "unitPattern-count-other": "{0} nmi"
          },
          "length-parsec": {
            "displayName": "parsecs",
            "unitPattern-count-one": "{0} pc",
            "unitPattern-count-other": "{0} pc"
          },
          "length-picometer": {
            "displayName": "pm",
            "unitPattern-count-one": "{0} pm",
            "unitPattern-count-other": "{0} pm"
          },
          "length-yard": {
            "displayName": "yarda",
            "unitPattern-count-one": "{0} yd",
            "unitPattern-count-other": "{0} yd"
          },
          "light-lux": {
            "displayName": "lux",
            "unitPattern-count-one": "{0} lx",
            "unitPattern-count-other": "{0} lx"
          },
          "mass-carat": {
            "displayName": "karat",
            "unitPattern-count-one": "{0} KD",
            "unitPattern-count-other": "{0} KD"
          },
          "mass-gram": {
            "displayName": "gramo",
            "unitPattern-count-one": "{0} g",
            "unitPattern-count-other": "{0} g"
          },
          "mass-kilogram": {
            "displayName": "kg",
            "unitPattern-count-one": "{0} kg",
            "unitPattern-count-other": "{0} kg"
          },
          "mass-metric-ton": {
            "displayName": "t",
            "unitPattern-count-one": "{0} t",
            "unitPattern-count-other": "{0} t"
          },
          "mass-microgram": {
            "displayName": "µg",
            "unitPattern-count-one": "{0} µg",
            "unitPattern-count-other": "{0} µg"
          },
          "mass-milligram": {
            "displayName": "mg",
            "unitPattern-count-one": "{0} mg",
            "unitPattern-count-other": "{0} mg"
          },
          "mass-ounce": {
            "displayName": "oz",
            "unitPattern-count-one": "{0} oz",
            "unitPattern-count-other": "{0} oz"
          },
          "mass-ounce-troy": {
            "displayName": "oz troy",
            "unitPattern-count-one": "{0} oz t",
            "unitPattern-count-other": "{0} oz t"
          },
          "mass-pound": {
            "displayName": "pound",
            "unitPattern-count-one": "{0} lb",
            "unitPattern-count-other": "{0} lb"
          },
          "mass-stone": {
            "displayName": "st",
            "unitPattern-count-other": "{0} st"
          },
          "mass-ton": {
            "displayName": "tonelada",
            "unitPattern-count-one": "{0} tn",
            "unitPattern-count-other": "{0} tn"
          },
          "power-gigawatt": {
            "displayName": "GW",
            "unitPattern-count-one": "{0} GW",
            "unitPattern-count-other": "{0} GW"
          },
          "power-horsepower": {
            "displayName": "hp",
            "unitPattern-count-one": "{0} hp",
            "unitPattern-count-other": "{0} hp"
          },
          "power-kilowatt": {
            "displayName": "kW",
            "unitPattern-count-one": "{0} kW",
            "unitPattern-count-other": "{0} kW"
          },
          "power-megawatt": {
            "displayName": "MW",
            "unitPattern-count-one": "{0} MW",
            "unitPattern-count-other": "{0} MW"
          },
          "power-milliwatt": {
            "displayName": "mW",
            "unitPattern-count-one": "{0} mW",
            "unitPattern-count-other": "{0} mW"
          },
          "power-watt": {
            "displayName": "watts",
            "unitPattern-count-one": "{0} W",
            "unitPattern-count-other": "{0} W"
          },
          "pressure-hectopascal": {
            "displayName": "hPa",
            "unitPattern-count-one": "{0} hPa",
            "unitPattern-count-other": "{0} hPa"
          },
          "pressure-inch-hg": {
            "displayName": "in Hg",
            "unitPattern-count-one": "{0} inHg",
            "unitPattern-count-other": "{0} inHg"
          },
          "pressure-millibar": {
            "displayName": "mbar",
            "unitPattern-count-one": "{0} mb",
            "unitPattern-count-other": "{0} mb"
          },
          "pressure-millimeter-of-mercury": {
            "displayName": "milimetro ng asoge",
            "unitPattern-count-one": "{0} mm Hg",
            "unitPattern-count-other": "{0} mm Hg"
          },
          "pressure-pound-per-square-inch": {
            "displayName": "psi",
            "unitPattern-count-one": "{0} psi",
            "unitPattern-count-other": "{0} psi"
          },
          "proportion-karat": {
            "displayName": "karat",
            "unitPattern-count-one": "{0} kt",
            "unitPattern-count-other": "{0} kt"
          },
          "speed-kilometer-per-hour": {
            "displayName": "km/hr",
            "unitPattern-count-one": "{0} kph",
            "unitPattern-count-other": "{0} kph"
          },
          "speed-meter-per-second": {
            "displayName": "meter/sec",
            "unitPattern-count-one": "{0} m/s",
            "unitPattern-count-other": "{0} m/s"
          },
          "speed-mile-per-hour": {
            "displayName": "milya/oras",
            "unitPattern-count-one": "{0} mph",
            "unitPattern-count-other": "{0} mph"
          },
          "temperature-celsius": {
            "displayName": "deg. C",
            "unitPattern-count-one": "{0}°C",
            "unitPattern-count-other": "{0}°C"
          },
          "temperature-fahrenheit": {
            "displayName": "deg. F",
            "unitPattern-count-one": "{0}°F",
            "unitPattern-count-other": "{0}°F"
          },
          "temperature-kelvin": {
            "displayName": "deg. K",
            "unitPattern-count-one": "{0}°K",
            "unitPattern-count-other": "{0}°K"
          },
          "volume-acre-foot": {
            "displayName": "acre ft",
            "unitPattern-count-one": "{0} ac ft",
            "unitPattern-count-other": "{0} ac ft"
          },
          "volume-bushel": {
            "displayName": "bu",
            "unitPattern-count-other": "{0} bu"
          },
          "volume-centiliter": {
            "displayName": "cL",
            "unitPattern-count-one": "{0} cL",
            "unitPattern-count-other": "{0} cL"
          },
          "volume-cubic-centimeter": {
            "displayName": "cm³",
            "unitPattern-count-one": "{0} cm³",
            "unitPattern-count-other": "{0} cm³"
          },
          "volume-cubic-foot": {
            "displayName": "talampakan³",
            "unitPattern-count-one": "{0} ft³",
            "unitPattern-count-other": "{0} ft³"
          },
          "volume-cubic-inch": {
            "displayName": "pulgada³",
            "unitPattern-count-one": "{0} in³",
            "unitPattern-count-other": "{0} in³"
          },
          "volume-cubic-kilometer": {
            "displayName": "km³",
            "unitPattern-count-one": "{0} km³",
            "unitPattern-count-other": "{0} km³"
          },
          "volume-cubic-meter": {
            "displayName": "m³",
            "unitPattern-count-one": "{0} m³",
            "unitPattern-count-other": "{0} m³"
          },
          "volume-cubic-mile": {
            "displayName": "mi³",
            "unitPattern-count-one": "{0} mi³",
            "unitPattern-count-other": "{0} mi³"
          },
          "volume-cubic-yard": {
            "displayName": "yarda³",
            "unitPattern-count-one": "{0} yd³",
            "unitPattern-count-other": "{0} yd³"
          },
          "volume-cup": {
            "displayName": "tasa",
            "unitPattern-count-one": "{0} c",
            "unitPattern-count-other": "{0} c"
          },
          "volume-deciliter": {
            "displayName": "dL",
            "unitPattern-count-one": "{0} dL",
            "unitPattern-count-other": "{0} dL"
          },
          "volume-fluid-ounce": {
            "displayName": "fl oz",
            "unitPattern-count-one": "{0} fl oz",
            "unitPattern-count-other": "{0} fl oz"
          },
          "volume-gallon": {
            "displayName": "gal",
            "unitPattern-count-one": "{0} gal",
            "unitPattern-count-other": "{0} gal"
          },
          "volume-hectoliter": {
            "displayName": "hL",
            "unitPattern-count-one": "{0} hL",
            "unitPattern-count-other": "{0} hL"
          },
          "volume-liter": {
            "displayName": "litro",
            "unitPattern-count-one": "{0} l",
            "unitPattern-count-other": "{0} l"
          },
          "volume-megaliter": {
            "displayName": "ML",
            "unitPattern-count-one": "{0} ML",
            "unitPattern-count-other": "{0} ML"
          },
          "volume-milliliter": {
            "displayName": "mL",
            "unitPattern-count-one": "{0} mL",
            "unitPattern-count-other": "{0} mL"
          },
          "volume-pint": {
            "displayName": "pints",
            "unitPattern-count-one": "{0} pt",
            "unitPattern-count-other": "{0} pt"
          },
          "volume-quart": {
            "displayName": "qts",
            "unitPattern-count-one": "{0} qt",
            "unitPattern-count-other": "{0} qt"
          },
          "volume-tablespoon": {
            "displayName": "tbsp",
            "unitPattern-count-one": "{0} tbsp",
            "unitPattern-count-other": "{0} tbsp"
          },
          "volume-teaspoon": {
            "displayName": "tsp",
            "unitPattern-count-one": "{0} tsp",
            "unitPattern-count-other": "{0} tsp"
          }
        },
        "narrow": {
          "per": {
            "compoundUnitPattern": "{0}/{1}"
          },
          "acceleration-g-force": {
            "displayName": "g-force",
            "unitPattern-count-one": "{0}G",
            "unitPattern-count-other": "{0}G"
          },
          "acceleration-meter-per-second-squared": {
            "displayName": "metro/segundo²",
            "unitPattern-count-one": "{0} m/s²",
            "unitPattern-count-other": "{0} m/s²"
          },
          "angle-arc-minute": {
            "displayName": "arcmins",
            "unitPattern-count-one": "{0}′",
            "unitPattern-count-other": "{0}′"
          },
          "angle-arc-second": {
            "displayName": "arcsecs",
            "unitPattern-count-one": "{0}″",
            "unitPattern-count-other": "{0}″"
          },
          "angle-degree": {
            "displayName": "degrees",
            "unitPattern-count-one": "{0}°",
            "unitPattern-count-other": "{0}°"
          },
          "angle-radian": {
            "displayName": "radians",
            "unitPattern-count-one": "{0} rad",
            "unitPattern-count-other": "{0} rad"
          },
          "area-acre": {
            "displayName": "acres",
            "unitPattern-count-one": "{0}ac",
            "unitPattern-count-other": "{0}ac"
          },
          "area-hectare": {
            "displayName": "hektarya",
            "unitPattern-count-one": "{0}ha",
            "unitPattern-count-other": "{0}ha"
          },
          "area-square-centimeter": {
            "displayName": "cm²",
            "unitPattern-count-one": "{0} cm²",
            "unitPattern-count-other": "{0} cm²"
          },
          "area-square-foot": {
            "displayName": "sq feet",
            "unitPattern-count-one": "{0}ft²",
            "unitPattern-count-other": "{0}ft²"
          },
          "area-square-inch": {
            "displayName": "pulgada²",
            "unitPattern-count-one": "{0} in²",
            "unitPattern-count-other": "{0} in²"
          },
          "area-square-kilometer": {
            "displayName": "km²",
            "unitPattern-count-one": "{0}km²",
            "unitPattern-count-other": "{0}km²"
          },
          "area-square-meter": {
            "displayName": "meter²",
            "unitPattern-count-one": "{0} m²",
            "unitPattern-count-other": "{0} m²"
          },
          "area-square-mile": {
            "displayName": "sq mile",
            "unitPattern-count-one": "{0}mi²",
            "unitPattern-count-other": "{0}mi²"
          },
          "area-square-yard": {
            "displayName": "yarda²",
            "unitPattern-count-one": "{0} yd²",
            "unitPattern-count-other": "{0} yd²"
          },
          "consumption-liter-per-kilometer": {
            "displayName": "litro/km",
            "unitPattern-count-one": "{0} L/km",
            "unitPattern-count-other": "{0} L/km"
          },
          "consumption-mile-per-gallon": {
            "displayName": "milya kada galon",
            "unitPattern-count-one": "{0} mpg",
            "unitPattern-count-other": "{0} mpg"
          },
          "digital-bit": {
            "displayName": "bit",
            "unitPattern-count-one": "{0} bit",
            "unitPattern-count-other": "{0} bit"
          },
          "digital-byte": {
            "displayName": "byte",
            "unitPattern-count-one": "{0} byte",
            "unitPattern-count-other": "{0} byte"
          },
          "digital-gigabit": {
            "displayName": "Gbit",
            "unitPattern-count-one": "{0} Gb",
            "unitPattern-count-other": "{0} Gb"
          },
          "digital-gigabyte": {
            "displayName": "GByte",
            "unitPattern-count-one": "{0} GB",
            "unitPattern-count-other": "{0} GB"
          },
          "digital-kilobit": {
            "displayName": "kbit",
            "unitPattern-count-one": "{0} kb",
            "unitPattern-count-other": "{0} kb"
          },
          "digital-kilobyte": {
            "displayName": "kByte",
            "unitPattern-count-one": "{0} kB",
            "unitPattern-count-other": "{0} kB"
          },
          "digital-megabit": {
            "displayName": "Mbit",
            "unitPattern-count-one": "{0} Mb",
            "unitPattern-count-other": "{0} Mb"
          },
          "digital-megabyte": {
            "displayName": "MByte",
            "unitPattern-count-one": "{0} MB",
            "unitPattern-count-other": "{0} MB"
          },
          "digital-terabit": {
            "displayName": "Tbit",
            "unitPattern-count-one": "{0} Tb",
            "unitPattern-count-other": "{0} Tb"
          },
          "digital-terabyte": {
            "displayName": "TByte",
            "unitPattern-count-one": "{0} TB",
            "unitPattern-count-other": "{0} TB"
          },
          "duration-day": {
            "displayName": "araw",
            "unitPattern-count-one": "{0} araw",
            "unitPattern-count-other": "{0}d"
          },
          "duration-hour": {
            "displayName": "oras",
            "unitPattern-count-one": "{0}h",
            "unitPattern-count-other": "{0}h",
            "perUnitPattern": "{0}/h"
          },
          "duration-microsecond": {
            "displayName": "μseg",
            "unitPattern-count-one": "{0} μs",
            "unitPattern-count-other": "{0} μs"
          },
          "duration-millisecond": {
            "displayName": "mseg",
            "unitPattern-count-one": "{0}ms",
            "unitPattern-count-other": "{0}ms"
          },
          "duration-minute": {
            "displayName": "min.",
            "unitPattern-count-one": "{0}m",
            "unitPattern-count-other": "{0}m"
          },
          "duration-month": {
            "displayName": "buwan",
            "unitPattern-count-one": "{0}m",
            "unitPattern-count-other": "{0}m"
          },
          "duration-nanosecond": {
            "displayName": "nanoseg",
            "unitPattern-count-one": "{0} ns",
            "unitPattern-count-other": "{0} ns"
          },
          "duration-second": {
            "displayName": "seg.",
            "unitPattern-count-one": "{0}s",
            "unitPattern-count-other": "{0}s",
            "perUnitPattern": "{0}/s"
          },
          "duration-week": {
            "displayName": "wk",
            "unitPattern-count-one": "{0}w",
            "unitPattern-count-other": "{0}w"
          },
          "duration-year": {
            "displayName": "yr",
            "unitPattern-count-one": "{0}y",
            "unitPattern-count-other": "{0}y"
          },
          "electric-ampere": {
            "displayName": "amp",
            "unitPattern-count-one": "{0} A",
            "unitPattern-count-other": "{0} A"
          },
          "electric-milliampere": {
            "displayName": "milliamps",
            "unitPattern-count-one": "{0} mA",
            "unitPattern-count-other": "{0} mA"
          },
          "electric-ohm": {
            "displayName": "ohms",
            "unitPattern-count-one": "{0} Ω",
            "unitPattern-count-other": "{0} Ω"
          },
          "electric-volt": {
            "displayName": "volts",
            "unitPattern-count-one": "{0} V",
            "unitPattern-count-other": "{0} V"
          },
          "energy-calorie": {
            "displayName": "cal",
            "unitPattern-count-one": "{0} cal",
            "unitPattern-count-other": "{0} cal"
          },
          "energy-foodcalorie": {
            "displayName": "Cal",
            "unitPattern-count-one": "{0} Cal",
            "unitPattern-count-other": "{0} Cal"
          },
          "energy-joule": {
            "displayName": "joules",
            "unitPattern-count-one": "{0} J",
            "unitPattern-count-other": "{0} J"
          },
          "energy-kilocalorie": {
            "displayName": "kcal",
            "unitPattern-count-one": "{0} kcal",
            "unitPattern-count-other": "{0} kcal"
          },
          "energy-kilojoule": {
            "displayName": "kilojoule",
            "unitPattern-count-one": "{0} kJ",
            "unitPattern-count-other": "{0} kJ"
          },
          "energy-kilowatt-hour": {
            "displayName": "kW-hour",
            "unitPattern-count-one": "{0} kWh",
            "unitPattern-count-other": "{0} kWh"
          },
          "frequency-gigahertz": {
            "displayName": "GHz",
            "unitPattern-count-one": "{0} GHz",
            "unitPattern-count-other": "{0} GHz"
          },
          "frequency-hertz": {
            "displayName": "Hz",
            "unitPattern-count-one": "{0} Hz",
            "unitPattern-count-other": "{0} Hz"
          },
          "frequency-kilohertz": {
            "displayName": "kHz",
            "unitPattern-count-one": "{0} kHz",
            "unitPattern-count-other": "{0} kHz"
          },
          "frequency-megahertz": {
            "displayName": "MHz",
            "unitPattern-count-one": "{0} MHz",
            "unitPattern-count-other": "{0} MHz"
          },
          "length-astronomical-unit": {
            "displayName": "au",
            "unitPattern-count-one": "{0} au",
            "unitPattern-count-other": "{0} au"
          },
          "length-centimeter": {
            "displayName": "cm",
            "unitPattern-count-one": "{0}cm",
            "unitPattern-count-other": "{0}cm"
          },
          "length-decimeter": {
            "displayName": "dm",
            "unitPattern-count-one": "{0} dm",
            "unitPattern-count-other": "{0} dm"
          },
          "length-fathom": {
            "displayName": "fm",
            "unitPattern-count-other": "{0} fm"
          },
          "length-foot": {
            "displayName": "talampakan",
            "unitPattern-count-one": "{0}′",
            "unitPattern-count-other": "{0}′"
          },
          "length-furlong": {
            "displayName": "fur",
            "unitPattern-count-other": "{0} fur"
          },
          "length-inch": {
            "displayName": "pulgada",
            "unitPattern-count-one": "{0}″",
            "unitPattern-count-other": "{0}″"
          },
          "length-kilometer": {
            "displayName": "km",
            "unitPattern-count-one": "{0}km",
            "unitPattern-count-other": "{0}km"
          },
          "length-light-year": {
            "displayName": "light yr",
            "unitPattern-count-one": "{0}ly",
            "unitPattern-count-other": "{0}ly"
          },
          "length-meter": {
            "displayName": "metro",
            "unitPattern-count-one": "{0}m",
            "unitPattern-count-other": "{0}m"
          },
          "length-micrometer": {
            "displayName": "µmetro",
            "unitPattern-count-one": "{0} µm",
            "unitPattern-count-other": "{0} µm"
          },
          "length-mile": {
            "displayName": "milya",
            "unitPattern-count-one": "{0}mi",
            "unitPattern-count-other": "{0}mi"
          },
          "length-millimeter": {
            "displayName": "mm",
            "unitPattern-count-one": "{0}mm",
            "unitPattern-count-other": "{0}mm"
          },
          "length-nanometer": {
            "displayName": "nm",
            "unitPattern-count-one": "{0} nm",
            "unitPattern-count-other": "{0} nm"
          },
          "length-nautical-mile": {
            "displayName": "nmi",
            "unitPattern-count-one": "{0} nmi",
            "unitPattern-count-other": "{0} nmi"
          },
          "length-parsec": {
            "displayName": "parsecs",
            "unitPattern-count-one": "{0} pc",
            "unitPattern-count-other": "{0} pc"
          },
          "length-picometer": {
            "displayName": "pm",
            "unitPattern-count-one": "{0}pm",
            "unitPattern-count-other": "{0}pm"
          },
          "length-yard": {
            "displayName": "yarda",
            "unitPattern-count-one": "{0}yd",
            "unitPattern-count-other": "{0}yd"
          },
          "light-lux": {
            "displayName": "lux",
            "unitPattern-count-one": "{0} lx",
            "unitPattern-count-other": "{0} lx"
          },
          "mass-carat": {
            "displayName": "karat",
            "unitPattern-count-one": "{0} KD",
            "unitPattern-count-other": "{0} KD"
          },
          "mass-gram": {
            "displayName": "gramo",
            "unitPattern-count-one": "{0}g",
            "unitPattern-count-other": "{0}g"
          },
          "mass-kilogram": {
            "displayName": "kg",
            "unitPattern-count-one": "{0}kg",
            "unitPattern-count-other": "{0}kg"
          },
          "mass-metric-ton": {
            "displayName": "t",
            "unitPattern-count-one": "{0} t",
            "unitPattern-count-other": "{0} t"
          },
          "mass-microgram": {
            "displayName": "µg",
            "unitPattern-count-one": "{0} µg",
            "unitPattern-count-other": "{0} µg"
          },
          "mass-milligram": {
            "displayName": "mg",
            "unitPattern-count-one": "{0} mg",
            "unitPattern-count-other": "{0} mg"
          },
          "mass-ounce": {
            "displayName": "oz",
            "unitPattern-count-one": "{0}oz",
            "unitPattern-count-other": "{0}oz"
          },
          "mass-ounce-troy": {
            "displayName": "oz troy",
            "unitPattern-count-one": "{0} oz t",
            "unitPattern-count-other": "{0} oz t"
          },
          "mass-pound": {
            "displayName": "pound",
            "unitPattern-count-one": "{0}#",
            "unitPattern-count-other": "{0}#"
          },
          "mass-stone": {
            "displayName": "st",
            "unitPattern-count-other": "{0} st"
          },
          "mass-ton": {
            "displayName": "tonelada",
            "unitPattern-count-one": "{0} tn",
            "unitPattern-count-other": "{0} tn"
          },
          "power-gigawatt": {
            "displayName": "GW",
            "unitPattern-count-one": "{0} GW",
            "unitPattern-count-other": "{0} GW"
          },
          "power-horsepower": {
            "displayName": "hp",
            "unitPattern-count-one": "{0}hp",
            "unitPattern-count-other": "{0}hp"
          },
          "power-kilowatt": {
            "displayName": "kW",
            "unitPattern-count-one": "{0}kW",
            "unitPattern-count-other": "{0}kW"
          },
          "power-megawatt": {
            "displayName": "MW",
            "unitPattern-count-one": "{0} MW",
            "unitPattern-count-other": "{0} MW"
          },
          "power-milliwatt": {
            "displayName": "mW",
            "unitPattern-count-one": "{0} mW",
            "unitPattern-count-other": "{0} mW"
          },
          "power-watt": {
            "displayName": "watts",
            "unitPattern-count-one": "{0}W",
            "unitPattern-count-other": "{0}W"
          },
          "pressure-hectopascal": {
            "displayName": "hPa",
            "unitPattern-count-one": "{0}hPa",
            "unitPattern-count-other": "{0}hPa"
          },
          "pressure-inch-hg": {
            "displayName": "in Hg",
            "unitPattern-count-one": "{0}\" Hg",
            "unitPattern-count-other": "{0}\" Hg"
          },
          "pressure-millibar": {
            "displayName": "mbar",
            "unitPattern-count-one": "{0}mb",
            "unitPattern-count-other": "{0}mb"
          },
          "pressure-millimeter-of-mercury": {
            "displayName": "milimetro ng asoge",
            "unitPattern-count-one": "{0} mm Hg",
            "unitPattern-count-other": "{0} mm Hg"
          },
          "pressure-pound-per-square-inch": {
            "displayName": "psi",
            "unitPattern-count-one": "{0} psi",
            "unitPattern-count-other": "{0} psi"
          },
          "proportion-karat": {
            "displayName": "karat",
            "unitPattern-count-one": "{0} kt",
            "unitPattern-count-other": "{0} kt"
          },
          "speed-kilometer-per-hour": {
            "displayName": "km/hr",
            "unitPattern-count-one": "{0}kph",
            "unitPattern-count-other": "{0}kph"
          },
          "speed-meter-per-second": {
            "displayName": "meter/sec",
            "unitPattern-count-one": "{0}m/s",
            "unitPattern-count-other": "{0}m/s"
          },
          "speed-mile-per-hour": {
            "displayName": "milya/oras",
            "unitPattern-count-one": "{0}mph",
            "unitPattern-count-other": "{0}mph"
          },
          "temperature-celsius": {
            "displayName": "⁰C",
            "unitPattern-count-one": "{0}°",
            "unitPattern-count-other": "{0}°"
          },
          "temperature-fahrenheit": {
            "displayName": "deg. F",
            "unitPattern-count-one": "{0}°F",
            "unitPattern-count-other": "{0}°F"
          },
          "temperature-kelvin": {
            "displayName": "deg. K",
            "unitPattern-count-one": "{0}°K",
            "unitPattern-count-other": "{0}°K"
          },
          "volume-acre-foot": {
            "displayName": "acre ft",
            "unitPattern-count-one": "{0} ac ft",
            "unitPattern-count-other": "{0} ac ft"
          },
          "volume-bushel": {
            "displayName": "bu",
            "unitPattern-count-other": "{0} bu"
          },
          "volume-centiliter": {
            "displayName": "cL",
            "unitPattern-count-one": "{0} cL",
            "unitPattern-count-other": "{0} cL"
          },
          "volume-cubic-centimeter": {
            "displayName": "cm³",
            "unitPattern-count-one": "{0} cm³",
            "unitPattern-count-other": "{0} cm³"
          },
          "volume-cubic-foot": {
            "displayName": "talampakan³",
            "unitPattern-count-one": "{0} ft³",
            "unitPattern-count-other": "{0} ft³"
          },
          "volume-cubic-inch": {
            "displayName": "pulgada³",
            "unitPattern-count-one": "{0} in³",
            "unitPattern-count-other": "{0} in³"
          },
          "volume-cubic-kilometer": {
            "displayName": "km³",
            "unitPattern-count-one": "{0}km³",
            "unitPattern-count-other": "{0}km³"
          },
          "volume-cubic-meter": {
            "displayName": "m³",
            "unitPattern-count-one": "{0} m³",
            "unitPattern-count-other": "{0} m³"
          },
          "volume-cubic-mile": {
            "displayName": "mi³",
            "unitPattern-count-one": "{0}mi³",
            "unitPattern-count-other": "{0}mi³"
          },
          "volume-cubic-yard": {
            "displayName": "yarda³",
            "unitPattern-count-one": "{0} yd³",
            "unitPattern-count-other": "{0} yd³"
          },
          "volume-cup": {
            "displayName": "tasa",
            "unitPattern-count-one": "{0} c",
            "unitPattern-count-other": "{0} c"
          },
          "volume-deciliter": {
            "displayName": "dL",
            "unitPattern-count-one": "{0} dL",
            "unitPattern-count-other": "{0} dL"
          },
          "volume-fluid-ounce": {
            "displayName": "fl oz",
            "unitPattern-count-one": "{0} fl oz",
            "unitPattern-count-other": "{0} fl oz"
          },
          "volume-gallon": {
            "displayName": "gal",
            "unitPattern-count-one": "{0} gal",
            "unitPattern-count-other": "{0} gal"
          },
          "volume-hectoliter": {
            "displayName": "hL",
            "unitPattern-count-one": "{0} hL",
            "unitPattern-count-other": "{0} hL"
          },
          "volume-liter": {
            "displayName": "litro",
            "unitPattern-count-one": "{0}l",
            "unitPattern-count-other": "{0}l"
          },
          "volume-megaliter": {
            "displayName": "ML",
            "unitPattern-count-one": "{0} ML",
            "unitPattern-count-other": "{0} ML"
          },
          "volume-milliliter": {
            "displayName": "mL",
            "unitPattern-count-one": "{0} mL",
            "unitPattern-count-other": "{0} mL"
          },
          "volume-pint": {
            "displayName": "pints",
            "unitPattern-count-one": "{0} pt",
            "unitPattern-count-other": "{0} pt"
          },
          "volume-quart": {
            "displayName": "qts",
            "unitPattern-count-one": "{0} qt",
            "unitPattern-count-other": "{0} qt"
          },
          "volume-tablespoon": {
            "displayName": "tbsp",
            "unitPattern-count-one": "{0} tbsp",
            "unitPattern-count-other": "{0} tbsp"
          },
          "volume-teaspoon": {
            "displayName": "tsp",
            "unitPattern-count-one": "{0} tsp",
            "unitPattern-count-other": "{0} tsp"
          }
        },
        "durationUnit-type-hm": {
          "durationUnitPattern": "h:mm"
        },
        "durationUnit-type-hms": {
          "durationUnitPattern": "h:mm:ss"
        },
        "durationUnit-type-ms": {
          "durationUnitPattern": "m:ss"
        }
      }
    }
  }
}
