{
  "main": {
    "mt": {
      "identity": {
        "version": {
          "_cldrVersion": "26",
          "_number": "$Revision: 10822 $"
        },
        "generation": {
          "_date": "$Date: 2014-08-15 11:29:13 -0500 (Fri, 15 Aug 2014) $"
        },
        "language": "mt"
      },
      "delimiters": {
        "quotationStart": "“",
        "quotationEnd": "”",
        "alternateQuotationStart": "‘",
        "alternateQuotationEnd": "’"
      }
    }
  }
}
