{
  "main": {
    "mn-Cyrl-MN": {
      "identity": {
        "version": {
          "_cldrVersion": "26",
          "_number": "$Revision: 10669 $"
        },
        "generation": {
          "_date": "$Date: 2014-07-23 16:10:33 -0500 (Wed, 23 Jul 2014) $"
        },
        "language": "mn",
        "script": "Cyrl",
        "territory": "MN"
      },
      "dates": {
        "calendars": {
          "gregorian": {
            "months": {
              "format": {
                "abbreviated": {
                  "1": "1-р сар",
                  "2": "2-р сар",
                  "3": "3-р сар",
                  "4": "4-р сар",
                  "5": "5-р сар",
                  "6": "6-р сар",
                  "7": "7-р сар",
                  "8": "8-р сар",
                  "9": "9-р сар",
                  "10": "10-р сар",
                  "11": "11-р сар",
                  "12": "12-р сар"
                },
                "narrow": {
                  "1": "1",
                  "2": "2",
                  "3": "3",
                  "4": "4",
                  "5": "5",
                  "6": "6",
                  "7": "7",
                  "8": "8",
                  "9": "9",
                  "10": "10",
                  "11": "11",
                  "12": "12"
                },
                "wide": {
                  "1": "Нэгдүгээр сар",
                  "2": "Хоёрдугаар сар",
                  "3": "Гуравдугаар сар",
                  "4": "Дөрөвдүгээр сар",
                  "5": "Тавдугаар сар",
                  "6": "Зургадугаар сар",
                  "7": "Долдугаар сар",
                  "8": "Наймдугаар сар",
                  "9": "Есдүгээр сар",
                  "10": "Аравдугаар сар",
                  "11": "Арван нэгдүгээр сар",
                  "12": "Арван хоёрдугаар сар"
                }
              },
              "stand-alone": {
                "abbreviated": {
                  "1": "1-р сар",
                  "2": "2-р сар",
                  "3": "3-р сар",
                  "4": "4-р сар",
                  "5": "5-р сар",
                  "6": "6-р сар",
                  "7": "7-р сар",
                  "8": "8-р сар",
                  "9": "9-р сар",
                  "10": "10-р сар",
                  "11": "11-р сар",
                  "12": "12-р сар"
                },
                "narrow": {
                  "1": "1",
                  "2": "2",
                  "3": "3",
                  "4": "4",
                  "5": "5",
                  "6": "6",
                  "7": "7",
                  "8": "8",
                  "9": "9",
                  "10": "10",
                  "11": "11",
                  "12": "12"
                },
                "wide": {
                  "1": "Нэгдүгээр сар",
                  "2": "Хоёрдугаар сар",
                  "3": "Гуравдугаар сар",
                  "4": "Дөрөвдүгээр сар",
                  "5": "Тавдугаар сар",
                  "6": "Зургадугаар сар",
                  "7": "Долдугаар сар",
                  "8": "Наймдугаар сар",
                  "9": "Есдүгээр сар",
                  "10": "Аравдугаар сар",
                  "11": "Арван нэгдүгээр сар",
                  "12": "Арван хоёрдугаар сар"
                }
              }
            },
            "days": {
              "format": {
                "abbreviated": {
                  "sun": "Ня",
                  "mon": "Да",
                  "tue": "Мя",
                  "wed": "Лх",
                  "thu": "Пү",
                  "fri": "Ба",
                  "sat": "Бя"
                },
                "narrow": {
                  "sun": "1",
                  "mon": "2",
                  "tue": "3",
                  "wed": "4",
                  "thu": "5",
                  "fri": "6",
                  "sat": "7"
                },
                "short": {
                  "sun": "Ня",
                  "mon": "Да",
                  "tue": "Мя",
                  "wed": "Лх",
                  "thu": "Пү",
                  "fri": "Ба",
                  "sat": "Бя"
                },
                "wide": {
                  "sun": "ням",
                  "mon": "даваа",
                  "tue": "мягмар",
                  "wed": "лхагва",
                  "thu": "пүрэв",
                  "fri": "баасан",
                  "sat": "бямба"
                }
              },
              "stand-alone": {
                "abbreviated": {
                  "sun": "Ня",
                  "mon": "Да",
                  "tue": "Мя",
                  "wed": "Лх",
                  "thu": "Пү",
                  "fri": "Ба",
                  "sat": "Бя"
                },
                "narrow": {
                  "sun": "1",
                  "mon": "2",
                  "tue": "3",
                  "wed": "4",
                  "thu": "5",
                  "fri": "6",
                  "sat": "7"
                },
                "short": {
                  "sun": "Ня",
                  "mon": "Да",
                  "tue": "Мя",
                  "wed": "Лх",
                  "thu": "Пү",
                  "fri": "Ба",
                  "sat": "Бя"
                },
                "wide": {
                  "sun": "ням",
                  "mon": "даваа",
                  "tue": "мягмар",
                  "wed": "лхагва",
                  "thu": "пүрэв",
                  "fri": "баасан",
                  "sat": "бямба"
                }
              }
            },
            "quarters": {
              "format": {
                "abbreviated": {
                  "1": "У1",
                  "2": "У2",
                  "3": "У3",
                  "4": "У4"
                },
                "narrow": {
                  "1": "1",
                  "2": "2",
                  "3": "3",
                  "4": "4"
                },
                "wide": {
                  "1": "1-р улирал",
                  "2": "2-р улирал",
                  "3": "3-р улирал",
                  "4": "4-р улирал"
                }
              },
              "stand-alone": {
                "abbreviated": {
                  "1": "У1",
                  "2": "У2",
                  "3": "У3",
                  "4": "У4"
                },
                "narrow": {
                  "1": "1",
                  "2": "2",
                  "3": "3",
                  "4": "4"
                },
                "wide": {
                  "1": "1-р улирал",
                  "2": "2-р улирал",
                  "3": "3-р улирал",
                  "4": "4-р улирал"
                }
              }
            },
            "dayPeriods": {
              "format": {
                "abbreviated": {
                  "am": "ҮӨ",
                  "noon": "үд дунд",
                  "pm": "ҮХ"
                },
                "narrow": {
                  "am": "үө",
                  "noon": "үд",
                  "pm": "үх"
                },
                "wide": {
                  "am": "ҮӨ",
                  "noon": "үд дунд",
                  "pm": "ҮХ"
                }
              },
              "stand-alone": {
                "abbreviated": {
                  "am": "ҮӨ",
                  "noon": "үд дунд",
                  "pm": "ҮХ"
                },
                "narrow": {
                  "am": "үө",
                  "noon": "үд",
                  "pm": "үх"
                },
                "wide": {
                  "am": "ҮӨ",
                  "noon": "үд дунд",
                  "pm": "ҮХ"
                }
              }
            },
            "eras": {
              "eraNames": {
                "0": "манай эриний өмнөх",
                "0-alt-variant": "НТӨ",
                "1": "манай эриний",
                "1-alt-variant": "НТ"
              },
              "eraAbbr": {
                "0": "МЭӨ",
                "0-alt-variant": "НТӨ",
                "1": "МЭ",
                "1-alt-variant": "НТ"
              },
              "eraNarrow": {
                "0": "м.э.ө",
                "0-alt-variant": "НТӨ",
                "1": "м.э.",
                "1-alt-variant": "НТ"
              }
            },
            "dateFormats": {
              "full": "EEEE, y 'оны' MM 'сарын' d",
              "long": "y 'оны' MM 'сарын' d",
              "medium": "y MMM d",
              "short": "y-MM-dd"
            },
            "timeFormats": {
              "full": "HH:mm:ss zzzz",
              "long": "HH:mm:ss z",
              "medium": "HH:mm:ss",
              "short": "HH:mm"
            },
            "dateTimeFormats": {
              "full": "{1} {0}",
              "long": "{1} {0}",
              "medium": "{1} {0}",
              "short": "{1}, {0}",
              "availableFormats": {
                "E": "ccc",
                "EHm": "E HH:mm",
                "EHms": "E HH:mm:ss",
                "Ed": "dd E",
                "Ehm": "E h:mm a",
                "Ehms": "E h:mm:ss a",
                "Gy": "G y",
                "GyMMM": "G y MMM",
                "GyMMMEd": "E, G y MMM d",
                "GyMMMd": "G y MMM d",
                "H": "HH",
                "Hm": "HH:mm",
                "Hms": "HH:mm:ss",
                "M": "L",
                "MEd": "E, M-d",
                "MMM": "LLL",
                "MMMEd": "E MMM d",
                "MMMd": "MMM d",
                "Md": "M-d",
                "d": "d",
                "h": "h a",
                "hm": "h:mm a",
                "hms": "h:mm:ss a",
                "ms": "mm:ss",
                "y": "y",
                "yM": "y-M",
                "yMEd": "E, y-M-d",
                "yMMM": "y MMM",
                "yMMMEd": "E, y MMM d",
                "yMMMd": "y MMM d",
                "yMd": "y-M-d",
                "yQQQ": "y QQQ",
                "yQQQQ": "y 'оны' QQQQ"
              },
              "appendItems": {
                "Day": "{0} ({2}: {1})",
                "Day-Of-Week": "{0} {1}",
                "Era": "{1} {0}",
                "Hour": "{0} ({2}: {1})",
                "Minute": "{0} ({2}: {1})",
                "Month": "{0} ({2}: {1})",
                "Quarter": "{0} ({2}: {1})",
                "Second": "{0} ({2}: {1})",
                "Timezone": "{0} {1}",
                "Week": "{0} ({2}: {1})",
                "Year": "{1} {0}"
              },
              "intervalFormats": {
                "intervalFormatFallback": "{0} – {1}",
                "H": {
                  "H": "HH–HH"
                },
                "Hm": {
                  "H": "HH:mm–HH:mm",
                  "m": "HH:mm–HH:mm"
                },
                "Hmv": {
                  "H": "HH:mm–HH:mm v",
                  "m": "HH:mm–HH:mm v"
                },
                "Hv": {
                  "H": "HH–HH v"
                },
                "M": {
                  "M": "M–M"
                },
                "MEd": {
                  "M": "E, MM/dd - E, MM/dd",
                  "d": "E, MM/dd - E, MM/dd"
                },
                "MMM": {
                  "M": "LLL–LLL"
                },
                "MMMEd": {
                  "M": "E, MM/dd - E, MM/dd",
                  "d": "E, MM/dd - E, MM/dd"
                },
                "MMMd": {
                  "M": "MM/d - MM/d",
                  "d": "MM/d-d"
                },
                "Md": {
                  "M": "MM/dd-MM/dd",
                  "d": "MM/dd-MM/dd"
                },
                "d": {
                  "d": "d–d"
                },
                "h": {
                  "a": "h a – h a",
                  "h": "h–h a"
                },
                "hm": {
                  "a": "h:mm a – h:mm a",
                  "h": "h:mm–h:mm a",
                  "m": "h:mm–h:mm a"
                },
                "hmv": {
                  "a": "h:mm a – h:mm a v",
                  "h": "h:mm–h:mm a v",
                  "m": "h:mm–h:mm a v"
                },
                "hv": {
                  "a": "h a – h a v",
                  "h": "h–h a v"
                },
                "y": {
                  "y": "y–y"
                },
                "yM": {
                  "M": "y/MM-MM",
                  "y": "y/MM - y/MM"
                },
                "yMEd": {
                  "M": "E, y/MM/dd – E, y/MM/dd",
                  "d": "E, y/MM/dd – E, y/MM/dd",
                  "y": "E, y/MM/dd – E, y/MM/dd"
                },
                "yMMM": {
                  "M": "y/MM-MM",
                  "y": "y/MM - y/MM"
                },
                "yMMMEd": {
                  "M": "E, y/MM/dd – E, y/MM/dd",
                  "d": "E, y/MM/dd – E, y/MM/dd",
                  "y": "E, y/MM/dd – E, y/MM/dd"
                },
                "yMMMM": {
                  "M": "y 'оны' MM-MM-'р' 'сар'",
                  "y": "y/MM -y/MM"
                },
                "yMMMd": {
                  "M": "y/MM/dd - MM/dd",
                  "d": "y/MM/d-d",
                  "y": "y/MM/dd - y/MM/dd"
                },
                "yMd": {
                  "M": "y/MM/dd -MM/dd",
                  "d": "y/MM/dd-dd",
                  "y": "y/MM/dd - y/MM/dd"
                }
              }
            }
          }
        }
      }
    }
  }
}
