{
  "main": {
    "mn-Cyrl-MN": {
      "identity": {
        "version": {
          "_cldrVersion": "26",
          "_number": "$Revision: 10669 $"
        },
        "generation": {
          "_date": "$Date: 2014-07-23 16:10:33 -0500 (Wed, 23 Jul 2014) $"
        },
        "language": "mn",
        "script": "Cyrl",
        "territory": "MN"
      },
      "dates": {
        "timeZoneNames": {
          "hourFormat": "+HH:mm;-HH:mm",
          "gmtFormat": "GMT{0}",
          "gmtZeroFormat": "GMT",
          "regionFormat": "{0}-н цагаар",
          "regionFormat-type-standard": "{0} (+0)",
          "regionFormat-type-daylight": "{0} (+1)",
          "fallbackFormat": "{1} ({0})",
          "zone": {
            "America": {
              "Adak": {
                "exemplarCity": "Адак"
              },
              "Anchorage": {
                "exemplarCity": "Анкораж"
              },
              "Anguilla": {
                "exemplarCity": "Ангилла"
              },
              "Antigua": {
                "exemplarCity": "Антигуа"
              },
              "Araguaina": {
                "exemplarCity": "Арагуана"
              },
              "Argentina": {
                "La_Rioja": {
                  "exemplarCity": "Ла-Риоха"
                },
                "Rio_Gallegos": {
                  "exemplarCity": "Рио-Гальегос"
                },
                "Salta": {
                  "exemplarCity": "Салта"
                },
                "San_Juan": {
                  "exemplarCity": "Сан-Хуан"
                },
                "San_Luis": {
                  "exemplarCity": "Сан Луи"
                },
                "Tucuman": {
                  "exemplarCity": "Тукуман"
                },
                "Ushuaia": {
                  "exemplarCity": "Ушуайя"
                }
              },
              "Aruba": {
                "exemplarCity": "Аруба"
              },
              "Asuncion": {
                "exemplarCity": "Асунсьон"
              },
              "Bahia": {
                "exemplarCity": "Байя"
              },
              "Bahia_Banderas": {
                "exemplarCity": "Бахья Бандерас"
              },
              "Barbados": {
                "exemplarCity": "Барбадос"
              },
              "Belem": {
                "exemplarCity": "Белем"
              },
              "Belize": {
                "exemplarCity": "Белизе"
              },
              "Blanc-Sablon": {
                "exemplarCity": "Бланк-Саблон"
              },
              "Boa_Vista": {
                "exemplarCity": "Боа-Виста"
              },
              "Bogota": {
                "exemplarCity": "Богота"
              },
              "Boise": {
                "exemplarCity": "Боисе"
              },
              "Buenos_Aires": {
                "exemplarCity": "Буэнос-Айрес"
              },
              "Cambridge_Bay": {
                "exemplarCity": "Кэмбриж бэй"
              },
              "Campo_Grande": {
                "exemplarCity": "Кампо-Гранде"
              },
              "Cancun": {
                "exemplarCity": "Канкун"
              },
              "Caracas": {
                "exemplarCity": "Каракас"
              },
              "Catamarca": {
                "exemplarCity": "Катамарка"
              },
              "Cayenne": {
                "exemplarCity": "Кайенна"
              },
              "Cayman": {
                "exemplarCity": "Кайман"
              },
              "Chicago": {
                "exemplarCity": "Чикаго"
              },
              "Chihuahua": {
                "exemplarCity": "Чихуахуа"
              },
              "Coral_Harbour": {
                "exemplarCity": "Атикокан"
              },
              "Cordoba": {
                "exemplarCity": "Кордова"
              },
              "Costa_Rica": {
                "exemplarCity": "Коста Рика"
              },
              "Creston": {
                "exemplarCity": "Крестон"
              },
              "Cuiaba": {
                "exemplarCity": "Куяба"
              },
              "Curacao": {
                "exemplarCity": "Куракао"
              },
              "Danmarkshavn": {
                "exemplarCity": "Данмаркшавн"
              },
              "Dawson": {
                "exemplarCity": "Доусон"
              },
              "Dawson_Creek": {
                "exemplarCity": "Доусон Крик"
              },
              "Denver": {
                "exemplarCity": "Денвер"
              },
              "Detroit": {
                "exemplarCity": "Детройт"
              },
              "Dominica": {
                "exemplarCity": "Доминика"
              },
              "Edmonton": {
                "exemplarCity": "Эдмонтон"
              },
              "Eirunepe": {
                "exemplarCity": "Эйрунепе"
              },
              "El_Salvador": {
                "exemplarCity": "Эль Сальвадор"
              },
              "Fortaleza": {
                "exemplarCity": "Форталеза"
              },
              "Glace_Bay": {
                "exemplarCity": "Глейс бэй"
              },
              "Godthab": {
                "exemplarCity": "Нүүк"
              },
              "Goose_Bay": {
                "exemplarCity": "Гуус бэй"
              },
              "Grand_Turk": {
                "exemplarCity": "Гранд Турк"
              },
              "Grenada": {
                "exemplarCity": "Гренада"
              },
              "Guadeloupe": {
                "exemplarCity": "Гваделуп"
              },
              "Guatemala": {
                "exemplarCity": "Гватемал"
              },
              "Guayaquil": {
                "exemplarCity": "Гуаякиль"
              },
              "Guyana": {
                "exemplarCity": "Гуяана"
              },
              "Halifax": {
                "exemplarCity": "Халифакс"
              },
              "Havana": {
                "exemplarCity": "Хавана"
              },
              "Hermosillo": {
                "exemplarCity": "Хермосилло"
              },
              "Indiana": {
                "Knox": {
                  "exemplarCity": "Нокс, Индиана"
                },
                "Marengo": {
                  "exemplarCity": "Маренго, Индиана"
                },
                "Petersburg": {
                  "exemplarCity": "Питерсбург, Индиана"
                },
                "Tell_City": {
                  "exemplarCity": "Тел Сити, Индиана"
                },
                "Vevay": {
                  "exemplarCity": "Вивей, Индиана"
                },
                "Vincennes": {
                  "exemplarCity": "Винсенес, Индиана"
                },
                "Winamac": {
                  "exemplarCity": "Винамак, Индиана"
                }
              },
              "Indianapolis": {
                "exemplarCity": "Индианаполис"
              },
              "Inuvik": {
                "exemplarCity": "Инувик"
              },
              "Iqaluit": {
                "exemplarCity": "Икалуит"
              },
              "Jamaica": {
                "exemplarCity": "Ямайка"
              },
              "Jujuy": {
                "exemplarCity": "Жужуй"
              },
              "Juneau": {
                "exemplarCity": "Жуно"
              },
              "Kentucky": {
                "Monticello": {
                  "exemplarCity": "Монтичелло, Кентаки"
                }
              },
              "Kralendijk": {
                "exemplarCity": "Кралендик"
              },
              "La_Paz": {
                "exemplarCity": "Ла Паз"
              },
              "Lima": {
                "exemplarCity": "Лима"
              },
              "Los_Angeles": {
                "exemplarCity": "Лос-Анжелес"
              },
              "Louisville": {
                "exemplarCity": "Луисвилл"
              },
              "Lower_Princes": {
                "exemplarCity": "Ловер Принсес Квартер"
              },
              "Maceio": {
                "exemplarCity": "Масейо"
              },
              "Managua": {
                "exemplarCity": "Манагуа"
              },
              "Manaus": {
                "exemplarCity": "Манаус"
              },
              "Marigot": {
                "exemplarCity": "Маригот"
              },
              "Martinique": {
                "exemplarCity": "Мартиник"
              },
              "Matamoros": {
                "exemplarCity": "Матаморос"
              },
              "Mazatlan": {
                "exemplarCity": "Мазатлан"
              },
              "Mendoza": {
                "exemplarCity": "Мендоза"
              },
              "Menominee": {
                "exemplarCity": "Меномини"
              },
              "Merida": {
                "exemplarCity": "Мерида"
              },
              "Metlakatla": {
                "exemplarCity": "Метлакатла"
              },
              "Mexico_City": {
                "exemplarCity": "Мехико хот"
              },
              "Miquelon": {
                "exemplarCity": "Микелон"
              },
              "Moncton": {
                "exemplarCity": "Монктон"
              },
              "Monterrey": {
                "exemplarCity": "Монтерей"
              },
              "Montevideo": {
                "exemplarCity": "Монтевидео"
              },
              "Montserrat": {
                "exemplarCity": "Монтсеррат"
              },
              "Nassau": {
                "exemplarCity": "Нассау"
              },
              "New_York": {
                "exemplarCity": "Нью-Йорк"
              },
              "Nipigon": {
                "exemplarCity": "Нипигон"
              },
              "Nome": {
                "exemplarCity": "Ном"
              },
              "Noronha": {
                "exemplarCity": "Норона"
              },
              "North_Dakota": {
                "Beulah": {
                  "exemplarCity": "Била, Хойд Дакота"
                },
                "Center": {
                  "exemplarCity": "Төв, Хойд Дакота"
                },
                "New_Salem": {
                  "exemplarCity": "Нью-Салем, Хойд Дакота"
                }
              },
              "Ojinaga": {
                "exemplarCity": "Ожинага"
              },
              "Panama": {
                "exemplarCity": "Панама"
              },
              "Pangnirtung": {
                "exemplarCity": "Пангниртунг"
              },
              "Paramaribo": {
                "exemplarCity": "Парамарибо"
              },
              "Phoenix": {
                "exemplarCity": "Феникс"
              },
              "Port-au-Prince": {
                "exemplarCity": "Порт-о-Принс"
              },
              "Port_of_Spain": {
                "exemplarCity": "Порт-оф-Спейн"
              },
              "Porto_Velho": {
                "exemplarCity": "Порто-Велью"
              },
              "Puerto_Rico": {
                "exemplarCity": "Пуэрто-Рико"
              },
              "Rainy_River": {
                "exemplarCity": "Рейни Ривер"
              },
              "Rankin_Inlet": {
                "exemplarCity": "Рэнкин Инлет"
              },
              "Recife": {
                "exemplarCity": "Ресифи"
              },
              "Regina": {
                "exemplarCity": "Регина"
              },
              "Resolute": {
                "exemplarCity": "Резолют"
              },
              "Rio_Branco": {
                "exemplarCity": "Рио-Бранко"
              },
              "Santa_Isabel": {
                "exemplarCity": "Санта Изабель"
              },
              "Santarem": {
                "exemplarCity": "Сантарем"
              },
              "Santiago": {
                "exemplarCity": "Сантьяго"
              },
              "Santo_Domingo": {
                "exemplarCity": "Санта Доминго"
              },
              "Sao_Paulo": {
                "exemplarCity": "Сан-Паулу"
              },
              "Scoresbysund": {
                "exemplarCity": "Скорсбисунн"
              },
              "Sitka": {
                "exemplarCity": "Ситка"
              },
              "St_Barthelemy": {
                "exemplarCity": "Сент Бартельми"
              },
              "St_Johns": {
                "exemplarCity": "Сент Жонс"
              },
              "St_Kitts": {
                "exemplarCity": "Сент-Киттс"
              },
              "St_Lucia": {
                "exemplarCity": "Сент Люсиа"
              },
              "St_Thomas": {
                "exemplarCity": "Сент Томас"
              },
              "St_Vincent": {
                "exemplarCity": "Сент Винсент"
              },
              "Swift_Current": {
                "exemplarCity": "Свифт Каррент"
              },
              "Tegucigalpa": {
                "exemplarCity": "Тегусигальпа"
              },
              "Thule": {
                "exemplarCity": "Туле"
              },
              "Thunder_Bay": {
                "exemplarCity": "Сандер Бэй"
              },
              "Tijuana": {
                "exemplarCity": "Тихуана"
              },
              "Toronto": {
                "exemplarCity": "Торонто"
              },
              "Tortola": {
                "exemplarCity": "Тортола"
              },
              "Vancouver": {
                "exemplarCity": "Ванкувер"
              },
              "Whitehorse": {
                "exemplarCity": "Уайтхорз"
              },
              "Winnipeg": {
                "exemplarCity": "Виннипег"
              },
              "Yakutat": {
                "exemplarCity": "Якутат"
              },
              "Yellowknife": {
                "exemplarCity": "Йелоунайф"
              }
            },
            "Atlantic": {
              "Azores": {
                "exemplarCity": "Азор"
              },
              "Bermuda": {
                "exemplarCity": "Бермуда"
              },
              "Canary": {
                "exemplarCity": "Канари"
              },
              "Cape_Verde": {
                "exemplarCity": "Кейп Верде"
              },
              "Faeroe": {
                "exemplarCity": "Фароэ"
              },
              "Madeira": {
                "exemplarCity": "Мадейра"
              },
              "Reykjavik": {
                "exemplarCity": "Рекьявик"
              },
              "South_Georgia": {
                "exemplarCity": "Өмнөд Жоржиа"
              },
              "St_Helena": {
                "exemplarCity": "Сент Хелена"
              },
              "Stanley": {
                "exemplarCity": "Стэнлей"
              }
            },
            "Europe": {
              "Amsterdam": {
                "exemplarCity": "Амстердам"
              },
              "Andorra": {
                "exemplarCity": "Андорра"
              },
              "Athens": {
                "exemplarCity": "Афин"
              },
              "Belgrade": {
                "exemplarCity": "Белград"
              },
              "Berlin": {
                "exemplarCity": "Берлин"
              },
              "Bratislava": {
                "exemplarCity": "Братислав"
              },
              "Brussels": {
                "exemplarCity": "Брюссель"
              },
              "Bucharest": {
                "exemplarCity": "Бухарест"
              },
              "Budapest": {
                "exemplarCity": "Будапешт"
              },
              "Busingen": {
                "exemplarCity": "Бусинген"
              },
              "Chisinau": {
                "exemplarCity": "Кишинёв"
              },
              "Copenhagen": {
                "exemplarCity": "Копенгаген"
              },
              "Dublin": {
                "long": {
                  "daylight": "Ирландын стандарт цаг"
                },
                "exemplarCity": "Дублин"
              },
              "Gibraltar": {
                "exemplarCity": "Гибралтар"
              },
              "Guernsey": {
                "exemplarCity": "Гернси"
              },
              "Helsinki": {
                "exemplarCity": "Хельсинк"
              },
              "Isle_of_Man": {
                "exemplarCity": "Мэн Арал"
              },
              "Istanbul": {
                "exemplarCity": "Истанбул"
              },
              "Jersey": {
                "exemplarCity": "Жерси"
              },
              "Kaliningrad": {
                "exemplarCity": "Калининград"
              },
              "Kiev": {
                "exemplarCity": "Киев"
              },
              "Lisbon": {
                "exemplarCity": "Лисбон"
              },
              "Ljubljana": {
                "exemplarCity": "Любляна"
              },
              "London": {
                "long": {
                  "daylight": "Британийн зуны цаг"
                },
                "exemplarCity": "Лондон"
              },
              "Luxembourg": {
                "exemplarCity": "Люксембург"
              },
              "Madrid": {
                "exemplarCity": "Мадрид"
              },
              "Malta": {
                "exemplarCity": "Мальта"
              },
              "Mariehamn": {
                "exemplarCity": "Мариехамн"
              },
              "Minsk": {
                "exemplarCity": "Минск"
              },
              "Monaco": {
                "exemplarCity": "Монако"
              },
              "Moscow": {
                "exemplarCity": "Москва"
              },
              "Oslo": {
                "exemplarCity": "Осло"
              },
              "Paris": {
                "exemplarCity": "Парис"
              },
              "Podgorica": {
                "exemplarCity": "Подгорица"
              },
              "Prague": {
                "exemplarCity": "Прага"
              },
              "Riga": {
                "exemplarCity": "Рига"
              },
              "Rome": {
                "exemplarCity": "Ром"
              },
              "Samara": {
                "exemplarCity": "Самара"
              },
              "San_Marino": {
                "exemplarCity": "Сан-Марино"
              },
              "Sarajevo": {
                "exemplarCity": "Сараево"
              },
              "Simferopol": {
                "exemplarCity": "Симферополь"
              },
              "Skopje": {
                "exemplarCity": "Скопье"
              },
              "Sofia": {
                "exemplarCity": "София"
              },
              "Stockholm": {
                "exemplarCity": "Стокольм"
              },
              "Tallinn": {
                "exemplarCity": "Таллин"
              },
              "Tirane": {
                "exemplarCity": "Тирана"
              },
              "Uzhgorod": {
                "exemplarCity": "Ужгород"
              },
              "Vaduz": {
                "exemplarCity": "Вадуз"
              },
              "Vatican": {
                "exemplarCity": "Ватикан"
              },
              "Vienna": {
                "exemplarCity": "Вена"
              },
              "Vilnius": {
                "exemplarCity": "Вильнюс"
              },
              "Volgograd": {
                "exemplarCity": "Волгоград"
              },
              "Warsaw": {
                "exemplarCity": "Варшав"
              },
              "Zagreb": {
                "exemplarCity": "Загреб"
              },
              "Zaporozhye": {
                "exemplarCity": "Запорожье"
              },
              "Zurich": {
                "exemplarCity": "Цюрих"
              }
            },
            "Africa": {
              "Abidjan": {
                "exemplarCity": "Абижан"
              },
              "Accra": {
                "exemplarCity": "Аккра"
              },
              "Addis_Ababa": {
                "exemplarCity": "Аддис-абеба"
              },
              "Algiers": {
                "exemplarCity": "Алжир"
              },
              "Asmera": {
                "exemplarCity": "Асмара"
              },
              "Bamako": {
                "exemplarCity": "Бамако"
              },
              "Bangui": {
                "exemplarCity": "Бангуй"
              },
              "Banjul": {
                "exemplarCity": "Банжул"
              },
              "Bissau": {
                "exemplarCity": "Биссау"
              },
              "Blantyre": {
                "exemplarCity": "Блантайр"
              },
              "Brazzaville": {
                "exemplarCity": "Браззавиль"
              },
              "Bujumbura": {
                "exemplarCity": "Бужумбура"
              },
              "Cairo": {
                "exemplarCity": "Каир"
              },
              "Casablanca": {
                "exemplarCity": "Касабланка"
              },
              "Ceuta": {
                "exemplarCity": "Сеута"
              },
              "Conakry": {
                "exemplarCity": "Конакри"
              },
              "Dakar": {
                "exemplarCity": "Дакар"
              },
              "Dar_es_Salaam": {
                "exemplarCity": "Дар-эс-Салам"
              },
              "Djibouti": {
                "exemplarCity": "Жибоути"
              },
              "Douala": {
                "exemplarCity": "Дуала"
              },
              "El_Aaiun": {
                "exemplarCity": "Эль-Аюн"
              },
              "Freetown": {
                "exemplarCity": "Фритаун"
              },
              "Gaborone": {
                "exemplarCity": "Габороне"
              },
              "Harare": {
                "exemplarCity": "Хараре"
              },
              "Johannesburg": {
                "exemplarCity": "Йоханнесбург"
              },
              "Juba": {
                "exemplarCity": "Жуба"
              },
              "Kampala": {
                "exemplarCity": "Кампала"
              },
              "Khartoum": {
                "exemplarCity": "Хартум"
              },
              "Kigali": {
                "exemplarCity": "Кигали"
              },
              "Kinshasa": {
                "exemplarCity": "Киншаса"
              },
              "Lagos": {
                "exemplarCity": "Лагос"
              },
              "Libreville": {
                "exemplarCity": "Либревиль"
              },
              "Lome": {
                "exemplarCity": "Ломе"
              },
              "Luanda": {
                "exemplarCity": "Луанда"
              },
              "Lubumbashi": {
                "exemplarCity": "Лубумбаши"
              },
              "Lusaka": {
                "exemplarCity": "Лусака"
              },
              "Malabo": {
                "exemplarCity": "Малабо"
              },
              "Maputo": {
                "exemplarCity": "Мапуто"
              },
              "Maseru": {
                "exemplarCity": "Масеру"
              },
              "Mbabane": {
                "exemplarCity": "Мбабане"
              },
              "Mogadishu": {
                "exemplarCity": "Могадишу"
              },
              "Monrovia": {
                "exemplarCity": "Монрова"
              },
              "Nairobi": {
                "exemplarCity": "Найроби"
              },
              "Ndjamena": {
                "exemplarCity": "Нжамена"
              },
              "Niamey": {
                "exemplarCity": "Ниамей"
              },
              "Nouakchott": {
                "exemplarCity": "Нуакшот"
              },
              "Ouagadougou": {
                "exemplarCity": "Уагадугу"
              },
              "Porto-Novo": {
                "exemplarCity": "Порто-Ново"
              },
              "Sao_Tome": {
                "exemplarCity": "Сан-Том"
              },
              "Tripoli": {
                "exemplarCity": "Триполи"
              },
              "Tunis": {
                "exemplarCity": "Тунис"
              },
              "Windhoek": {
                "exemplarCity": "Виндхук"
              }
            },
            "Asia": {
              "Aden": {
                "exemplarCity": "Аден"
              },
              "Almaty": {
                "exemplarCity": "Алматы"
              },
              "Amman": {
                "exemplarCity": "Амман"
              },
              "Anadyr": {
                "exemplarCity": "Анадыр"
              },
              "Aqtau": {
                "exemplarCity": "Актау"
              },
              "Aqtobe": {
                "exemplarCity": "Актөбе"
              },
              "Ashgabat": {
                "exemplarCity": "Ашхабад"
              },
              "Baghdad": {
                "exemplarCity": "Багдад"
              },
              "Bahrain": {
                "exemplarCity": "Бахрейн"
              },
              "Baku": {
                "exemplarCity": "Баку"
              },
              "Bangkok": {
                "exemplarCity": "Бангкок"
              },
              "Beirut": {
                "exemplarCity": "Бейрут"
              },
              "Bishkek": {
                "exemplarCity": "Бишкек"
              },
              "Brunei": {
                "exemplarCity": "Бруней"
              },
              "Calcutta": {
                "exemplarCity": "Калькутта"
              },
              "Chita": {
                "exemplarCity": "Chita"
              },
              "Choibalsan": {
                "exemplarCity": "Чойбалсан"
              },
              "Chongqing": {
                "exemplarCity": "Чунцин"
              },
              "Colombo": {
                "exemplarCity": "Коломбо"
              },
              "Damascus": {
                "exemplarCity": "Дамаск"
              },
              "Dhaka": {
                "exemplarCity": "Дака"
              },
              "Dili": {
                "exemplarCity": "Дили"
              },
              "Dubai": {
                "exemplarCity": "Дубай"
              },
              "Dushanbe": {
                "exemplarCity": "Душанбе"
              },
              "Gaza": {
                "exemplarCity": "Газа"
              },
              "Harbin": {
                "exemplarCity": "Харбин"
              },
              "Hebron": {
                "exemplarCity": "Хеброн"
              },
              "Hong_Kong": {
                "exemplarCity": "Хонг Конг"
              },
              "Hovd": {
                "exemplarCity": "Ховд"
              },
              "Irkutsk": {
                "exemplarCity": "Эрхүү"
              },
              "Jakarta": {
                "exemplarCity": "Жакарта"
              },
              "Jayapura": {
                "exemplarCity": "Жайпур"
              },
              "Jerusalem": {
                "exemplarCity": "Ерусалем"
              },
              "Kabul": {
                "exemplarCity": "Кабул"
              },
              "Kamchatka": {
                "exemplarCity": "Камчатка"
              },
              "Karachi": {
                "exemplarCity": "Карачи"
              },
              "Kashgar": {
                "exemplarCity": "Кашгар"
              },
              "Katmandu": {
                "exemplarCity": "Катманду"
              },
              "Khandyga": {
                "exemplarCity": "Кандяга"
              },
              "Krasnoyarsk": {
                "exemplarCity": "Красноярск"
              },
              "Kuala_Lumpur": {
                "exemplarCity": "Куала Лумпур"
              },
              "Kuching": {
                "exemplarCity": "Кучин"
              },
              "Kuwait": {
                "exemplarCity": "Кувейт"
              },
              "Macau": {
                "exemplarCity": "Макао"
              },
              "Magadan": {
                "exemplarCity": "Магадан"
              },
              "Makassar": {
                "exemplarCity": "Макассар"
              },
              "Manila": {
                "exemplarCity": "Манила"
              },
              "Muscat": {
                "exemplarCity": "Мускат"
              },
              "Nicosia": {
                "exemplarCity": "Никосия"
              },
              "Novokuznetsk": {
                "exemplarCity": "Новокузнецк"
              },
              "Novosibirsk": {
                "exemplarCity": "Новосибирск"
              },
              "Omsk": {
                "exemplarCity": "Омск"
              },
              "Oral": {
                "exemplarCity": "Орал"
              },
              "Phnom_Penh": {
                "exemplarCity": "Пномпень"
              },
              "Pontianak": {
                "exemplarCity": "Понтианак"
              },
              "Pyongyang": {
                "exemplarCity": "Пхеньян"
              },
              "Qatar": {
                "exemplarCity": "Катар"
              },
              "Qyzylorda": {
                "exemplarCity": "Кызылорд"
              },
              "Rangoon": {
                "exemplarCity": "Рангун"
              },
              "Riyadh": {
                "exemplarCity": "Рияд"
              },
              "Saigon": {
                "exemplarCity": "Хо Ши Мин"
              },
              "Sakhalin": {
                "exemplarCity": "Сахалин"
              },
              "Samarkand": {
                "exemplarCity": "Самарканд"
              },
              "Seoul": {
                "exemplarCity": "Сөүл"
              },
              "Shanghai": {
                "exemplarCity": "Шанхай"
              },
              "Singapore": {
                "exemplarCity": "Сингапур"
              },
              "Srednekolymsk": {
                "exemplarCity": "Srednekolymsk"
              },
              "Taipei": {
                "exemplarCity": "Тайпей"
              },
              "Tashkent": {
                "exemplarCity": "Ташкент"
              },
              "Tbilisi": {
                "exemplarCity": "Тбилиси"
              },
              "Tehran": {
                "exemplarCity": "Тегеран"
              },
              "Thimphu": {
                "exemplarCity": "Тхимпху"
              },
              "Tokyo": {
                "exemplarCity": "Токио"
              },
              "Ulaanbaatar": {
                "exemplarCity": "Улаанбаатар"
              },
              "Urumqi": {
                "exemplarCity": "Үрүмчи"
              },
              "Ust-Nera": {
                "exemplarCity": "Уст-Нера"
              },
              "Vientiane": {
                "exemplarCity": "Вьентьян"
              },
              "Vladivostok": {
                "exemplarCity": "Владивосток"
              },
              "Yakutsk": {
                "exemplarCity": "Якутск"
              },
              "Yekaterinburg": {
                "exemplarCity": "Екатеринбург"
              },
              "Yerevan": {
                "exemplarCity": "Ереван"
              }
            },
            "Indian": {
              "Antananarivo": {
                "exemplarCity": "Антананариво"
              },
              "Chagos": {
                "exemplarCity": "Чагос"
              },
              "Christmas": {
                "exemplarCity": "Крисмас"
              },
              "Cocos": {
                "exemplarCity": "Кокос"
              },
              "Comoro": {
                "exemplarCity": "Коморо"
              },
              "Kerguelen": {
                "exemplarCity": "Кергелен"
              },
              "Mahe": {
                "exemplarCity": "Махе"
              },
              "Maldives": {
                "exemplarCity": "Мальдив"
              },
              "Mauritius": {
                "exemplarCity": "Мавриту"
              },
              "Mayotte": {
                "exemplarCity": "Майотта"
              },
              "Reunion": {
                "exemplarCity": "Реюньон"
              }
            },
            "Australia": {
              "Adelaide": {
                "exemplarCity": "Аделэйд"
              },
              "Brisbane": {
                "exemplarCity": "Брисбэн"
              },
              "Broken_Hill": {
                "exemplarCity": "Брокен Хилл"
              },
              "Currie": {
                "exemplarCity": "Кюрри"
              },
              "Darwin": {
                "exemplarCity": "Дарвин"
              },
              "Eucla": {
                "exemplarCity": "Еукла"
              },
              "Hobart": {
                "exemplarCity": "Хобарт"
              },
              "Lindeman": {
                "exemplarCity": "Линдемэн"
              },
              "Lord_Howe": {
                "exemplarCity": "Лорд Хау"
              },
              "Melbourne": {
                "exemplarCity": "Мельбурн"
              },
              "Perth": {
                "exemplarCity": "Перс"
              },
              "Sydney": {
                "exemplarCity": "Сидней"
              }
            },
            "Pacific": {
              "Apia": {
                "exemplarCity": "Апиа"
              },
              "Auckland": {
                "exemplarCity": "Оклэнд"
              },
              "Chatham": {
                "exemplarCity": "Чатем"
              },
              "Easter": {
                "exemplarCity": "Истер"
              },
              "Efate": {
                "exemplarCity": "Эфате"
              },
              "Enderbury": {
                "exemplarCity": "Эндербери"
              },
              "Fakaofo": {
                "exemplarCity": "Факаофо"
              },
              "Fiji": {
                "exemplarCity": "Фижи"
              },
              "Funafuti": {
                "exemplarCity": "Фунафути"
              },
              "Galapagos": {
                "exemplarCity": "Галапагос"
              },
              "Gambier": {
                "exemplarCity": "Гамбьер"
              },
              "Guadalcanal": {
                "exemplarCity": "Гуадалканал"
              },
              "Guam": {
                "exemplarCity": "Гуам"
              },
              "Honolulu": {
                "exemplarCity": "Хонолулу"
              },
              "Johnston": {
                "exemplarCity": "Жонстон"
              },
              "Kiritimati": {
                "exemplarCity": "Киритимати"
              },
              "Kosrae": {
                "exemplarCity": "Косраэ"
              },
              "Kwajalein": {
                "exemplarCity": "Кважалейн"
              },
              "Majuro": {
                "exemplarCity": "Мажуро"
              },
              "Marquesas": {
                "exemplarCity": "Маркизас"
              },
              "Midway": {
                "exemplarCity": "Мидвей"
              },
              "Nauru": {
                "exemplarCity": "Науру"
              },
              "Niue": {
                "exemplarCity": "Ниуэ"
              },
              "Norfolk": {
                "exemplarCity": "Норфолк"
              },
              "Noumea": {
                "exemplarCity": "Нумеа"
              },
              "Pago_Pago": {
                "exemplarCity": "Паго Паго"
              },
              "Palau": {
                "exemplarCity": "Палау"
              },
              "Pitcairn": {
                "exemplarCity": "Питкейрн"
              },
              "Ponape": {
                "exemplarCity": "Понпей"
              },
              "Port_Moresby": {
                "exemplarCity": "Порт-Морсби"
              },
              "Rarotonga": {
                "exemplarCity": "Раротонга"
              },
              "Saipan": {
                "exemplarCity": "Сайпан"
              },
              "Tahiti": {
                "exemplarCity": "Таити"
              },
              "Tarawa": {
                "exemplarCity": "Тарава"
              },
              "Tongatapu": {
                "exemplarCity": "Тонгатапу"
              },
              "Truk": {
                "exemplarCity": "Чүүк"
              },
              "Wake": {
                "exemplarCity": "Уэйк"
              },
              "Wallis": {
                "exemplarCity": "Уоллис"
              }
            },
            "Arctic": {
              "Longyearbyen": {
                "exemplarCity": "Лонгирбюен"
              }
            },
            "Antarctica": {
              "Casey": {
                "exemplarCity": "Кэсей"
              },
              "Davis": {
                "exemplarCity": "Дэвис"
              },
              "DumontDUrville": {
                "exemplarCity": "Дюмон д’Юрвиль"
              },
              "Macquarie": {
                "exemplarCity": "Маккуори"
              },
              "Mawson": {
                "exemplarCity": "Моусон"
              },
              "McMurdo": {
                "exemplarCity": "Мак-Мёрдо"
              },
              "Palmer": {
                "exemplarCity": "Палмер"
              },
              "Rothera": {
                "exemplarCity": "Ротера"
              },
              "Syowa": {
                "exemplarCity": "Сьёва"
              },
              "Troll": {
                "exemplarCity": "Тролл"
              },
              "Vostok": {
                "exemplarCity": "Восток"
              }
            },
            "Etc": {
              "GMT": {
                "exemplarCity": "GMT"
              },
              "GMT1": {
                "exemplarCity": "GMT+1"
              },
              "GMT10": {
                "exemplarCity": "GMT+10"
              },
              "GMT11": {
                "exemplarCity": "GMT+11"
              },
              "GMT12": {
                "exemplarCity": "GMT+12"
              },
              "GMT2": {
                "exemplarCity": "GMT+2"
              },
              "GMT3": {
                "exemplarCity": "GMT+3"
              },
              "GMT4": {
                "exemplarCity": "GMT+4"
              },
              "GMT5": {
                "exemplarCity": "GMT+5"
              },
              "GMT6": {
                "exemplarCity": "GMT+6"
              },
              "GMT7": {
                "exemplarCity": "GMT+7"
              },
              "GMT8": {
                "exemplarCity": "GMT+8"
              },
              "GMT9": {
                "exemplarCity": "GMT+9"
              },
              "GMT-1": {
                "exemplarCity": "GMT-1"
              },
              "GMT-10": {
                "exemplarCity": "GMT-10"
              },
              "GMT-11": {
                "exemplarCity": "GMT-11"
              },
              "GMT-12": {
                "exemplarCity": "GMT-12"
              },
              "GMT-13": {
                "exemplarCity": "GMT-13"
              },
              "GMT-14": {
                "exemplarCity": "GMT-14"
              },
              "GMT-2": {
                "exemplarCity": "GMT-2"
              },
              "GMT-3": {
                "exemplarCity": "GMT-3"
              },
              "GMT-4": {
                "exemplarCity": "GMT-4"
              },
              "GMT-5": {
                "exemplarCity": "GMT-5"
              },
              "GMT-6": {
                "exemplarCity": "GMT-6"
              },
              "GMT-7": {
                "exemplarCity": "GMT-7"
              },
              "GMT-8": {
                "exemplarCity": "GMT-8"
              },
              "GMT-9": {
                "exemplarCity": "GMT-9"
              },
              "Unknown": {
                "exemplarCity": "Тодорхойгүй хот"
              }
            }
          },
          "metazone": {
            "Afghanistan": {
              "long": {
                "standard": "Афганистаны цаг"
              }
            },
            "Africa_Central": {
              "long": {
                "standard": "Төв Африкийн цаг"
              }
            },
            "Africa_Eastern": {
              "long": {
                "standard": "Зүүн Африкийн цаг"
              }
            },
            "Africa_Southern": {
              "long": {
                "standard": "Өмнөд Африкийн стандарт цаг"
              }
            },
            "Africa_Western": {
              "long": {
                "generic": "Баруун Африкийн цаг",
                "standard": "Баруун Африкийн стандарт цаг",
                "daylight": "Баруун Африкийн зуны цаг"
              }
            },
            "Alaska": {
              "long": {
                "generic": "Аляскийн цаг",
                "standard": "Аляскийн стандарт цаг",
                "daylight": "Аляскийн зуны цаг"
              }
            },
            "Amazon": {
              "long": {
                "generic": "Амазоны цаг",
                "standard": "Амазоны стандарт цаг",
                "daylight": "Амазоны зуны цаг"
              }
            },
            "America_Central": {
              "long": {
                "generic": "Төв цаг",
                "standard": "Төв стандарт цаг",
                "daylight": "Төв зуны цаг"
              }
            },
            "America_Eastern": {
              "long": {
                "generic": "Зүүн эргийн цаг",
                "standard": "Зүүн эргийн стандарт цаг",
                "daylight": "Зүүн эргийн зуны цаг"
              }
            },
            "America_Mountain": {
              "long": {
                "generic": "Уулын цаг",
                "standard": "Уулын стандарт цаг",
                "daylight": "Уулын зуны цаг"
              }
            },
            "America_Pacific": {
              "long": {
                "generic": "Номхон далайн цаг",
                "standard": "Номхон далайн стандарт цаг",
                "daylight": "Номхон далайн зуны цаг"
              }
            },
            "Apia": {
              "long": {
                "generic": "Апиагийн цаг",
                "standard": "Апиагийн стандарт цаг",
                "daylight": "Апиагийн зуны цаг"
              }
            },
            "Arabian": {
              "long": {
                "generic": "Арабын цаг",
                "standard": "Арабын стандарт цаг",
                "daylight": "Арабын зуны цаг"
              }
            },
            "Argentina": {
              "long": {
                "generic": "Аргентины цаг",
                "standard": "Аргентины стандарт цаг",
                "daylight": "Аргентины зуны цаг"
              }
            },
            "Argentina_Western": {
              "long": {
                "generic": "Баруун Аргентины цаг",
                "standard": "Баруун Аргентины стандарт цаг",
                "daylight": "Баруун Аргентины зуны цаг"
              }
            },
            "Armenia": {
              "long": {
                "generic": "Арменийн цаг",
                "standard": "Арменийн стандарт цаг",
                "daylight": "Арменийн зуны цаг"
              }
            },
            "Atlantic": {
              "long": {
                "generic": "Атлантын цаг",
                "standard": "Атлантын стандарт цаг",
                "daylight": "Атлантын зуны цаг"
              }
            },
            "Australia_Central": {
              "long": {
                "generic": "Төв Австралийн цаг",
                "standard": "Төв Австралийн стандарт цаг",
                "daylight": "Төв Австралийн зуны цаг"
              }
            },
            "Australia_CentralWestern": {
              "long": {
                "generic": "Австралийн төв баруун эргийн цаг",
                "standard": "Австралийн төв баруун эргийн стандарт цаг",
                "daylight": "Австралийн төв баруун эргийн зуны цаг"
              }
            },
            "Australia_Eastern": {
              "long": {
                "generic": "Зүүн Австралийн цаг",
                "standard": "Австралийн зүүн эргийн стандарт цаг",
                "daylight": "Австралийн зүүн эргийн зуны цаг"
              }
            },
            "Australia_Western": {
              "long": {
                "generic": "Баруун Австралийн цаг",
                "standard": "Австралийн баруун эргийн стандарт цаг",
                "daylight": "Австралийн баруун эргийн зуны цаг"
              }
            },
            "Azerbaijan": {
              "long": {
                "generic": "Азербайжаны цаг",
                "standard": "Азербайжаны стандарт цаг",
                "daylight": "Азербайжаны зуны цаг"
              }
            },
            "Azores": {
              "long": {
                "generic": "Азорын цаг",
                "standard": "Азорын стандарт цаг",
                "daylight": "Азорын зуны цаг"
              }
            },
            "Bangladesh": {
              "long": {
                "generic": "Бангладешийн цаг",
                "standard": "Бангладешийн стандарт цаг",
                "daylight": "Бангладешийн зуны цаг"
              }
            },
            "Bhutan": {
              "long": {
                "standard": "Бутаны цаг"
              }
            },
            "Bolivia": {
              "long": {
                "standard": "Боливийн цаг"
              }
            },
            "Brasilia": {
              "long": {
                "generic": "Бразилийн цаг",
                "standard": "Бразилийн стандарт цаг",
                "daylight": "Бразилийн зуны цаг"
              }
            },
            "Brunei": {
              "long": {
                "standard": "Бруней Дарассаламын цаг"
              }
            },
            "Cape_Verde": {
              "long": {
                "generic": "Кэйп Вердийн цаг",
                "standard": "Кэйп Вердийн стандарт цаг",
                "daylight": "Кэйп Вердийн зуны цаг"
              }
            },
            "Chamorro": {
              "long": {
                "standard": "Чаморрогийн цаг"
              }
            },
            "Chatham": {
              "long": {
                "generic": "Чэтамын цаг",
                "standard": "Чэтамын стандарт цаг",
                "daylight": "Чэтамын зуны цаг"
              }
            },
            "Chile": {
              "long": {
                "generic": "Чилийн цаг",
                "standard": "Чилийн стандарт цаг",
                "daylight": "Чилийн зуны цаг"
              }
            },
            "China": {
              "long": {
                "generic": "Хятадын цаг",
                "standard": "Хятадын стандарт цаг",
                "daylight": "Хятадын зуны цаг"
              }
            },
            "Choibalsan": {
              "long": {
                "generic": "Чойбалсангийн цаг",
                "standard": "Чойбалсангийн стандарт цаг",
                "daylight": "Чойбалсангийн зуны цаг"
              }
            },
            "Christmas": {
              "long": {
                "standard": "Крисмас арлын цаг"
              }
            },
            "Cocos": {
              "long": {
                "standard": "Кокос арлын цаг"
              }
            },
            "Colombia": {
              "long": {
                "generic": "Колумбын цаг",
                "standard": "Колумбын стандарт цаг",
                "daylight": "Колумбын зуны цаг"
              }
            },
            "Cook": {
              "long": {
                "generic": "Күүк арлын цаг",
                "standard": "Күүк арлын стандарт цаг",
                "daylight": "Күүк арлын хагас зуны цаг"
              }
            },
            "Cuba": {
              "long": {
                "generic": "Кубын цаг",
                "standard": "Кубын стандарт цаг",
                "daylight": "Кубын зуны цаг"
              }
            },
            "Davis": {
              "long": {
                "standard": "Дэвисийн цаг"
              }
            },
            "DumontDUrville": {
              "long": {
                "standard": "Дюмон д’Юрвилийн цаг"
              }
            },
            "East_Timor": {
              "long": {
                "standard": "Зүүн Тиморын цаг"
              }
            },
            "Easter": {
              "long": {
                "generic": "Истерын Арлын цаг",
                "standard": "Истерын Арлын стандарт цаг",
                "daylight": "Истерын Арлын зуны цаг"
              }
            },
            "Ecuador": {
              "long": {
                "standard": "Эквадорын цаг"
              }
            },
            "Europe_Central": {
              "long": {
                "generic": "Төв Европын цаг",
                "standard": "Төв Европын стандарт цаг",
                "daylight": "Төв Европын зуны цаг"
              }
            },
            "Europe_Eastern": {
              "long": {
                "generic": "Зүүн Европын цаг",
                "standard": "Зүүн Европын стандарт цаг",
                "daylight": "Зүүн Европын зуны цаг"
              }
            },
            "Europe_Further_Eastern": {
              "long": {
                "standard": "Алс дорнод Европын цаг"
              }
            },
            "Europe_Western": {
              "long": {
                "generic": "Баруун Европын цаг",
                "standard": "Баруун Европын стандарт цаг",
                "daylight": "Баруун Европын зуны цаг"
              }
            },
            "Falkland": {
              "long": {
                "generic": "Фолькландын Арлуудын цаг",
                "standard": "Фолькландын Арлуудын стандарт цаг",
                "daylight": "Фолькландын Арлуудын зуны цаг"
              }
            },
            "Fiji": {
              "long": {
                "generic": "Фижигийн цаг",
                "standard": "Фижигийн стандарт цаг",
                "daylight": "Фижигийн зуны цаг"
              }
            },
            "French_Guiana": {
              "long": {
                "standard": "Францын Гияанагийн цаг"
              }
            },
            "French_Southern": {
              "long": {
                "standard": "Францын Өмнөд ба Антарктик цаг"
              }
            },
            "GMT": {
              "long": {
                "standard": "Гринвичийн үндсэн цаг"
              }
            },
            "Galapagos": {
              "long": {
                "standard": "Галапагосын цаг"
              }
            },
            "Gambier": {
              "long": {
                "standard": "Гамбьегийн цаг"
              }
            },
            "Georgia": {
              "long": {
                "generic": "Гүржийн цаг",
                "standard": "Гүржийн стандарт цаг",
                "daylight": "Гүржийн зуны цаг"
              }
            },
            "Gilbert_Islands": {
              "long": {
                "standard": "Жильбер арлын цаг"
              }
            },
            "Greenland_Eastern": {
              "long": {
                "generic": "Зүүн Гринландын цаг",
                "standard": "Зүүн Гринландын стандарт цаг",
                "daylight": "Зүүн Гринландын зуны цаг"
              }
            },
            "Greenland_Western": {
              "long": {
                "generic": "Баруун Гринландын цаг",
                "standard": "Баруун Гринландын стандарт цаг",
                "daylight": "Баруун Гринландын зуны цаг"
              }
            },
            "Gulf": {
              "long": {
                "standard": "Гольфийн стандарт цаг"
              }
            },
            "Guyana": {
              "long": {
                "standard": "Гуяанагийн цаг"
              }
            },
            "Hawaii_Aleutian": {
              "long": {
                "generic": "Хавай-Алеутын цаг",
                "standard": "Хавай-Алеутын стандарт цаг",
                "daylight": "Хавай-Алеутын зуны цаг"
              }
            },
            "Hong_Kong": {
              "long": {
                "generic": "Хонг Конгын цаг",
                "standard": "Хонг Конгын стандарт цаг",
                "daylight": "Хонг Конгын зуны цаг"
              }
            },
            "Hovd": {
              "long": {
                "generic": "Ховдын цаг",
                "standard": "Ховдын стандарт цаг",
                "daylight": "Ховдын зуны цаг"
              }
            },
            "India": {
              "long": {
                "standard": "Энэтхэгийн цаг"
              }
            },
            "Indian_Ocean": {
              "long": {
                "standard": "Энэтхэгийн далайн цаг"
              }
            },
            "Indochina": {
              "long": {
                "standard": "Энэтхэг-Хятадын хойгийн цаг"
              }
            },
            "Indonesia_Central": {
              "long": {
                "standard": "Төв Индонезийн цаг"
              }
            },
            "Indonesia_Eastern": {
              "long": {
                "standard": "Зүүн Индонезийн цаг"
              }
            },
            "Indonesia_Western": {
              "long": {
                "standard": "Баруун Индонезийн цаг"
              }
            },
            "Iran": {
              "long": {
                "generic": "Ираны цаг",
                "standard": "Ираны стандарт цаг",
                "daylight": "Ираны зуны цаг"
              }
            },
            "Irkutsk": {
              "long": {
                "generic": "Эрхүүгийн цаг",
                "standard": "Эрхүүгийн стандарт цаг",
                "daylight": "Эрхүүгийн зуны цаг"
              }
            },
            "Israel": {
              "long": {
                "generic": "Израилийн цаг",
                "standard": "Израилийн стандарт цаг",
                "daylight": "Израилийн зуны цаг"
              }
            },
            "Japan": {
              "long": {
                "generic": "Японы цаг",
                "standard": "Японы стандарт цаг",
                "daylight": "Японы зуны цаг"
              }
            },
            "Kazakhstan_Eastern": {
              "long": {
                "standard": "Зүүн Казахстаны цаг"
              }
            },
            "Kazakhstan_Western": {
              "long": {
                "standard": "Баруун Казахстаны цаг"
              }
            },
            "Korea": {
              "long": {
                "generic": "Солонгосын цаг",
                "standard": "Солонгосын стандарт цаг",
                "daylight": "Солонгосын зуны цаг"
              }
            },
            "Kosrae": {
              "long": {
                "standard": "Косраегийн цаг"
              }
            },
            "Krasnoyarsk": {
              "long": {
                "generic": "Красноярскийн цаг",
                "standard": "Красноярскийн стандарт цаг",
                "daylight": "Красноярскийн зуны цаг"
              }
            },
            "Kyrgystan": {
              "long": {
                "standard": "Кыргызстаны цаг"
              }
            },
            "Line_Islands": {
              "long": {
                "standard": "Лайн арлын цаг"
              }
            },
            "Lord_Howe": {
              "long": {
                "generic": "Лорд Хаугийн цаг",
                "standard": "Лорд Хаугийн стандарт цаг",
                "daylight": "Лорд Хаугийн зуны цаг"
              }
            },
            "Macquarie": {
              "long": {
                "standard": "Маккуори Арлын цаг"
              }
            },
            "Magadan": {
              "long": {
                "generic": "Магаданы цаг",
                "standard": "Магаданы стандарт цаг",
                "daylight": "Магаданы зуны цаг"
              }
            },
            "Malaysia": {
              "long": {
                "standard": "Малайзийн цаг"
              }
            },
            "Maldives": {
              "long": {
                "standard": "Мальдивийн цаг"
              }
            },
            "Marquesas": {
              "long": {
                "standard": "Маркесасын цаг"
              }
            },
            "Marshall_Islands": {
              "long": {
                "standard": "Маршаллын арлын цаг"
              }
            },
            "Mauritius": {
              "long": {
                "generic": "Мавритусын цаг",
                "standard": "Мавритусын стандарт цаг",
                "daylight": "Мавритусын зуны цаг"
              }
            },
            "Mawson": {
              "long": {
                "standard": "Моусоны цаг"
              }
            },
            "Mexico_Northwest": {
              "long": {
                "generic": "Баруун хойд Мексикийн цаг",
                "standard": "Баруун хойд Мексикийн стандарт цаг",
                "daylight": "Баруун хойд Мексикийн зуны цаг"
              }
            },
            "Mexico_Pacific": {
              "long": {
                "generic": "Мексикийн номхон далайн цаг",
                "standard": "Мексикийн номхон далайн стандарт цаг",
                "daylight": "Мексикийн номхон далайн зуны цаг"
              }
            },
            "Mongolia": {
              "long": {
                "generic": "Улаанбаатарын цаг",
                "standard": "Улаанбаатарын стандарт цаг",
                "daylight": "Улаанбаатарын зуны цаг"
              }
            },
            "Moscow": {
              "long": {
                "generic": "Москвагийн цаг",
                "standard": "Москвагийн стандарт цаг",
                "daylight": "Москвагийн зуны цаг"
              }
            },
            "Myanmar": {
              "long": {
                "standard": "Мьянмарын цаг"
              }
            },
            "Nauru": {
              "long": {
                "standard": "Науругийн цаг"
              }
            },
            "Nepal": {
              "long": {
                "standard": "Балбын цаг"
              }
            },
            "New_Caledonia": {
              "long": {
                "generic": "Шинэ Каледонийн цаг",
                "standard": "Шинэ Каледонийн стандарт цаг",
                "daylight": "Шинэ Каледонийн зуны цаг"
              }
            },
            "New_Zealand": {
              "long": {
                "generic": "Шинэ Зеландын цаг",
                "standard": "Шинэ Зеландын стандарт цаг",
                "daylight": "Шинэ Зеландын зуны цаг"
              }
            },
            "Newfoundland": {
              "long": {
                "generic": "Нью-Фаундлендын цаг",
                "standard": "Нью-Фаундлендын стандарт цаг",
                "daylight": "Нью-Фаундлендын зуны цаг"
              }
            },
            "Niue": {
              "long": {
                "standard": "Ниуэгийн цаг"
              }
            },
            "Norfolk": {
              "long": {
                "standard": "Норфолк Арлын цаг"
              }
            },
            "Noronha": {
              "long": {
                "generic": "Фернандо де Норонагийн цаг",
                "standard": "Фернандо де Норонагийн стандарт цаг",
                "daylight": "Фернандо де Норонагийн зуны цаг"
              }
            },
            "Novosibirsk": {
              "long": {
                "generic": "Новосибирскийн цаг",
                "standard": "Новосибирскийн стандарт цаг",
                "daylight": "Новосибирскийн зуны цаг"
              }
            },
            "Omsk": {
              "long": {
                "generic": "Омскийн цаг",
                "standard": "Омскийн стандарт цаг",
                "daylight": "Омскийн зуны цаг"
              }
            },
            "Pakistan": {
              "long": {
                "generic": "Пакистаны цаг",
                "standard": "Пакистаны стандарт цаг",
                "daylight": "Пакистаны зуны цаг"
              }
            },
            "Palau": {
              "long": {
                "standard": "Палаугийн цаг"
              }
            },
            "Papua_New_Guinea": {
              "long": {
                "standard": "Папуа Шинэ Гвинейн цаг"
              }
            },
            "Paraguay": {
              "long": {
                "generic": "Парагвайн цаг",
                "standard": "Парагвайн стандарт цаг",
                "daylight": "Парагвайн зуны цаг"
              }
            },
            "Peru": {
              "long": {
                "generic": "Перугийн цаг",
                "standard": "Перугийн стандарт цаг",
                "daylight": "Перугийн зуны цаг"
              }
            },
            "Philippines": {
              "long": {
                "generic": "Филиппины цаг",
                "standard": "Филиппины стандарт цаг",
                "daylight": "Филиппины зуны цаг"
              }
            },
            "Phoenix_Islands": {
              "long": {
                "standard": "Феникс арлын цаг"
              }
            },
            "Pierre_Miquelon": {
              "long": {
                "generic": "Сент-Пьерре ба Микелоны цаг",
                "standard": "Сент-Пьерре ба Микелоны стандарт цаг",
                "daylight": "Сент-Пьерре ба Микелоны зуны цаг"
              }
            },
            "Pitcairn": {
              "long": {
                "standard": "Питкернийн цаг"
              }
            },
            "Ponape": {
              "long": {
                "standard": "Понапегийн цаг"
              }
            },
            "Reunion": {
              "long": {
                "standard": "Реюньоны цаг"
              }
            },
            "Rothera": {
              "long": {
                "standard": "Ротерагийн цаг"
              }
            },
            "Sakhalin": {
              "long": {
                "generic": "Сахалины цаг",
                "standard": "Сахалины стандарт цаг",
                "daylight": "Сахалины зуны цаг"
              }
            },
            "Samoa": {
              "long": {
                "generic": "Самоагийн цаг",
                "standard": "Самоагийн стандарт цаг",
                "daylight": "Самоагийн зуны цаг"
              }
            },
            "Seychelles": {
              "long": {
                "standard": "Сейшелийн цаг"
              }
            },
            "Singapore": {
              "long": {
                "standard": "Сингапурын цаг"
              }
            },
            "Solomon": {
              "long": {
                "standard": "Соломоны Арлуудын цаг"
              }
            },
            "South_Georgia": {
              "long": {
                "standard": "Өмнөд Жоржийн цаг"
              }
            },
            "Suriname": {
              "long": {
                "standard": "Суринамын цаг"
              }
            },
            "Syowa": {
              "long": {
                "standard": "Сёвагийн цаг"
              }
            },
            "Tahiti": {
              "long": {
                "standard": "Таитигийн цаг"
              }
            },
            "Taipei": {
              "long": {
                "generic": "Тайпейн цаг",
                "standard": "Тайпейн стандарт цаг",
                "daylight": "Тайпейн зуны цаг"
              }
            },
            "Tajikistan": {
              "long": {
                "standard": "Тажикистаны цаг"
              }
            },
            "Tokelau": {
              "long": {
                "standard": "Токелаугийн цаг"
              }
            },
            "Tonga": {
              "long": {
                "generic": "Тонгагийн цаг",
                "standard": "Тонгагийн стандарт цаг",
                "daylight": "Тонгагийн зуны цаг"
              }
            },
            "Truk": {
              "long": {
                "standard": "Чүүкийн цаг"
              }
            },
            "Turkmenistan": {
              "long": {
                "generic": "Туркменистаны цаг",
                "standard": "Туркменистаны стандарт цаг",
                "daylight": "Туркменистаны зуны цаг"
              }
            },
            "Tuvalu": {
              "long": {
                "standard": "Тувалугийн цаг"
              }
            },
            "Uruguay": {
              "long": {
                "generic": "Уругвайн цаг",
                "standard": "Уругвайн стандарт цаг",
                "daylight": "Уругвайн зуны цаг"
              }
            },
            "Uzbekistan": {
              "long": {
                "generic": "Узбекистаны цаг",
                "standard": "Узбекистаны стандарт цаг",
                "daylight": "Узбекистаны зуны цаг"
              }
            },
            "Vanuatu": {
              "long": {
                "generic": "Вануатугийн цаг",
                "standard": "Вануатугийн стандарт цаг",
                "daylight": "Вануатугийн зуны цаг"
              }
            },
            "Venezuela": {
              "long": {
                "standard": "Венесуэлийн цаг"
              }
            },
            "Vladivostok": {
              "long": {
                "generic": "Владивостокийн цаг",
                "standard": "Владивостокийн стандарт цаг",
                "daylight": "Владивостокийн зуны цаг"
              }
            },
            "Volgograd": {
              "long": {
                "generic": "Волгоградын цаг",
                "standard": "Волгоградын стандарт цаг",
                "daylight": "Волгоградын зуны цаг"
              }
            },
            "Vostok": {
              "long": {
                "standard": "Востокийн цаг"
              }
            },
            "Wake": {
              "long": {
                "standard": "Вейк арлын цаг"
              }
            },
            "Wallis": {
              "long": {
                "standard": "Уоллис ба Футунагийн цаг"
              }
            },
            "Yakutsk": {
              "long": {
                "generic": "Якутын цаг",
                "standard": "Якутын стандарт цаг",
                "daylight": "Якутын зуны цаг"
              }
            },
            "Yekaterinburg": {
              "long": {
                "generic": "Екатеринбургийн цаг",
                "standard": "Екатеринбургийн стандарт цаг",
                "daylight": "Екатеринбургийн зуны цаг"
              }
            }
          }
        }
      }
    }
  }
}
