{
  "main": {
    "km-KH": {
      "identity": {
        "version": {
          "_cldrVersion": "26",
          "_number": "$Revision: 10669 $"
        },
        "generation": {
          "_date": "$Date: 2014-07-23 16:10:33 -0500 (Wed, 23 Jul 2014) $"
        },
        "language": "km",
        "territory": "KH"
      },
      "dates": {
        "calendars": {
          "ethiopic": {
            "months": {
              "format": {
                "abbreviated": {
                  "1": "Meskerem",
                  "2": "Tekemt",
                  "3": "Hedar",
                  "4": "Tahsas",
                  "5": "Ter",
                  "6": "Yekatit",
                  "7": "Megabit",
                  "8": "Miazia",
                  "9": "Genbot",
                  "10": "Sene",
                  "11": "Hamle",
                  "12": "Nehasse",
                  "13": "Pagumen"
                },
                "narrow": {
                  "1": "1",
                  "2": "2",
                  "3": "3",
                  "4": "4",
                  "5": "5",
                  "6": "6",
                  "7": "7",
                  "8": "8",
                  "9": "9",
                  "10": "10",
                  "11": "11",
                  "12": "12",
                  "13": "13"
                },
                "wide": {
                  "1": "Meskerem",
                  "2": "Tekemt",
                  "3": "Hedar",
                  "4": "Tahsas",
                  "5": "Ter",
                  "6": "Yekatit",
                  "7": "Megabit",
                  "8": "Miazia",
                  "9": "Genbot",
                  "10": "Sene",
                  "11": "Hamle",
                  "12": "Nehasse",
                  "13": "Pagumen"
                }
              },
              "stand-alone": {
                "abbreviated": {
                  "1": "Meskerem",
                  "2": "Tekemt",
                  "3": "Hedar",
                  "4": "Tahsas",
                  "5": "Ter",
                  "6": "Yekatit",
                  "7": "Megabit",
                  "8": "Miazia",
                  "9": "Genbot",
                  "10": "Sene",
                  "11": "Hamle",
                  "12": "Nehasse",
                  "13": "Pagumen"
                },
                "narrow": {
                  "1": "1",
                  "2": "2",
                  "3": "3",
                  "4": "4",
                  "5": "5",
                  "6": "6",
                  "7": "7",
                  "8": "8",
                  "9": "9",
                  "10": "10",
                  "11": "11",
                  "12": "12",
                  "13": "13"
                },
                "wide": {
                  "1": "Meskerem",
                  "2": "Tekemt",
                  "3": "Hedar",
                  "4": "Tahsas",
                  "5": "Ter",
                  "6": "Yekatit",
                  "7": "Megabit",
                  "8": "Miazia",
                  "9": "Genbot",
                  "10": "Sene",
                  "11": "Hamle",
                  "12": "Nehasse",
                  "13": "Pagumen"
                }
              }
            },
            "days": {
              "format": {
                "abbreviated": {
                  "sun": "អាទិត្យ",
                  "mon": "ចន្ទ",
                  "tue": "អង្គារ",
                  "wed": "ពុធ",
                  "thu": "ព្រហស្បតិ៍",
                  "fri": "សុក្រ",
                  "sat": "សៅរ៍"
                },
                "narrow": {
                  "sun": "1",
                  "mon": "2",
                  "tue": "3",
                  "wed": "4",
                  "thu": "5",
                  "fri": "6",
                  "sat": "7"
                },
                "short": {
                  "sun": "អាទិត្យ",
                  "mon": "ចន្ទ",
                  "tue": "អង្គារ",
                  "wed": "ពុធ",
                  "thu": "ព្រហស្បតិ៍",
                  "fri": "សុក្រ",
                  "sat": "សៅរ៍"
                },
                "wide": {
                  "sun": "អាទិត្យ",
                  "mon": "ចន្ទ",
                  "tue": "អង្គារ",
                  "wed": "ពុធ",
                  "thu": "ព្រហស្បតិ៍",
                  "fri": "សុក្រ",
                  "sat": "សៅរ៍"
                }
              },
              "stand-alone": {
                "abbreviated": {
                  "sun": "អាទិត្យ",
                  "mon": "ចន្ទ",
                  "tue": "អង្គារ",
                  "wed": "ពុធ",
                  "thu": "ព្រហស្បតិ៍",
                  "fri": "សុក្រ",
                  "sat": "សៅរ៍"
                },
                "narrow": {
                  "sun": "1",
                  "mon": "2",
                  "tue": "3",
                  "wed": "4",
                  "thu": "5",
                  "fri": "6",
                  "sat": "7"
                },
                "short": {
                  "sun": "អាទិត្យ",
                  "mon": "ចន្ទ",
                  "tue": "អង្គារ",
                  "wed": "ពុធ",
                  "thu": "ព្រហស្បតិ៍",
                  "fri": "សុក្រ",
                  "sat": "សៅរ៍"
                },
                "wide": {
                  "sun": "អាទិត្យ",
                  "mon": "ចន្ទ",
                  "tue": "អង្គារ",
                  "wed": "ពុធ",
                  "thu": "ព្រហស្បតិ៍",
                  "fri": "សុក្រ",
                  "sat": "សៅរ៍"
                }
              }
            },
            "quarters": {
              "format": {
                "abbreviated": {
                  "1": "ត្រីមាសទី ១",
                  "2": "ត្រីមាសទី ២",
                  "3": "ត្រីមាសទី ៣",
                  "4": "ត្រីមាសទី ៤"
                },
                "narrow": {
                  "1": "១",
                  "2": "២",
                  "3": "៣",
                  "4": "៤"
                },
                "wide": {
                  "1": "ត្រីមាសទី ១",
                  "2": "ត្រីមាសទី ២",
                  "3": "ត្រីមាសទី ៣",
                  "4": "ត្រីមាសទី ៤"
                }
              },
              "stand-alone": {
                "abbreviated": {
                  "1": "ត្រីមាសទី ១",
                  "2": "ត្រីមាសទី ២",
                  "3": "ត្រីមាសទី ៣",
                  "4": "ត្រីមាសទី ៤"
                },
                "narrow": {
                  "1": "១",
                  "2": "២",
                  "3": "៣",
                  "4": "៤"
                },
                "wide": {
                  "1": "ត្រីមាសទី ១",
                  "2": "ត្រីមាសទី ២",
                  "3": "ត្រីមាសទី ៣",
                  "4": "ត្រីមាសទី ៤"
                }
              }
            },
            "dayPeriods": {
              "format": {
                "abbreviated": {
                  "am": "ព្រឹក",
                  "noon": "ថ្ងៃ",
                  "pm": "ល្ងាច"
                },
                "narrow": {
                  "am": "ព្រឹក",
                  "noon": "ថ្ងៃ",
                  "pm": "ល្ងាច"
                },
                "wide": {
                  "am": "ព្រឹក",
                  "noon": "ថ្ងៃ",
                  "pm": "ល្ងាច"
                }
              },
              "stand-alone": {
                "abbreviated": {
                  "am": "ព្រឹក",
                  "noon": "ថ្ងៃ",
                  "pm": "ល្ងាច"
                },
                "narrow": {
                  "am": "ព្រឹក",
                  "noon": "ថ្ងៃ",
                  "pm": "ល្ងាច"
                },
                "wide": {
                  "am": "ព្រឹក",
                  "noon": "ថ្ងៃ",
                  "pm": "ល្ងាច"
                }
              }
            },
            "eras": {
              "eraNames": {
                "0": "ERA0",
                "1": "ERA1"
              },
              "eraAbbr": {
                "0": "ERA0",
                "1": "ERA1"
              },
              "eraNarrow": {
                "0": "ERA0",
                "1": "ERA1"
              }
            },
            "dateFormats": {
              "full": "EEEE, d MMMM y G",
              "long": "d MMMM, y G",
              "medium": "d MMM y G",
              "short": "d/M/y GGGGG"
            },
            "timeFormats": {
              "full": "h:mm:ss a zzzz",
              "long": "h:mm:ss a z",
              "medium": "h:mm:ss a",
              "short": "h:mm a"
            },
            "dateTimeFormats": {
              "full": "{1}, {0}",
              "long": "{1}, {0}",
              "medium": "{1}, {0}",
              "short": "{1}, {0}",
              "availableFormats": {
                "E": "ccc",
                "EHm": "E HH:mm",
                "EHms": "E HH:mm:ss",
                "Ed": "d E",
                "Ehm": "E h:mm a",
                "Ehms": "E h:mm:ss a",
                "Gy": "y G",
                "GyMMM": "MMM y G",
                "GyMMMEd": "E, d MMM y G",
                "GyMMMd": "d MMM y G",
                "H": "HH",
                "Hm": "HH:mm",
                "Hms": "HH:mm:ss",
                "M": "L",
                "MEd": "E, d-M",
                "MMM": "LLL",
                "MMMEd": "E d MMM",
                "MMMd": "d MMM",
                "Md": "d-M",
                "d": "d",
                "h": "h a",
                "hm": "h:mm a",
                "hms": "h:mm:ss a",
                "ms": "mm:ss",
                "y": "y G",
                "yyyy": "y G",
                "yyyyM": "M-y GGGGG",
                "yyyyMEd": "E, d-M-y G",
                "yyyyMMM": "MMM y G",
                "yyyyMMMEd": "E, d MMM y G",
                "yyyyMMMd": "d MMM y G",
                "yyyyMd": "d-M-y G",
                "yyyyQQQ": "QQQ y G",
                "yyyyQQQQ": "QQQQ y G"
              },
              "appendItems": {
                "Day": "{0} ({2}: {1})",
                "Day-Of-Week": "{0} {1}",
                "Era": "{1} {0}",
                "Hour": "{0} ({2}: {1})",
                "Minute": "{0} ({2}: {1})",
                "Month": "{0} ({2}: {1})",
                "Quarter": "{0} ({2}: {1})",
                "Second": "{0} ({2}: {1})",
                "Timezone": "{0} {1}",
                "Week": "{0} ({2}: {1})",
                "Year": "{1} {0}"
              },
              "intervalFormats": {
                "intervalFormatFallback": "{0} - {1}",
                "H": {
                  "H": "H-H"
                },
                "Hm": {
                  "H": "H:mm-H:mm",
                  "m": "H:mm-H:mm"
                },
                "Hmv": {
                  "H": "H:mm-H:mm v",
                  "m": "H:mm-H:mm v"
                },
                "Hv": {
                  "H": "H-H v"
                },
                "M": {
                  "M": "M - M"
                },
                "MEd": {
                  "M": "E, d/M - E, d/M",
                  "d": "E, d/M– E, d/M"
                },
                "MMM": {
                  "M": "MMM – MMM"
                },
                "MMMEd": {
                  "M": "E, d MMM - E, d MMM",
                  "d": "E, d MMM - E, d MMM"
                },
                "MMMd": {
                  "M": "d MMM - d MMM",
                  "d": "d – d MMM"
                },
                "Md": {
                  "M": "d/M – d/M",
                  "d": "d/M – d/M"
                },
                "d": {
                  "d": "d - d"
                },
                "h": {
                  "a": "h a – h a",
                  "h": "h-h a"
                },
                "hm": {
                  "a": "h:mm a – h:mm a",
                  "h": "h:mm-h:mm a",
                  "m": "h:mm-h:mm a"
                },
                "hmv": {
                  "a": "h:mm a – h:mm a v",
                  "h": "h:mm-h:mm a v",
                  "m": "h:mm-h:mm a v"
                },
                "hv": {
                  "a": "h a – h a v",
                  "h": "h-h a v"
                },
                "y": {
                  "y": "y – y G"
                },
                "yM": {
                  "M": "M/y – M/y GGGGG",
                  "y": "M/y – M/y GGGGG"
                },
                "yMEd": {
                  "M": "E, d/M/y – E, d/M/y GGGGG",
                  "d": "E, d/M/y – E, d/M/y GGGGG",
                  "y": "E, d/M/y - E, d/M/y GGGGG"
                },
                "yMMM": {
                  "M": "MMM – MMM y G",
                  "y": "MM-y – MM-y G"
                },
                "yMMMEd": {
                  "M": "E, d MMM – E, d MMM, y G",
                  "d": "E, d MMM – E, d MMM, y G",
                  "y": "E, d MMM, y – E, d MMM, y G"
                },
                "yMMMM": {
                  "M": "MMMM – MMMM y G",
                  "y": "MMMM y – MMMM y G"
                },
                "yMMMd": {
                  "M": "MMM d – MMM d, y G",
                  "d": "d-d MMM y G",
                  "y": "d MMM, y – d MMM, y G"
                },
                "yMd": {
                  "M": "d/M/y – d/M/y GGGGG",
                  "d": "d/M/y - d/M/y G",
                  "y": "d/M/y – d/M/y GGGGG"
                }
              }
            }
          }
        }
      }
    }
  }
}
