{
  "main": {
    "km-KH": {
      "identity": {
        "version": {
          "_cldrVersion": "26",
          "_number": "$Revision: 10669 $"
        },
        "generation": {
          "_date": "$Date: 2014-07-23 16:10:33 -0500 (Wed, 23 Jul 2014) $"
        },
        "language": "km",
        "territory": "KH"
      },
      "localeDisplayNames": {
        "languages": {
          "aa": "ភាសាអាហ្វារ",
          "ab": "អាប់ខាហ៊្សាន",
          "ace": "ace",
          "ach": "ach",
          "ada": "ada",
          "ady": "ady",
          "ae": "ភាសាអាវែស្តង់",
          "aeb": "aeb",
          "af": "អាហ្វ្រីកាអាន",
          "afh": "afh",
          "agq": "Aghem",
          "ain": "ain",
          "ak": "Akan",
          "akk": "akk",
          "akz": "akz",
          "ale": "ale",
          "aln": "aln",
          "alt": "alt",
          "am": "អាមហារីច",
          "an": "ភាសាអារ៉ាហ្គោន",
          "ang": "ang",
          "anp": "anp",
          "ar": "អារ៉ាប់",
          "ar-001": "អារ៉ាប់​ស្តង់ដារ​ទំនើប",
          "arc": "arc",
          "arn": "Mapuche",
          "aro": "aro",
          "arp": "arp",
          "arq": "arq",
          "arw": "arw",
          "ary": "ary",
          "arz": "arz",
          "as": "អាសាមីស",
          "asa": "Asu",
          "ase": "ase",
          "ast": "ast",
          "av": "av",
          "avk": "avk",
          "awa": "awa",
          "ay": "ភាសាអីម៉ារ៉ា",
          "az": "អាហ៊្សែរបែហ្សង់",
          "az-alt-short": "អាហ្សេរី",
          "azb": "azb",
          "ba": "បែស្កឺ",
          "bal": "bal",
          "ban": "ban",
          "bar": "bar",
          "bas": "bas",
          "bax": "bax",
          "bbc": "bbc",
          "bbj": "bbj",
          "be": "បេឡារុស្ស",
          "bej": "bej",
          "bem": "Bemba",
          "bew": "bew",
          "bez": "Bena",
          "bfd": "bfd",
          "bfq": "bfq",
          "bg": "ប៊ុលហ្ការី",
          "bho": "bho",
          "bi": "bi",
          "bik": "bik",
          "bin": "bin",
          "bjn": "bjn",
          "bkm": "bkm",
          "bla": "bla",
          "bm": "បាម្បារា",
          "bn": "បង់ក្លាដែស",
          "bo": "ទីបេ",
          "bpy": "bpy",
          "bqi": "bqi",
          "br": "ប្រីស្តុន",
          "bra": "bra",
          "brh": "brh",
          "brx": "Bodo",
          "bs": "បូស្នី",
          "bss": "bss",
          "bua": "bua",
          "bug": "bug",
          "bum": "bum",
          "byn": "byn",
          "byv": "byv",
          "ca": "កាតាឡាន",
          "cad": "cad",
          "car": "car",
          "cay": "cay",
          "cch": "cch",
          "ce": "ce",
          "ceb": "ceb",
          "cgg": "Chiga",
          "ch": "ch",
          "chb": "chb",
          "chg": "chg",
          "chk": "chk",
          "chm": "chm",
          "chn": "chn",
          "cho": "cho",
          "chp": "chp",
          "chr": "ឆេរូគី",
          "chy": "chy",
          "ckb": "សុរ៉ានី",
          "co": "Corsican",
          "cop": "cop",
          "cps": "cps",
          "cr": "cr",
          "crh": "crh",
          "cs": "ឆេក",
          "csb": "csb",
          "cu": "cu",
          "cv": "cv",
          "cy": "វេល",
          "da": "ដាណឺម៉ាក",
          "dak": "dak",
          "dar": "dar",
          "dav": "Taita",
          "de": "អាល្លឺម៉ង់",
          "de-AT": "អាល្លឺម៉ង់ អូទ្រីស",
          "de-CH": "អាល្លឺម៉ង់ ស្វីស",
          "del": "del",
          "den": "den",
          "dgr": "dgr",
          "din": "din",
          "dje": "Zarma",
          "doi": "doi",
          "dsb": "Lower Sorbian",
          "dtp": "dtp",
          "dua": "Duala",
          "dum": "dum",
          "dv": "dv",
          "dyo": "Jola-Fonyi",
          "dyu": "dyu",
          "dz": "ភាសាប៊ូតាន",
          "dzg": "dzg",
          "ebu": "Embu",
          "ee": "Ewe",
          "efi": "efi",
          "egl": "egl",
          "egy": "egy",
          "eka": "eka",
          "el": "ក្រិច",
          "elx": "elx",
          "en": "អង់គ្លេស",
          "en-AU": "អង់គ្លេស អូស្ត្រាលី",
          "en-CA": "អង់គ្លេស កាណាដា",
          "en-GB": "អង់គ្លេស ចក្រភព​អង់គ្លេស",
          "en-GB-alt-short": "អង់គ្លេស (ច.អ.)",
          "en-US": "អង់គ្លេស អាមេរិក",
          "en-US-alt-short": "អង់គ្លេស (ស.រ.អា.)",
          "enm": "enm",
          "eo": "អេស្ពេរ៉ាន់តូ",
          "es": "អេស្ប៉ាញ",
          "es-419": "អេស្ប៉ាញ អាមេរីកឡាតាំង",
          "es-ES": "អេស្ប៉ាញ អឺរ៉ុប",
          "es-MX": "es_MX",
          "esu": "esu",
          "et": "អេស្តូនី",
          "eu": "បាស្កេ",
          "ewo": "ewo",
          "ext": "ext",
          "fa": "ភឺសៀន",
          "fan": "fan",
          "fat": "fat",
          "ff": "ff",
          "fi": "ហ្វាំងឡង់",
          "fil": "ហ្វីលីពីន",
          "fit": "fit",
          "fj": "ហ៊្វីជី",
          "fo": "ហ្វារូស",
          "fon": "fon",
          "fr": "បារាំង",
          "fr-CA": "fr_CA",
          "fr-CH": "fr_CH",
          "frc": "frc",
          "frm": "frm",
          "fro": "fro",
          "frp": "frp",
          "frr": "frr",
          "frs": "frs",
          "fur": "fur",
          "fy": "ហ្វ្រីស៊ានខាងលិច",
          "ga": "អៀរឡង់",
          "gaa": "gaa",
          "gag": "Gagauz",
          "gan": "gan",
          "gay": "gay",
          "gba": "gba",
          "gbz": "gbz",
          "gd": "ភាសាហ្កែលិគ (gd)",
          "gez": "gez",
          "gil": "gil",
          "gl": "ហ្គាលីស្យាន",
          "glk": "glk",
          "gmh": "gmh",
          "gn": "ហ្គូរ៉ានី",
          "goh": "goh",
          "gom": "gom",
          "gon": "gon",
          "gor": "gor",
          "got": "got",
          "grb": "grb",
          "grc": "grc",
          "gsw": "អាល្លឺម៉ង ស្វីស",
          "gu": "ហ្កុយ៉ារាទី",
          "guc": "guc",
          "gur": "gur",
          "guz": "Gusii",
          "gv": "Manx",
          "gwi": "gwi",
          "ha": "ហូសា",
          "hai": "hai",
          "hak": "hak",
          "haw": "ហាវៃ",
          "he": "អ៊ីស្រាអែល",
          "hi": "ហិណ្ឌូ",
          "hif": "hif",
          "hil": "hil",
          "hit": "hit",
          "hmn": "hmn",
          "ho": "ho",
          "hr": "ក្រូអាត",
          "hsb": "Upper Sorbian",
          "hsn": "hsn",
          "ht": "ហៃទី",
          "hu": "ហុងគ្រី",
          "hup": "hup",
          "hy": "អារមេនី",
          "hz": "hz",
          "ia": "អីនធើលីង",
          "iba": "iba",
          "ibb": "ibb",
          "id": "ឥណ្ឌូណេស៊ី",
          "ie": "ie",
          "ig": "អ៊ីកបូ",
          "ii": "Sichuan Yi",
          "ik": "ik",
          "ilo": "ilo",
          "inh": "inh",
          "io": "io",
          "is": "អ៊ីស្លង់",
          "it": "អ៊ីតាលី",
          "iu": "Inuktitut",
          "izh": "izh",
          "ja": "ជប៉ុន",
          "jam": "jam",
          "jbo": "jbo",
          "jgo": "Ngomba",
          "jmc": "Machame",
          "jpr": "jpr",
          "jrb": "jrb",
          "jut": "jut",
          "jv": "ជ្វា",
          "ka": "ហ្សក​ហ្ស៊ី",
          "kaa": "kaa",
          "kab": "Kabyle",
          "kac": "kac",
          "kaj": "kaj",
          "kam": "Kamba",
          "kaw": "kaw",
          "kbd": "kbd",
          "kbl": "kbl",
          "kcg": "kcg",
          "kde": "Makonde",
          "kea": "Kabuverdianu",
          "ken": "ken",
          "kfo": "kfo",
          "kg": "kg",
          "kgp": "kgp",
          "kha": "kha",
          "kho": "kho",
          "khq": "Koyra Chiini",
          "khw": "khw",
          "ki": "Kikuyu",
          "kiu": "kiu",
          "kj": "kj",
          "kk": "កាហ្សាក់ស្តង់់",
          "kkj": "kkj",
          "kl": "Kalaallisut",
          "kln": "Kalenjin",
          "km": "ខ្មែរ",
          "kmb": "kmb",
          "kn": "កន្នដ",
          "ko": "កូរ៉េ",
          "koi": "Komi-Permyak",
          "kok": "Konkani",
          "kos": "kos",
          "kpe": "kpe",
          "kr": "kr",
          "krc": "krc",
          "kri": "kri",
          "krj": "krj",
          "krl": "krl",
          "kru": "kru",
          "ks": "កាស្មៀរ",
          "ksb": "Shambala",
          "ksf": "Bafia",
          "ksh": "ksh",
          "ku": "ឃឺដ",
          "kum": "kum",
          "kut": "kut",
          "kv": "kv",
          "kw": "Cornish",
          "ky": "គៀរហ្គីស្តង់",
          "la": "ឡាតំាង",
          "lad": "lad",
          "lag": "Langi",
          "lah": "lah",
          "lam": "lam",
          "lb": "លុចហ្សំបួរ",
          "lez": "lez",
          "lfn": "lfn",
          "lg": "Ganda",
          "li": "li",
          "lij": "lij",
          "liv": "liv",
          "lkt": "Lakota",
          "lmo": "lmo",
          "ln": "លីនកាឡា",
          "lo": "ឡាវ",
          "lol": "lol",
          "loz": "loz",
          "lt": "លីទុយអានី",
          "ltg": "ltg",
          "lu": "Luba-Katanga",
          "lua": "lua",
          "lui": "lui",
          "lun": "lun",
          "luo": "Luo",
          "lus": "lus",
          "luy": "Luyia",
          "lv": "ឡាតវីយ៉ា",
          "lzh": "lzh",
          "lzz": "lzz",
          "mad": "mad",
          "maf": "maf",
          "mag": "mag",
          "mai": "mai",
          "mak": "mak",
          "man": "man",
          "mas": "Masai",
          "mde": "mde",
          "mdf": "mdf",
          "mdr": "mdr",
          "men": "men",
          "mer": "Meru",
          "mfe": "Morisyen",
          "mg": "ម៉ាឡាហ្គាស៊ី",
          "mga": "mga",
          "mgh": "Makhuwa-Meetto",
          "mgo": "Meta",
          "mh": "mh",
          "mi": "ម៉ោរី",
          "mic": "mic",
          "min": "min",
          "mk": "ម៉ាសេដូនី",
          "ml": "មលយាល័ម",
          "mn": "ម៉ុងហ្គោលី",
          "mnc": "mnc",
          "mni": "mni",
          "moh": "Mohawk",
          "mos": "mos",
          "mr": "មរាធិ",
          "mrj": "mrj",
          "ms": "ម៉ាឡេស៊ី",
          "mt": "ម៉ាល់តា",
          "mua": "Mundang",
          "mul": "mul",
          "mus": "mus",
          "mwl": "mwl",
          "mwr": "mwr",
          "mwv": "mwv",
          "my": "ភូមា",
          "mye": "mye",
          "myv": "myv",
          "mzn": "mzn",
          "na": "na",
          "nan": "nan",
          "nap": "nap",
          "naq": "Nama",
          "nb": "ន័រវែស បុកម៉ាល់",
          "nd": "North Ndebele",
          "nds": "nds",
          "ne": "នេប៉ាល់",
          "new": "new",
          "ng": "ng",
          "nia": "nia",
          "niu": "niu",
          "njo": "njo",
          "nl": "ហុល្លង់",
          "nl-BE": "ផ្លាមីស",
          "nmg": "Kwasio",
          "nn": "ន័រវែស នីនូស",
          "nnh": "nnh",
          "no": "ភាសាន័រវែស",
          "nog": "nog",
          "non": "non",
          "nov": "nov",
          "nqo": "N’Ko",
          "nr": "nr",
          "nso": "nso",
          "nus": "Nuer",
          "nv": "nv",
          "nwc": "nwc",
          "ny": "ny",
          "nym": "nym",
          "nyn": "Nyankole",
          "nyo": "nyo",
          "nzi": "nzi",
          "oc": "អូសីតាន់",
          "oj": "oj",
          "om": "Oromo",
          "or": "អូរីយ៉ា",
          "os": "os",
          "osa": "osa",
          "ota": "ota",
          "pa": "បឹនជាពិ",
          "pag": "pag",
          "pal": "pal",
          "pam": "pam",
          "pap": "pap",
          "pau": "pau",
          "pcd": "pcd",
          "pdc": "pdc",
          "pdt": "pdt",
          "peo": "peo",
          "pfl": "pfl",
          "phn": "phn",
          "pi": "pi",
          "pl": "ប៉ូឡូញ",
          "pms": "pms",
          "pnt": "pnt",
          "pon": "pon",
          "prg": "prg",
          "pro": "pro",
          "ps": "បាស្តូ",
          "pt": "ព័រទុយហ្កាល់",
          "pt-BR": "ព័រទុយហ្គាល់ ប្រេស៊ីល",
          "pt-PT": "ព័រទុយហ្គាល់ អឺរ៉ុប",
          "qu": "កេទជួអា",
          "quc": "Kʼicheʼ",
          "qug": "qug",
          "raj": "raj",
          "rap": "rap",
          "rar": "rar",
          "rgn": "rgn",
          "rif": "rif",
          "rm": "រ៉ូម៉ង់",
          "rn": "រូន្ឌី",
          "ro": "រូម៉ានី",
          "ro-MD": "ភាសាម៉ុលដាវី",
          "rof": "Rombo",
          "rom": "rom",
          "root": "root",
          "rtm": "rtm",
          "ru": "រុស្ស៊ី",
          "rue": "rue",
          "rug": "rug",
          "rup": "rup",
          "rw": "Kinyarwanda",
          "rwk": "Rwa",
          "sa": "សំស្ក្រឹត",
          "sad": "sad",
          "sah": "sah",
          "sam": "sam",
          "saq": "Samburu",
          "sas": "sas",
          "sat": "sat",
          "saz": "saz",
          "sba": "sba",
          "sbp": "Sangu",
          "sc": "sc",
          "scn": "scn",
          "sco": "sco",
          "sd": "​​ស៊ីន្តី",
          "sdc": "sdc",
          "se": "Sami ភាគ​ខាង​ជើង",
          "see": "see",
          "seh": "Sena",
          "sei": "sei",
          "sel": "sel",
          "ses": "Koyraboro Senni",
          "sg": "Sango",
          "sga": "sga",
          "sgs": "sgs",
          "sh": "សើបូក្រូទៀន",
          "shi": "Tachelhit",
          "shn": "shn",
          "shu": "shu",
          "si": "ស្រីលង្កា",
          "sid": "sid",
          "sk": "ស្លូវ៉ាគី",
          "sl": "ស្លូវ៉ានី",
          "sli": "sli",
          "sly": "sly",
          "sm": "ភាសាសាមូអា",
          "sma": "Sami ភាគ​ខាង​ត្បូង",
          "smj": "Lule Sami",
          "smn": "Inari Sami",
          "sms": "Skolt Sami",
          "sn": "Shona",
          "snk": "snk",
          "so": "សូម៉ាលី",
          "sog": "sog",
          "sq": "អាល់បានី",
          "sr": "សើប",
          "srn": "srn",
          "srr": "srr",
          "ss": "ss",
          "ssy": "ssy",
          "st": "សេសូដូ",
          "stq": "stq",
          "su": "ស៊ូដង់",
          "suk": "suk",
          "sus": "sus",
          "sux": "sux",
          "sv": "ស៊ុយអែដ",
          "sw": "ស្វាហ៊ីលី",
          "swb": "swb",
          "swc": "Congo Swahili",
          "syc": "syc",
          "syr": "syr",
          "szl": "szl",
          "ta": "តាមីល",
          "tcy": "tcy",
          "te": "តេលុគុ",
          "tem": "tem",
          "teo": "Teso",
          "ter": "ter",
          "tet": "tet",
          "tg": "តាដហ្សីគីស្តង់",
          "th": "ថៃ",
          "ti": "ទីរិនយា",
          "tig": "tig",
          "tiv": "tiv",
          "tk": "ទួគមេនីស្តង់",
          "tkl": "tkl",
          "tkr": "tkr",
          "tl": "tl",
          "tlh": "ខ្លិងសុន",
          "tli": "tli",
          "tly": "tly",
          "tmh": "tmh",
          "tn": "tn",
          "to": "តុងហ្គោ",
          "tog": "tog",
          "tpi": "tpi",
          "tr": "ទួរគី",
          "tru": "tru",
          "trv": "trv",
          "ts": "ts",
          "tsd": "tsd",
          "tsi": "tsi",
          "tt": "តាតារ",
          "ttt": "ttt",
          "tum": "tum",
          "tvl": "tvl",
          "tw": "ទ្វី",
          "twq": "Tasawaq",
          "ty": "ty",
          "tyv": "tyv",
          "tzm": "Atlas Tamazight កណ្ដាល",
          "udm": "udm",
          "ug": "អ៊ុយហ្គឺរ",
          "uga": "uga",
          "uk": "អ៊ុយក្រែន",
          "umb": "umb",
          "und": "មិន​ស្គាល់​ភាសា",
          "ur": "អ៊ូរឌូ",
          "uz": "អ៊ូហ្សបេគីស្តង់",
          "vai": "Vai",
          "ve": "ve",
          "vec": "vec",
          "vep": "vep",
          "vi": "វៀតណាម",
          "vls": "vls",
          "vmf": "vmf",
          "vo": "vo",
          "vot": "vot",
          "vro": "vro",
          "vun": "Vunjo",
          "wa": "wa",
          "wae": "wae",
          "wal": "wal",
          "war": "war",
          "was": "was",
          "wo": "វូឡុហ្វ",
          "wuu": "wuu",
          "xal": "xal",
          "xh": "ឃសា",
          "xmf": "xmf",
          "xog": "Soga",
          "yao": "yao",
          "yap": "yap",
          "yav": "yav",
          "ybb": "ybb",
          "yi": "ភាសាយីឌីហ្ស",
          "yo": "យរូបា",
          "yrl": "yrl",
          "yue": "yue",
          "za": "ភាសាចួង",
          "zap": "zap",
          "zbl": "zbl",
          "zea": "zea",
          "zen": "zen",
          "zgh": "ម៉ារ៉ុក",
          "zh": "ចិន",
          "zh-Hans": "ចិន​អក្សរ​កាត់",
          "zh-Hant": "ចិន​អក្សរ​ពេញ",
          "zu": "សូលូ",
          "zun": "zun",
          "zxx": "គ្មាន​ទិន្នន័យ​ភាសា",
          "zza": "zza"
        }
      }
    }
  }
}
