{
  "main": {
    "km-KH": {
      "identity": {
        "version": {
          "_cldrVersion": "26",
          "_number": "$Revision: 10669 $"
        },
        "generation": {
          "_date": "$Date: 2014-07-23 16:10:33 -0500 (Wed, 23 Jul 2014) $"
        },
        "language": "km",
        "territory": "KH"
      },
      "localeDisplayNames": {
        "localeDisplayPattern": {
          "localePattern": "{0} ({1})",
          "localeSeparator": "{0}, {1}",
          "localeKeyTypePattern": "{0}: {1}"
        },
        "keys": {
          "calendar": "ប្រតិទិន",
          "collation": "លំដាប់​តម្រៀប",
          "currency": "រូបិយប័ណ្ណ",
          "numbers": "លេខ"
        },
        "types": {
          "numbers": {
            "arab": "លេខ​ឥណ្ឌា-អារ៉ាប់",
            "arabext": "លេខ​ឥណ្ឌា-អារ៉ាប់​ពង្រីក",
            "armn": "លេខ​អាមេនី",
            "armnlow": "លេខ​តូច​អាមេនី",
            "bali": "bali",
            "beng": "លេខ​បង់ក្លាដែស"
          },
          "collation": {
            "big5han": "big5han"
          },
          "numbers": {
            "brah": "brah"
          },
          "calendar": {
            "buddhist": "ប្រតិទិន​ពុទ្ធសាសនិក"
          },
          "numbers": {
            "cakm": "cakm",
            "cham": "cham"
          },
          "calendar": {
            "chinese": "ប្រតិទិន​ចិន",
            "coptic": "coptic",
            "dangi": "ប្រតិទិន​ dangi"
          },
          "numbers": {
            "deva": "លេខ​ឌីវ៉ាណាការី"
          },
          "collation": {
            "dictionary": "dictionary",
            "ducet": "លំដាប់​តម្រៀប​យូនីកូដ​លំនាំដើម",
            "eor": "eor"
          },
          "numbers": {
            "ethi": "លេខ​អេត្យូពី"
          },
          "calendar": {
            "ethiopic": "ប្រតិទិន​អេត្យូពី",
            "ethiopic-amete-alem": "ethiopic-amete-alem"
          },
          "numbers": {
            "fullwide": "លេខ​ទទឹង​ពេញ"
          },
          "collation": {
            "gb2312han": "gb2312han"
          },
          "numbers": {
            "geor": "លេខ​ហ្សកហ្សី"
          },
          "calendar": {
            "gregorian": "ប្រតិទិន​ហ្សកហ្ស៊ី"
          },
          "numbers": {
            "grek": "លេខ​ក្រិក",
            "greklow": "លេខ​តូច​ក្រិក",
            "gujr": "លេខ​ហ្កុយ៉ារាទី",
            "guru": "លេខ​កុមុឃី",
            "hanidec": "លេខ​ទសភាគ​ចិន",
            "hans": "លេខ​ចិន​អក្សរ​កាត់",
            "hansfin": "លេខ​ហិរញ្ញវត្ថុ​ចិន​អក្សរ​កាត់",
            "hant": "លេខ​ចិន​អក្សរ​ពេញ",
            "hantfin": "លេខ​ហិរញ្ញវត្ថុ​ចិន​អក្សរ​ពេញ",
            "hebr": "លេខ​អ៊ីស្រាអែល"
          },
          "calendar": {
            "hebrew": "ប្រតិទិន​ហេប្រិ",
            "indian": "indian",
            "islamic": "ប្រតិទិន​អ៊ិស្លាម",
            "islamic-civil": "islamic-civil",
            "islamic-rgsa": "islamic-rgsa",
            "islamic-tbla": "islamic-tbla",
            "islamic-umalqura": "islamic-umalqura",
            "iso8601": "ប្រតិទិន ISO-8601",
            "japanese": "ប្រតិទិន​ជប៉ុន"
          },
          "numbers": {
            "java": "java",
            "jpan": "លេខ​ជប៉ុន",
            "jpanfin": "លេខ​ហិរញ្ញវត្ថុ​ជប៉ុន",
            "kali": "kali",
            "khmr": "លេខ​ខ្មែរ",
            "knda": "លេខ Kannada",
            "lana": "lana",
            "lanatham": "lanatham",
            "laoo": "លេខ​ឡាវ",
            "latn": "លេខ​បច្ចឹម​ប្រទេស",
            "lepc": "lepc",
            "limb": "limb",
            "mlym": "លេខ​មលយាល័ម",
            "mong": "mong",
            "mtei": "mtei",
            "mymr": "លេខ​ភូមា",
            "mymrshan": "mymrshan",
            "nkoo": "nkoo",
            "olck": "olck",
            "orya": "លេខ​អូរីយ៉ា",
            "osma": "osma"
          },
          "calendar": {
            "persian": "ប្រតិទិន Persian"
          },
          "collation": {
            "phonebook": "phonebook",
            "pinyin": "pinyin",
            "reformed": "reformed"
          },
          "calendar": {
            "roc": "ប្រតិទិន Minguo"
          },
          "numbers": {
            "roman": "លេខ​រ៉ូមាំង",
            "romanlow": "លេខ​តូច​រ៉ូមាំង",
            "saur": "saur"
          },
          "collation": {
            "search": "ស្វែងរក​ទូទៅ",
            "searchjl": "searchjl"
          },
          "numbers": {
            "shrd": "shrd",
            "sora": "sora"
          },
          "collation": {
            "standard": "លំដាប់​តម្រៀប​ស្តង់ដារ",
            "stroke": "stroke"
          },
          "numbers": {
            "sund": "sund",
            "takr": "takr",
            "talu": "talu",
            "taml": "លេខ​តាមីល",
            "tamldec": "លេខ​តាមីល",
            "telu": "លេខ​តេលុគុ",
            "thai": "លេខ​ថៃ",
            "tibt": "លេខ​តៃប៉ិ"
          },
          "collation": {
            "traditional": "traditional",
            "unihan": "unihan"
          },
          "numbers": {
            "vaii": "vaii"
          },
          "collation": {
            "zhuyin": "zhuyin"
          }
        },
        "codePatterns": {
          "language": "ភាសា៖ {0}",
          "script": "អក្សរ៖ {0}",
          "territory": "តំបន់៖ {0}"
        }
      }
    }
  }
}
