{
  "main": {
    "os": {
      "identity": {
        "version": {
          "_cldrVersion": "26",
          "_number": "$Revision: 10753 $"
        },
        "generation": {
          "_date": "$Date: 2014-08-11 11:10:03 -0500 (Mon, 11 Aug 2014) $"
        },
        "language": "os"
      },
      "delimiters": {
        "quotationStart": "«",
        "quotationEnd": "»",
        "alternateQuotationStart": "„",
        "alternateQuotationEnd": "“"
      }
    }
  }
}
