{
  "main": {
    "fy": {
      "identity": {
        "version": {
          "_cldrVersion": "26",
          "_number": "$Revision: 10753 $"
        },
        "generation": {
          "_date": "$Date: 2014-08-11 11:10:03 -0500 (Mon, 11 Aug 2014) $"
        },
        "language": "fy"
      },
      "dates": {
        "calendars": {
          "gregorian": {
            "months": {
              "format": {
                "abbreviated": {
                  "1": "jan.",
                  "2": "feb.",
                  "3": "mrt.",
                  "4": "apr.",
                  "5": "mai",
                  "6": "jun.",
                  "7": "jul.",
                  "8": "aug.",
                  "9": "sep.",
                  "10": "okt.",
                  "11": "nov.",
                  "12": "des."
                },
                "narrow": {
                  "1": "J",
                  "2": "F",
                  "3": "M",
                  "4": "A",
                  "5": "M",
                  "6": "J",
                  "7": "J",
                  "8": "A",
                  "9": "S",
                  "10": "O",
                  "11": "N",
                  "12": "D"
                },
                "wide": {
                  "1": "jannewaris",
                  "2": "febrewaris",
                  "3": "maart",
                  "4": "april",
                  "5": "maaie",
                  "6": "juny",
                  "7": "july",
                  "8": "augustus",
                  "9": "septimber",
                  "10": "oktober",
                  "11": "novimber",
                  "12": "desimber"
                }
              },
              "stand-alone": {
                "abbreviated": {
                  "1": "jan",
                  "2": "feb",
                  "3": "mrt",
                  "4": "apr",
                  "5": "mai",
                  "6": "jun",
                  "7": "jul",
                  "8": "aug",
                  "9": "sep",
                  "10": "okt",
                  "11": "nov",
                  "12": "des"
                },
                "narrow": {
                  "1": "J",
                  "2": "F",
                  "3": "M",
                  "4": "A",
                  "5": "M",
                  "6": "J",
                  "7": "J",
                  "8": "A",
                  "9": "S",
                  "10": "O",
                  "11": "N",
                  "12": "D"
                },
                "wide": {
                  "1": "jannewaris",
                  "2": "febrewaris",
                  "3": "maart",
                  "4": "april",
                  "5": "maaie",
                  "6": "juny",
                  "7": "july",
                  "8": "augustus",
                  "9": "septimber",
                  "10": "oktober",
                  "11": "novimber",
                  "12": "desimber"
                }
              }
            },
            "days": {
              "format": {
                "abbreviated": {
                  "sun": "si",
                  "mon": "mo",
                  "tue": "ti",
                  "wed": "wo",
                  "thu": "to",
                  "fri": "fr",
                  "sat": "so"
                },
                "narrow": {
                  "sun": "Z",
                  "mon": "M",
                  "tue": "D",
                  "wed": "W",
                  "thu": "D",
                  "fri": "V",
                  "sat": "Z"
                },
                "short": {
                  "sun": "si",
                  "mon": "mo",
                  "tue": "ti",
                  "wed": "wo",
                  "thu": "to",
                  "fri": "fr",
                  "sat": "so"
                },
                "wide": {
                  "sun": "snein",
                  "mon": "moandei",
                  "tue": "tiisdei",
                  "wed": "woansdei",
                  "thu": "tongersdei",
                  "fri": "freed",
                  "sat": "sneon"
                }
              },
              "stand-alone": {
                "abbreviated": {
                  "sun": "si",
                  "mon": "mo",
                  "tue": "ti",
                  "wed": "wo",
                  "thu": "to",
                  "fri": "fr",
                  "sat": "so"
                },
                "narrow": {
                  "sun": "Z",
                  "mon": "M",
                  "tue": "D",
                  "wed": "W",
                  "thu": "D",
                  "fri": "V",
                  "sat": "Z"
                },
                "short": {
                  "sun": "si",
                  "mon": "mo",
                  "tue": "ti",
                  "wed": "wo",
                  "thu": "to",
                  "fri": "fr",
                  "sat": "so"
                },
                "wide": {
                  "sun": "snein",
                  "mon": "moandei",
                  "tue": "tiisdei",
                  "wed": "woansdei",
                  "thu": "tongersdei",
                  "fri": "freed",
                  "sat": "sneon"
                }
              }
            },
            "quarters": {
              "format": {
                "abbreviated": {
                  "1": "K1",
                  "2": "K2",
                  "3": "K3",
                  "4": "K4"
                },
                "narrow": {
                  "1": "1",
                  "2": "2",
                  "3": "3",
                  "4": "4"
                },
                "wide": {
                  "1": "1e kwartaal",
                  "2": "2e kwartaal",
                  "3": "3e kwartaal",
                  "4": "4e kwartaal"
                }
              },
              "stand-alone": {
                "abbreviated": {
                  "1": "K1",
                  "2": "K2",
                  "3": "K3",
                  "4": "K4"
                },
                "narrow": {
                  "1": "1",
                  "2": "2",
                  "3": "3",
                  "4": "4"
                },
                "wide": {
                  "1": "1e kwartaal",
                  "2": "2e kwartaal",
                  "3": "3e kwartaal",
                  "4": "4e kwartaal"
                }
              }
            },
            "dayPeriods": {
              "format": {
                "abbreviated": {
                  "am": "AM",
                  "noon": "12 oere ‘s middeis",
                  "pm": "PM"
                },
                "narrow": {
                  "am": "AM",
                  "noon": "n",
                  "pm": "PM"
                },
                "wide": {
                  "am": "AM",
                  "noon": "12 oere ‘s middeis",
                  "pm": "PM"
                }
              },
              "stand-alone": {
                "abbreviated": {
                  "am": "a.m.",
                  "noon": "12 oere ‘s middeis",
                  "pm": "p.m."
                },
                "narrow": {
                  "am": "AM",
                  "noon": "n",
                  "pm": "PM"
                },
                "wide": {
                  "am": "foarmiddei",
                  "noon": "12 oere ‘s middeis",
                  "pm": "p.m."
                }
              }
            },
            "eras": {
              "eraNames": {
                "0": "Foar Kristus",
                "0-alt-variant": "foar gewoane jiertelling",
                "1": "nei Kristus",
                "1-alt-variant": "gewoane jiertelling"
              },
              "eraAbbr": {
                "0": "f.Kr.",
                "0-alt-variant": "f.g.j.",
                "1": "n.Kr.",
                "1-alt-variant": "g.j."
              },
              "eraNarrow": {
                "0": "f.K.",
                "0-alt-variant": "fgj",
                "1": "n.K.",
                "1-alt-variant": "gj"
              }
            },
            "dateFormats": {
              "full": "EEEE d MMMM y",
              "long": "d MMMM y",
              "medium": "d MMM y",
              "short": "dd-MM-yy"
            },
            "timeFormats": {
              "full": "HH:mm:ss zzzz",
              "long": "HH:mm:ss z",
              "medium": "HH:mm:ss",
              "short": "HH:mm"
            },
            "dateTimeFormats": {
              "full": "{1} {0}",
              "long": "{1} {0}",
              "medium": "{1} {0}",
              "short": "{1} {0}",
              "availableFormats": {
                "E": "ccc",
                "EHm": "E HH:mm",
                "EHms": "E HH:mm:ss",
                "Ed": "E d",
                "Ehm": "E h:mm a",
                "Ehms": "E h:mm:ss a",
                "Gy": "y G",
                "GyMMM": "MMM y G",
                "GyMMMEd": "E d MMM y G",
                "GyMMMd": "d MMM y G",
                "H": "HH",
                "Hm": "HH:mm",
                "Hms": "HH:mm:ss",
                "M": "L",
                "MEd": "E d-M",
                "MMM": "LLL",
                "MMMEd": "E d MMM",
                "MMMMd": "d MMMM",
                "MMMd": "d MMM",
                "Md": "d-M",
                "d": "d",
                "h": "h a",
                "hm": "h:mm a",
                "hms": "h:mm:ss a",
                "ms": "mm:ss",
                "y": "y",
                "yM": "M-y",
                "yMEd": "E d-M-y",
                "yMMM": "MMM y",
                "yMMMEd": "E d MMM y",
                "yMMMM": "MMMM y",
                "yMMMd": "d MMM y",
                "yMd": "d-M-y",
                "yQQQ": "QQQ y",
                "yQQQQ": "QQQQ y"
              },
              "appendItems": {
                "Day": "{0} ({2}: {1})",
                "Day-Of-Week": "{0} {1}",
                "Era": "{1} {0}",
                "Hour": "{0} ({2}: {1})",
                "Minute": "{0} ({2}: {1})",
                "Month": "{0} ({2}: {1})",
                "Quarter": "{0} ({2}: {1})",
                "Second": "{0} ({2}: {1})",
                "Timezone": "{0} {1}",
                "Week": "{0} ({2}: {1})",
                "Year": "{1} {0}"
              },
              "intervalFormats": {
                "intervalFormatFallback": "{0} - {1}",
                "H": {
                  "H": "HH-HH"
                },
                "Hm": {
                  "H": "HH:mm-HH:mm",
                  "m": "HH:mm-HH:mm"
                },
                "Hmv": {
                  "H": "HH:mm-HH:mm v",
                  "m": "HH:mm-HH:mm v"
                },
                "Hv": {
                  "H": "HH-HH v"
                },
                "M": {
                  "M": "M-M"
                },
                "MEd": {
                  "M": "E dd-MM - E dd-MM",
                  "d": "E dd-MM - E dd-MM"
                },
                "MMM": {
                  "M": "MMM-MMM"
                },
                "MMMEd": {
                  "M": "E d MMM - E d MMM",
                  "d": "E d - E d MMM"
                },
                "MMMM": {
                  "M": "MMMM–MMMM"
                },
                "MMMd": {
                  "M": "d MMM - d MMM",
                  "d": "d-d MMM"
                },
                "Md": {
                  "M": "dd-MM - dd-MM",
                  "d": "dd-MM - dd-MM"
                },
                "d": {
                  "d": "d-d"
                },
                "h": {
                  "a": "h a - h a",
                  "h": "h-h a"
                },
                "hm": {
                  "a": "h:mm a - h:mm a",
                  "h": "h:mm-h:mm a",
                  "m": "h:mm-h:mm a"
                },
                "hmv": {
                  "a": "h:mm a - h:mm a v",
                  "h": "h:mm-h:mm a v",
                  "m": "h:mm-h:mm a v"
                },
                "hv": {
                  "a": "h a - h a v",
                  "h": "h-h a v"
                },
                "y": {
                  "y": "y-y"
                },
                "yM": {
                  "M": "MM-y - MM-y",
                  "y": "MM-y - MM-y"
                },
                "yMEd": {
                  "M": "E dd-MM-y - E dd-MM-y",
                  "d": "E dd-MM-y - E dd-MM-y",
                  "y": "E dd-MM-y - E dd-MM-y"
                },
                "yMMM": {
                  "M": "MMM-MMM y",
                  "y": "MMM y - MMM y"
                },
                "yMMMEd": {
                  "M": "E d MMM - E d MMM y",
                  "d": "E d - E d MMM y",
                  "y": "E d MMM y - E d MMM y"
                },
                "yMMMM": {
                  "M": "MMMM-MMMM y",
                  "y": "MMMM y - MMMM y"
                },
                "yMMMd": {
                  "M": "d MMM - d MMM y",
                  "d": "d-d MMM y",
                  "y": "d MMM y - d MMM y"
                },
                "yMd": {
                  "M": "dd-MM-y - dd-MM-y",
                  "d": "dd-MM-y - dd-MM-y",
                  "y": "dd-MM-y - dd-MM-y"
                }
              }
            }
          }
        }
      }
    }
  }
}
