{
  "main": {
    "haw-US": {
      "identity": {
        "version": {
          "_cldrVersion": "26",
          "_number": "$Revision: 10669 $"
        },
        "generation": {
          "_date": "$Date: 2014-07-23 16:10:33 -0500 (Wed, 23 Jul 2014) $"
        },
        "language": "haw",
        "territory": "US"
      },
      "characters": {
        "exemplarCharacters": "[a ā e ē i ī o ō u ū h k l m n p w ʻ]",
        "auxiliary": "[b c d f g j q r s t v x y z]",
        "punctuation": "[\\- , ; \\: ! ? . ( ) \\[ \\] \\{ \\}]",
        "index": "[A E I O U B C D F G H J K L M N P Q R S T V W ʻ X Y Z]",
        "ellipsis": {
          "initial": "…{0}",
          "medial": "{0}…{1}",
          "final": "{0}…",
          "word-initial": "… {0}",
          "word-medial": "{0} … {1}",
          "word-final": "{0} …"
        },
        "moreInformation": "?"
      }
    }
  }
}
