{
  "main": {
    "ga-IE": {
      "identity": {
        "version": {
          "_cldrVersion": "26",
          "_number": "$Revision: 10669 $"
        },
        "generation": {
          "_date": "$Date: 2014-07-23 16:10:33 -0500 (Wed, 23 Jul 2014) $"
        },
        "language": "ga",
        "territory": "IE"
      },
      "localeDisplayNames": {
        "languages": {
          "aa": "Afáiris",
          "ab": "Abcáisis",
          "ace": "ace",
          "ach": "ach",
          "ada": "ada",
          "ady": "ady",
          "ae": "Aivéistis",
          "aeb": "aeb",
          "af": "Afracáinis",
          "afh": "afh",
          "agq": "agq",
          "ain": "Aidhniúis",
          "ak": "Acáinis",
          "akk": "Acáidis",
          "akz": "akz",
          "ale": "ale",
          "aln": "aln",
          "alt": "alt",
          "am": "Amáiris",
          "an": "Aragóinis",
          "ang": "Sean-Bhéarla",
          "anp": "anp",
          "ar": "Araibis",
          "ar-001": "Araibis Chaighdeánach",
          "arc": "Aramais",
          "arn": "Mapúitsis",
          "aro": "aro",
          "arp": "arp",
          "arq": "arq",
          "arw": "arw",
          "ary": "ary",
          "arz": "arz",
          "as": "Asaimis",
          "asa": "asa",
          "ase": "ase",
          "ast": "Astúiris",
          "av": "Aváiris",
          "avk": "avk",
          "awa": "awa",
          "ay": "Aidhmiris",
          "az": "Asarbaiseáinis",
          "az-alt-short": "az",
          "azb": "azb",
          "ba": "Baiscíris",
          "bal": "bal",
          "ban": "Bailís",
          "bar": "Baváiris",
          "bas": "bas",
          "bax": "bax",
          "bbc": "bbc",
          "bbj": "bbj",
          "be": "Bealarúisis",
          "bej": "bej",
          "bem": "Beimbis",
          "bew": "bew",
          "bez": "bez",
          "bfd": "bfd",
          "bfq": "bfq",
          "bg": "Bulgáiris",
          "bho": "bho",
          "bi": "Bioslaimis",
          "bik": "bik",
          "bin": "bin",
          "bjn": "bjn",
          "bkm": "bkm",
          "bla": "bla",
          "bm": "bm",
          "bn": "Beangáilis",
          "bo": "Tibéidis",
          "bpy": "bpy",
          "bqi": "bqi",
          "br": "Briotáinis",
          "bra": "bra",
          "brh": "brh",
          "brx": "brx",
          "bs": "Boisnis",
          "bss": "bss",
          "bua": "Buiriáitis",
          "bug": "Buiginis",
          "bum": "bum",
          "byn": "byn",
          "byv": "byv",
          "ca": "Catalóinis",
          "cad": "cad",
          "car": "car",
          "cay": "cay",
          "cch": "cch",
          "ce": "Sisinis",
          "ceb": "Seabúáinis",
          "cgg": "cgg",
          "ch": "Seamóiris",
          "chb": "chb",
          "chg": "chg",
          "chk": "chk",
          "chm": "Mairis",
          "chn": "chn",
          "cho": "cho",
          "chp": "chp",
          "chr": "Seiricis",
          "chy": "chy",
          "ckb": "ckb",
          "co": "Corsaicis",
          "cop": "Coptais",
          "cps": "cps",
          "cr": "Craís",
          "crh": "crh",
          "cs": "Seicis",
          "csb": "Caisiúibis",
          "cu": "Slavais na hEaglaise",
          "cv": "Suvaisis",
          "cy": "Breatnais",
          "da": "Danmhairgis",
          "dak": "dak",
          "dar": "dar",
          "dav": "dav",
          "de": "Gearmáinis",
          "de-AT": "Gearmáinis Ostarach",
          "de-CH": "Ard-Ghearmáinis Eilvéiseach",
          "del": "del",
          "den": "den",
          "dgr": "dgr",
          "din": "din",
          "dje": "Zarmais",
          "doi": "doi",
          "dsb": "Sorbais Íochtarach",
          "dtp": "dtp",
          "dua": "dua",
          "dum": "Meán-Ollainnis",
          "dv": "Divéihis",
          "dyo": "dyo",
          "dyu": "dyu",
          "dz": "Seoinicis",
          "dzg": "dzg",
          "ebu": "ebu",
          "ee": "ee",
          "efi": "efi",
          "egl": "egl",
          "egy": "Sean-Éigiptis",
          "eka": "eka",
          "el": "Gréigis",
          "elx": "elx",
          "en": "Béarla",
          "en-AU": "Béarla Astrálach",
          "en-CA": "Béarla Ceanadach",
          "en-GB": "Béarla Briotanach",
          "en-GB-alt-short": "Béarla na R.A.",
          "en-US": "Béarla Meiriceánach",
          "en-US-alt-short": "Béarla S.A.M.",
          "enm": "Meán-Bhéarla",
          "eo": "Esperanto",
          "es": "Spáinnis",
          "es-419": "Spáinnis Mheiriceá Laidinigh",
          "es-ES": "Spáinnis Eorpach",
          "es-MX": "Spáinnis Mheicsiceach",
          "esu": "esu",
          "et": "Eastóinis",
          "eu": "Bascais",
          "ewo": "ewo",
          "ext": "ext",
          "fa": "Peirsis",
          "fan": "fan",
          "fat": "fat",
          "ff": "Fuláinis",
          "fi": "Fionlainnis",
          "fil": "Filipínis",
          "fit": "fit",
          "fj": "Fidsis",
          "fo": "Faróis",
          "fon": "fon",
          "fr": "Fraincis",
          "fr-CA": "Fraincis Cheanadach",
          "fr-CH": "Fraincis Eilvéiseach",
          "frc": "frc",
          "frm": "Meán-Fhraincis",
          "fro": "Sean-Fhraincis",
          "frp": "frp",
          "frr": "Freaslainnis an Tuaiscirt",
          "frs": "frs",
          "fur": "Friúilis",
          "fy": "Freaslainnis Iartharach",
          "ga": "Gaeilge",
          "gaa": "gaa",
          "gag": "gag",
          "gan": "gan",
          "gay": "gay",
          "gba": "gba",
          "gbz": "gbz",
          "gd": "Gaeilge na hAlban",
          "gez": "Aetóipis",
          "gil": "gil",
          "gl": "Gailísis",
          "glk": "glk",
          "gmh": "Meán-Ard-Ghearmáinis",
          "gn": "Guaráinis",
          "goh": "Sean-Ard-Ghearmáinis",
          "gom": "gom",
          "gon": "gon",
          "gor": "gor",
          "got": "got",
          "grb": "grb",
          "grc": "Sean-Ghréigis",
          "gsw": "Gearmáinis Eilvéiseach",
          "gu": "Gúisearáitis",
          "guc": "Uaúis",
          "gur": "gur",
          "guz": "guz",
          "gv": "Manainnis",
          "gwi": "gwi",
          "ha": "Hásais",
          "hai": "hai",
          "hak": "Haicéis",
          "haw": "Haváis",
          "he": "Eabhrais",
          "hi": "Hiondúis",
          "hif": "Hiondúis Fhidsí",
          "hil": "Hilgeanóinis",
          "hit": "Hitis",
          "hmn": "Mongais",
          "ho": "Motúis Hírí",
          "hr": "Cróitis",
          "hsb": "Sorbais Uachtarach",
          "hsn": "hsn",
          "ht": "Criól Háítíoch",
          "hu": "Ungáiris",
          "hup": "Húipis",
          "hy": "Airméinis",
          "hz": "Heiréiris",
          "ia": "Interlingua",
          "iba": "iba",
          "ibb": "Ibibis",
          "id": "Indinéisis",
          "ie": "Interlingue",
          "ig": "Íogbóis",
          "ii": "ii",
          "ik": "Iniúipiaicis",
          "ilo": "ilo",
          "inh": "Iongúis",
          "io": "Ido",
          "is": "Íoslainnis",
          "it": "Iodáilis",
          "iu": "Ionúitis",
          "izh": "izh",
          "ja": "Seapáinis",
          "jam": "jam",
          "jbo": "jbo",
          "jgo": "jgo",
          "jmc": "jmc",
          "jpr": "jpr",
          "jrb": "jrb",
          "jut": "Iútlainnis",
          "jv": "Iáivis",
          "ka": "Seoirsis",
          "kaa": "Cara-Chalpáis",
          "kab": "kab",
          "kac": "kac",
          "kaj": "kaj",
          "kam": "kam",
          "kaw": "kaw",
          "kbd": "kbd",
          "kbl": "kbl",
          "kcg": "kcg",
          "kde": "kde",
          "kea": "kea",
          "ken": "ken",
          "kfo": "kfo",
          "kg": "Congóis",
          "kgp": "kgp",
          "kha": "kha",
          "kho": "kho",
          "khq": "khq",
          "khw": "khw",
          "ki": "Ciocúis",
          "kiu": "kiu",
          "kj": "Cuainiáimis",
          "kk": "Casaicis",
          "kkj": "kkj",
          "kl": "Kalaallisut",
          "kln": "kln",
          "km": "Ciméiris",
          "kmb": "kmb",
          "kn": "Cannadais",
          "ko": "Cóiréis",
          "koi": "koi",
          "kok": "Concáinis",
          "kos": "kos",
          "kpe": "kpe",
          "kr": "Canúiris",
          "krc": "krc",
          "kri": "kri",
          "krj": "krj",
          "krl": "Cairéilis",
          "kru": "Curúicis",
          "ks": "Caismíris",
          "ksb": "ksb",
          "ksf": "ksf",
          "ksh": "ksh",
          "ku": "Coirdis",
          "kum": "kum",
          "kut": "kut",
          "kv": "Coimis",
          "kw": "Coirnis",
          "ky": "Cirgisis",
          "la": "Laidin",
          "lad": "Laidínis",
          "lag": "lag",
          "lah": "Puinseáibis Iartharach",
          "lam": "lam",
          "lb": "Lucsambuirgis",
          "lez": "lez",
          "lfn": "lfn",
          "lg": "Lugandais",
          "li": "li",
          "lij": "Liogúiris",
          "liv": "Liovóinis",
          "lkt": "lkt",
          "lmo": "Lombairdis",
          "ln": "Liongáilis",
          "lo": "Laoisis",
          "lol": "lol",
          "loz": "loz",
          "lt": "Liotuáinis",
          "ltg": "ltg",
          "lu": "Lúba-Cataingis",
          "lua": "lua",
          "lui": "lui",
          "lun": "lun",
          "luo": "luo",
          "lus": "lus",
          "luy": "luy",
          "lv": "Laitvis",
          "lzh": "lzh",
          "lzz": "lzz",
          "mad": "mad",
          "maf": "maf",
          "mag": "mag",
          "mai": "mai",
          "mak": "mak",
          "man": "man",
          "mas": "mas",
          "mde": "mde",
          "mdf": "mdf",
          "mdr": "mdr",
          "men": "Meindis",
          "mer": "mer",
          "mfe": "mfe",
          "mg": "Malagáisis",
          "mga": "Meán-Ghaeilge",
          "mgh": "mgh",
          "mgo": "mgo",
          "mh": "Mairsillis",
          "mi": "Maorais",
          "mic": "mic",
          "min": "min",
          "mk": "Macadóinis",
          "ml": "Mailéalaimis",
          "mn": "Mongóilis",
          "mnc": "mnc",
          "mni": "Manapúiris",
          "moh": "Móháicis",
          "mos": "mos",
          "mr": "Maraitis",
          "mrj": "Mairis Iartharach",
          "ms": "Malaeis",
          "mt": "Máltais",
          "mua": "mua",
          "mul": "mul",
          "mus": "mus",
          "mwl": "Mioraindéis",
          "mwr": "Marmhairis",
          "mwv": "mwv",
          "my": "Burmais",
          "mye": "mye",
          "myv": "myv",
          "mzn": "mzn",
          "na": "Nárúis",
          "nan": "nan",
          "nap": "nap",
          "naq": "naq",
          "nb": "Ioruais Bokmål",
          "nd": "Ndeibéilis an Tuaiscirt",
          "nds": "Gearmáinis Íochtarach",
          "ne": "Neipeailis",
          "new": "new",
          "ng": "Ndongais",
          "nia": "nia",
          "niu": "Níobhais",
          "njo": "njo",
          "nl": "Ollainnis",
          "nl-BE": "Pléimeannais",
          "nmg": "nmg",
          "nn": "Nua-Ioruais",
          "nnh": "nnh",
          "no": "Ioruais",
          "nog": "nog",
          "non": "Sean-Lochlainnis",
          "nov": "nov",
          "nqo": "nqo",
          "nr": "Ndeibéilis an Deiscirt",
          "nso": "Sútúis an Tuaiscirt",
          "nus": "nus",
          "nv": "Navachóis",
          "nwc": "nwc",
          "ny": "Siséivis",
          "nym": "nym",
          "nyn": "nyn",
          "nyo": "nyo",
          "nzi": "nzi",
          "oc": "Ocsatáinis",
          "oj": "Óisibis",
          "om": "Oraimis",
          "or": "Oirísis",
          "os": "Oiséitis",
          "osa": "osa",
          "ota": "ota",
          "pa": "Puinseáibis",
          "pag": "pag",
          "pal": "pal",
          "pam": "pam",
          "pap": "pap",
          "pau": "pau",
          "pcd": "pcd",
          "pdc": "pdc",
          "pdt": "pdt",
          "peo": "Sean-Pheirsis",
          "pfl": "pfl",
          "phn": "phn",
          "pi": "Páilis",
          "pl": "Polainnis",
          "pms": "pms",
          "pnt": "pnt",
          "pon": "pon",
          "prg": "Prúisis",
          "pro": "pro",
          "ps": "Paistis",
          "pt": "Portaingéilis",
          "pt-BR": "Portaingéilis na Brasaíle",
          "pt-PT": "Portaingéilis Ibéarach",
          "qu": "Ceatsuais",
          "quc": "quc",
          "qug": "qug",
          "raj": "raj",
          "rap": "rap",
          "rar": "rar",
          "rgn": "rgn",
          "rif": "rif",
          "rm": "Rómainis",
          "rn": "Rúindis",
          "ro": "Rómáinis",
          "ro-MD": "Moldáivis",
          "rof": "rof",
          "rom": "Romainis",
          "root": "root",
          "rtm": "rtm",
          "ru": "Rúisis",
          "rue": "rue",
          "rug": "rug",
          "rup": "Arómáinis",
          "rw": "Ciniaruaindis",
          "rwk": "rwk",
          "sa": "Sanscrait",
          "sad": "sad",
          "sah": "Sachais",
          "sam": "Aramais Shamárach",
          "saq": "saq",
          "sas": "sas",
          "sat": "Santáilis",
          "saz": "saz",
          "sba": "sba",
          "sbp": "sbp",
          "sc": "Sairdínis",
          "scn": "Sicilis",
          "sco": "Albainis",
          "sd": "Sindis",
          "sdc": "sdc",
          "se": "Sáimis Thuaidh",
          "see": "see",
          "seh": "seh",
          "sei": "sei",
          "sel": "sel",
          "ses": "ses",
          "sg": "Sangóis",
          "sga": "Sean-Ghaeilge",
          "sgs": "sgs",
          "sh": "Seirbea-Chróitis",
          "shi": "shi",
          "shn": "shn",
          "shu": "shu",
          "si": "Siolóinis",
          "sid": "sid",
          "sk": "Slóvaicis",
          "sl": "Slóivéinis",
          "sli": "sli",
          "sly": "sly",
          "sm": "Samóis",
          "sma": "sma",
          "smj": "Sáimis Lule",
          "smn": "smn",
          "sms": "sms",
          "sn": "Seoinis",
          "snk": "snk",
          "so": "Somáilis",
          "sog": "Sogdánais",
          "sq": "Albáinis",
          "sr": "Seirbis",
          "srn": "srn",
          "srr": "srr",
          "ss": "Suaisis",
          "ssy": "ssy",
          "st": "Seasóitis",
          "stq": "stq",
          "su": "Sundais",
          "suk": "suk",
          "sus": "sus",
          "sux": "Suiméiris",
          "sv": "Sualainnis",
          "sw": "Svahaílis",
          "swb": "swb",
          "swc": "Svahaílis an Chongó",
          "syc": "syc",
          "syr": "Siricis",
          "szl": "Siléisis",
          "ta": "Tamailis",
          "tcy": "tcy",
          "te": "Teileagúis",
          "tem": "tem",
          "teo": "teo",
          "ter": "ter",
          "tet": "tet",
          "tg": "Táidsícis",
          "th": "Téalainnis",
          "ti": "Tigrinis",
          "tig": "tig",
          "tiv": "tiv",
          "tk": "Tuircméinis",
          "tkl": "tkl",
          "tkr": "tkr",
          "tl": "Tagálaigis",
          "tlh": "Klingon",
          "tli": "tli",
          "tly": "tly",
          "tmh": "tmh",
          "tn": "Suáinis",
          "to": "Tongais",
          "tog": "tog",
          "tpi": "tpi",
          "tr": "Tuircis",
          "tru": "tru",
          "trv": "trv",
          "ts": "Songais",
          "tsd": "tsd",
          "tsi": "tsi",
          "tt": "Tatairis",
          "ttt": "ttt",
          "tum": "tum",
          "tvl": "tvl",
          "tw": "Tíbhis",
          "twq": "twq",
          "ty": "Taihítis",
          "tyv": "tyv",
          "tzm": "tzm",
          "udm": "Udmairtis",
          "ug": "Uigiúiris",
          "uga": "uga",
          "uk": "Úcráinis",
          "umb": "umb",
          "und": "Teanga Anaithnid",
          "ur": "Urdúis",
          "uz": "Úisbéiceastáinis",
          "vai": "vai",
          "ve": "Veindis",
          "vec": "Veinéisis",
          "vep": "vep",
          "vi": "Vítneaimis",
          "vls": "Pléimeannais Iartharach",
          "vmf": "vmf",
          "vo": "Volapük",
          "vot": "vot",
          "vro": "vro",
          "vun": "vun",
          "wa": "Vallúnais",
          "wae": "wae",
          "wal": "wal",
          "war": "war",
          "was": "was",
          "wo": "Volaifis",
          "wuu": "wuu",
          "xal": "Cailmícis",
          "xh": "Cóisis",
          "xmf": "xmf",
          "xog": "xog",
          "yao": "yao",
          "yap": "yap",
          "yav": "yav",
          "ybb": "ybb",
          "yi": "Giúdais",
          "yo": "Iarúibis",
          "yrl": "yrl",
          "yue": "Cantainis",
          "za": "Siuáingis",
          "zap": "zap",
          "zbl": "zbl",
          "zea": "Séalainnis",
          "zen": "zen",
          "zgh": "zgh",
          "zh": "Sínis",
          "zh-Hans": "Sínis Shimplithe",
          "zh-Hant": "Sínis Thraidisiúnta",
          "zu": "Súlúis",
          "zun": "Zúinis",
          "zxx": "Gan ábhar teangeolaíoch",
          "zza": "zza"
        }
      }
    }
  }
}
