{
  "main": {
    "pa-Guru-IN": {
      "identity": {
        "version": {
          "_cldrVersion": "26",
          "_number": "$Revision: 10669 $"
        },
        "generation": {
          "_date": "$Date: 2014-07-23 16:10:33 -0500 (Wed, 23 Jul 2014) $"
        },
        "language": "pa",
        "script": "Guru",
        "territory": "IN"
      },
      "dates": {
        "calendars": {
          "islamic-civil": {
            "months": {
              "format": {
                "abbreviated": {
                  "1": "Muh.",
                  "2": "Saf.",
                  "3": "Rab. I",
                  "4": "Rab. II",
                  "5": "Jum. I",
                  "6": "Jum. II",
                  "7": "Raj.",
                  "8": "Sha.",
                  "9": "Ram.",
                  "10": "Shaw.",
                  "11": "Dhuʻl-Q.",
                  "12": "Dhuʻl-H."
                },
                "narrow": {
                  "1": "1",
                  "2": "2",
                  "3": "3",
                  "4": "4",
                  "5": "5",
                  "6": "6",
                  "7": "7",
                  "8": "8",
                  "9": "9",
                  "10": "10",
                  "11": "11",
                  "12": "12"
                },
                "wide": {
                  "1": "Muharram",
                  "2": "Safar",
                  "3": "Rabiʻ I",
                  "4": "Rabiʻ II",
                  "5": "Jumada I",
                  "6": "Jumada II",
                  "7": "Rajab",
                  "8": "Shaʻban",
                  "9": "Ramadan",
                  "10": "Shawwal",
                  "11": "Dhuʻl-Qiʻdah",
                  "12": "Dhuʻl-Hijjah"
                }
              },
              "stand-alone": {
                "abbreviated": {
                  "1": "Muh.",
                  "2": "Saf.",
                  "3": "Rab. I",
                  "4": "Rab. II",
                  "5": "Jum. I",
                  "6": "Jum. II",
                  "7": "Raj.",
                  "8": "Sha.",
                  "9": "Ram.",
                  "10": "Shaw.",
                  "11": "Dhuʻl-Q.",
                  "12": "Dhuʻl-H."
                },
                "narrow": {
                  "1": "1",
                  "2": "2",
                  "3": "3",
                  "4": "4",
                  "5": "5",
                  "6": "6",
                  "7": "7",
                  "8": "8",
                  "9": "9",
                  "10": "10",
                  "11": "11",
                  "12": "12"
                },
                "wide": {
                  "1": "Muharram",
                  "2": "Safar",
                  "3": "Rabiʻ I",
                  "4": "Rabiʻ II",
                  "5": "Jumada I",
                  "6": "Jumada II",
                  "7": "Rajab",
                  "8": "Shaʻban",
                  "9": "Ramadan",
                  "10": "Shawwal",
                  "11": "Dhuʻl-Qiʻdah",
                  "12": "Dhuʻl-Hijjah"
                }
              }
            },
            "days": {
              "format": {
                "abbreviated": {
                  "sun": "ਐਤ",
                  "mon": "ਸੋਮ",
                  "tue": "ਮੰਗਲ",
                  "wed": "ਬੁੱਧ",
                  "thu": "ਵੀਰ",
                  "fri": "ਸ਼ੁੱਕਰ",
                  "sat": "ਸ਼ਨਿੱਚਰ"
                },
                "narrow": {
                  "sun": "ਐ",
                  "mon": "ਸੋ",
                  "tue": "ਮੰ",
                  "wed": "ਬੁੱ",
                  "thu": "ਵੀ",
                  "fri": "ਸ਼ੁੱ",
                  "sat": "ਸ਼"
                },
                "short": {
                  "sun": "ਐਤ",
                  "mon": "ਸੋਮ",
                  "tue": "ਮੰਗ",
                  "wed": "ਬੁੱਧ",
                  "thu": "ਵੀਰ",
                  "fri": "ਸ਼ੁੱਕ",
                  "sat": "ਸ਼ਨਿੱ"
                },
                "wide": {
                  "sun": "ਐਤਵਾਰ",
                  "mon": "ਸੋਮਵਾਰ",
                  "tue": "ਮੰਗਲਵਾਰ",
                  "wed": "ਬੁੱਧਵਾਰ",
                  "thu": "ਵੀਰਵਾਰ",
                  "fri": "ਸ਼ੁੱਕਰਵਾਰ",
                  "sat": "ਸ਼ਨਿੱਚਰਵਾਰ"
                }
              },
              "stand-alone": {
                "abbreviated": {
                  "sun": "ਐਤ",
                  "mon": "ਸੋਮ",
                  "tue": "ਮੰਗਲ",
                  "wed": "ਬੁੱਧ",
                  "thu": "ਵੀਰ",
                  "fri": "ਸ਼ੁੱਕਰ",
                  "sat": "ਸ਼ਨਿੱਚਰ"
                },
                "narrow": {
                  "sun": "ਐ",
                  "mon": "ਸੋ",
                  "tue": "ਮੰ",
                  "wed": "ਬੁੱ",
                  "thu": "ਵੀ",
                  "fri": "ਸ਼ੁੱ",
                  "sat": "ਸ਼"
                },
                "short": {
                  "sun": "ਐਤ",
                  "mon": "ਸੋਮ",
                  "tue": "ਮੰਗ",
                  "wed": "ਬੁੱਧ",
                  "thu": "ਵੀਰ",
                  "fri": "ਸ਼ੁੱਕ",
                  "sat": "ਸ਼ਨਿੱ"
                },
                "wide": {
                  "sun": "ਐਤਵਾਰ",
                  "mon": "ਸੋਮਵਾਰ",
                  "tue": "ਮੰਗਲਵਾਰ",
                  "wed": "ਬੁੱਧਵਾਰ",
                  "thu": "ਵੀਰਵਾਰ",
                  "fri": "ਸ਼ੁੱਕਰਵਾਰ",
                  "sat": "ਸ਼ਨਿੱਚਰਵਾਰ"
                }
              }
            },
            "quarters": {
              "format": {
                "abbreviated": {
                  "1": "ਤਿਮਾਹੀ1",
                  "2": "ਤਿਮਾਹੀ2",
                  "3": "ਤਿਮਾਹੀ3",
                  "4": "ਤਿਮਾਹੀ4"
                },
                "narrow": {
                  "1": "1",
                  "2": "2",
                  "3": "3",
                  "4": "4"
                },
                "wide": {
                  "1": "ਪਹਿਲੀ ਤਿਮਾਹੀ",
                  "2": "ਦੂਜੀ ਤਿਮਾਹੀ",
                  "3": "ਤੀਜੀ ਤਿਮਾਹੀ",
                  "4": "ਚੌਥੀ ਤਿਮਾਹੀ"
                }
              },
              "stand-alone": {
                "abbreviated": {
                  "1": "ਤਿਮਾਹੀ1",
                  "2": "ਤਿਮਾਹੀ2",
                  "3": "ਤਿਮਾਹੀ3",
                  "4": "ਤਿਮਾਹੀ4"
                },
                "narrow": {
                  "1": "1",
                  "2": "2",
                  "3": "3",
                  "4": "4"
                },
                "wide": {
                  "1": "ਪਹਿਲੀ ਤਿਮਾਹੀ",
                  "2": "ਦੂਜੀ ਤਿਮਾਹੀ",
                  "3": "ਤੀਜੀ ਤਿਮਾਹੀ",
                  "4": "ਚੌਥੀ ਤਿਮਾਹੀ"
                }
              }
            },
            "dayPeriods": {
              "format": {
                "abbreviated": {
                  "am": "ਪੂ.ਦੁ.",
                  "noon": "ਦੁਪਹਿਰ",
                  "pm": "ਬਾ.ਦੁ."
                },
                "narrow": {
                  "am": "ਸ.",
                  "noon": "ਦੁ.",
                  "pm": "ਸ਼."
                },
                "wide": {
                  "am": "ਪੂ.ਦੁ.",
                  "noon": "ਦੁਪਹਿਰ",
                  "pm": "ਬਾ.ਦੁ."
                }
              },
              "stand-alone": {
                "abbreviated": {
                  "am": "ਪੂ.ਦੁ.",
                  "noon": "ਦੁਪਹਿਰ",
                  "pm": "ਬਾ.ਦੁ."
                },
                "narrow": {
                  "am": "ਸ.",
                  "noon": "ਦੁ.",
                  "pm": "ਸ਼."
                },
                "wide": {
                  "am": "ਪੂ.ਦੁ.",
                  "noon": "ਦੁਪਹਿਰ",
                  "pm": "ਬਾ.ਦੁ."
                }
              }
            },
            "eras": {
              "eraNames": {
                "0": "AH"
              },
              "eraAbbr": {
                "0": "AH"
              },
              "eraNarrow": {
                "0": "AH"
              }
            },
            "dateFormats": {
              "full": "EEEE, dd MMMM y G",
              "long": "d MMMM y G",
              "medium": "d MMM y G",
              "short": "dd/MM/y GGGGG"
            },
            "timeFormats": {
              "full": "h:mm:ss a zzzz",
              "long": "h:mm:ss a z",
              "medium": "h:mm:ss a",
              "short": "h:mm a"
            },
            "dateTimeFormats": {
              "full": "{1} {0}",
              "long": "{1} {0}",
              "medium": "{1}, {0}",
              "short": "{1}, {0}",
              "availableFormats": {
                "E": "ccc",
                "EHm": "E HH:mm",
                "EHms": "E HH:mm:ss",
                "Ed": "E, d",
                "Ehm": "E h:mm a",
                "Ehms": "E h:mm:ss a",
                "Gy": "G y",
                "GyMMM": "MMM y G",
                "GyMMMEd": "E, d MMM y G",
                "GyMMMd": "d MMM,y G",
                "H": "HH",
                "HHmmss": "HH:mm:ss",
                "Hm": "HH:mm",
                "Hms": "HH:mm:ss",
                "M": "L",
                "MEd": "E, d/M",
                "MMM": "LLL",
                "MMMEd": "E, d MMM",
                "MMMd": "d MMM",
                "Md": "d/M",
                "d": "d",
                "h": "h a",
                "hm": "h:mm a",
                "hms": "h:mm:ss a",
                "mmss": "mm:ss",
                "ms": "mm:ss",
                "y": "y G",
                "yMMM": "MMM y G",
                "yQQQ": "QQQ y G",
                "yyyy": "y G",
                "yyyyM": "M/y GGGGG",
                "yyyyMEd": "E, d/M/y GGGGG",
                "yyyyMMM": "MMM y G",
                "yyyyMMMEd": "E, d MMM y G",
                "yyyyMMMd": "d MMM y G",
                "yyyyMd": "d/M/y GGGGG",
                "yyyyQQQ": "QQQ y G",
                "yyyyQQQQ": "QQQQ y G"
              },
              "appendItems": {
                "Day": "{0} ({2}: {1})",
                "Day-Of-Week": "{0} {1}",
                "Era": "{1} {0}",
                "Hour": "{0} ({2}: {1})",
                "Minute": "{0} ({2}: {1})",
                "Month": "{0} ({2}: {1})",
                "Quarter": "{0} ({2}: {1})",
                "Second": "{0} ({2}: {1})",
                "Timezone": "{0} {1}",
                "Week": "{0} ({2}: {1})",
                "Year": "{1} {0}"
              },
              "intervalFormats": {
                "intervalFormatFallback": "{0} – {1}",
                "H": {
                  "H": "HH–HH"
                },
                "Hm": {
                  "H": "HH:mm–HH:mm",
                  "m": "HH:mm–HH:mm"
                },
                "Hmv": {
                  "H": "HH:mm–HH:mm v",
                  "m": "HH:mm–HH:mm v"
                },
                "Hv": {
                  "H": "HH–HH v"
                },
                "M": {
                  "M": "MM–MM"
                },
                "MEd": {
                  "M": "E, d/M – E, d/M",
                  "d": "E, d/M – E, d/M"
                },
                "MMM": {
                  "M": "MMM – MMM"
                },
                "MMMEd": {
                  "M": "E, d MMM – E, d MMM",
                  "d": "E, d MMM – E, d MMM"
                },
                "MMMd": {
                  "M": "d MMM – d MMM",
                  "d": "d – d MMM"
                },
                "Md": {
                  "M": "d/M – d/M",
                  "d": "d/M – d/M"
                },
                "d": {
                  "d": "d – d"
                },
                "h": {
                  "a": "h a – h a",
                  "h": "h–h a"
                },
                "hm": {
                  "a": "h:mm a – h:mm a",
                  "h": "h:mm–h:mm a",
                  "m": "h:mm–h:mm a"
                },
                "hmv": {
                  "a": "h:mm a – h:mm a v",
                  "h": "h:mm–h:mm a v",
                  "m": "h:mm–h:mm a v"
                },
                "hv": {
                  "a": "h a – h a v",
                  "h": "h–h a v"
                },
                "y": {
                  "y": "y – y G"
                },
                "yM": {
                  "M": "M/y – M/y GGGGG",
                  "y": "M/y – M/y GGGGG"
                },
                "yMEd": {
                  "M": "E, d/M/y – E, d/M/y GGGGG",
                  "d": "E, d/M/y – E, d/M/y GGGGG",
                  "y": "E, d/M/y – E, d/M/y GGGGG"
                },
                "yMMM": {
                  "M": "MMM – MMM y G",
                  "y": "MMM y – MMM y G"
                },
                "yMMMEd": {
                  "M": "E, d MMM – E, d MMM y G",
                  "d": "E, d MMM – E, d MMM y G",
                  "y": "E, d MMM – E, d MMM y G"
                },
                "yMMMM": {
                  "M": "MMMM – MMMM y G",
                  "y": "MMMM y – MMMM y G"
                },
                "yMMMd": {
                  "M": "d MMM – d MMM y G",
                  "d": "d - d, MMM y G",
                  "y": "d, MMM – d, MMM y G"
                },
                "yMd": {
                  "M": "d/M/y – d/M/y GGGGG",
                  "d": "d/M/y – d/M/y GGGGG",
                  "y": "d/M/y – d/M/y GGGGG"
                }
              }
            }
          }
        }
      }
    }
  }
}
