{
  "main": {
    "fi-FI": {
      "identity": {
        "version": {
          "_cldrVersion": "26",
          "_number": "$Revision: 10669 $"
        },
        "generation": {
          "_date": "$Date: 2014-07-23 16:10:33 -0500 (Wed, 23 Jul 2014) $"
        },
        "language": "fi",
        "territory": "FI"
      },
      "characters": {
        "exemplarCharacters": "[a b c d e f g h i j k l m n o p q r s š t u v w x y z ž å ä ö]",
        "auxiliary": "[á à ă â ã ą ā ć č ċ ç ď ð đ é è ê ě ë ė ę ē ğ ǧ ģ ǥ ȟ ħ í î ï İ į ī ı ǩ ķ ĺ ľ ļ ł ń ň ñ ņ ŋ ó ò ô ő õ œ ŕ ř ś ŝ ş ß ť ţ ŧ ú ù û ů ű ų ū ý ÿ ü ź ż ʒ ǯ þ æ ø]",
        "punctuation": "[‐ – , ; \\: ! ? . … ’ ” » ( ) \\[ \\] § @ * / \\\\ \\& #]",
        "index": "[A B C D E F G H I J K L M N O P Q R S T U V W X Y Z Å Ä Ö]",
        "ellipsis": {
          "initial": "…{0}",
          "medial": "{0}…{1}",
          "final": "{0}…",
          "word-initial": "…{0}",
          "word-medial": "{0}… {1}",
          "word-final": "{0}…"
        },
        "moreInformation": "?"
      }
    }
  }
}
