{
  "main": {
    "cy": {
      "identity": {
        "version": {
          "_cldrVersion": "26",
          "_number": "$Revision: 10780 $"
        },
        "generation": {
          "_date": "$Date: 2014-08-13 03:37:28 -0500 (Wed, 13 Aug 2014) $"
        },
        "language": "cy"
      },
      "layout": {
        "orientation": {
          "characterOrder": "left-to-right",
          "lineOrder": "top-to-bottom"
        }
      }
    }
  }
}
