{
  "main": {
    "gd": {
      "identity": {
        "version": {
          "_cldrVersion": "26",
          "_number": "$Revision: 10809 $"
        },
        "generation": {
          "_date": "$Date: 2014-08-14 15:10:07 -0500 (Thu, 14 Aug 2014) $"
        },
        "language": "gd"
      },
      "localeDisplayNames": {
        "scripts": {
          "Afak": "Afak",
          "Aghb": "Albàinis Chabhcasach",
          "Arab": "Arabais",
          "Armi": "Aramais impireil",
          "Armn": "Airmeinis",
          "Avst": "Avestanais",
          "Bali": "Bali",
          "Bamu": "Bamu",
          "Bass": "Bass",
          "Batk": "Batk",
          "Beng": "Beangailis",
          "Blis": "Blis",
          "Bopo": "Bopomofo",
          "Brah": "Brah",
          "Brai": "Braille",
          "Bugi": "Bugi",
          "Buhd": "Buhd",
          "Cakm": "Cakm",
          "Cans": "Sgrìobhadh Lideach Aonaichte nan Tùsanach Canadach",
          "Cari": "Cari",
          "Cham": "Cham",
          "Cher": "Cher",
          "Cirt": "Cirt",
          "Copt": "Coptais",
          "Cprt": "Cìoprasais",
          "Cyrl": "Cirilis",
          "Cyrs": "Cirilis Seann-Slàbhais na h-Eaglaise",
          "Deva": "Devanagari",
          "Dsrt": "Dsrt",
          "Dupl": "Dupl",
          "Egyd": "Egyd",
          "Egyh": "Egyh",
          "Egyp": "Sealbh-sgrìobhadh Èipheiteach",
          "Elba": "Elba",
          "Ethi": "Ge’ez",
          "Geok": "Geok",
          "Geor": "Cairtbheilis",
          "Glag": "Glag",
          "Goth": "Gotais",
          "Gran": "Gran",
          "Grek": "Greugais",
          "Gujr": "Gujarati",
          "Guru": "Gurmukhi",
          "Hang": "Hangul",
          "Hani": "Han",
          "Hano": "Hano",
          "Hans": "Simplichte",
          "Hans-alt-stand-alone": "Han simplichte",
          "Hant": "Tradaiseanta",
          "Hant-alt-stand-alone": "Han tradaiseanta",
          "Hebr": "Eabhra",
          "Hira": "Hiragana",
          "Hluw": "Dealbh-sgrìobhadh Anatolach",
          "Hmng": "Hmng",
          "Hrkt": "Katakana no Hiragana",
          "Hung": "Seann-Ungarais",
          "Inds": "Inds",
          "Ital": "Seann-Eadailtis",
          "Java": "Deàbhanais",
          "Jpan": "Seapanais",
          "Jurc": "Jurc",
          "Kali": "Kali",
          "Kana": "Katakana",
          "Khar": "Khar",
          "Khmr": "Cmèar",
          "Khoj": "Khoj",
          "Knda": "Kannada",
          "Kore": "Coirèanais",
          "Kpel": "Kpel",
          "Kthi": "Kthi",
          "Lana": "Lana",
          "Laoo": "Làtho",
          "Latf": "Laideann fraktur",
          "Latg": "Laideann Ghàidhealach",
          "Latn": "Laideann",
          "Lepc": "Lepc",
          "Limb": "Limb",
          "Lina": "Lina",
          "Linb": "Linb",
          "Lisu": "Lisu",
          "Loma": "Loma",
          "Lyci": "Lyci",
          "Lydi": "Lydi",
          "Mahj": "Mahj",
          "Mand": "Mand",
          "Mani": "Mani",
          "Maya": "Dealbh-sgrìobhadh Mayach",
          "Mend": "Mend",
          "Merc": "Merc",
          "Mero": "Mero",
          "Mlym": "Malayalam",
          "Modi": "Modi",
          "Mong": "Mongolais",
          "Moon": "Moon",
          "Mroo": "Mroo",
          "Mtei": "Mtei",
          "Mymr": "Miànmar",
          "Narb": "Seann-Arabach Thuathach",
          "Nbat": "Nbat",
          "Nkgb": "Nkgb",
          "Nkoo": "Nkoo",
          "Nshu": "Nshu",
          "Ogam": "Ogham-chraobh",
          "Olck": "Olck",
          "Orkh": "Orkh",
          "Orya": "Oriya",
          "Osma": "Osma",
          "Palm": "Palm",
          "Pauc": "Pauc",
          "Perm": "Perm",
          "Phag": "Phag",
          "Phli": "Phli",
          "Phlp": "Phlp",
          "Phlv": "Phlv",
          "Phnx": "Phnx",
          "Plrd": "Plrd",
          "Prti": "Partais snaidh-sgrìobhte",
          "Qaaa": "Qaaa",
          "Qaab": "Qaab",
          "Qaac": "Qaac",
          "Qaad": "Qaad",
          "Qaae": "Qaae",
          "Qaaf": "Qaaf",
          "Qaag": "Qaag",
          "Qaah": "Qaah",
          "Qaaj": "Qaaj",
          "Qaak": "Qaak",
          "Qaal": "Qaal",
          "Qaam": "Qaam",
          "Qaan": "Qaan",
          "Qaao": "Qaao",
          "Qaap": "Qaap",
          "Qaaq": "Qaaq",
          "Qaar": "Qaar",
          "Qaas": "Qaas",
          "Qaat": "Qaat",
          "Qaau": "Qaau",
          "Qaav": "Qaav",
          "Qaaw": "Qaaw",
          "Qaax": "Qaax",
          "Qaay": "Qaay",
          "Qaaz": "Qaaz",
          "Qaba": "Qaba",
          "Qabb": "Qabb",
          "Qabc": "Qabc",
          "Qabd": "Qabd",
          "Qabe": "Qabe",
          "Qabf": "Qabf",
          "Qabg": "Qabg",
          "Qabh": "Qabh",
          "Qabi": "Qabi",
          "Qabj": "Qabj",
          "Qabk": "Qabk",
          "Qabl": "Qabl",
          "Qabm": "Qabm",
          "Qabn": "Qabn",
          "Qabo": "Qabo",
          "Qabp": "Qabp",
          "Qabq": "Qabq",
          "Qabr": "Qabr",
          "Qabs": "Qabs",
          "Qabt": "Qabt",
          "Qabu": "Qabu",
          "Qabv": "Qabv",
          "Qabw": "Qabw",
          "Qabx": "Qabx",
          "Rjng": "Rjng",
          "Roro": "Roro",
          "Runr": "Rùn-sgrìobhadh",
          "Samr": "Samr",
          "Sara": "Sara",
          "Sarb": "Seann-Arabais Dheasach",
          "Saur": "Saur",
          "Sgnw": "Sgnw",
          "Shaw": "Shaw",
          "Shrd": "Shrd",
          "Sidd": "Sidd",
          "Sind": "Sind",
          "Sinh": "Sinealais",
          "Sora": "Sora",
          "Sund": "Sund",
          "Sylo": "Sylo",
          "Syrc": "Suraidheac",
          "Syre": "Syre",
          "Syrj": "Suraidheac Siarach",
          "Syrn": "Suraidheac Earach",
          "Tagb": "Tagb",
          "Takr": "Takr",
          "Tale": "Tale",
          "Talu": "Talu",
          "Taml": "Taimil",
          "Tang": "Tang",
          "Tavt": "Tavt",
          "Telu": "Telugu",
          "Teng": "Teng",
          "Tfng": "Tifinagh",
          "Tglg": "Tagalog",
          "Thaa": "Thaana",
          "Thai": "Tàidh",
          "Tibt": "Tibeitis",
          "Tirh": "Tirh",
          "Ugar": "Ugar",
          "Vaii": "Vaii",
          "Visp": "Visp",
          "Wara": "Wara",
          "Wole": "Wole",
          "Xpeo": "Seann-Pheirsis",
          "Xsux": "Xsux",
          "Yiii": "Yiii",
          "Zinh": "Zinh",
          "Zmth": "Gnìomhairean matamataig",
          "Zsym": "Samhlaidhean",
          "Zxxx": "Gun sgrìobhadh",
          "Zyyy": "Coitcheann",
          "Zzzz": "Litreadh neo-aithnichte"
        }
      }
    }
  }
}
