{
  "main": {
    "mr": {
      "identity": {
        "version": {
          "_cldrVersion": "26",
          "_number": "$Revision: 10809 $"
        },
        "generation": {
          "_date": "$Date: 2014-08-14 15:10:07 -0500 (Thu, 14 Aug 2014) $"
        },
        "language": "mr"
      },
      "dates": {
        "calendars": {
          "indian": {
            "months": {
              "format": {
                "abbreviated": {
                  "1": "Chaitra",
                  "2": "Vaisakha",
                  "3": "Jyaistha",
                  "4": "Asadha",
                  "5": "Sravana",
                  "6": "Bhadra",
                  "7": "Asvina",
                  "8": "Kartika",
                  "9": "Agrahayana",
                  "10": "Pausa",
                  "11": "Magha",
                  "12": "Phalguna"
                },
                "narrow": {
                  "1": "1",
                  "2": "2",
                  "3": "3",
                  "4": "4",
                  "5": "5",
                  "6": "6",
                  "7": "7",
                  "8": "8",
                  "9": "9",
                  "10": "10",
                  "11": "11",
                  "12": "12"
                },
                "wide": {
                  "1": "Chaitra",
                  "2": "Vaisakha",
                  "3": "Jyaistha",
                  "4": "Asadha",
                  "5": "Sravana",
                  "6": "Bhadra",
                  "7": "Asvina",
                  "8": "Kartika",
                  "9": "Agrahayana",
                  "10": "Pausa",
                  "11": "Magha",
                  "12": "Phalguna"
                }
              },
              "stand-alone": {
                "abbreviated": {
                  "1": "Chaitra",
                  "2": "Vaisakha",
                  "3": "Jyaistha",
                  "4": "Asadha",
                  "5": "Sravana",
                  "6": "Bhadra",
                  "7": "Asvina",
                  "8": "Kartika",
                  "9": "Agrahayana",
                  "10": "Pausa",
                  "11": "Magha",
                  "12": "Phalguna"
                },
                "narrow": {
                  "1": "1",
                  "2": "2",
                  "3": "3",
                  "4": "4",
                  "5": "5",
                  "6": "6",
                  "7": "7",
                  "8": "8",
                  "9": "9",
                  "10": "10",
                  "11": "11",
                  "12": "12"
                },
                "wide": {
                  "1": "Chaitra",
                  "2": "Vaisakha",
                  "3": "Jyaistha",
                  "4": "Asadha",
                  "5": "Sravana",
                  "6": "Bhadra",
                  "7": "Asvina",
                  "8": "Kartika",
                  "9": "Agrahayana",
                  "10": "Pausa",
                  "11": "Magha",
                  "12": "Phalguna"
                }
              }
            },
            "days": {
              "format": {
                "abbreviated": {
                  "sun": "रवि",
                  "mon": "सोम",
                  "tue": "मंगळ",
                  "wed": "बुध",
                  "thu": "गुरु",
                  "fri": "शुक्र",
                  "sat": "शनि"
                },
                "narrow": {
                  "sun": "र",
                  "mon": "सो",
                  "tue": "मं",
                  "wed": "बु",
                  "thu": "गु",
                  "fri": "शु",
                  "sat": "श"
                },
                "short": {
                  "sun": "र",
                  "mon": "सो",
                  "tue": "मं",
                  "wed": "बु",
                  "thu": "गु",
                  "fri": "शु",
                  "sat": "श"
                },
                "wide": {
                  "sun": "रविवार",
                  "mon": "सोमवार",
                  "tue": "मंगळवार",
                  "wed": "बुधवार",
                  "thu": "गुरुवार",
                  "fri": "शुक्रवार",
                  "sat": "शनिवार"
                }
              },
              "stand-alone": {
                "abbreviated": {
                  "sun": "रवि",
                  "mon": "सोम",
                  "tue": "मंगळ",
                  "wed": "बुध",
                  "thu": "गुरु",
                  "fri": "शुक्र",
                  "sat": "शनि"
                },
                "narrow": {
                  "sun": "र",
                  "mon": "सो",
                  "tue": "मं",
                  "wed": "बु",
                  "thu": "गु",
                  "fri": "शु",
                  "sat": "श"
                },
                "short": {
                  "sun": "र",
                  "mon": "सो",
                  "tue": "मं",
                  "wed": "बु",
                  "thu": "गु",
                  "fri": "शु",
                  "sat": "श"
                },
                "wide": {
                  "sun": "रविवार",
                  "mon": "सोमवार",
                  "tue": "मंगळवार",
                  "wed": "बुधवार",
                  "thu": "गुरुवार",
                  "fri": "शुक्रवार",
                  "sat": "शनिवार"
                }
              }
            },
            "quarters": {
              "format": {
                "abbreviated": {
                  "1": "ति१",
                  "2": "ति२",
                  "3": "ति३",
                  "4": "ति४"
                },
                "narrow": {
                  "1": "१",
                  "2": "२",
                  "3": "३",
                  "4": "४"
                },
                "wide": {
                  "1": "प्रथम तिमाही",
                  "2": "द्वितीय तिमाही",
                  "3": "तृतीय तिमाही",
                  "4": "चतुर्थ तिमाही"
                }
              },
              "stand-alone": {
                "abbreviated": {
                  "1": "ति१",
                  "2": "ति२",
                  "3": "ति३",
                  "4": "ति४"
                },
                "narrow": {
                  "1": "१",
                  "2": "२",
                  "3": "३",
                  "4": "४"
                },
                "wide": {
                  "1": "प्रथम तिमाही",
                  "2": "द्वितीय तिमाही",
                  "3": "तृतीय तिमाही",
                  "4": "चतुर्थ तिमाही"
                }
              }
            },
            "dayPeriods": {
              "format": {
                "abbreviated": {
                  "am": "AM",
                  "noon": "मध्यान्ह",
                  "pm": "PM"
                },
                "narrow": {
                  "am": "स",
                  "noon": "दु",
                  "pm": "सं"
                },
                "wide": {
                  "am": "म.पू.",
                  "noon": "मध्यान्ह",
                  "pm": "म.उ."
                }
              },
              "stand-alone": {
                "abbreviated": {
                  "am": "AM",
                  "noon": "मध्यान्ह",
                  "pm": "PM"
                },
                "narrow": {
                  "am": "स",
                  "noon": "दु",
                  "pm": "सं"
                },
                "wide": {
                  "am": "म.पू.",
                  "noon": "मध्यान्ह",
                  "pm": "म.उ."
                }
              }
            },
            "eras": {
              "eraNames": {
                "0": "Saka"
              },
              "eraAbbr": {
                "0": "Saka"
              },
              "eraNarrow": {
                "0": "Saka"
              }
            },
            "dateFormats": {
              "full": "EEEE, d MMMM, y G",
              "long": "d MMMM, y G",
              "medium": "d MMM, y G",
              "short": "d/M/y GGGGG"
            },
            "timeFormats": {
              "full": "h:mm:ss a zzzz",
              "long": "h:mm:ss a z",
              "medium": "h:mm:ss a",
              "short": "h:mm a"
            },
            "dateTimeFormats": {
              "full": "{1} 'वाजता' {0}",
              "long": "{1} 'वाजता' {0}",
              "medium": "{1}, {0}",
              "short": "{1}, {0}",
              "availableFormats": {
                "E": "ccc",
                "EHm": "E HH:mm",
                "EHms": "E HH:mm:ss",
                "Ed": "E d",
                "Ehm": "E h:mm a",
                "Ehms": "E h:mm:ss a",
                "Gy": "y G",
                "GyMMM": "MMM y G",
                "GyMMMEd": "E, d MMM, y G",
                "GyMMMd": "d MMM, y G",
                "H": "HH",
                "Hm": "H-mm",
                "Hms": "H-mm-ss",
                "M": "L",
                "MEd": "E, d/M",
                "MMM": "LLL",
                "MMMEd": "E, d MMM",
                "MMMMd": "d MMMM",
                "MMMd": "d MMM",
                "MMdd": "dd-MM",
                "Md": "d/M",
                "d": "d",
                "h": "h a",
                "hm": "h:mm a",
                "hms": "h:mm:ss a",
                "ms": "mm:ss",
                "y": "y G",
                "yyyy": "y G",
                "yyyyM": "M/y GGGGG",
                "yyyyMEd": "E, d/M/y GGGGG",
                "yyyyMM": "MM-y G",
                "yyyyMMM": "MMM y G",
                "yyyyMMMEd": "E, d MMM, y G",
                "yyyyMMMM": "MMMM y G",
                "yyyyMMMd": "d MMM, y G",
                "yyyyMd": "d/M/y GGGGG",
                "yyyyQQQ": "QQQ y G",
                "yyyyQQQQ": "QQQQ y G"
              },
              "appendItems": {
                "Day": "{0} ({2}: {1})",
                "Day-Of-Week": "{0} {1}",
                "Era": "{1} {0}",
                "Hour": "{0} ({2}: {1})",
                "Minute": "{0} ({2}: {1})",
                "Month": "{0} ({2}: {1})",
                "Quarter": "{0} ({2}: {1})",
                "Second": "{0} ({2}: {1})",
                "Timezone": "{0} {1}",
                "Week": "{0} ({2}: {1})",
                "Year": "{1} {0}"
              },
              "intervalFormats": {
                "intervalFormatFallback": "{0} – {1}",
                "H": {
                  "H": "HH–HH"
                },
                "Hm": {
                  "H": "HH:mm–HH:mm",
                  "m": "HH:mm–HH:mm"
                },
                "Hmv": {
                  "H": "HH:mm–HH:mm v",
                  "m": "HH:mm–HH:mm v"
                },
                "Hv": {
                  "H": "HH–HH v"
                },
                "M": {
                  "M": "M – M"
                },
                "MEd": {
                  "M": "E, d/M – E, d/M",
                  "d": "E, d/M – E, d/M"
                },
                "MMM": {
                  "M": "MMM – MMM"
                },
                "MMMEd": {
                  "M": "E, d MMM – E, d MMM",
                  "d": "E, d MMM – E, d MMM"
                },
                "MMMd": {
                  "M": "d MMM – d MMM",
                  "d": "d – d MMM"
                },
                "Md": {
                  "M": "d/M – d/M",
                  "d": "d/M – d/M"
                },
                "d": {
                  "d": "d – d"
                },
                "h": {
                  "a": "h a – h a",
                  "h": "h–h a"
                },
                "hm": {
                  "a": "h:mm a – h:mm a",
                  "h": "h:mm–h:mm a",
                  "m": "h:mm–h:mm a"
                },
                "hmv": {
                  "a": "h:mm a – h:mm a v",
                  "h": "h:mm–h:mm a v",
                  "m": "h:mm–h:mm a v"
                },
                "hv": {
                  "a": "h a – h a v",
                  "h": "h–h a v"
                },
                "y": {
                  "y": "y – y G"
                },
                "yM": {
                  "M": "M/y – M/y GGGGG",
                  "y": "M/y – M/y GGGGG"
                },
                "yMEd": {
                  "M": "E, d/M/y – E, d/M/y GGGGG",
                  "d": "E, d/M/y – E, d/M/y GGGGG",
                  "y": "E, d/M/y – E, d/M/y GGGGG"
                },
                "yMMM": {
                  "M": "MMM – MMM y G",
                  "y": "MMM y – MMM y G"
                },
                "yMMMEd": {
                  "M": "E, d MMM - E, d MMM y G",
                  "d": "E, d MMM y – E, d MMM, y G",
                  "y": "E, d MMM y - E, d MMM y G"
                },
                "yMMMM": {
                  "M": "MMMM – MMMM y G",
                  "y": "MMMM y – MMMM y G"
                },
                "yMMMd": {
                  "M": "d MMM – d, MMM y G",
                  "d": "d – d, MMM y G",
                  "y": "d, MMM y – d, MMM y G"
                },
                "yMd": {
                  "M": "d/M/y – d/M/y GGGGG",
                  "d": "d/M/y – d/M/y GGGGG",
                  "y": "d/M/y – d/M/y GGGGG"
                }
              }
            }
          }
        }
      }
    }
  }
}
