{
  "main": {
    "ug-Arab": {
      "identity": {
        "version": {
          "_cldrVersion": "26",
          "_number": "$Revision: 10669 $"
        },
        "generation": {
          "_date": "$Date: 2014-07-23 16:10:33 -0500 (Wed, 23 Jul 2014) $"
        },
        "language": "root",
        "script": "Arab"
      },
      "dates": {
        "calendars": {
          "islamic": {
            "months": {
              "format": {
                "abbreviated": {
                  "1": "مۇھەررەم",
                  "2": "سەپەر",
                  "3": "رەبىئۇلئەۋۋەل",
                  "4": "رەبىئۇلئاخىر",
                  "5": "جەمادىيەلئەۋۋەل",
                  "6": "جەمادىيەلئاخىر",
                  "7": "رەجەب",
                  "8": "شەئبان",
                  "9": "رامىزان",
                  "10": "شەۋۋال",
                  "11": "زۇلقەئدە",
                  "12": "زۇلھەججە"
                },
                "narrow": {
                  "1": "1",
                  "2": "2",
                  "3": "3",
                  "4": "4",
                  "5": "5",
                  "6": "6",
                  "7": "7",
                  "8": "8",
                  "9": "9",
                  "10": "10",
                  "11": "11",
                  "12": "12"
                },
                "wide": {
                  "1": "مۇھەررەم",
                  "2": "سەپەر",
                  "3": "رەبىئۇلئەۋۋەل",
                  "4": "رەبىئۇلئاخىر",
                  "5": "جەمادىيەلئەۋۋەل",
                  "6": "جەمادىيەلئاخىر",
                  "7": "رەجەب",
                  "8": "شەئبان",
                  "9": "رامىزان",
                  "10": "شەۋۋال",
                  "11": "زۇلقەئدە",
                  "12": "زۇلھەججە"
                }
              },
              "stand-alone": {
                "abbreviated": {
                  "1": "مۇھەررەم",
                  "2": "سەپەر",
                  "3": "رەبىئۇلئەۋۋەل",
                  "4": "رەبىئۇلئاخىر",
                  "5": "جەمادىيەلئەۋۋەل",
                  "6": "جەمادىيەلئاخىر",
                  "7": "رەجەب",
                  "8": "شەئبان",
                  "9": "رامىزان",
                  "10": "شەۋۋال",
                  "11": "زۇلقەئدە",
                  "12": "زۇلھەججە"
                },
                "narrow": {
                  "1": "1",
                  "2": "2",
                  "3": "3",
                  "4": "4",
                  "5": "5",
                  "6": "6",
                  "7": "7",
                  "8": "8",
                  "9": "9",
                  "10": "10",
                  "11": "11",
                  "12": "12"
                },
                "wide": {
                  "1": "مۇھەررەم",
                  "2": "سەپەر",
                  "3": "رەبىئۇلئەۋۋەل",
                  "4": "رەبىئۇلئاخىر",
                  "5": "جەمادىيەلئەۋۋەل",
                  "6": "جەمادىيەلئاخىر",
                  "7": "رەجەب",
                  "8": "شەئبان",
                  "9": "رامىزان",
                  "10": "شەۋۋال",
                  "11": "زۇلقەئدە",
                  "12": "زۇلھەججە"
                }
              }
            },
            "days": {
              "format": {
                "abbreviated": {
                  "sun": "يە",
                  "mon": "دۈ",
                  "tue": "سە",
                  "wed": "چا",
                  "thu": "پە",
                  "fri": "چۈ",
                  "sat": "شە"
                },
                "narrow": {
                  "sun": "ي",
                  "mon": "د",
                  "tue": "س",
                  "wed": "چ",
                  "thu": "پ",
                  "fri": "ج",
                  "sat": "ش"
                },
                "short": {
                  "sun": "ي",
                  "mon": "د",
                  "tue": "س",
                  "wed": "چ",
                  "thu": "پ",
                  "fri": "ج",
                  "sat": "ش"
                },
                "wide": {
                  "sun": "يەكشەنبە",
                  "mon": "دۈشەنبە",
                  "tue": "سەيشەنبە",
                  "wed": "چارشەنبە",
                  "thu": "پەيشەنبە",
                  "fri": "جۈمە",
                  "sat": "شەنبە"
                }
              },
              "stand-alone": {
                "abbreviated": {
                  "sun": "يە",
                  "mon": "دۈ",
                  "tue": "سە",
                  "wed": "چا",
                  "thu": "پە",
                  "fri": "چۈ",
                  "sat": "شە"
                },
                "narrow": {
                  "sun": "ي",
                  "mon": "د",
                  "tue": "س",
                  "wed": "چ",
                  "thu": "پ",
                  "fri": "ج",
                  "sat": "ش"
                },
                "short": {
                  "sun": "ي",
                  "mon": "د",
                  "tue": "س",
                  "wed": "چ",
                  "thu": "پ",
                  "fri": "ج",
                  "sat": "ش"
                },
                "wide": {
                  "sun": "يەكشەنبە",
                  "mon": "دۈشەنبە",
                  "tue": "سەيشەنبە",
                  "wed": "چارشەنبە",
                  "thu": "پەيشەنبە",
                  "fri": "جۈمە",
                  "sat": "شەنبە"
                }
              }
            },
            "quarters": {
              "format": {
                "abbreviated": {
                  "1": "بىرىنچى پەسىل",
                  "2": "ئىككىنچى پەسىل",
                  "3": "ئۈچىنچى پەسىل",
                  "4": "تۆتىنچى پەسىل"
                },
                "narrow": {
                  "1": "1",
                  "2": "2",
                  "3": "3",
                  "4": "4"
                },
                "wide": {
                  "1": "بىرىنچى پەسىل",
                  "2": "ئىككىنچى پەسىل",
                  "3": "ئۈچىنچى پەسىل",
                  "4": "تۆتىنچى پەسىل"
                }
              },
              "stand-alone": {
                "abbreviated": {
                  "1": "بىرىنچى پەسىل",
                  "2": "ئىككىنچى پەسىل",
                  "3": "ئۈچىنچى پەسىل",
                  "4": "تۆتىنچى پەسىل"
                },
                "narrow": {
                  "1": "1",
                  "2": "2",
                  "3": "3",
                  "4": "4"
                },
                "wide": {
                  "1": "بىرىنچى پەسىل",
                  "2": "ئىككىنچى پەسىل",
                  "3": "ئۈچىنچى پەسىل",
                  "4": "تۆتىنچى پەسىل"
                }
              }
            },
            "dayPeriods": {
              "format": {
                "abbreviated": {
                  "am": "چۈشتىن بۇرۇن",
                  "noon": "چۈش",
                  "pm": "چۈشتىن كېيىن"
                },
                "narrow": {
                  "am": "چۈشتىن بۇرۇن",
                  "noon": "چۈش",
                  "pm": "چۈشتىن كېيىن"
                },
                "wide": {
                  "am": "چۈشتىن بۇرۇن",
                  "noon": "چۈش",
                  "pm": "چۈشتىن كېيىن"
                }
              },
              "stand-alone": {
                "abbreviated": {
                  "am": "چۈشتىن بۇرۇن",
                  "noon": "چۈش",
                  "pm": "چۈشتىن كېيىن"
                },
                "narrow": {
                  "am": "چۈشتىن بۇرۇن",
                  "noon": "چۈش",
                  "pm": "چۈشتىن كېيىن"
                },
                "wide": {
                  "am": "چۈشتىن بۇرۇن",
                  "noon": "چۈش",
                  "pm": "چۈشتىن كېيىن"
                }
              }
            },
            "eras": {
              "eraNames": {
                "0": "ھىجرىيە"
              },
              "eraAbbr": {
                "0": "ھىجرىيە"
              },
              "eraNarrow": {
                "0": "ھىجرىيە"
              }
            },
            "dateFormats": {
              "full": "EEEE، d MMMM، y G",
              "long": "d MMMM، y G",
              "medium": "d MMM، y G",
              "short": "d‏/M‏/y GGGGG"
            },
            "timeFormats": {
              "full": "h:mm:ss a zzzz",
              "long": "h:mm:ss a z",
              "medium": "h:mm:ss a",
              "short": "h:mm a"
            },
            "dateTimeFormats": {
              "full": "{1} {0}",
              "long": "{1} {0}",
              "medium": "{1}، {0}",
              "short": "{1}، {0}",
              "availableFormats": {
                "E": "ccc",
                "EHm": "E HH:mm",
                "EHms": "E HH:mm:ss",
                "Ed": "d E",
                "Ehm": "E h:mm a",
                "Ehms": "E h:mm:ss a",
                "Gy": "y G",
                "GyMMM": "MMM y G",
                "GyMMMEd": "E، MMM d، y G",
                "GyMMMd": "MMM d، y G",
                "H": "HH",
                "Hm": "HH:mm",
                "Hms": "HH:mm:ss",
                "M": "L",
                "MEd": "E، M/d",
                "MMM": "LLL",
                "MMMEd": "E، MMM d",
                "MMMd": "MMM d",
                "Md": "d/‏M",
                "d": "d",
                "h": "h a",
                "hm": "h:mm a",
                "hms": "h:mm:ss a",
                "ms": "mm:ss",
                "y": "y G",
                "yyyy": "y G",
                "yyyyM": "M‏/y G",
                "yyyyMEd": "E، d/‏M/‏y G",
                "yyyyMMM": "MMM y G",
                "yyyyMMMEd": "E، MMM d، y G",
                "yyyyMMMd": "MMM d، y G",
                "yyyyMd": "d‏/M‏/y G",
                "yyyyQQQ": "QQQ y G",
                "yyyyQQQQ": "QQQQ y G"
              },
              "appendItems": {
                "Day": "{0} ({2}: {1})",
                "Day-Of-Week": "{0} {1}",
                "Era": "{1} {0}",
                "Hour": "{0} ({2}: {1})",
                "Minute": "{0} ({2}: {1})",
                "Month": "{0} ({2}: {1})",
                "Quarter": "{0} ({2}: {1})",
                "Second": "{0} ({2}: {1})",
                "Timezone": "{0} {1}",
                "Week": "{0} ({2}: {1})",
                "Year": "{1} {0}"
              },
              "intervalFormats": {
                "intervalFormatFallback": "{0} – {1}",
                "H": {
                  "H": "HH–HH"
                },
                "Hm": {
                  "H": "HH:mm–HH:mm",
                  "m": "HH:mm–HH:mm"
                },
                "Hmv": {
                  "H": "HH:mm–HH:mm v",
                  "m": "HH:mm–HH:mm v"
                },
                "Hv": {
                  "H": "HH–HH v"
                },
                "M": {
                  "M": "M – M"
                },
                "MEd": {
                  "M": "E، M/d – E، M/d",
                  "d": "E، M/d – E، M/d"
                },
                "MMM": {
                  "M": "MMM – MMM"
                },
                "MMMEd": {
                  "M": "E، MMM d – E، MMM d",
                  "d": "E، MMM d – E، MMM d"
                },
                "MMMd": {
                  "M": "MMM d – MMM d",
                  "d": "MMM d – d"
                },
                "Md": {
                  "M": "M/d – M/d",
                  "d": "M/d – M/d"
                },
                "d": {
                  "d": "d – d"
                },
                "h": {
                  "a": "h a – h a",
                  "h": "h–h a"
                },
                "hm": {
                  "a": "h:mm a – h:mm a",
                  "h": "h:mm–h:mm a",
                  "m": "h:mm–h:mm a"
                },
                "hmv": {
                  "a": "h:mm a – h:mm a v",
                  "h": "h:mm–h:mm a v",
                  "m": "h:mm–h:mm a v"
                },
                "hv": {
                  "a": "h a – h a v",
                  "h": "h–h a v"
                },
                "y": {
                  "y": "y – y G"
                },
                "yM": {
                  "M": "M/y – M/y GGGGG",
                  "y": "M/y – M/y GGGGG"
                },
                "yMEd": {
                  "M": "E، M/d/y – E، M/d/y GGGGG",
                  "d": "E، M/d/y – E، M/d/y GGGGG",
                  "y": "E، M/d/y – E، M/d/y GGGGG"
                },
                "yMMM": {
                  "M": "MMM – MMM y G",
                  "y": "MMM y – MMM y G"
                },
                "yMMMEd": {
                  "M": "E، MMM d – E، MMM d، y G",
                  "d": "E، MMM d – E، MMM d، y G",
                  "y": "E، MMM d، y – E، MMM d، y G"
                },
                "yMMMM": {
                  "M": "MMMM – MMMM y G",
                  "y": "MMMM y – MMMM y G"
                },
                "yMMMd": {
                  "M": "MMM d – MMM d، y G",
                  "d": "MMM d – d، y G",
                  "y": "MMM d، y – MMM d، y G"
                },
                "yMd": {
                  "M": "M/d/y – M/d/y GGGGG",
                  "d": "M/d/y – M/d/y GGGGG",
                  "y": "M/d/y – M/d/y GGGGG"
                }
              }
            }
          }
        }
      }
    }
  }
}
