{
  "main": {
    "ug-Arab": {
      "identity": {
        "version": {
          "_cldrVersion": "26",
          "_number": "$Revision: 10669 $"
        },
        "generation": {
          "_date": "$Date: 2014-07-23 16:10:33 -0500 (Wed, 23 Jul 2014) $"
        },
        "language": "root",
        "script": "Arab"
      },
      "dates": {
        "timeZoneNames": {
          "hourFormat": "+HH:mm;-HH:mm",
          "gmtFormat": "GMT{0}",
          "gmtZeroFormat": "GMT",
          "regionFormat": "{0} ۋاقتى",
          "regionFormat-type-standard": "{0} ئۆلچەملىك ۋاقتى",
          "regionFormat-type-daylight": "{0} يازلىق ۋاقتى",
          "fallbackFormat": "{1} ({0})",
          "zone": {
            "America": {
              "Adak": {
                "exemplarCity": "Adak"
              },
              "Anchorage": {
                "exemplarCity": "Anchorage"
              },
              "Anguilla": {
                "exemplarCity": "Anguilla"
              },
              "Antigua": {
                "exemplarCity": "Antigua"
              },
              "Araguaina": {
                "exemplarCity": "Araguaina"
              },
              "Argentina": {
                "La_Rioja": {
                  "exemplarCity": "La Rioja"
                },
                "Rio_Gallegos": {
                  "exemplarCity": "Rio Gallegos"
                },
                "Salta": {
                  "exemplarCity": "Salta"
                },
                "San_Juan": {
                  "exemplarCity": "San Juan"
                },
                "San_Luis": {
                  "exemplarCity": "San Luis"
                },
                "Tucuman": {
                  "exemplarCity": "Tucuman"
                },
                "Ushuaia": {
                  "exemplarCity": "Ushuaia"
                }
              },
              "Aruba": {
                "exemplarCity": "Aruba"
              },
              "Asuncion": {
                "exemplarCity": "ئاسۇنسىيون"
              },
              "Bahia": {
                "exemplarCity": "Bahia"
              },
              "Bahia_Banderas": {
                "exemplarCity": "Bahia Banderas"
              },
              "Barbados": {
                "exemplarCity": "Barbados"
              },
              "Belem": {
                "exemplarCity": "Belem"
              },
              "Belize": {
                "exemplarCity": "Belize"
              },
              "Blanc-Sablon": {
                "exemplarCity": "Blanc-Sablon"
              },
              "Boa_Vista": {
                "exemplarCity": "Boa Vista"
              },
              "Bogota": {
                "exemplarCity": "Bogota"
              },
              "Boise": {
                "exemplarCity": "Boise"
              },
              "Buenos_Aires": {
                "exemplarCity": "Buenos Aires"
              },
              "Cambridge_Bay": {
                "exemplarCity": "Cambridge Bay"
              },
              "Campo_Grande": {
                "exemplarCity": "Campo Grande"
              },
              "Cancun": {
                "exemplarCity": "Cancun"
              },
              "Caracas": {
                "exemplarCity": "Caracas"
              },
              "Catamarca": {
                "exemplarCity": "Catamarca"
              },
              "Cayenne": {
                "exemplarCity": "Cayenne"
              },
              "Cayman": {
                "exemplarCity": "Cayman"
              },
              "Chicago": {
                "exemplarCity": "Chicago"
              },
              "Chihuahua": {
                "exemplarCity": "Chihuahua"
              },
              "Coral_Harbour": {
                "exemplarCity": "Atikokan"
              },
              "Cordoba": {
                "exemplarCity": "Cordoba"
              },
              "Costa_Rica": {
                "exemplarCity": "Costa Rica"
              },
              "Creston": {
                "exemplarCity": "Creston"
              },
              "Cuiaba": {
                "exemplarCity": "Cuiaba"
              },
              "Curacao": {
                "exemplarCity": "كۇراسو"
              },
              "Danmarkshavn": {
                "exemplarCity": "Danmarkshavn"
              },
              "Dawson": {
                "exemplarCity": "Dawson"
              },
              "Dawson_Creek": {
                "exemplarCity": "Dawson Creek"
              },
              "Denver": {
                "exemplarCity": "Denver"
              },
              "Detroit": {
                "exemplarCity": "Detroit"
              },
              "Dominica": {
                "exemplarCity": "Dominica"
              },
              "Edmonton": {
                "exemplarCity": "Edmonton"
              },
              "Eirunepe": {
                "exemplarCity": "Eirunepe"
              },
              "El_Salvador": {
                "exemplarCity": "El Salvador"
              },
              "Fortaleza": {
                "exemplarCity": "Fortaleza"
              },
              "Glace_Bay": {
                "exemplarCity": "Glace Bay"
              },
              "Godthab": {
                "exemplarCity": "Nuuk"
              },
              "Goose_Bay": {
                "exemplarCity": "Goose Bay"
              },
              "Grand_Turk": {
                "exemplarCity": "Grand Turk"
              },
              "Grenada": {
                "exemplarCity": "Grenada"
              },
              "Guadeloupe": {
                "exemplarCity": "Guadeloupe"
              },
              "Guatemala": {
                "exemplarCity": "Guatemala"
              },
              "Guayaquil": {
                "exemplarCity": "Guayaquil"
              },
              "Guyana": {
                "exemplarCity": "Guyana"
              },
              "Halifax": {
                "exemplarCity": "Halifax"
              },
              "Havana": {
                "exemplarCity": "Havana"
              },
              "Hermosillo": {
                "exemplarCity": "Hermosillo"
              },
              "Indiana": {
                "Knox": {
                  "exemplarCity": "Knox, Indiana"
                },
                "Marengo": {
                  "exemplarCity": "Marengo, Indiana"
                },
                "Petersburg": {
                  "exemplarCity": "Petersburg, Indiana"
                },
                "Tell_City": {
                  "exemplarCity": "Tell City, Indiana"
                },
                "Vevay": {
                  "exemplarCity": "Vevay, Indiana"
                },
                "Vincennes": {
                  "exemplarCity": "Vincennes, Indiana"
                },
                "Winamac": {
                  "exemplarCity": "Winamac, Indiana"
                }
              },
              "Indianapolis": {
                "exemplarCity": "Indianapolis"
              },
              "Inuvik": {
                "exemplarCity": "Inuvik"
              },
              "Iqaluit": {
                "exemplarCity": "Iqaluit"
              },
              "Jamaica": {
                "exemplarCity": "Jamaica"
              },
              "Jujuy": {
                "exemplarCity": "Jujuy"
              },
              "Juneau": {
                "exemplarCity": "Juneau"
              },
              "Kentucky": {
                "Monticello": {
                  "exemplarCity": "Monticello, Kentucky"
                }
              },
              "Kralendijk": {
                "exemplarCity": "Kralendijk"
              },
              "La_Paz": {
                "exemplarCity": "La Paz"
              },
              "Lima": {
                "exemplarCity": "Lima"
              },
              "Los_Angeles": {
                "exemplarCity": "Los Angeles"
              },
              "Louisville": {
                "exemplarCity": "Louisville"
              },
              "Lower_Princes": {
                "exemplarCity": "Lower Prince’s Quarter"
              },
              "Maceio": {
                "exemplarCity": "Maceio"
              },
              "Managua": {
                "exemplarCity": "Managua"
              },
              "Manaus": {
                "exemplarCity": "Manaus"
              },
              "Marigot": {
                "exemplarCity": "Marigot"
              },
              "Martinique": {
                "exemplarCity": "Martinique"
              },
              "Matamoros": {
                "exemplarCity": "Matamoros"
              },
              "Mazatlan": {
                "exemplarCity": "Mazatlan"
              },
              "Mendoza": {
                "exemplarCity": "Mendoza"
              },
              "Menominee": {
                "exemplarCity": "Menominee"
              },
              "Merida": {
                "exemplarCity": "Merida"
              },
              "Metlakatla": {
                "exemplarCity": "Metlakatla"
              },
              "Mexico_City": {
                "exemplarCity": "Mexico City"
              },
              "Miquelon": {
                "exemplarCity": "Miquelon"
              },
              "Moncton": {
                "exemplarCity": "Moncton"
              },
              "Monterrey": {
                "exemplarCity": "Monterrey"
              },
              "Montevideo": {
                "exemplarCity": "Montevideo"
              },
              "Montserrat": {
                "exemplarCity": "Montserrat"
              },
              "Nassau": {
                "exemplarCity": "Nassau"
              },
              "New_York": {
                "exemplarCity": "New York"
              },
              "Nipigon": {
                "exemplarCity": "Nipigon"
              },
              "Nome": {
                "exemplarCity": "Nome"
              },
              "Noronha": {
                "exemplarCity": "Noronha"
              },
              "North_Dakota": {
                "Beulah": {
                  "exemplarCity": "Beulah, North Dakota"
                },
                "Center": {
                  "exemplarCity": "Center, North Dakota"
                },
                "New_Salem": {
                  "exemplarCity": "New Salem, North Dakota"
                }
              },
              "Ojinaga": {
                "exemplarCity": "Ojinaga"
              },
              "Panama": {
                "exemplarCity": "Panama"
              },
              "Pangnirtung": {
                "exemplarCity": "Pangnirtung"
              },
              "Paramaribo": {
                "exemplarCity": "Paramaribo"
              },
              "Phoenix": {
                "exemplarCity": "Phoenix"
              },
              "Port-au-Prince": {
                "exemplarCity": "Port-au-Prince"
              },
              "Port_of_Spain": {
                "exemplarCity": "Port of Spain"
              },
              "Porto_Velho": {
                "exemplarCity": "Porto Velho"
              },
              "Puerto_Rico": {
                "exemplarCity": "Puerto Rico"
              },
              "Rainy_River": {
                "exemplarCity": "Rainy River"
              },
              "Rankin_Inlet": {
                "exemplarCity": "Rankin Inlet"
              },
              "Recife": {
                "exemplarCity": "Recife"
              },
              "Regina": {
                "exemplarCity": "Regina"
              },
              "Resolute": {
                "exemplarCity": "Resolute"
              },
              "Rio_Branco": {
                "exemplarCity": "Rio Branco"
              },
              "Santa_Isabel": {
                "exemplarCity": "Santa Isabel"
              },
              "Santarem": {
                "exemplarCity": "Santarem"
              },
              "Santiago": {
                "exemplarCity": "Santiago"
              },
              "Santo_Domingo": {
                "exemplarCity": "Santo Domingo"
              },
              "Sao_Paulo": {
                "exemplarCity": "Sao Paulo"
              },
              "Scoresbysund": {
                "exemplarCity": "Ittoqqortoormiit"
              },
              "Sitka": {
                "exemplarCity": "Sitka"
              },
              "St_Barthelemy": {
                "exemplarCity": "ساينىت-بارتھېلەمىي"
              },
              "St_Johns": {
                "exemplarCity": "St. John’s"
              },
              "St_Kitts": {
                "exemplarCity": "St. Kitts"
              },
              "St_Lucia": {
                "exemplarCity": "St. Lucia"
              },
              "St_Thomas": {
                "exemplarCity": "St. Thomas"
              },
              "St_Vincent": {
                "exemplarCity": "St. Vincent"
              },
              "Swift_Current": {
                "exemplarCity": "Swift Current"
              },
              "Tegucigalpa": {
                "exemplarCity": "Tegucigalpa"
              },
              "Thule": {
                "exemplarCity": "Thule"
              },
              "Thunder_Bay": {
                "exemplarCity": "Thunder Bay"
              },
              "Tijuana": {
                "exemplarCity": "Tijuana"
              },
              "Toronto": {
                "exemplarCity": "Toronto"
              },
              "Tortola": {
                "exemplarCity": "Tortola"
              },
              "Vancouver": {
                "exemplarCity": "Vancouver"
              },
              "Whitehorse": {
                "exemplarCity": "Whitehorse"
              },
              "Winnipeg": {
                "exemplarCity": "Winnipeg"
              },
              "Yakutat": {
                "exemplarCity": "Yakutat"
              },
              "Yellowknife": {
                "exemplarCity": "Yellowknife"
              }
            },
            "Atlantic": {
              "Azores": {
                "exemplarCity": "Azores"
              },
              "Bermuda": {
                "exemplarCity": "Bermuda"
              },
              "Canary": {
                "exemplarCity": "Canary"
              },
              "Cape_Verde": {
                "exemplarCity": "Cape Verde"
              },
              "Faeroe": {
                "exemplarCity": "Faroe"
              },
              "Madeira": {
                "exemplarCity": "Madeira"
              },
              "Reykjavik": {
                "exemplarCity": "Reykjavik"
              },
              "South_Georgia": {
                "exemplarCity": "South Georgia"
              },
              "St_Helena": {
                "exemplarCity": "St. Helena"
              },
              "Stanley": {
                "exemplarCity": "Stanley"
              }
            },
            "Europe": {
              "Amsterdam": {
                "exemplarCity": "Amsterdam"
              },
              "Andorra": {
                "exemplarCity": "Andorra"
              },
              "Athens": {
                "exemplarCity": "Athens"
              },
              "Belgrade": {
                "exemplarCity": "Belgrade"
              },
              "Berlin": {
                "exemplarCity": "Berlin"
              },
              "Bratislava": {
                "exemplarCity": "Bratislava"
              },
              "Brussels": {
                "exemplarCity": "Brussels"
              },
              "Bucharest": {
                "exemplarCity": "Bucharest"
              },
              "Budapest": {
                "exemplarCity": "Budapest"
              },
              "Busingen": {
                "exemplarCity": "Busingen"
              },
              "Chisinau": {
                "exemplarCity": "Chisinau"
              },
              "Copenhagen": {
                "exemplarCity": "Copenhagen"
              },
              "Dublin": {
                "long": {
                  "daylight": "ئىرېلاند يازلىق ۋاقتى"
                },
                "exemplarCity": "Dublin"
              },
              "Gibraltar": {
                "exemplarCity": "Gibraltar"
              },
              "Guernsey": {
                "exemplarCity": "Guernsey"
              },
              "Helsinki": {
                "exemplarCity": "Helsinki"
              },
              "Isle_of_Man": {
                "exemplarCity": "Isle of Man"
              },
              "Istanbul": {
                "exemplarCity": "Istanbul"
              },
              "Jersey": {
                "exemplarCity": "Jersey"
              },
              "Kaliningrad": {
                "exemplarCity": "Kaliningrad"
              },
              "Kiev": {
                "exemplarCity": "Kiev"
              },
              "Lisbon": {
                "exemplarCity": "Lisbon"
              },
              "Ljubljana": {
                "exemplarCity": "Ljubljana"
              },
              "London": {
                "long": {
                  "daylight": "ئەنگلىيە يازلىق ۋاقتى"
                },
                "exemplarCity": "London"
              },
              "Luxembourg": {
                "exemplarCity": "Luxembourg"
              },
              "Madrid": {
                "exemplarCity": "Madrid"
              },
              "Malta": {
                "exemplarCity": "Malta"
              },
              "Mariehamn": {
                "exemplarCity": "Mariehamn"
              },
              "Minsk": {
                "exemplarCity": "Minsk"
              },
              "Monaco": {
                "exemplarCity": "Monaco"
              },
              "Moscow": {
                "exemplarCity": "Moscow"
              },
              "Oslo": {
                "exemplarCity": "Oslo"
              },
              "Paris": {
                "exemplarCity": "Paris"
              },
              "Podgorica": {
                "exemplarCity": "Podgorica"
              },
              "Prague": {
                "exemplarCity": "Prague"
              },
              "Riga": {
                "exemplarCity": "Riga"
              },
              "Rome": {
                "exemplarCity": "Rome"
              },
              "Samara": {
                "exemplarCity": "Samara"
              },
              "San_Marino": {
                "exemplarCity": "San Marino"
              },
              "Sarajevo": {
                "exemplarCity": "Sarajevo"
              },
              "Simferopol": {
                "exemplarCity": "Simferopol"
              },
              "Skopje": {
                "exemplarCity": "Skopje"
              },
              "Sofia": {
                "exemplarCity": "Sofia"
              },
              "Stockholm": {
                "exemplarCity": "Stockholm"
              },
              "Tallinn": {
                "exemplarCity": "Tallinn"
              },
              "Tirane": {
                "exemplarCity": "Tirane"
              },
              "Uzhgorod": {
                "exemplarCity": "Uzhgorod"
              },
              "Vaduz": {
                "exemplarCity": "Vaduz"
              },
              "Vatican": {
                "exemplarCity": "Vatican"
              },
              "Vienna": {
                "exemplarCity": "Vienna"
              },
              "Vilnius": {
                "exemplarCity": "Vilnius"
              },
              "Volgograd": {
                "exemplarCity": "Volgograd"
              },
              "Warsaw": {
                "exemplarCity": "Warsaw"
              },
              "Zagreb": {
                "exemplarCity": "Zagreb"
              },
              "Zaporozhye": {
                "exemplarCity": "Zaporozhye"
              },
              "Zurich": {
                "exemplarCity": "Zurich"
              }
            },
            "Africa": {
              "Abidjan": {
                "exemplarCity": "Abidjan"
              },
              "Accra": {
                "exemplarCity": "Accra"
              },
              "Addis_Ababa": {
                "exemplarCity": "Addis Ababa"
              },
              "Algiers": {
                "exemplarCity": "Algiers"
              },
              "Asmera": {
                "exemplarCity": "Asmara"
              },
              "Bamako": {
                "exemplarCity": "Bamako"
              },
              "Bangui": {
                "exemplarCity": "Bangui"
              },
              "Banjul": {
                "exemplarCity": "Banjul"
              },
              "Bissau": {
                "exemplarCity": "Bissau"
              },
              "Blantyre": {
                "exemplarCity": "Blantyre"
              },
              "Brazzaville": {
                "exemplarCity": "Brazzaville"
              },
              "Bujumbura": {
                "exemplarCity": "Bujumbura"
              },
              "Cairo": {
                "exemplarCity": "Cairo"
              },
              "Casablanca": {
                "exemplarCity": "Casablanca"
              },
              "Ceuta": {
                "exemplarCity": "Ceuta"
              },
              "Conakry": {
                "exemplarCity": "Conakry"
              },
              "Dakar": {
                "exemplarCity": "Dakar"
              },
              "Dar_es_Salaam": {
                "exemplarCity": "Dar es Salaam"
              },
              "Djibouti": {
                "exemplarCity": "Djibouti"
              },
              "Douala": {
                "exemplarCity": "Douala"
              },
              "El_Aaiun": {
                "exemplarCity": "El Aaiun"
              },
              "Freetown": {
                "exemplarCity": "Freetown"
              },
              "Gaborone": {
                "exemplarCity": "Gaborone"
              },
              "Harare": {
                "exemplarCity": "Harare"
              },
              "Johannesburg": {
                "exemplarCity": "Johannesburg"
              },
              "Juba": {
                "exemplarCity": "Juba"
              },
              "Kampala": {
                "exemplarCity": "Kampala"
              },
              "Khartoum": {
                "exemplarCity": "Khartoum"
              },
              "Kigali": {
                "exemplarCity": "Kigali"
              },
              "Kinshasa": {
                "exemplarCity": "Kinshasa"
              },
              "Lagos": {
                "exemplarCity": "Lagos"
              },
              "Libreville": {
                "exemplarCity": "Libreville"
              },
              "Lome": {
                "exemplarCity": "Lome"
              },
              "Luanda": {
                "exemplarCity": "Luanda"
              },
              "Lubumbashi": {
                "exemplarCity": "Lubumbashi"
              },
              "Lusaka": {
                "exemplarCity": "Lusaka"
              },
              "Malabo": {
                "exemplarCity": "Malabo"
              },
              "Maputo": {
                "exemplarCity": "Maputo"
              },
              "Maseru": {
                "exemplarCity": "Maseru"
              },
              "Mbabane": {
                "exemplarCity": "Mbabane"
              },
              "Mogadishu": {
                "exemplarCity": "Mogadishu"
              },
              "Monrovia": {
                "exemplarCity": "Monrovia"
              },
              "Nairobi": {
                "exemplarCity": "Nairobi"
              },
              "Ndjamena": {
                "exemplarCity": "Ndjamena"
              },
              "Niamey": {
                "exemplarCity": "Niamey"
              },
              "Nouakchott": {
                "exemplarCity": "Nouakchott"
              },
              "Ouagadougou": {
                "exemplarCity": "Ouagadougou"
              },
              "Porto-Novo": {
                "exemplarCity": "Porto-Novo"
              },
              "Sao_Tome": {
                "exemplarCity": "سان-تومې"
              },
              "Tripoli": {
                "exemplarCity": "Tripoli"
              },
              "Tunis": {
                "exemplarCity": "Tunis"
              },
              "Windhoek": {
                "exemplarCity": "Windhoek"
              }
            },
            "Asia": {
              "Aden": {
                "exemplarCity": "Aden"
              },
              "Almaty": {
                "exemplarCity": "Almaty"
              },
              "Amman": {
                "exemplarCity": "Amman"
              },
              "Anadyr": {
                "exemplarCity": "Anadyr"
              },
              "Aqtau": {
                "exemplarCity": "Aqtau"
              },
              "Aqtobe": {
                "exemplarCity": "Aqtobe"
              },
              "Ashgabat": {
                "exemplarCity": "Ashgabat"
              },
              "Baghdad": {
                "exemplarCity": "Baghdad"
              },
              "Bahrain": {
                "exemplarCity": "Bahrain"
              },
              "Baku": {
                "exemplarCity": "Baku"
              },
              "Bangkok": {
                "exemplarCity": "Bangkok"
              },
              "Beirut": {
                "exemplarCity": "Beirut"
              },
              "Bishkek": {
                "exemplarCity": "Bishkek"
              },
              "Brunei": {
                "exemplarCity": "Brunei"
              },
              "Calcutta": {
                "exemplarCity": "Kolkata"
              },
              "Chita": {
                "exemplarCity": "Chita"
              },
              "Choibalsan": {
                "exemplarCity": "Choibalsan"
              },
              "Colombo": {
                "exemplarCity": "Colombo"
              },
              "Damascus": {
                "exemplarCity": "Damascus"
              },
              "Dhaka": {
                "exemplarCity": "Dhaka"
              },
              "Dili": {
                "exemplarCity": "Dili"
              },
              "Dubai": {
                "exemplarCity": "Dubai"
              },
              "Dushanbe": {
                "exemplarCity": "Dushanbe"
              },
              "Gaza": {
                "exemplarCity": "Gaza"
              },
              "Hebron": {
                "exemplarCity": "Hebron"
              },
              "Hong_Kong": {
                "exemplarCity": "Hong Kong"
              },
              "Hovd": {
                "exemplarCity": "Hovd"
              },
              "Irkutsk": {
                "exemplarCity": "Irkutsk"
              },
              "Jakarta": {
                "exemplarCity": "Jakarta"
              },
              "Jayapura": {
                "exemplarCity": "Jayapura"
              },
              "Jerusalem": {
                "exemplarCity": "Jerusalem"
              },
              "Kabul": {
                "exemplarCity": "Kabul"
              },
              "Kamchatka": {
                "exemplarCity": "Kamchatka"
              },
              "Karachi": {
                "exemplarCity": "Karachi"
              },
              "Katmandu": {
                "exemplarCity": "Kathmandu"
              },
              "Khandyga": {
                "exemplarCity": "Khandyga"
              },
              "Krasnoyarsk": {
                "exemplarCity": "Krasnoyarsk"
              },
              "Kuala_Lumpur": {
                "exemplarCity": "Kuala Lumpur"
              },
              "Kuching": {
                "exemplarCity": "Kuching"
              },
              "Kuwait": {
                "exemplarCity": "Kuwait"
              },
              "Macau": {
                "exemplarCity": "Macau"
              },
              "Magadan": {
                "exemplarCity": "Magadan"
              },
              "Makassar": {
                "exemplarCity": "Makassar"
              },
              "Manila": {
                "exemplarCity": "Manila"
              },
              "Muscat": {
                "exemplarCity": "Muscat"
              },
              "Nicosia": {
                "exemplarCity": "Nicosia"
              },
              "Novokuznetsk": {
                "exemplarCity": "Novokuznetsk"
              },
              "Novosibirsk": {
                "exemplarCity": "Novosibirsk"
              },
              "Omsk": {
                "exemplarCity": "Omsk"
              },
              "Oral": {
                "exemplarCity": "Oral"
              },
              "Phnom_Penh": {
                "exemplarCity": "Phnom Penh"
              },
              "Pontianak": {
                "exemplarCity": "Pontianak"
              },
              "Pyongyang": {
                "exemplarCity": "Pyongyang"
              },
              "Qatar": {
                "exemplarCity": "Qatar"
              },
              "Qyzylorda": {
                "exemplarCity": "Qyzylorda"
              },
              "Rangoon": {
                "exemplarCity": "Rangoon"
              },
              "Riyadh": {
                "exemplarCity": "Riyadh"
              },
              "Saigon": {
                "exemplarCity": "خوچىمىن شەھىرى"
              },
              "Sakhalin": {
                "exemplarCity": "Sakhalin"
              },
              "Samarkand": {
                "exemplarCity": "Samarkand"
              },
              "Seoul": {
                "exemplarCity": "Seoul"
              },
              "Shanghai": {
                "exemplarCity": "Shanghai"
              },
              "Singapore": {
                "exemplarCity": "Singapore"
              },
              "Srednekolymsk": {
                "exemplarCity": "Srednekolymsk"
              },
              "Taipei": {
                "exemplarCity": "Taipei"
              },
              "Tashkent": {
                "exemplarCity": "Tashkent"
              },
              "Tbilisi": {
                "exemplarCity": "Tbilisi"
              },
              "Tehran": {
                "exemplarCity": "Tehran"
              },
              "Thimphu": {
                "exemplarCity": "Thimphu"
              },
              "Tokyo": {
                "exemplarCity": "Tokyo"
              },
              "Ulaanbaatar": {
                "exemplarCity": "Ulaanbaatar"
              },
              "Urumqi": {
                "exemplarCity": "Urumqi"
              },
              "Ust-Nera": {
                "exemplarCity": "Ust-Nera"
              },
              "Vientiane": {
                "exemplarCity": "Vientiane"
              },
              "Vladivostok": {
                "exemplarCity": "Vladivostok"
              },
              "Yakutsk": {
                "exemplarCity": "Yakutsk"
              },
              "Yekaterinburg": {
                "exemplarCity": "Yekaterinburg"
              },
              "Yerevan": {
                "exemplarCity": "Yerevan"
              }
            },
            "Indian": {
              "Antananarivo": {
                "exemplarCity": "Antananarivo"
              },
              "Chagos": {
                "exemplarCity": "Chagos"
              },
              "Christmas": {
                "exemplarCity": "Christmas"
              },
              "Cocos": {
                "exemplarCity": "Cocos"
              },
              "Comoro": {
                "exemplarCity": "Comoro"
              },
              "Kerguelen": {
                "exemplarCity": "Kerguelen"
              },
              "Mahe": {
                "exemplarCity": "Mahe"
              },
              "Maldives": {
                "exemplarCity": "Maldives"
              },
              "Mauritius": {
                "exemplarCity": "Mauritius"
              },
              "Mayotte": {
                "exemplarCity": "Mayotte"
              },
              "Reunion": {
                "exemplarCity": "رېئونىيون"
              }
            },
            "Australia": {
              "Adelaide": {
                "exemplarCity": "Adelaide"
              },
              "Brisbane": {
                "exemplarCity": "Brisbane"
              },
              "Broken_Hill": {
                "exemplarCity": "Broken Hill"
              },
              "Currie": {
                "exemplarCity": "Currie"
              },
              "Darwin": {
                "exemplarCity": "Darwin"
              },
              "Eucla": {
                "exemplarCity": "Eucla"
              },
              "Hobart": {
                "exemplarCity": "Hobart"
              },
              "Lindeman": {
                "exemplarCity": "Lindeman"
              },
              "Lord_Howe": {
                "exemplarCity": "Lord Howe"
              },
              "Melbourne": {
                "exemplarCity": "Melbourne"
              },
              "Perth": {
                "exemplarCity": "Perth"
              },
              "Sydney": {
                "exemplarCity": "Sydney"
              }
            },
            "Pacific": {
              "Apia": {
                "exemplarCity": "Apia"
              },
              "Auckland": {
                "exemplarCity": "Auckland"
              },
              "Chatham": {
                "exemplarCity": "Chatham"
              },
              "Easter": {
                "exemplarCity": "Easter"
              },
              "Efate": {
                "exemplarCity": "Efate"
              },
              "Enderbury": {
                "exemplarCity": "Enderbury"
              },
              "Fakaofo": {
                "exemplarCity": "Fakaofo"
              },
              "Fiji": {
                "exemplarCity": "Fiji"
              },
              "Funafuti": {
                "exemplarCity": "Funafuti"
              },
              "Galapagos": {
                "exemplarCity": "Galapagos"
              },
              "Gambier": {
                "exemplarCity": "Gambier"
              },
              "Guadalcanal": {
                "exemplarCity": "Guadalcanal"
              },
              "Guam": {
                "exemplarCity": "Guam"
              },
              "Honolulu": {
                "exemplarCity": "Honolulu"
              },
              "Johnston": {
                "exemplarCity": "Johnston"
              },
              "Kiritimati": {
                "exemplarCity": "Kiritimati"
              },
              "Kosrae": {
                "exemplarCity": "Kosrae"
              },
              "Kwajalein": {
                "exemplarCity": "Kwajalein"
              },
              "Majuro": {
                "exemplarCity": "Majuro"
              },
              "Marquesas": {
                "exemplarCity": "Marquesas"
              },
              "Midway": {
                "exemplarCity": "Midway"
              },
              "Nauru": {
                "exemplarCity": "Nauru"
              },
              "Niue": {
                "exemplarCity": "Niue"
              },
              "Norfolk": {
                "exemplarCity": "Norfolk"
              },
              "Noumea": {
                "exemplarCity": "Noumea"
              },
              "Pago_Pago": {
                "exemplarCity": "Pago Pago"
              },
              "Palau": {
                "exemplarCity": "Palau"
              },
              "Pitcairn": {
                "exemplarCity": "Pitcairn"
              },
              "Ponape": {
                "exemplarCity": "Pohnpei"
              },
              "Port_Moresby": {
                "exemplarCity": "Port Moresby"
              },
              "Rarotonga": {
                "exemplarCity": "Rarotonga"
              },
              "Saipan": {
                "exemplarCity": "Saipan"
              },
              "Tahiti": {
                "exemplarCity": "Tahiti"
              },
              "Tarawa": {
                "exemplarCity": "Tarawa"
              },
              "Tongatapu": {
                "exemplarCity": "Tongatapu"
              },
              "Truk": {
                "exemplarCity": "Chuuk"
              },
              "Wake": {
                "exemplarCity": "Wake"
              },
              "Wallis": {
                "exemplarCity": "Wallis"
              }
            },
            "Arctic": {
              "Longyearbyen": {
                "exemplarCity": "Longyearbyen"
              }
            },
            "Antarctica": {
              "Casey": {
                "exemplarCity": "Casey"
              },
              "Davis": {
                "exemplarCity": "Davis"
              },
              "DumontDUrville": {
                "exemplarCity": "دۇمونت دۇرۋىللې"
              },
              "Macquarie": {
                "exemplarCity": "Macquarie"
              },
              "Mawson": {
                "exemplarCity": "Mawson"
              },
              "McMurdo": {
                "exemplarCity": "McMurdo"
              },
              "Palmer": {
                "exemplarCity": "Palmer"
              },
              "Rothera": {
                "exemplarCity": "Rothera"
              },
              "Syowa": {
                "exemplarCity": "Syowa"
              },
              "Troll": {
                "exemplarCity": "Troll"
              },
              "Vostok": {
                "exemplarCity": "Vostok"
              }
            },
            "Etc": {
              "GMT": {
                "exemplarCity": "GMT"
              },
              "GMT1": {
                "exemplarCity": "GMT+1"
              },
              "GMT10": {
                "exemplarCity": "GMT+10"
              },
              "GMT11": {
                "exemplarCity": "GMT+11"
              },
              "GMT12": {
                "exemplarCity": "GMT+12"
              },
              "GMT2": {
                "exemplarCity": "GMT+2"
              },
              "GMT3": {
                "exemplarCity": "GMT+3"
              },
              "GMT4": {
                "exemplarCity": "GMT+4"
              },
              "GMT5": {
                "exemplarCity": "GMT+5"
              },
              "GMT6": {
                "exemplarCity": "GMT+6"
              },
              "GMT7": {
                "exemplarCity": "GMT+7"
              },
              "GMT8": {
                "exemplarCity": "GMT+8"
              },
              "GMT9": {
                "exemplarCity": "GMT+9"
              },
              "GMT-1": {
                "exemplarCity": "GMT-1"
              },
              "GMT-10": {
                "exemplarCity": "GMT-10"
              },
              "GMT-11": {
                "exemplarCity": "GMT-11"
              },
              "GMT-12": {
                "exemplarCity": "GMT-12"
              },
              "GMT-13": {
                "exemplarCity": "GMT-13"
              },
              "GMT-14": {
                "exemplarCity": "GMT-14"
              },
              "GMT-2": {
                "exemplarCity": "GMT-2"
              },
              "GMT-3": {
                "exemplarCity": "GMT-3"
              },
              "GMT-4": {
                "exemplarCity": "GMT-4"
              },
              "GMT-5": {
                "exemplarCity": "GMT-5"
              },
              "GMT-6": {
                "exemplarCity": "GMT-6"
              },
              "GMT-7": {
                "exemplarCity": "GMT-7"
              },
              "GMT-8": {
                "exemplarCity": "GMT-8"
              },
              "GMT-9": {
                "exemplarCity": "GMT-9"
              },
              "Unknown": {
                "exemplarCity": "يوچۇن شەھەر"
              }
            }
          },
          "metazone": {
            "Acre": {
              "long": {
                "generic": "ئاكرې ۋاقتى",
                "standard": "ئاكرې ئۆلچەملىك ۋاقتى",
                "daylight": "ئاكرى يازلىق ۋاقتى"
              }
            },
            "Afghanistan": {
              "long": {
                "standard": "ئافغانىستان ۋاقتى"
              }
            },
            "Africa_Central": {
              "long": {
                "standard": "ئوتتۇرا ئافرىقا ۋاقتى"
              }
            },
            "Africa_Eastern": {
              "long": {
                "standard": "شەرقىي ئافرىقا ۋاقتى"
              }
            },
            "Africa_Southern": {
              "long": {
                "standard": "جەنۇبىي ئافرىقا ئۆلچەملىك ۋاقتى"
              }
            },
            "Africa_Western": {
              "long": {
                "generic": "غەربىي ئافرىقا ۋاقتى",
                "standard": "غەربىي ئافرىقا ئۆلچەملىك ۋاقتى",
                "daylight": "غەربىي ئافرىقا يازلىق ۋاقتى"
              }
            },
            "Alaska": {
              "long": {
                "generic": "ئالياسكا ۋاقتى",
                "standard": "ئالياسكا ئۆلچەملىك ۋاقتى",
                "daylight": "ئالياسكا يازلىق ۋاقتى"
              }
            },
            "Almaty": {
              "long": {
                "generic": "ئالمۇتا ۋاقتى",
                "standard": "ئالمۇتا ئۆلچەملىك ۋاقتى",
                "daylight": "ئالمۇتا يازلىق ۋاقتى"
              }
            },
            "Amazon": {
              "long": {
                "generic": "ئامازون ۋاقتى",
                "standard": "ئامازون ئۆلچەملىك ۋاقتى",
                "daylight": "ئامازون يازلىق ۋاقتى"
              }
            },
            "America_Central": {
              "long": {
                "generic": "ئوتتۇرا قىسىم ۋاقتى",
                "standard": "ئوتتۇرا قىسىم ئۆلچەملىك ۋاقتى",
                "daylight": "ئوتتۇرا قىسىم يازلىق ۋاقتى"
              }
            },
            "America_Eastern": {
              "long": {
                "generic": "شەرقىي قىسىم ۋاقتى",
                "standard": "شەرقىي قىسىم ئۆلچەملىك ۋاقتى",
                "daylight": "شەرقىي قىسىم يازلىق ۋاقتى"
              }
            },
            "America_Mountain": {
              "long": {
                "generic": "تاغ ۋاقتى",
                "standard": "تاغ ئۆلچەملىك ۋاقتى",
                "daylight": "تاغ يازلىق ۋاقتى"
              }
            },
            "America_Pacific": {
              "long": {
                "generic": "تىنچ ئوكيان ۋاقتى",
                "standard": "تىنچ ئوكيان ئۆلچەملىك ۋاقتى",
                "daylight": "تىنچ ئوكيان يازلىق ۋاقتى"
              }
            },
            "Anadyr": {
              "long": {
                "generic": "ئانادىر ۋاقتى",
                "standard": "ئانادىر ئۆلچەملىك ۋاقتى",
                "daylight": "ئانادىر يازلىق ۋاقتى"
              }
            },
            "Aqtau": {
              "long": {
                "generic": "ئاقتاي ۋاقتى",
                "standard": "ئاقتاي ئۆلچەملىك ۋاقتى",
                "daylight": "ئاقتاي يازلىق ۋاقتى"
              }
            },
            "Aqtobe": {
              "long": {
                "generic": "ئاقتۆبە ۋاقتى",
                "standard": "ئاقتۆبە ئۆلچەملىك ۋاقتى",
                "daylight": "ئاقتۆبە يازلىق ۋاقتى"
              }
            },
            "Arabian": {
              "long": {
                "generic": "ئەرەب ۋاقتى",
                "standard": "ئەرەب ئۆلچەملىك ۋاقتى",
                "daylight": "ئەرەب يازلىق ۋاقتى"
              }
            },
            "Argentina": {
              "long": {
                "generic": "ئارگېنتىنا ۋاقتى",
                "standard": "ئارگېنتىنا ئۆلچەملىك ۋاقتى",
                "daylight": "ئارگېنتىنا يازلىق ۋاقتى"
              }
            },
            "Argentina_Western": {
              "long": {
                "generic": "غەربىي ئارگېنتىنا ۋاقتى",
                "standard": "غەربىي ئارگېنتىنا ئۆلچەملىك ۋاقتى",
                "daylight": "غەربىي ئارگېنتىنا يازلىق ۋاقتى"
              }
            },
            "Armenia": {
              "long": {
                "generic": "ئەرمېنىيە ۋاقتى",
                "standard": "ئەرمېنىيە ئۆلچەملىك ۋاقتى",
                "daylight": "ئەرمېنىيە يازلىق ۋاقتى"
              }
            },
            "Atlantic": {
              "long": {
                "generic": "ئاتلانتىك ئوكيان ۋاقتى",
                "standard": "ئاتلانتىك ئوكيان ئۆلچەملىك ۋاقتى",
                "daylight": "ئاتلانتىك ئوكيان يازلىق ۋاقتى"
              }
            },
            "Australia_Central": {
              "long": {
                "generic": "ئاۋسترالىيە ئوتتۇرا قىسىم ۋاقتى",
                "standard": "ئاۋسترالىيە ئوتتۇرا قىسىم ئۆلچەملىك ۋاقتى",
                "daylight": "ئاۋسترالىيە ئوتتۇرا قىسىم يازلىق ۋاقتى"
              }
            },
            "Australia_CentralWestern": {
              "long": {
                "generic": "ئاۋسترالىيە ئوتتۇرا غەربىي قىسىم ۋاقتى",
                "standard": "ئاۋستىرالىيە ئوتتۇرا غەربىي قىسىم ئۆلچەملىك ۋاقتى",
                "daylight": "ئاۋسترالىيە ئوتتۇرا غەربىي قىسىم يازلىق ۋاقتى"
              }
            },
            "Australia_Eastern": {
              "long": {
                "generic": "ئاۋسترالىيە شەرقىي قىسىم ۋاقتى",
                "standard": "ئاۋسترالىيە شەرقىي قىسىم ئۆلچەملىك ۋاقتى",
                "daylight": "ئاۋسترالىيە شەرقىي قىسىم يازلىق ۋاقتى"
              }
            },
            "Australia_Western": {
              "long": {
                "generic": "ئاۋسترالىيە غەربىي قىسىم ۋاقتى",
                "standard": "ئاۋسترالىيە غەربىي قىسىم ئۆلچەملىك ۋاقتى",
                "daylight": "ئاۋسترالىيە غەربىي قىسىم يازلىق ۋاقتى"
              }
            },
            "Azerbaijan": {
              "long": {
                "generic": "ئەزەربەيجان ۋاقتى",
                "standard": "ئەزەربەيجان ئۆلچەملىك ۋاقتى",
                "daylight": "ئەزەربەيجان يازلىق ۋاقتى"
              }
            },
            "Azores": {
              "long": {
                "generic": "ئازور ۋاقتى",
                "standard": "ئازور ئۆلچەملىك ۋاقتى",
                "daylight": "ئازور يازلىق ۋاقتى"
              }
            },
            "Bangladesh": {
              "long": {
                "generic": "باڭلادىش ۋاقتى",
                "standard": "باڭلادىش ئۆلچەملىك ۋاقتى",
                "daylight": "باڭلادىش يازلىق ۋاقتى"
              }
            },
            "Bhutan": {
              "long": {
                "standard": "بۇتان ۋاقتى"
              }
            },
            "Bolivia": {
              "long": {
                "standard": "بولىۋىيە ۋاقتى"
              }
            },
            "Brasilia": {
              "long": {
                "generic": "بىرازىلىيە ۋاقتى",
                "standard": "بىرازىلىيە ئۆلچەملىك ۋاقتى",
                "daylight": "بىرازىلىيە يازلىق ۋاقتى"
              }
            },
            "Brunei": {
              "long": {
                "standard": "بىرۇنىي دارۇسسالام ۋاقتى"
              }
            },
            "Cape_Verde": {
              "long": {
                "generic": "يېشىل تۇمشۇق ۋاقتى",
                "standard": "يېشىل تۇمشۇق ئۆلچەملىك ۋاقتى",
                "daylight": "يېشىل تۇمشۇق يازلىق ۋاقتى"
              }
            },
            "Casey": {
              "long": {
                "standard": "كاسېي ۋاقتى"
              }
            },
            "Chamorro": {
              "long": {
                "standard": "چاموررو ئۆلچەملىك ۋاقتى"
              }
            },
            "Chatham": {
              "long": {
                "generic": "چاتام ۋاقتى",
                "standard": "چاتام ئۆلچەملىك ۋاقتى",
                "daylight": "چاتام يازلىق ۋاقتى"
              }
            },
            "Chile": {
              "long": {
                "generic": "چىلى ۋاقتى",
                "standard": "چىلى ئۆلچەملىك ۋاقتى",
                "daylight": "چىلى يازلىق ۋاقتى"
              }
            },
            "China": {
              "long": {
                "generic": "جۇڭگو ۋاقتى",
                "standard": "جۇڭگو ئۆلچەملىك ۋاقتى",
                "daylight": "جۇڭگو يازلىق ۋاقتى"
              }
            },
            "Choibalsan": {
              "long": {
                "generic": "چويبالسان ۋاقتى",
                "standard": "چويبالسان ئۆلچەملىك ۋاقتى",
                "daylight": "چويبالسان يازلىق ۋاقتى"
              }
            },
            "Christmas": {
              "long": {
                "standard": "روژدېستۋو ئارىلى ۋاقتى"
              }
            },
            "Cocos": {
              "long": {
                "standard": "كوكۇس ئارىلى ۋاقتى"
              }
            },
            "Colombia": {
              "long": {
                "generic": "كولومبىيە ۋاقتى",
                "standard": "كولومبىيە ئۆلچەملىك ۋاقتى",
                "daylight": "كولومبىيە يازلىق ۋاقتى"
              }
            },
            "Cook": {
              "long": {
                "generic": "كۇك ئاراللىرى ۋاقتى",
                "standard": "كۇك ئاراللىرى ئۆلچەملىك ۋاقتى",
                "daylight": "كۇك ئاراللىرى يېرىم يازلىق ۋاقتى"
              }
            },
            "Cuba": {
              "long": {
                "generic": "كۇبا ۋاقتى",
                "standard": "كۇبا ئۆلچەملىك ۋاقتى",
                "daylight": "كۇبا يازلىق ۋاقتى"
              }
            },
            "Davis": {
              "long": {
                "standard": "داۋىس ۋاقتى"
              }
            },
            "DumontDUrville": {
              "long": {
                "standard": "دۇمونت-دۇرۋىل ۋاقتى"
              }
            },
            "East_Timor": {
              "long": {
                "standard": "شەرقىي تىمور ۋاقتى"
              }
            },
            "Easter": {
              "long": {
                "generic": "ئېستېر ئارىلى ۋاقتى",
                "standard": "پاسكاليا ئارىلى ئۆلچەملىك ۋاقتى",
                "daylight": "ئېستېر ئارىلى يازلىق ۋاقتى"
              }
            },
            "Ecuador": {
              "long": {
                "standard": "ئېكۋادور ۋاقتى"
              }
            },
            "Europe_Central": {
              "long": {
                "generic": "ئوتتۇرا ياۋروپا ۋاقتى",
                "standard": "ئوتتۇرا ياۋروپا ئۆلچەملىك ۋاقتى",
                "daylight": "ئوتتۇرا ياۋروپا يازلىق ۋاقتى"
              }
            },
            "Europe_Eastern": {
              "long": {
                "generic": "شەرقىي ياۋروپا ۋاقتى",
                "standard": "شەرقىي ياۋروپا ئۆلچەملىك ۋاقتى",
                "daylight": "شەرقىي ياۋروپا يازلىق ۋاقتى"
              }
            },
            "Europe_Western": {
              "long": {
                "generic": "غەربىي ياۋروپا ۋاقتى",
                "standard": "غەربىي ياۋروپا ئۆلچەملىك ۋاقتى",
                "daylight": "غەربىي ياۋروپا يازلىق ۋاقتى"
              }
            },
            "Falkland": {
              "long": {
                "generic": "فالكلاند ئاراللىرى ۋاقتى",
                "standard": "فالكلاند ئاراللىرى ئۆلچەملىك ۋاقتى",
                "daylight": "فالكلاند ئاراللىرى يازلىق ۋاقتى"
              }
            },
            "Fiji": {
              "long": {
                "generic": "فىجى ۋاقتى",
                "standard": "فىجى ئۆلچەملىك ۋاقتى",
                "daylight": "فىجى يازلىق ۋاقتى"
              }
            },
            "French_Guiana": {
              "long": {
                "standard": "فىرانسىيەگە قاراشلىق گىۋىيانا ۋاقتى"
              }
            },
            "French_Southern": {
              "long": {
                "standard": "فىرانسىيەگە قاراشلىق جەنۇبىي ۋە ئانتاركتىكا ۋاقتى"
              }
            },
            "GMT": {
              "long": {
                "standard": "گىرىنۋىچ ۋاقتى"
              }
            },
            "Galapagos": {
              "long": {
                "standard": "گالاپاگوس ۋاقتى"
              }
            },
            "Gambier": {
              "long": {
                "standard": "گامبىيېر ۋاقتى"
              }
            },
            "Georgia": {
              "long": {
                "generic": "گىرۇزىيە ۋاقتى",
                "standard": "گىرۇزىيە ئۆلچەملىك ۋاقتى",
                "daylight": "گىرۇزىيە يازلىق ۋاقتى"
              }
            },
            "Gilbert_Islands": {
              "long": {
                "standard": "گىلبېرت ئاراللىرى ۋاقتى"
              }
            },
            "Greenland_Eastern": {
              "long": {
                "generic": "شەرقىي گىرېنلاند ۋاقتى",
                "standard": "شەرقىي گىرېنلاند ئۆلچەملىك ۋاقتى",
                "daylight": "شەرقىي گىرېنلاند يازلىق ۋاقتى"
              }
            },
            "Greenland_Western": {
              "long": {
                "generic": "غەربىي گىرېنلاند ۋاقتى",
                "standard": "غەربىي گىرېنلاند ئۆلچەملىك ۋاقتى",
                "daylight": "غەربىي گىرېنلاند يازلىق ۋاقتى"
              }
            },
            "Guam": {
              "long": {
                "standard": "گۇئام ئۆلچەملىك ۋاقتى"
              }
            },
            "Gulf": {
              "long": {
                "standard": "گۇلف ئۆلچەملىك ۋاقتى"
              }
            },
            "Guyana": {
              "long": {
                "standard": "گىۋىيانا ۋاقتى"
              }
            },
            "Hawaii_Aleutian": {
              "long": {
                "generic": "ھاۋاي-ئالېيۇت ۋاقتى",
                "standard": "ھاۋاي-ئالېيۇت ئۆلچەملىك ۋاقتى",
                "daylight": "ھاۋاي-ئالېيۇت يازلىق ۋاقتى"
              }
            },
            "Hong_Kong": {
              "long": {
                "generic": "شياڭگاڭ ۋاقتى",
                "standard": "شياڭگاڭ ئۆلچەملىك ۋاقتى",
                "daylight": "شياڭگاڭ يازلىق ۋاقتى"
              }
            },
            "Hovd": {
              "long": {
                "generic": "خوۋد ۋاقتى",
                "standard": "خوۋد ئۆلچەملىك ۋاقتى",
                "daylight": "خوۋد يازلىق ۋاقتى"
              }
            },
            "India": {
              "long": {
                "standard": "ھىندىستان ئۆلچەملىك ۋاقتى"
              }
            },
            "Indian_Ocean": {
              "long": {
                "standard": "ھىندى ئوكيان ۋاقتى"
              }
            },
            "Indochina": {
              "long": {
                "standard": "ھىندى چىنى ۋاقتى"
              }
            },
            "Indonesia_Central": {
              "long": {
                "standard": "ئوتتۇرا ھىندونېزىيە ۋاقتى"
              }
            },
            "Indonesia_Eastern": {
              "long": {
                "standard": "شەرقىي ھىندونېزىيە ۋاقتى"
              }
            },
            "Indonesia_Western": {
              "long": {
                "standard": "غەربىي ھىندونېزىيە ۋاقتى"
              }
            },
            "Iran": {
              "long": {
                "generic": "ئىران ۋاقتى",
                "standard": "ئىران ئۆلچەملىك ۋاقتى",
                "daylight": "ئىران يازلىق ۋاقتى"
              }
            },
            "Irkutsk": {
              "long": {
                "generic": "ئىركۇتسك ۋاقتى",
                "standard": "ئىركۇتسك ئۆلچەملىك ۋاقتى",
                "daylight": "ئىركۇتسك يازلىق ۋاقتى"
              }
            },
            "Israel": {
              "long": {
                "generic": "ئىسرائىلىيە ۋاقتى",
                "standard": "ئىسرائىلىيە ئۆلچەملىك ۋاقتى",
                "daylight": "ئىسرائىلىيە يازلىق ۋاقتى"
              }
            },
            "Japan": {
              "long": {
                "generic": "ياپونىيە ۋاقتى",
                "standard": "ياپونىيە ئۆلچەملىك ۋاقتى",
                "daylight": "ياپونىيە يازلىق ۋاقتى"
              }
            },
            "Kamchatka": {
              "long": {
                "generic": "پېتروپاۋلوۋسك-كامچاتكسكى ۋاقتى",
                "standard": "پېتروپاۋلوۋسك-كامچاتكسكى ئۆلچەملىك ۋاقتى",
                "daylight": "پېتروپاۋلوۋسك-كامچاتكسكى يازلىق ۋاقتى"
              }
            },
            "Kazakhstan_Eastern": {
              "long": {
                "standard": "شەرقىي قازاقىستان ۋاقتى"
              }
            },
            "Kazakhstan_Western": {
              "long": {
                "standard": "غەربىي قازاقىستان ۋاقتى"
              }
            },
            "Korea": {
              "long": {
                "generic": "كورىيە ۋاقتى",
                "standard": "كورىيە ئۆلچەملىك ۋاقتى",
                "daylight": "كورىيە يازلىق ۋاقتى"
              }
            },
            "Kosrae": {
              "long": {
                "standard": "كوسرائې ۋاقتى"
              }
            },
            "Krasnoyarsk": {
              "long": {
                "generic": "كىراسنويارسك ۋاقتى",
                "standard": "كىراسنويارسك ئۆلچەملىك ۋاقتى",
                "daylight": "كىراسنويارسك يازلىق ۋاقتى"
              }
            },
            "Kyrgystan": {
              "long": {
                "standard": "قىرغىزىستان ۋاقتى"
              }
            },
            "Lanka": {
              "long": {
                "standard": "سىرى لانكا ۋاقتى"
              }
            },
            "Line_Islands": {
              "long": {
                "standard": "لاين ئاراللىرى ۋاقتى"
              }
            },
            "Lord_Howe": {
              "long": {
                "generic": "لورد-خاي ۋاقتى",
                "standard": "لورد-خاي ئۆلچەملىك ۋاقتى",
                "daylight": "لورد-خاي يازلىق ۋاقتى"
              }
            },
            "Macau": {
              "long": {
                "generic": "ئاۋمېن ۋاقتى",
                "standard": "ئاۋمېن ئۆلچەملىك ۋاقتى",
                "daylight": "ئاۋمېن يازلىق ۋاقتى"
              }
            },
            "Macquarie": {
              "long": {
                "standard": "ماككۇۋارى ئاراللىرى ۋاقتى"
              }
            },
            "Magadan": {
              "long": {
                "generic": "ماگادان ۋاقتى",
                "standard": "ماگادان ئۆلچەملىك ۋاقتى",
                "daylight": "ماگادان يازلىق ۋاقتى"
              }
            },
            "Malaysia": {
              "long": {
                "standard": "مالايشىيا ۋاقتى"
              }
            },
            "Maldives": {
              "long": {
                "standard": "مالدىۋې ۋاقتى"
              }
            },
            "Marquesas": {
              "long": {
                "standard": "ماركىز ۋاقتى"
              }
            },
            "Marshall_Islands": {
              "long": {
                "standard": "مارشال ئاراللىرى ۋاقتى"
              }
            },
            "Mauritius": {
              "long": {
                "generic": "ماۋرىتىئۇس ۋاقتى",
                "standard": "ماۋرىتىئۇس ئۆلچەملىك ۋاقتى",
                "daylight": "ماۋرىتىئۇس يازلىق ۋاقتى"
              }
            },
            "Mawson": {
              "long": {
                "standard": "ماۋسون ۋاقتى"
              }
            },
            "Mexico_Northwest": {
              "long": {
                "generic": "مېكسىكا غەربىي شىمالىي قىسىم ۋاقتى",
                "standard": "مېكسىكا غەربىي شىمالىي قىسىم ئۆلچەملىك ۋاقتى",
                "daylight": "مېكسىكا غەربىي شىمالىي قىسىم يازلىق ۋاقتى"
              }
            },
            "Mexico_Pacific": {
              "long": {
                "generic": "مېكسىكا تىنچ ئوكيان ۋاقتى",
                "standard": "مېكسىكا تىنچ ئوكيان ئۆلچەملىك ۋاقتى",
                "daylight": "مېكسىكا تىنچ ئوكيان يازلىق ۋاقتى"
              }
            },
            "Mongolia": {
              "long": {
                "generic": "ئۇلانباتور ۋاقتى",
                "standard": "ئۇلانباتور ئۆلچەملىك ۋاقتى",
                "daylight": "ئۇلانباتور يازلىق ۋاقتى"
              }
            },
            "Moscow": {
              "long": {
                "generic": "موسكۋا ۋاقتى",
                "standard": "موسكۋا ئۆلچەملىك ۋاقتى",
                "daylight": "موسكۋا يازلىق ۋاقتى"
              }
            },
            "Myanmar": {
              "long": {
                "standard": "بىرما ۋاقتى"
              }
            },
            "Nauru": {
              "long": {
                "standard": "ناۋرۇ ۋاقتى"
              }
            },
            "Nepal": {
              "long": {
                "standard": "نېپال ۋاقتى"
              }
            },
            "New_Caledonia": {
              "long": {
                "generic": "يېڭى كالېدونىيە ۋاقتى",
                "standard": "يېڭى كالېدونىيە ئۆلچەملىك ۋاقتى",
                "daylight": "يېڭى كالېدونىيە يازلىق ۋاقتى"
              }
            },
            "New_Zealand": {
              "long": {
                "generic": "يېڭى زېلاندىيە ۋاقتى",
                "standard": "يېڭى زېلاندىيە ئۆلچەملىك ۋاقتى",
                "daylight": "يېڭى زېلاندىيە يازلىق ۋاقتى"
              }
            },
            "Newfoundland": {
              "long": {
                "generic": "نىۋفوئۇنلاند ۋاقتى",
                "standard": "نىۋفوئۇنلاند ئۆلچەملىك ۋاقتى",
                "daylight": "نىۋفوئۇنلاند يازلىق ۋاقتى"
              }
            },
            "Niue": {
              "long": {
                "standard": "نىيۇئې ۋاقتى"
              }
            },
            "Norfolk": {
              "long": {
                "standard": "نورفولك ئاراللىرى ۋاقتى"
              }
            },
            "Noronha": {
              "long": {
                "generic": "فېرناندو-نورونخا ۋاقتى",
                "standard": "فېرناندو-نورونخا ئۆلچەملىك ۋاقتى",
                "daylight": "فېرناندو-نورونخا يازلىق ۋاقتى"
              }
            },
            "North_Mariana": {
              "long": {
                "standard": "شىمالىي مارىيانا ئاراللىرى ۋاقتى"
              }
            },
            "Novosibirsk": {
              "long": {
                "generic": "نوۋوسىبىرسك ۋاقتى",
                "standard": "نوۋوسىبىرسك ئۆلچەملىك ۋاقتى",
                "daylight": "نوۋوسىبىرسك يازلىق ۋاقتى"
              }
            },
            "Omsk": {
              "long": {
                "generic": "ئومسك ۋاقتى",
                "standard": "ئومسك ئۆلچەملىك ۋاقتى",
                "daylight": "ئومسك يازلىق ۋاقتى"
              }
            },
            "Pakistan": {
              "long": {
                "generic": "پاكىستان ۋاقتى",
                "standard": "پاكىستان ئۆلچەملىك ۋاقتى",
                "daylight": "پاكىستان يازلىق ۋاقتى"
              }
            },
            "Palau": {
              "long": {
                "standard": "پالاۋ ۋاقتى"
              }
            },
            "Papua_New_Guinea": {
              "long": {
                "standard": "پاپۇئا يېڭى گىۋىنېيەسى ۋاقتى"
              }
            },
            "Paraguay": {
              "long": {
                "generic": "پاراگۋاي ۋاقتى",
                "standard": "پاراگۋاي ئۆلچەملىك ۋاقتى",
                "daylight": "پاراگۋاي يازلىق ۋاقتى"
              }
            },
            "Peru": {
              "long": {
                "generic": "پېرۇ ۋاقتى",
                "standard": "پېرۇ ئۆلچەملىك ۋاقتى",
                "daylight": "پېرۇ يازلىق ۋاقتى"
              }
            },
            "Philippines": {
              "long": {
                "generic": "فىلىپپىن ۋاقتى",
                "standard": "فىلىپپىن ئۆلچەملىك ۋاقتى",
                "daylight": "فىلىپپىن يازلىق ۋاقتى"
              }
            },
            "Phoenix_Islands": {
              "long": {
                "standard": "فېنىكس ئاراللىرى ۋاقتى"
              }
            },
            "Pierre_Miquelon": {
              "long": {
                "generic": "ساينىت پىئېر ۋە مىكېلون ۋاقتى",
                "standard": "ساينىت پىئېر ۋە مىكېلون ئۆلچەملىك ۋاقتى",
                "daylight": "ساينىت پىئېر ۋە مىكېلون يازلىق ۋاقتى"
              }
            },
            "Pitcairn": {
              "long": {
                "standard": "پىتكاير ۋاقتى"
              }
            },
            "Ponape": {
              "long": {
                "standard": "پونپېي ۋاقتى"
              }
            },
            "Qyzylorda": {
              "long": {
                "generic": "قىزىلئوردا ۋاقتى",
                "standard": "قىزىلئوردا ئۆلچەملىك ۋاقتى",
                "daylight": "قىزىلئوردا يازلىق ۋاقتى"
              }
            },
            "Reunion": {
              "long": {
                "standard": "رېئونىيون ۋاقتى"
              }
            },
            "Rothera": {
              "long": {
                "standard": "روتېرا ۋاقتى"
              }
            },
            "Sakhalin": {
              "long": {
                "generic": "ساخارىن ۋاقتى",
                "standard": "ساخارىن ئۆلچەملىك ۋاقتى",
                "daylight": "ساخارىن يازلىق ۋاقتى"
              }
            },
            "Samara": {
              "long": {
                "generic": "سامارا ۋاقتى",
                "standard": "سامارا ئۆلچەملىك ۋاقتى",
                "daylight": "سامارا يازلىق ۋاقتى"
              }
            },
            "Samoa": {
              "long": {
                "generic": "ساموئا ۋاقتى",
                "standard": "ساموئا ئۆلچەملىك ۋاقتى",
                "daylight": "سەمەرقەنت يازلىق ۋاقتى"
              }
            },
            "Seychelles": {
              "long": {
                "standard": "سېيشېل ۋاقتى"
              }
            },
            "Singapore": {
              "long": {
                "standard": "سىنگاپور ۋاقتى"
              }
            },
            "Solomon": {
              "long": {
                "standard": "سولومون ئاراللىرى ۋاقتى"
              }
            },
            "South_Georgia": {
              "long": {
                "standard": "جەنۇبىي جورجىيە ۋاقتى"
              }
            },
            "Suriname": {
              "long": {
                "standard": "سۇرىنام ۋاقتى"
              }
            },
            "Syowa": {
              "long": {
                "standard": "شوۋا ۋاقتى"
              }
            },
            "Tahiti": {
              "long": {
                "standard": "تايتى ۋاقتى"
              }
            },
            "Taipei": {
              "long": {
                "generic": "تەيبېي ۋاقتى",
                "standard": "تەيبېي ئۆلچەملىك ۋاقتى",
                "daylight": "تەيبېي يازلىق ۋاقتى"
              }
            },
            "Tajikistan": {
              "long": {
                "standard": "تاجىكىستان ۋاقتى"
              }
            },
            "Tokelau": {
              "long": {
                "standard": "توكېلاۋ ۋاقتى"
              }
            },
            "Tonga": {
              "long": {
                "generic": "تونگا ۋاقتى",
                "standard": "تونگا ئۆلچەملىك ۋاقتى",
                "daylight": "تونگا يازلىق ۋاقتى"
              }
            },
            "Truk": {
              "long": {
                "standard": "چۇك ۋاقتى"
              }
            },
            "Turkmenistan": {
              "long": {
                "generic": "تۈركمەنىستان ۋاقتى",
                "standard": "تۈركمەنىستان ئۆلچەملىك ۋاقتى",
                "daylight": "تۈركمەنىستان يازلىق ۋاقتى"
              }
            },
            "Tuvalu": {
              "long": {
                "standard": "تۇۋالۇ ۋاقتى"
              }
            },
            "Uruguay": {
              "long": {
                "generic": "ئۇرۇگۋاي ۋاقتى",
                "standard": "ئۇرۇگۋاي ئۆلچەملىك ۋاقتى",
                "daylight": "ئۇرۇگۋاي يازلىق ۋاقتى"
              }
            },
            "Uzbekistan": {
              "long": {
                "generic": "ئۆزبېكىستان ۋاقتى",
                "standard": "ئۆزبېكىستان ئۆلچەملىك ۋاقتى",
                "daylight": "ئۆزبېكىستان يازلىق ۋاقتى"
              }
            },
            "Vanuatu": {
              "long": {
                "generic": "ۋانۇئاتۇ ۋاقتى",
                "standard": "ۋانۇئاتۇ ئۆلچەملىك ۋاقتى",
                "daylight": "ۋانۇئاتۇ يازلىق ۋاقتى"
              }
            },
            "Venezuela": {
              "long": {
                "standard": "ۋېنېزۇئېلا ۋاقتى"
              }
            },
            "Vladivostok": {
              "long": {
                "generic": "ۋىلادىۋوستوك ۋاقتى",
                "standard": "ۋىلادىۋوستوك ئۆلچەملىك ۋاقتى",
                "daylight": "ۋىلادىۋوستوك يازلىق ۋاقتى"
              }
            },
            "Volgograd": {
              "long": {
                "generic": "ۋولگاگراد ۋاقتى",
                "standard": "ۋولگاگراد ئۆلچەملىك ۋاقتى",
                "daylight": "ۋولگاگراد يازلىق ۋاقتى"
              }
            },
            "Vostok": {
              "long": {
                "standard": "ۋوستوك ۋاقتى"
              }
            },
            "Wake": {
              "long": {
                "standard": "ۋېيك ئارىلى ۋاقتى"
              }
            },
            "Wallis": {
              "long": {
                "standard": "ۋاللىس ۋە فۇتۇنا ۋاقتى"
              }
            },
            "Yakutsk": {
              "long": {
                "generic": "ياكۇتسك ۋاقتى",
                "standard": "ياكۇتسك ئۆلچەملىك ۋاقتى",
                "daylight": "ياكۇتسك يازلىق ۋاقتى"
              }
            },
            "Yekaterinburg": {
              "long": {
                "generic": "يېكاتېرىنبۇرگ ۋاقتى",
                "standard": "يېكاتېرىنبۇرگ ئۆلچەملىك ۋاقتى",
                "daylight": "يېكاتېرىنبۇرگ يازلىق ۋاقتى"
              }
            }
          }
        }
      }
    }
  }
}
