{
  "main": {
    "nb-SJ": {
      "identity": {
        "version": {
          "_cldrVersion": "26",
          "_number": "$Revision: 10669 $"
        },
        "generation": {
          "_date": "$Date: 2014-07-23 16:10:33 -0500 (Wed, 23 Jul 2014) $"
        },
        "language": "nb",
        "territory": "SJ"
      },
      "dates": {
        "calendars": {
          "buddhist": {
            "months": {
              "format": {
                "abbreviated": {
                  "1": "jan.",
                  "2": "feb.",
                  "3": "mar.",
                  "4": "apr.",
                  "5": "mai",
                  "6": "jun.",
                  "7": "jul.",
                  "8": "aug.",
                  "9": "sep.",
                  "10": "okt.",
                  "11": "nov.",
                  "12": "des."
                },
                "narrow": {
                  "1": "J",
                  "2": "F",
                  "3": "M",
                  "4": "A",
                  "5": "M",
                  "6": "J",
                  "7": "J",
                  "8": "A",
                  "9": "S",
                  "10": "O",
                  "11": "N",
                  "12": "D"
                },
                "wide": {
                  "1": "januar",
                  "2": "februar",
                  "3": "mars",
                  "4": "april",
                  "5": "mai",
                  "6": "juni",
                  "7": "juli",
                  "8": "august",
                  "9": "september",
                  "10": "oktober",
                  "11": "november",
                  "12": "desember"
                }
              },
              "stand-alone": {
                "abbreviated": {
                  "1": "jan",
                  "2": "feb",
                  "3": "mar",
                  "4": "apr",
                  "5": "mai",
                  "6": "jun",
                  "7": "jul",
                  "8": "aug",
                  "9": "sep",
                  "10": "okt",
                  "11": "nov",
                  "12": "des"
                },
                "narrow": {
                  "1": "J",
                  "2": "F",
                  "3": "M",
                  "4": "A",
                  "5": "M",
                  "6": "J",
                  "7": "J",
                  "8": "A",
                  "9": "S",
                  "10": "O",
                  "11": "N",
                  "12": "D"
                },
                "wide": {
                  "1": "januar",
                  "2": "februar",
                  "3": "mars",
                  "4": "april",
                  "5": "mai",
                  "6": "juni",
                  "7": "juli",
                  "8": "august",
                  "9": "september",
                  "10": "oktober",
                  "11": "november",
                  "12": "desember"
                }
              }
            },
            "days": {
              "format": {
                "abbreviated": {
                  "sun": "søn.",
                  "mon": "man.",
                  "tue": "tir.",
                  "wed": "ons.",
                  "thu": "tor.",
                  "fri": "fre.",
                  "sat": "lør."
                },
                "narrow": {
                  "sun": "S",
                  "mon": "M",
                  "tue": "T",
                  "wed": "O",
                  "thu": "T",
                  "fri": "F",
                  "sat": "L"
                },
                "short": {
                  "sun": "sø.",
                  "mon": "ma.",
                  "tue": "ti.",
                  "wed": "on.",
                  "thu": "to.",
                  "fri": "fr.",
                  "sat": "lø."
                },
                "wide": {
                  "sun": "søndag",
                  "mon": "mandag",
                  "tue": "tirsdag",
                  "wed": "onsdag",
                  "thu": "torsdag",
                  "fri": "fredag",
                  "sat": "lørdag"
                }
              },
              "stand-alone": {
                "abbreviated": {
                  "sun": "sø.",
                  "mon": "ma.",
                  "tue": "ti.",
                  "wed": "on.",
                  "thu": "to.",
                  "fri": "fr.",
                  "sat": "lø."
                },
                "narrow": {
                  "sun": "S",
                  "mon": "M",
                  "tue": "T",
                  "wed": "O",
                  "thu": "T",
                  "fri": "F",
                  "sat": "L"
                },
                "short": {
                  "sun": "sø.",
                  "mon": "ma.",
                  "tue": "ti.",
                  "wed": "on.",
                  "thu": "to.",
                  "fri": "fr.",
                  "sat": "lø."
                },
                "wide": {
                  "sun": "søndag",
                  "mon": "mandag",
                  "tue": "tirsdag",
                  "wed": "onsdag",
                  "thu": "torsdag",
                  "fri": "fredag",
                  "sat": "lørdag"
                }
              }
            },
            "quarters": {
              "format": {
                "abbreviated": {
                  "1": "K1",
                  "2": "K2",
                  "3": "K3",
                  "4": "K4"
                },
                "narrow": {
                  "1": "1",
                  "2": "2",
                  "3": "3",
                  "4": "4"
                },
                "wide": {
                  "1": "1. kvartal",
                  "2": "2. kvartal",
                  "3": "3. kvartal",
                  "4": "4. kvartal"
                }
              },
              "stand-alone": {
                "abbreviated": {
                  "1": "K1",
                  "2": "K2",
                  "3": "K3",
                  "4": "K4"
                },
                "narrow": {
                  "1": "1",
                  "2": "2",
                  "3": "3",
                  "4": "4"
                },
                "wide": {
                  "1": "1. kvartal",
                  "2": "2. kvartal",
                  "3": "3. kvartal",
                  "4": "4. kvartal"
                }
              }
            },
            "dayPeriods": {
              "format": {
                "abbreviated": {
                  "am": "a.m.",
                  "noon": "kl. 12",
                  "pm": "p.m."
                },
                "narrow": {
                  "am": "a",
                  "noon": "12",
                  "pm": "p"
                },
                "wide": {
                  "am": "a.m.",
                  "noon": "kl. 12",
                  "pm": "p.m."
                }
              },
              "stand-alone": {
                "abbreviated": {
                  "am": "a.m.",
                  "noon": "kl. 12",
                  "pm": "p.m."
                },
                "narrow": {
                  "am": "a",
                  "noon": "12",
                  "pm": "p"
                },
                "wide": {
                  "am": "AM",
                  "noon": "kl. 12",
                  "pm": "PM"
                }
              }
            },
            "eras": {
              "eraNames": {
                "0": "BE"
              },
              "eraAbbr": {
                "0": "BE"
              },
              "eraNarrow": {
                "0": "BE"
              }
            },
            "dateFormats": {
              "full": "EEEE d. MMMM y G",
              "long": "d. MMMM y G",
              "medium": "d. MMM y G",
              "short": "d.M. y G"
            },
            "timeFormats": {
              "full": "HH.mm.ss zzzz",
              "long": "HH.mm.ss z",
              "medium": "HH.mm.ss",
              "short": "HH.mm"
            },
            "dateTimeFormats": {
              "full": "{1} {0}",
              "long": "{1} {0}",
              "medium": "{1} {0}",
              "short": "{1} {0}",
              "availableFormats": {
                "E": "ccc",
                "EHm": "E HH:mm",
                "EHms": "E HH:mm:ss",
                "Ed": "E d.",
                "Ehm": "E h:mm a",
                "Ehms": "E h:mm:ss a",
                "Gy": "y G",
                "GyMMM": "MMM y G",
                "GyMMMEd": "E d. MMM y G",
                "GyMMMd": "d. MMM y G",
                "H": "HH",
                "Hm": "HH.mm",
                "Hms": "HH.mm.ss",
                "M": "L.",
                "MEd": "E d.M",
                "MMM": "LLL",
                "MMMEd": "E d. MMM",
                "MMMd": "d. MMM",
                "MMdd": "d.M.",
                "Md": "d.M.",
                "d": "d.",
                "h": "h a",
                "hm": "h.mm a",
                "hms": "h.mm.ss a",
                "ms": "mm.ss",
                "y": "y G",
                "yyyy": "y G",
                "yyyyM": "M.y G",
                "yyyyMEd": "E d.M.y G",
                "yyyyMM": "MM.y G",
                "yyyyMMM": "MMM y G",
                "yyyyMMMEd": "E d. MMM y G",
                "yyyyMMMM": "MMMM y G",
                "yyyyMMMd": "d. MMM y G",
                "yyyyMd": "d.M.y G",
                "yyyyQQQ": "QQQ y G",
                "yyyyQQQQ": "QQQQ y G"
              },
              "appendItems": {
                "Day": "{0} ({2}: {1})",
                "Day-Of-Week": "{0} {1}",
                "Era": "{1} {0}",
                "Hour": "{0} ({2}: {1})",
                "Minute": "{0} ({2}: {1})",
                "Month": "{0} ({2}: {1})",
                "Quarter": "{0} ({2}: {1})",
                "Second": "{0} ({2}: {1})",
                "Timezone": "{0} {1}",
                "Week": "{0} ({2}: {1})",
                "Year": "{1} {0}"
              },
              "intervalFormats": {
                "intervalFormatFallback": "{0}–{1}",
                "H": {
                  "H": "HH–HH"
                },
                "Hm": {
                  "H": "HH.mm–HH.mm",
                  "m": "HH.mm–HH.mm"
                },
                "Hmv": {
                  "H": "HH.mm–HH.mm v",
                  "m": "HH.mm–HH.mm v"
                },
                "Hv": {
                  "H": "HH–HH v"
                },
                "M": {
                  "M": "M.–M."
                },
                "MEd": {
                  "M": "E d.M.–E d.M.",
                  "d": "E d.M.–E d.M."
                },
                "MMM": {
                  "M": "MMM–MMM"
                },
                "MMMEd": {
                  "M": "E d. MMM–E d. MMM",
                  "d": "E d. MMM–E d. MMM"
                },
                "MMMd": {
                  "M": "d. MMM–d. MMM",
                  "d": "d.–d. MMM"
                },
                "Md": {
                  "M": "d.M.–d.M.",
                  "d": "d.M.–d.M."
                },
                "d": {
                  "d": "d.–d."
                },
                "h": {
                  "a": "h a – h a",
                  "h": "h–h a"
                },
                "hm": {
                  "a": "h.mm a – h.mm a",
                  "h": "h.mm–h.mm a",
                  "m": "h.mm–h.mm a"
                },
                "hmv": {
                  "a": "h.mm a – h.mm a v",
                  "h": "h.mm–h.mm a v",
                  "m": "h.mm–h.mm a v"
                },
                "hv": {
                  "a": "h a – h a v",
                  "h": "h–h a v"
                },
                "y": {
                  "y": "y–y G"
                },
                "yM": {
                  "M": "M.y–M.y G",
                  "y": "M.y–M.y G"
                },
                "yMEd": {
                  "M": "E d.M.y–E d.M.y G",
                  "d": "E d.M.y–E d.M.y G",
                  "y": "E d.M.y–E d.M.y G"
                },
                "yMMM": {
                  "M": "MMM–MMM y G",
                  "y": "MMM y–MMM y G"
                },
                "yMMMEd": {
                  "M": "E d. MMM–E d. MMM y G",
                  "d": "E d. MMM–E d. MMM y G",
                  "y": "E d. MMM y–E d. MMM y G"
                },
                "yMMMM": {
                  "M": "MMMM–MMMM y G",
                  "y": "MMMM y–MMMM y G"
                },
                "yMMMd": {
                  "M": "d. MMM–d. MMM y G",
                  "d": "d.–d. MMM y G",
                  "y": "d. MMM y–d. MMM y G"
                },
                "yMd": {
                  "M": "d.M.y–d.M.y G",
                  "d": "d.M.y–d.M.y G",
                  "y": "d.M.y–d.M.y G"
                }
              }
            }
          }
        }
      }
    }
  }
}
