{
  "main": {
    "sn-ZW": {
      "identity": {
        "version": {
          "_cldrVersion": "26",
          "_number": "$Revision: 10669 $"
        },
        "generation": {
          "_date": "$Date: 2014-07-23 16:10:33 -0500 (Wed, 23 Jul 2014) $"
        },
        "language": "root",
        "territory": "ZW"
      },
      "dates": {
        "calendars": {
          "buddhist": {
            "months": {
              "format": {
                "abbreviated": {
                  "1": "Ndi",
                  "2": "Kuk",
                  "3": "Kur",
                  "4": "Kub",
                  "5": "Chv",
                  "6": "Chk",
                  "7": "Chg",
                  "8": "Nya",
                  "9": "Gun",
                  "10": "Gum",
                  "11": "Mb",
                  "12": "Zvi"
                },
                "narrow": {
                  "1": "N",
                  "2": "K",
                  "3": "K",
                  "4": "K",
                  "5": "C",
                  "6": "C",
                  "7": "C",
                  "8": "N",
                  "9": "G",
                  "10": "G",
                  "11": "M",
                  "12": "Z"
                },
                "wide": {
                  "1": "Ndira",
                  "2": "Kukadzi",
                  "3": "Kurume",
                  "4": "Kubvumbi",
                  "5": "Chivabvu",
                  "6": "Chikumi",
                  "7": "Chikunguru",
                  "8": "Nyamavhuvhu",
                  "9": "Gunyana",
                  "10": "Gumiguru",
                  "11": "Mbudzi",
                  "12": "Zvita"
                }
              },
              "stand-alone": {
                "abbreviated": {
                  "1": "Ndi",
                  "2": "Kuk",
                  "3": "Kur",
                  "4": "Kub",
                  "5": "Chv",
                  "6": "Chk",
                  "7": "Chg",
                  "8": "Nya",
                  "9": "Gun",
                  "10": "Gum",
                  "11": "Mb",
                  "12": "Zvi"
                },
                "narrow": {
                  "1": "N",
                  "2": "K",
                  "3": "K",
                  "4": "K",
                  "5": "C",
                  "6": "C",
                  "7": "C",
                  "8": "N",
                  "9": "G",
                  "10": "G",
                  "11": "M",
                  "12": "Z"
                },
                "wide": {
                  "1": "Ndira",
                  "2": "Kukadzi",
                  "3": "Kurume",
                  "4": "Kubvumbi",
                  "5": "Chivabvu",
                  "6": "Chikumi",
                  "7": "Chikunguru",
                  "8": "Nyamavhuvhu",
                  "9": "Gunyana",
                  "10": "Gumiguru",
                  "11": "Mbudzi",
                  "12": "Zvita"
                }
              }
            },
            "days": {
              "format": {
                "abbreviated": {
                  "sun": "Svo",
                  "mon": "Muv",
                  "tue": "Chip",
                  "wed": "Chit",
                  "thu": "Chin",
                  "fri": "Chis",
                  "sat": "Mug"
                },
                "narrow": {
                  "sun": "S",
                  "mon": "M",
                  "tue": "C",
                  "wed": "C",
                  "thu": "C",
                  "fri": "C",
                  "sat": "M"
                },
                "short": {
                  "sun": "Svo",
                  "mon": "Muv",
                  "tue": "Chip",
                  "wed": "Chit",
                  "thu": "Chin",
                  "fri": "Chis",
                  "sat": "Mug"
                },
                "wide": {
                  "sun": "Svondo",
                  "mon": "Muvhuro",
                  "tue": "Chipiri",
                  "wed": "Chitatu",
                  "thu": "China",
                  "fri": "Chishanu",
                  "sat": "Mugovera"
                }
              },
              "stand-alone": {
                "abbreviated": {
                  "sun": "Svo",
                  "mon": "Muv",
                  "tue": "Chip",
                  "wed": "Chit",
                  "thu": "Chin",
                  "fri": "Chis",
                  "sat": "Mug"
                },
                "narrow": {
                  "sun": "S",
                  "mon": "M",
                  "tue": "C",
                  "wed": "C",
                  "thu": "C",
                  "fri": "C",
                  "sat": "M"
                },
                "short": {
                  "sun": "Svo",
                  "mon": "Muv",
                  "tue": "Chip",
                  "wed": "Chit",
                  "thu": "Chin",
                  "fri": "Chis",
                  "sat": "Mug"
                },
                "wide": {
                  "sun": "Svondo",
                  "mon": "Muvhuro",
                  "tue": "Chipiri",
                  "wed": "Chitatu",
                  "thu": "China",
                  "fri": "Chishanu",
                  "sat": "Mugovera"
                }
              }
            },
            "quarters": {
              "format": {
                "abbreviated": {
                  "1": "K1",
                  "2": "K2",
                  "3": "K3",
                  "4": "K4"
                },
                "narrow": {
                  "1": "1",
                  "2": "2",
                  "3": "3",
                  "4": "4"
                },
                "wide": {
                  "1": "Kota 1",
                  "2": "Kota 2",
                  "3": "Kota 3",
                  "4": "Kota 4"
                }
              },
              "stand-alone": {
                "abbreviated": {
                  "1": "K1",
                  "2": "K2",
                  "3": "K3",
                  "4": "K4"
                },
                "narrow": {
                  "1": "1",
                  "2": "2",
                  "3": "3",
                  "4": "4"
                },
                "wide": {
                  "1": "Kota 1",
                  "2": "Kota 2",
                  "3": "Kota 3",
                  "4": "Kota 4"
                }
              }
            },
            "dayPeriods": {
              "format": {
                "abbreviated": {
                  "am": "AM",
                  "noon": "noon",
                  "pm": "PM"
                },
                "narrow": {
                  "am": "a",
                  "noon": "n",
                  "pm": "p"
                },
                "wide": {
                  "am": "AM",
                  "noon": "noon",
                  "pm": "PM"
                }
              },
              "stand-alone": {
                "abbreviated": {
                  "am": "AM",
                  "noon": "noon",
                  "pm": "PM"
                },
                "narrow": {
                  "am": "a",
                  "noon": "n",
                  "pm": "p"
                },
                "wide": {
                  "am": "AM",
                  "noon": "noon",
                  "pm": "PM"
                }
              }
            },
            "eras": {
              "eraNames": {
                "0": "BE"
              },
              "eraAbbr": {
                "0": "BE"
              },
              "eraNarrow": {
                "0": "BE"
              }
            },
            "dateFormats": {
              "full": "EEEE, d MMMM y G",
              "long": "d MMMM y G",
              "medium": "d MMM y G",
              "short": "dd/MM/y GGGGG"
            },
            "timeFormats": {
              "full": "h:mm:ss a zzzz",
              "long": "h:mm:ss a z",
              "medium": "h:mm:ss a",
              "short": "h:mm a"
            },
            "dateTimeFormats": {
              "full": "{1} {0}",
              "long": "{1} {0}",
              "medium": "{1} {0}",
              "short": "{1} {0}",
              "availableFormats": {
                "E": "ccc",
                "EHm": "E HH:mm",
                "EHms": "E HH:mm:ss",
                "Ed": "d, E",
                "Ehm": "E h:mm a",
                "Ehms": "E h:mm:ss a",
                "Gy": "G y",
                "GyMMM": "G y MMM",
                "GyMMMEd": "G y MMM d, E",
                "GyMMMd": "G y MMM d",
                "H": "HH",
                "Hm": "HH:mm",
                "Hms": "HH:mm:ss",
                "M": "L",
                "MEd": "E, M/d",
                "MMM": "LLL",
                "MMMEd": "E, MMM d",
                "MMMMEd": "E, MMMM d",
                "MMMMd": "MMMM d",
                "MMMd": "MMM d",
                "Md": "M/d",
                "d": "d",
                "h": "h a",
                "hm": "h:mm a",
                "hms": "h:mm:ss a",
                "ms": "mm:ss",
                "y": "y",
                "yM": "M/y",
                "yMEd": "E, M/d/y",
                "yMMM": "MMM y",
                "yMMMEd": "E, MMM d, y",
                "yMMMM": "MMMM y",
                "yQQQ": "QQQ y",
                "yQQQQ": "QQQQ y",
                "yyyy": "G y",
                "yyyyM": "GGGGG y-MM",
                "yyyyMEd": "GGGGG y-MM-dd, E",
                "yyyyMMM": "G y MMM",
                "yyyyMMMEd": "G y MMM d, E",
                "yyyyMMMd": "G y MMM d",
                "yyyyMd": "GGGGG y-MM-dd",
                "yyyyQQQ": "G y QQQ",
                "yyyyQQQQ": "G y QQQQ"
              },
              "appendItems": {
                "Day": "{0} ({2}: {1})",
                "Day-Of-Week": "{0} {1}",
                "Era": "{1} {0}",
                "Hour": "{0} ({2}: {1})",
                "Minute": "{0} ({2}: {1})",
                "Month": "{0} ({2}: {1})",
                "Quarter": "{0} ({2}: {1})",
                "Second": "{0} ({2}: {1})",
                "Timezone": "{0} {1}",
                "Week": "{0} ({2}: {1})",
                "Year": "{1} {0}"
              },
              "intervalFormats": {
                "intervalFormatFallback": "{0} – {1}",
                "H": {
                  "H": "HH–HH"
                },
                "Hm": {
                  "H": "HH:mm–HH:mm",
                  "m": "HH:mm–HH:mm"
                },
                "Hmv": {
                  "H": "HH:mm–HH:mm v",
                  "m": "HH:mm–HH:mm v"
                },
                "Hv": {
                  "H": "HH–HH v"
                },
                "M": {
                  "M": "MM–MM"
                },
                "MEd": {
                  "M": "MM-dd, E – MM-dd, E",
                  "d": "MM-dd, E – MM-dd, E"
                },
                "MMM": {
                  "M": "LLL–LLL"
                },
                "MMMEd": {
                  "M": "MMM d, E – MMM d, E",
                  "d": "MMM d, E – MMM d, E"
                },
                "MMMd": {
                  "M": "MMM d – MMM d",
                  "d": "MMM d–d"
                },
                "Md": {
                  "M": "MM-dd – MM-dd",
                  "d": "MM-dd – MM-dd"
                },
                "d": {
                  "d": "d–d"
                },
                "h": {
                  "a": "h a – h a",
                  "h": "h–h a"
                },
                "hm": {
                  "a": "h:mm a – h:mm a",
                  "h": "h:mm–h:mm a",
                  "m": "h:mm–h:mm a"
                },
                "hmv": {
                  "a": "h:mm a – h:mm a v",
                  "h": "h:mm–h:mm a v",
                  "m": "h:mm–h:mm a v"
                },
                "hv": {
                  "a": "h a – h a v",
                  "h": "h–h a v"
                },
                "y": {
                  "y": "G y–y"
                },
                "yM": {
                  "M": "GGGGG y-MM – y-MM",
                  "y": "GGGGG y-MM – y-MM"
                },
                "yMEd": {
                  "M": "GGGGG y-MM-dd, E – y-MM-dd, E",
                  "d": "GGGGG y-MM-dd, E – y-MM-dd, E",
                  "y": "GGGGG y-MM-dd, E – y-MM-dd, E"
                },
                "yMMM": {
                  "M": "G y MMM–MMM",
                  "y": "G y MMM – y MMM"
                },
                "yMMMEd": {
                  "M": "G y MMM d, E – MMM d, E",
                  "d": "G y MMM d, E – MMM d, E",
                  "y": "G y MMM d, E – y MMM d, E"
                },
                "yMMMM": {
                  "M": "G y MMMM–MMMM",
                  "y": "G y MMMM – y MMMM"
                },
                "yMMMd": {
                  "M": "G y MMM d – MMM d",
                  "d": "G y MMM d–d",
                  "y": "G y MMM d – y MMM d"
                },
                "yMd": {
                  "M": "GGGGG y-MM-dd – y-MM-dd",
                  "d": "GGGGG y-MM-dd – y-MM-dd",
                  "y": "GGGGG y-MM-dd – y-MM-dd"
                }
              }
            }
          }
        }
      }
    }
  }
}
