{
  "main": {
    "hsb": {
      "identity": {
        "version": {
          "_cldrVersion": "26",
          "_number": "$Revision: 10809 $"
        },
        "generation": {
          "_date": "$Date: 2014-08-14 15:10:07 -0500 (Thu, 14 Aug 2014) $"
        },
        "language": "hsb"
      },
      "dates": {
        "timeZoneNames": {
          "hourFormat": "+HH:mm;-HH:mm",
          "gmtFormat": "GMT{0}",
          "gmtZeroFormat": "GMT",
          "regionFormat": "časowe pasmo {0}",
          "regionFormat-type-standard": "{0} zymski čas",
          "regionFormat-type-daylight": "{0} lětni čas",
          "fallbackFormat": "{1} ({0})",
          "zone": {
            "America": {
              "Adak": {
                "exemplarCity": "Adak"
              },
              "Anchorage": {
                "exemplarCity": "Anchorage"
              },
              "Anguilla": {
                "exemplarCity": "Anguilla"
              },
              "Antigua": {
                "exemplarCity": "Antigua"
              },
              "Araguaina": {
                "exemplarCity": "Araguaina"
              },
              "Argentina": {
                "La_Rioja": {
                  "exemplarCity": "La Rioja"
                },
                "Rio_Gallegos": {
                  "exemplarCity": "Rio Gallegos"
                },
                "Salta": {
                  "exemplarCity": "Salta"
                },
                "San_Juan": {
                  "exemplarCity": "San Juan"
                },
                "San_Luis": {
                  "exemplarCity": "San Luis"
                },
                "Tucuman": {
                  "exemplarCity": "Tucuman"
                },
                "Ushuaia": {
                  "exemplarCity": "Ushuaia"
                }
              },
              "Aruba": {
                "exemplarCity": "Aruba"
              },
              "Asuncion": {
                "exemplarCity": "Asunción"
              },
              "Bahia": {
                "exemplarCity": "Bahia"
              },
              "Bahia_Banderas": {
                "exemplarCity": "Bahia Banderas"
              },
              "Barbados": {
                "exemplarCity": "Barbados"
              },
              "Belem": {
                "exemplarCity": "Belem"
              },
              "Belize": {
                "exemplarCity": "Belize"
              },
              "Blanc-Sablon": {
                "exemplarCity": "Blanc-Sablon"
              },
              "Boa_Vista": {
                "exemplarCity": "Boa Vista"
              },
              "Bogota": {
                "exemplarCity": "Bogotá"
              },
              "Boise": {
                "exemplarCity": "Boise"
              },
              "Buenos_Aires": {
                "exemplarCity": "Buenos Aires"
              },
              "Cambridge_Bay": {
                "exemplarCity": "Cambridge Bay"
              },
              "Campo_Grande": {
                "exemplarCity": "Campo Grande"
              },
              "Cancun": {
                "exemplarCity": "Cancun"
              },
              "Caracas": {
                "exemplarCity": "Caracas"
              },
              "Catamarca": {
                "exemplarCity": "Catamarca"
              },
              "Cayenne": {
                "exemplarCity": "Cayenne"
              },
              "Cayman": {
                "exemplarCity": "Kaimanske kupy"
              },
              "Chicago": {
                "exemplarCity": "Chicago"
              },
              "Chihuahua": {
                "exemplarCity": "Chihuahua"
              },
              "Coral_Harbour": {
                "exemplarCity": "Atikokan"
              },
              "Cordoba": {
                "exemplarCity": "Cordoba"
              },
              "Costa_Rica": {
                "exemplarCity": "Costa Rica"
              },
              "Creston": {
                "exemplarCity": "Creston"
              },
              "Cuiaba": {
                "exemplarCity": "Cuiaba"
              },
              "Curacao": {
                "exemplarCity": "Curaçao"
              },
              "Danmarkshavn": {
                "exemplarCity": "Danmarkshavn"
              },
              "Dawson": {
                "exemplarCity": "Dawson"
              },
              "Dawson_Creek": {
                "exemplarCity": "Dawson Creek"
              },
              "Denver": {
                "exemplarCity": "Denver"
              },
              "Detroit": {
                "exemplarCity": "Detroit"
              },
              "Dominica": {
                "exemplarCity": "Dominica"
              },
              "Edmonton": {
                "exemplarCity": "Edmonton"
              },
              "Eirunepe": {
                "exemplarCity": "Eirunepe"
              },
              "El_Salvador": {
                "exemplarCity": "El Salvador"
              },
              "Fortaleza": {
                "exemplarCity": "Fortaleza"
              },
              "Glace_Bay": {
                "exemplarCity": "Glace Bay"
              },
              "Godthab": {
                "exemplarCity": "Nuuk"
              },
              "Goose_Bay": {
                "exemplarCity": "Goose Bay"
              },
              "Grand_Turk": {
                "exemplarCity": "Grand Turk"
              },
              "Grenada": {
                "exemplarCity": "Grenada"
              },
              "Guadeloupe": {
                "exemplarCity": "Guadeloupe"
              },
              "Guatemala": {
                "exemplarCity": "Guatemala"
              },
              "Guayaquil": {
                "exemplarCity": "Guayaquil"
              },
              "Guyana": {
                "exemplarCity": "Guyana"
              },
              "Halifax": {
                "exemplarCity": "Halifax"
              },
              "Havana": {
                "exemplarCity": "Havanna"
              },
              "Hermosillo": {
                "exemplarCity": "Hermosillo"
              },
              "Indiana": {
                "Knox": {
                  "exemplarCity": "Knox, Indiana"
                },
                "Marengo": {
                  "exemplarCity": "Marengo, Indiana"
                },
                "Petersburg": {
                  "exemplarCity": "Petersburg, Indiana"
                },
                "Tell_City": {
                  "exemplarCity": "Tell City, Indiana"
                },
                "Vevay": {
                  "exemplarCity": "Vevay, Indiana"
                },
                "Vincennes": {
                  "exemplarCity": "Vincennes, Indiana"
                },
                "Winamac": {
                  "exemplarCity": "Winamac, Indiana"
                }
              },
              "Indianapolis": {
                "exemplarCity": "Indianapolis"
              },
              "Inuvik": {
                "exemplarCity": "Inuvik"
              },
              "Iqaluit": {
                "exemplarCity": "Iqaluit"
              },
              "Jamaica": {
                "exemplarCity": "Jamaika"
              },
              "Jujuy": {
                "exemplarCity": "Jujuy"
              },
              "Juneau": {
                "exemplarCity": "Juneau"
              },
              "Kentucky": {
                "Monticello": {
                  "exemplarCity": "Monticello, Kentucky"
                }
              },
              "Kralendijk": {
                "exemplarCity": "Kralendijk"
              },
              "La_Paz": {
                "exemplarCity": "La Paz"
              },
              "Lima": {
                "exemplarCity": "Lima"
              },
              "Los_Angeles": {
                "exemplarCity": "Los Angeles"
              },
              "Louisville": {
                "exemplarCity": "Louisville"
              },
              "Lower_Princes": {
                "exemplarCity": "Lower Prince’s Quarter"
              },
              "Maceio": {
                "exemplarCity": "Maceio"
              },
              "Managua": {
                "exemplarCity": "Managua"
              },
              "Manaus": {
                "exemplarCity": "Manaus"
              },
              "Marigot": {
                "exemplarCity": "Marigot"
              },
              "Martinique": {
                "exemplarCity": "Martinique"
              },
              "Matamoros": {
                "exemplarCity": "Matamoros"
              },
              "Mazatlan": {
                "exemplarCity": "Mazatlan"
              },
              "Mendoza": {
                "exemplarCity": "Mendoza"
              },
              "Menominee": {
                "exemplarCity": "Menominee"
              },
              "Merida": {
                "exemplarCity": "Merida"
              },
              "Metlakatla": {
                "exemplarCity": "Metlakatla"
              },
              "Mexico_City": {
                "exemplarCity": "Mexiko město"
              },
              "Miquelon": {
                "exemplarCity": "Miquelon"
              },
              "Moncton": {
                "exemplarCity": "Moncton"
              },
              "Monterrey": {
                "exemplarCity": "Monterrey"
              },
              "Montevideo": {
                "exemplarCity": "Montevideo"
              },
              "Montserrat": {
                "exemplarCity": "Montserrat"
              },
              "Nassau": {
                "exemplarCity": "Nassau"
              },
              "New_York": {
                "exemplarCity": "New York"
              },
              "Nipigon": {
                "exemplarCity": "Nipigon"
              },
              "Nome": {
                "exemplarCity": "Nome"
              },
              "Noronha": {
                "exemplarCity": "Noronha"
              },
              "North_Dakota": {
                "Beulah": {
                  "exemplarCity": "Beulah, Sewjerna Dakota"
                },
                "Center": {
                  "exemplarCity": "Center, Sewjerna Dakota"
                },
                "New_Salem": {
                  "exemplarCity": "New Salem, Sewjerna Dakota"
                }
              },
              "Ojinaga": {
                "exemplarCity": "Ojinaga"
              },
              "Panama": {
                "exemplarCity": "Panama"
              },
              "Pangnirtung": {
                "exemplarCity": "Pangnirtung"
              },
              "Paramaribo": {
                "exemplarCity": "Paramaribo"
              },
              "Phoenix": {
                "exemplarCity": "Phoenix"
              },
              "Port-au-Prince": {
                "exemplarCity": "Port-au-Prince"
              },
              "Port_of_Spain": {
                "exemplarCity": "Port-of-Spain"
              },
              "Porto_Velho": {
                "exemplarCity": "Porto Velho"
              },
              "Puerto_Rico": {
                "exemplarCity": "Puerto Rico"
              },
              "Rainy_River": {
                "exemplarCity": "Rainy River"
              },
              "Rankin_Inlet": {
                "exemplarCity": "Rankin Inlet"
              },
              "Recife": {
                "exemplarCity": "Recife"
              },
              "Regina": {
                "exemplarCity": "Regina"
              },
              "Resolute": {
                "exemplarCity": "Resolute"
              },
              "Rio_Branco": {
                "exemplarCity": "Rio Branco"
              },
              "Santa_Isabel": {
                "exemplarCity": "Santa Isabel"
              },
              "Santarem": {
                "exemplarCity": "Santarem"
              },
              "Santiago": {
                "exemplarCity": "Santiago"
              },
              "Santo_Domingo": {
                "exemplarCity": "Santo Domingo"
              },
              "Sao_Paulo": {
                "exemplarCity": "São Paulo"
              },
              "Scoresbysund": {
                "exemplarCity": "Ittoqqortoormiit"
              },
              "Sitka": {
                "exemplarCity": "Sitka"
              },
              "St_Barthelemy": {
                "exemplarCity": "St.Barthélemy"
              },
              "St_Johns": {
                "exemplarCity": "St. John’s"
              },
              "St_Kitts": {
                "exemplarCity": "St. Kitts"
              },
              "St_Lucia": {
                "exemplarCity": "St. Lucia"
              },
              "St_Thomas": {
                "exemplarCity": "St. Thomas"
              },
              "St_Vincent": {
                "exemplarCity": "St. Vincent"
              },
              "Swift_Current": {
                "exemplarCity": "Swift Current"
              },
              "Tegucigalpa": {
                "exemplarCity": "Tegucigalpa"
              },
              "Thule": {
                "exemplarCity": "Thule"
              },
              "Thunder_Bay": {
                "exemplarCity": "Thunder Bay"
              },
              "Tijuana": {
                "exemplarCity": "Tijuana"
              },
              "Toronto": {
                "exemplarCity": "Toronto"
              },
              "Tortola": {
                "exemplarCity": "Tortola"
              },
              "Vancouver": {
                "exemplarCity": "Vancouver"
              },
              "Whitehorse": {
                "exemplarCity": "Whitehorse"
              },
              "Winnipeg": {
                "exemplarCity": "Winnipeg"
              },
              "Yakutat": {
                "exemplarCity": "Yakutat"
              },
              "Yellowknife": {
                "exemplarCity": "Yellowknife"
              }
            },
            "Atlantic": {
              "Azores": {
                "exemplarCity": "Acory"
              },
              "Bermuda": {
                "exemplarCity": "Bermudy"
              },
              "Canary": {
                "exemplarCity": "Kanariske kupy"
              },
              "Cape_Verde": {
                "exemplarCity": "Kap Verde"
              },
              "Faeroe": {
                "exemplarCity": "Färöske kupy"
              },
              "Madeira": {
                "exemplarCity": "Madeira"
              },
              "Reykjavik": {
                "exemplarCity": "Reykjavík"
              },
              "South_Georgia": {
                "exemplarCity": "Južna Georgiska"
              },
              "St_Helena": {
                "exemplarCity": "St. Helena"
              },
              "Stanley": {
                "exemplarCity": "Stanley"
              }
            },
            "Europe": {
              "Amsterdam": {
                "exemplarCity": "Amsterdam"
              },
              "Andorra": {
                "exemplarCity": "Andorra"
              },
              "Athens": {
                "exemplarCity": "Athen"
              },
              "Belgrade": {
                "exemplarCity": "Běłohród"
              },
              "Berlin": {
                "exemplarCity": "Berlin"
              },
              "Bratislava": {
                "exemplarCity": "Bratislava"
              },
              "Brussels": {
                "exemplarCity": "Brüssel"
              },
              "Bucharest": {
                "exemplarCity": "Bukarest"
              },
              "Budapest": {
                "exemplarCity": "Budapest"
              },
              "Busingen": {
                "exemplarCity": "Büsingen"
              },
              "Chisinau": {
                "exemplarCity": "Kišinjow"
              },
              "Copenhagen": {
                "exemplarCity": "Kopenhagen"
              },
              "Dublin": {
                "long": {
                  "daylight": "Irski lětni čas"
                },
                "exemplarCity": "Dublin"
              },
              "Gibraltar": {
                "exemplarCity": "Gibraltar"
              },
              "Guernsey": {
                "exemplarCity": "Guernsey"
              },
              "Helsinki": {
                "exemplarCity": "Helsinki"
              },
              "Isle_of_Man": {
                "exemplarCity": "Isle of Man"
              },
              "Istanbul": {
                "exemplarCity": "Istanbul"
              },
              "Jersey": {
                "exemplarCity": "Jersey"
              },
              "Kaliningrad": {
                "exemplarCity": "Kaliningrad"
              },
              "Kiev": {
                "exemplarCity": "Kiew"
              },
              "Lisbon": {
                "exemplarCity": "Lissabon"
              },
              "Ljubljana": {
                "exemplarCity": "Ljubljana"
              },
              "London": {
                "long": {
                  "daylight": "Britiski lětni čas"
                },
                "exemplarCity": "London"
              },
              "Luxembourg": {
                "exemplarCity": "Luxemburg"
              },
              "Madrid": {
                "exemplarCity": "Madrid"
              },
              "Malta": {
                "exemplarCity": "Malta"
              },
              "Mariehamn": {
                "exemplarCity": "Mariehamn"
              },
              "Minsk": {
                "exemplarCity": "Minsk"
              },
              "Monaco": {
                "exemplarCity": "Monaco"
              },
              "Moscow": {
                "exemplarCity": "Moskwa"
              },
              "Oslo": {
                "exemplarCity": "Oslo"
              },
              "Paris": {
                "exemplarCity": "Paris"
              },
              "Podgorica": {
                "exemplarCity": "Podgorica"
              },
              "Prague": {
                "exemplarCity": "Praha"
              },
              "Riga": {
                "exemplarCity": "Riga"
              },
              "Rome": {
                "exemplarCity": "Rom"
              },
              "Samara": {
                "exemplarCity": "Samara"
              },
              "San_Marino": {
                "exemplarCity": "San Marino"
              },
              "Sarajevo": {
                "exemplarCity": "Sarajevo"
              },
              "Simferopol": {
                "exemplarCity": "Simferopol"
              },
              "Skopje": {
                "exemplarCity": "Skopje"
              },
              "Sofia": {
                "exemplarCity": "Sofia"
              },
              "Stockholm": {
                "exemplarCity": "Stockholm"
              },
              "Tallinn": {
                "exemplarCity": "Tallinn"
              },
              "Tirane": {
                "exemplarCity": "Tirana"
              },
              "Uzhgorod": {
                "exemplarCity": "Užgorod"
              },
              "Vaduz": {
                "exemplarCity": "Vaduz"
              },
              "Vatican": {
                "exemplarCity": "Vatikan"
              },
              "Vienna": {
                "exemplarCity": "Wien"
              },
              "Vilnius": {
                "exemplarCity": "Vilnius"
              },
              "Volgograd": {
                "exemplarCity": "Wolgograd"
              },
              "Warsaw": {
                "exemplarCity": "Waršawa"
              },
              "Zagreb": {
                "exemplarCity": "Zagreb"
              },
              "Zaporozhye": {
                "exemplarCity": "Zaporižžja"
              },
              "Zurich": {
                "exemplarCity": "Zürich"
              }
            },
            "Africa": {
              "Abidjan": {
                "exemplarCity": "Abidjan"
              },
              "Accra": {
                "exemplarCity": "Akkra"
              },
              "Addis_Ababa": {
                "exemplarCity": "Addis Abeba"
              },
              "Algiers": {
                "exemplarCity": "Algier"
              },
              "Asmera": {
                "exemplarCity": "Asmara"
              },
              "Bamako": {
                "exemplarCity": "Bamako"
              },
              "Bangui": {
                "exemplarCity": "Bangui"
              },
              "Banjul": {
                "exemplarCity": "Banjul"
              },
              "Bissau": {
                "exemplarCity": "Bissau"
              },
              "Blantyre": {
                "exemplarCity": "Blantyre"
              },
              "Brazzaville": {
                "exemplarCity": "Brazzaville"
              },
              "Bujumbura": {
                "exemplarCity": "Bujumbura"
              },
              "Cairo": {
                "exemplarCity": "Kairo"
              },
              "Casablanca": {
                "exemplarCity": "Casablanca"
              },
              "Ceuta": {
                "exemplarCity": "Ceuta"
              },
              "Conakry": {
                "exemplarCity": "Conakry"
              },
              "Dakar": {
                "exemplarCity": "Dakar"
              },
              "Dar_es_Salaam": {
                "exemplarCity": "Daressalam"
              },
              "Djibouti": {
                "exemplarCity": "Dźibuti"
              },
              "Douala": {
                "exemplarCity": "Douala"
              },
              "El_Aaiun": {
                "exemplarCity": "El Aaiún"
              },
              "Freetown": {
                "exemplarCity": "Freetown"
              },
              "Gaborone": {
                "exemplarCity": "Gaborone"
              },
              "Harare": {
                "exemplarCity": "Harare"
              },
              "Johannesburg": {
                "exemplarCity": "Johannesburg"
              },
              "Juba": {
                "exemplarCity": "Juba"
              },
              "Kampala": {
                "exemplarCity": "Kampala"
              },
              "Khartoum": {
                "exemplarCity": "Khartum"
              },
              "Kigali": {
                "exemplarCity": "Kigali"
              },
              "Kinshasa": {
                "exemplarCity": "Kinshasa"
              },
              "Lagos": {
                "exemplarCity": "Lagos"
              },
              "Libreville": {
                "exemplarCity": "Libreville"
              },
              "Lome": {
                "exemplarCity": "Lomé"
              },
              "Luanda": {
                "exemplarCity": "Luanda"
              },
              "Lubumbashi": {
                "exemplarCity": "Lubumbashi"
              },
              "Lusaka": {
                "exemplarCity": "Lusaka"
              },
              "Malabo": {
                "exemplarCity": "Malabo"
              },
              "Maputo": {
                "exemplarCity": "Maputo"
              },
              "Maseru": {
                "exemplarCity": "Maseru"
              },
              "Mbabane": {
                "exemplarCity": "Mbabane"
              },
              "Mogadishu": {
                "exemplarCity": "Mogadišu"
              },
              "Monrovia": {
                "exemplarCity": "Monrovia"
              },
              "Nairobi": {
                "exemplarCity": "Nairobi"
              },
              "Ndjamena": {
                "exemplarCity": "Ndjamena"
              },
              "Niamey": {
                "exemplarCity": "Niamey"
              },
              "Nouakchott": {
                "exemplarCity": "Nouakchott"
              },
              "Ouagadougou": {
                "exemplarCity": "Wagadugu"
              },
              "Porto-Novo": {
                "exemplarCity": "Porto Novo"
              },
              "Sao_Tome": {
                "exemplarCity": "São Tomé"
              },
              "Tripoli": {
                "exemplarCity": "Tripolis"
              },
              "Tunis": {
                "exemplarCity": "Tunis"
              },
              "Windhoek": {
                "exemplarCity": "Windhoek"
              }
            },
            "Asia": {
              "Aden": {
                "exemplarCity": "Aden"
              },
              "Almaty": {
                "exemplarCity": "Almaty"
              },
              "Amman": {
                "exemplarCity": "Amman"
              },
              "Anadyr": {
                "exemplarCity": "Anadyr"
              },
              "Aqtau": {
                "exemplarCity": "Aqtau"
              },
              "Aqtobe": {
                "exemplarCity": "Aktobe"
              },
              "Ashgabat": {
                "exemplarCity": "Ashgabat"
              },
              "Baghdad": {
                "exemplarCity": "Bagdad"
              },
              "Bahrain": {
                "exemplarCity": "Bahrain"
              },
              "Baku": {
                "exemplarCity": "Baku"
              },
              "Bangkok": {
                "exemplarCity": "Bangkok"
              },
              "Beirut": {
                "exemplarCity": "Beirut"
              },
              "Bishkek": {
                "exemplarCity": "Biškek"
              },
              "Brunei": {
                "exemplarCity": "Brunei"
              },
              "Calcutta": {
                "exemplarCity": "Kalkutta"
              },
              "Chita": {
                "exemplarCity": "Chita"
              },
              "Choibalsan": {
                "exemplarCity": "Choibalsan"
              },
              "Colombo": {
                "exemplarCity": "Colombo"
              },
              "Damascus": {
                "exemplarCity": "Damaskus"
              },
              "Dhaka": {
                "exemplarCity": "Dhaka"
              },
              "Dili": {
                "exemplarCity": "Dili"
              },
              "Dubai": {
                "exemplarCity": "Dubai"
              },
              "Dushanbe": {
                "exemplarCity": "Dušanbe"
              },
              "Gaza": {
                "exemplarCity": "Gaza"
              },
              "Hebron": {
                "exemplarCity": "Hebron"
              },
              "Hong_Kong": {
                "exemplarCity": "Hongkong"
              },
              "Hovd": {
                "exemplarCity": "Hovd"
              },
              "Irkutsk": {
                "exemplarCity": "Irkutsk"
              },
              "Jakarta": {
                "exemplarCity": "Jakarta"
              },
              "Jayapura": {
                "exemplarCity": "Port Numbay"
              },
              "Jerusalem": {
                "exemplarCity": "Jerusalem"
              },
              "Kabul": {
                "exemplarCity": "Kabul"
              },
              "Kamchatka": {
                "exemplarCity": "Kamčatka"
              },
              "Karachi": {
                "exemplarCity": "Karachi"
              },
              "Kashgar": {
                "exemplarCity": "Kašgar"
              },
              "Katmandu": {
                "exemplarCity": "Kathmandu"
              },
              "Khandyga": {
                "exemplarCity": "Khandyga"
              },
              "Krasnoyarsk": {
                "exemplarCity": "Krasnojarsk"
              },
              "Kuala_Lumpur": {
                "exemplarCity": "Kuala Lumpur"
              },
              "Kuching": {
                "exemplarCity": "Kuching"
              },
              "Kuwait": {
                "exemplarCity": "Kuwait"
              },
              "Macau": {
                "exemplarCity": "Macao"
              },
              "Magadan": {
                "exemplarCity": "Magadan"
              },
              "Makassar": {
                "exemplarCity": "Makassar"
              },
              "Manila": {
                "exemplarCity": "Manila"
              },
              "Muscat": {
                "exemplarCity": "Muskat"
              },
              "Nicosia": {
                "exemplarCity": "Nikosia"
              },
              "Novokuznetsk": {
                "exemplarCity": "Nowokuznjeck"
              },
              "Novosibirsk": {
                "exemplarCity": "Nowosibirsk"
              },
              "Omsk": {
                "exemplarCity": "Omsk"
              },
              "Oral": {
                "exemplarCity": "Oral"
              },
              "Phnom_Penh": {
                "exemplarCity": "Phnom Penh"
              },
              "Pontianak": {
                "exemplarCity": "Pontianak"
              },
              "Pyongyang": {
                "exemplarCity": "Pjöngjang"
              },
              "Qatar": {
                "exemplarCity": "Katar"
              },
              "Qyzylorda": {
                "exemplarCity": "Qyzylorda"
              },
              "Rangoon": {
                "exemplarCity": "Rangoon"
              },
              "Riyadh": {
                "exemplarCity": "Riad"
              },
              "Saigon": {
                "exemplarCity": "Ho Chi Minhowe město"
              },
              "Sakhalin": {
                "exemplarCity": "Sachalin"
              },
              "Samarkand": {
                "exemplarCity": "Samarkand"
              },
              "Seoul": {
                "exemplarCity": "Seoul"
              },
              "Shanghai": {
                "exemplarCity": "Shanghai"
              },
              "Singapore": {
                "exemplarCity": "Singapur"
              },
              "Srednekolymsk": {
                "exemplarCity": "Srednekolymsk"
              },
              "Taipei": {
                "exemplarCity": "Taipeh"
              },
              "Tashkent": {
                "exemplarCity": "Taškent"
              },
              "Tbilisi": {
                "exemplarCity": "Tbilisi"
              },
              "Tehran": {
                "exemplarCity": "Teheran"
              },
              "Thimphu": {
                "exemplarCity": "Thimphu"
              },
              "Tokyo": {
                "exemplarCity": "Tokio"
              },
              "Ulaanbaatar": {
                "exemplarCity": "Ulaanbaatar"
              },
              "Urumqi": {
                "exemplarCity": "Urumqi"
              },
              "Ust-Nera": {
                "exemplarCity": "Ust-Nera"
              },
              "Vientiane": {
                "exemplarCity": "Vientiane"
              },
              "Vladivostok": {
                "exemplarCity": "Wladiwostok"
              },
              "Yakutsk": {
                "exemplarCity": "Jakutsk"
              },
              "Yekaterinburg": {
                "exemplarCity": "Jekaterinburg"
              },
              "Yerevan": {
                "exemplarCity": "Jerjewan"
              }
            },
            "Indian": {
              "Antananarivo": {
                "exemplarCity": "Antananarivo"
              },
              "Chagos": {
                "exemplarCity": "Chagos"
              },
              "Christmas": {
                "exemplarCity": "Hodowna kupa"
              },
              "Cocos": {
                "exemplarCity": "Cocos"
              },
              "Comoro": {
                "exemplarCity": "Komory"
              },
              "Kerguelen": {
                "exemplarCity": "Kerguelen"
              },
              "Mahe": {
                "exemplarCity": "Mahe"
              },
              "Maldives": {
                "exemplarCity": "Malediwy"
              },
              "Mauritius": {
                "exemplarCity": "Mauritius"
              },
              "Mayotte": {
                "exemplarCity": "Mayotte"
              },
              "Reunion": {
                "exemplarCity": "Réunion"
              }
            },
            "Australia": {
              "Adelaide": {
                "exemplarCity": "Adelaide"
              },
              "Brisbane": {
                "exemplarCity": "Brisbane"
              },
              "Broken_Hill": {
                "exemplarCity": "Broken Hill"
              },
              "Currie": {
                "exemplarCity": "Currie"
              },
              "Darwin": {
                "exemplarCity": "Darwin"
              },
              "Eucla": {
                "exemplarCity": "Eucla"
              },
              "Hobart": {
                "exemplarCity": "Hobart"
              },
              "Lindeman": {
                "exemplarCity": "Lindeman"
              },
              "Lord_Howe": {
                "exemplarCity": "Lord Howe"
              },
              "Melbourne": {
                "exemplarCity": "Melbourne"
              },
              "Perth": {
                "exemplarCity": "Perth"
              },
              "Sydney": {
                "exemplarCity": "Sydney"
              }
            },
            "Pacific": {
              "Apia": {
                "exemplarCity": "Apia"
              },
              "Auckland": {
                "exemplarCity": "Auckland"
              },
              "Chatham": {
                "exemplarCity": "Chatham"
              },
              "Easter": {
                "exemplarCity": "Jutrowna kupa"
              },
              "Efate": {
                "exemplarCity": "Efate"
              },
              "Enderbury": {
                "exemplarCity": "Enderbury"
              },
              "Fakaofo": {
                "exemplarCity": "Fakaofo"
              },
              "Fiji": {
                "exemplarCity": "Fidźi"
              },
              "Funafuti": {
                "exemplarCity": "Funafuti"
              },
              "Galapagos": {
                "exemplarCity": "Galapagos"
              },
              "Gambier": {
                "exemplarCity": "Gambier"
              },
              "Guadalcanal": {
                "exemplarCity": "Guadalcanal"
              },
              "Guam": {
                "exemplarCity": "Guam"
              },
              "Honolulu": {
                "exemplarCity": "Honolulu"
              },
              "Johnston": {
                "exemplarCity": "Johnston"
              },
              "Kiritimati": {
                "exemplarCity": "Kiritimati"
              },
              "Kosrae": {
                "exemplarCity": "Kosrae"
              },
              "Kwajalein": {
                "exemplarCity": "Kwajalein"
              },
              "Majuro": {
                "exemplarCity": "Majuro"
              },
              "Marquesas": {
                "exemplarCity": "Marquesas"
              },
              "Midway": {
                "exemplarCity": "Midway"
              },
              "Nauru": {
                "exemplarCity": "Nauru"
              },
              "Niue": {
                "exemplarCity": "Niue"
              },
              "Norfolk": {
                "exemplarCity": "Norfolk"
              },
              "Noumea": {
                "exemplarCity": "Noumea"
              },
              "Pago_Pago": {
                "exemplarCity": "Pago Pago"
              },
              "Palau": {
                "exemplarCity": "Palau"
              },
              "Pitcairn": {
                "exemplarCity": "Pitcairn"
              },
              "Ponape": {
                "exemplarCity": "Pohnpei"
              },
              "Port_Moresby": {
                "exemplarCity": "Port Moresby"
              },
              "Rarotonga": {
                "exemplarCity": "Rarotonga"
              },
              "Saipan": {
                "exemplarCity": "Saipan"
              },
              "Tahiti": {
                "exemplarCity": "Tahiti"
              },
              "Tarawa": {
                "exemplarCity": "Tarawa"
              },
              "Tongatapu": {
                "exemplarCity": "Tongatapu"
              },
              "Truk": {
                "exemplarCity": "Chuuk"
              },
              "Wake": {
                "exemplarCity": "Wake"
              },
              "Wallis": {
                "exemplarCity": "Wallis"
              }
            },
            "Arctic": {
              "Longyearbyen": {
                "exemplarCity": "Longyearbyen"
              }
            },
            "Antarctica": {
              "Casey": {
                "exemplarCity": "Casey"
              },
              "Davis": {
                "exemplarCity": "Davis"
              },
              "DumontDUrville": {
                "exemplarCity": "Dumont D’Urville"
              },
              "Macquarie": {
                "exemplarCity": "Macquarie"
              },
              "Mawson": {
                "exemplarCity": "Mawson"
              },
              "McMurdo": {
                "exemplarCity": "McMurdo"
              },
              "Palmer": {
                "exemplarCity": "Palmer"
              },
              "Rothera": {
                "exemplarCity": "Rothera"
              },
              "Syowa": {
                "exemplarCity": "Syowa"
              },
              "Troll": {
                "exemplarCity": "Troll"
              },
              "Vostok": {
                "exemplarCity": "Antarktika/Wostok"
              }
            },
            "Etc": {
              "GMT": {
                "exemplarCity": "GMT"
              },
              "GMT1": {
                "exemplarCity": "GMT+1"
              },
              "GMT10": {
                "exemplarCity": "GMT+10"
              },
              "GMT11": {
                "exemplarCity": "GMT+11"
              },
              "GMT12": {
                "exemplarCity": "GMT+12"
              },
              "GMT2": {
                "exemplarCity": "GMT+2"
              },
              "GMT3": {
                "exemplarCity": "GMT+3"
              },
              "GMT4": {
                "exemplarCity": "GMT+4"
              },
              "GMT5": {
                "exemplarCity": "GMT+5"
              },
              "GMT6": {
                "exemplarCity": "GMT+6"
              },
              "GMT7": {
                "exemplarCity": "GMT+7"
              },
              "GMT8": {
                "exemplarCity": "GMT+8"
              },
              "GMT9": {
                "exemplarCity": "GMT+9"
              },
              "GMT-1": {
                "exemplarCity": "GMT-1"
              },
              "GMT-10": {
                "exemplarCity": "GMT-10"
              },
              "GMT-11": {
                "exemplarCity": "GMT-11"
              },
              "GMT-12": {
                "exemplarCity": "GMT-12"
              },
              "GMT-13": {
                "exemplarCity": "GMT-13"
              },
              "GMT-14": {
                "exemplarCity": "GMT-14"
              },
              "GMT-2": {
                "exemplarCity": "GMT-2"
              },
              "GMT-3": {
                "exemplarCity": "GMT-3"
              },
              "GMT-4": {
                "exemplarCity": "GMT-4"
              },
              "GMT-5": {
                "exemplarCity": "GMT-5"
              },
              "GMT-6": {
                "exemplarCity": "GMT-6"
              },
              "GMT-7": {
                "exemplarCity": "GMT-7"
              },
              "GMT-8": {
                "exemplarCity": "GMT-8"
              },
              "GMT-9": {
                "exemplarCity": "GMT-9"
              },
              "Unknown": {
                "exemplarCity": "njeznate"
              }
            }
          },
          "metazone": {
            "Afghanistan": {
              "long": {
                "standard": "afghanski čas"
              }
            },
            "Africa_Central": {
              "long": {
                "standard": "centralnoafriski čas"
              }
            },
            "Africa_Eastern": {
              "long": {
                "standard": "wuchodoafriski čas"
              }
            },
            "Africa_Southern": {
              "long": {
                "standard": "južnoafriski čas"
              }
            },
            "Africa_Western": {
              "long": {
                "generic": "zapadoafriski čas",
                "standard": "zapadoafriski standardny čas",
                "daylight": "zapadoafriski lětni čas"
              }
            },
            "Alaska": {
              "long": {
                "generic": "alaskaski čas",
                "standard": "alaskaski standardny čas",
                "daylight": "alaskaski lětni čas"
              }
            },
            "Amazon": {
              "long": {
                "generic": "Amaconaski čas",
                "standard": "Amaconaski standardny čas",
                "daylight": "Amaconaski lětni čas"
              }
            },
            "America_Central": {
              "long": {
                "generic": "sewjeroameriski centralny čas",
                "standard": "sewjeroameriski centralny standardny čas",
                "daylight": "sewjeroameriski centralny lětni čas"
              }
            },
            "America_Eastern": {
              "long": {
                "generic": "sewjeroameriski wuchodny čas",
                "standard": "sewjeroameriski wuchodny standardny čas",
                "daylight": "sewjeroameriski wuchodny lětni čas"
              }
            },
            "America_Mountain": {
              "long": {
                "generic": "sewjeroameriski hórski čas",
                "standard": "sewjeroameriski hórski standardny čas",
                "daylight": "sewjeroameriski hórski lětni čas"
              }
            },
            "America_Pacific": {
              "long": {
                "generic": "sewjeroameriski pacifiski čas",
                "standard": "sewjeroameriski pacifiski standardny čas",
                "daylight": "sewjeroameriski pacifiski lětni čas"
              }
            },
            "Apia": {
              "long": {
                "generic": "Apiaski čas",
                "standard": "Apiaski standardny čas",
                "daylight": "Apiaski lětni čas"
              }
            },
            "Arabian": {
              "long": {
                "generic": "arabski čas",
                "standard": "arabski standardny čas",
                "daylight": "arabski lětni čas"
              }
            },
            "Argentina": {
              "long": {
                "generic": "argentinski čas",
                "standard": "argentinski standardny čas",
                "daylight": "argentinski lětni čas"
              }
            },
            "Argentina_Western": {
              "long": {
                "generic": "zapadoargentinski čas",
                "standard": "zapadoargentinski standardny čas",
                "daylight": "zapadoargentinski lětni čas"
              }
            },
            "Armenia": {
              "long": {
                "generic": "armenski čas",
                "standard": "armenski standardny čas",
                "daylight": "armenski lětni čas"
              }
            },
            "Atlantic": {
              "long": {
                "generic": "atlantiski čas",
                "standard": "atlantiski standardny čas",
                "daylight": "atlantiski lětni čas"
              }
            },
            "Australia_Central": {
              "long": {
                "generic": "srjedźoawstralski čas",
                "standard": "srjedźoawstralski standardny čas",
                "daylight": "srjedźoawstralski lětni čas"
              }
            },
            "Australia_CentralWestern": {
              "long": {
                "generic": "srjedźozapadny awstralski čas",
                "standard": "srjedźozapadny awstralski standardny čas",
                "daylight": "sjedźozapadny awstralski lětni čas"
              }
            },
            "Australia_Eastern": {
              "long": {
                "generic": "wuchodoawstralski čas",
                "standard": "wuchodoawstralski standardny čas",
                "daylight": "wuchodoawstralski lětni čas"
              }
            },
            "Australia_Western": {
              "long": {
                "generic": "zapadoawstralski čas",
                "standard": "zapadoawstralski standardny čas",
                "daylight": "zapadoawstralski lětni čas"
              }
            },
            "Azerbaijan": {
              "long": {
                "generic": "azerbajdźanski čas",
                "standard": "azerbajdźanski standardny čas",
                "daylight": "azerbajdźanski lětni čas"
              }
            },
            "Azores": {
              "long": {
                "generic": "acorski čas",
                "standard": "acorski standardny čas",
                "daylight": "acorski lětni čas"
              }
            },
            "Bangladesh": {
              "long": {
                "generic": "bangladešski čas",
                "standard": "bangladešski standardny čas",
                "daylight": "bangladešski lětni čas"
              }
            },
            "Bhutan": {
              "long": {
                "standard": "bhutanski čas"
              }
            },
            "Bolivia": {
              "long": {
                "standard": "boliwiski čas"
              }
            },
            "Brasilia": {
              "long": {
                "generic": "Brasiliski čas",
                "standard": "Brasiliski standardny čas",
                "daylight": "Brasiliski lětni čas"
              }
            },
            "Brunei": {
              "long": {
                "standard": "bruneiski čas"
              }
            },
            "Cape_Verde": {
              "long": {
                "generic": "kapverdski čas",
                "standard": "kapverdski standardny čas",
                "daylight": "kapverdski lětni čas"
              }
            },
            "Chamorro": {
              "long": {
                "standard": "chamorroski čas"
              }
            },
            "Chatham": {
              "long": {
                "generic": "chathamski čas",
                "standard": "chathamski standardny čas",
                "daylight": "chathamski lětni čas"
              }
            },
            "Chile": {
              "long": {
                "generic": "chilski čas",
                "standard": "chilski standardny čas",
                "daylight": "chilski lětni čas"
              }
            },
            "China": {
              "long": {
                "generic": "chinski čas",
                "standard": "chinski standardny čas",
                "daylight": "chinski lětni čas"
              }
            },
            "Choibalsan": {
              "long": {
                "generic": "Čojbalsanski čas",
                "standard": "Čojbalsanski standardny čas",
                "daylight": "Čojbalsanski lětni čas"
              }
            },
            "Christmas": {
              "long": {
                "standard": "čas Hodowneje kupy"
              }
            },
            "Cocos": {
              "long": {
                "standard": "čas Kokosowych kupow"
              }
            },
            "Colombia": {
              "long": {
                "generic": "kolumbiski čas",
                "standard": "kolumbiski standardny čas",
                "daylight": "kolumbiski lětni čas"
              }
            },
            "Cook": {
              "long": {
                "generic": "čas Cookowych kupow",
                "standard": "standardny čas Cookowych kupow",
                "daylight": "lětni čas Cookowych kupow"
              }
            },
            "Cuba": {
              "long": {
                "generic": "kubaski čas",
                "standard": "kubaski standardny čas",
                "daylight": "kubaski lětni čas"
              }
            },
            "Davis": {
              "long": {
                "standard": "Daviski čas"
              }
            },
            "DumontDUrville": {
              "long": {
                "standard": "Dumont d´ Urvilleski čas"
              }
            },
            "East_Timor": {
              "long": {
                "standard": "wuchodnotimorski čas"
              }
            },
            "Easter": {
              "long": {
                "generic": "čas Jutrowneje kupy",
                "standard": "standardny čas Jutrowneje kupy",
                "daylight": "lětni čas Jutrowneje kupy"
              }
            },
            "Ecuador": {
              "long": {
                "standard": "ekwadorski čas"
              }
            },
            "Europe_Central": {
              "long": {
                "generic": "srjedźoeuropski čas",
                "standard": "srjedźoeuropski standardny čas",
                "daylight": "srjedźoeuropski lětni čas"
              },
              "short": {
                "generic": "MEZ",
                "standard": "MEZ",
                "daylight": "MESZ"
              }
            },
            "Europe_Eastern": {
              "long": {
                "generic": "wuchodoeuropski čas",
                "standard": "wuchodoeuropski standardny čas",
                "daylight": "wuchodoeuropski lětni čas"
              },
              "short": {
                "generic": "OEZ",
                "standard": "OEZ",
                "daylight": "OESZ"
              }
            },
            "Europe_Further_Eastern": {
              "long": {
                "standard": "Kaliningradski čas"
              }
            },
            "Europe_Western": {
              "long": {
                "generic": "zapadoeuropski čas",
                "standard": "zapadoeuropski standardny čas",
                "daylight": "zapadoeuropski lětni čas"
              },
              "short": {
                "generic": "WEZ",
                "standard": "WEZ",
                "daylight": "WESZ"
              }
            },
            "Falkland": {
              "long": {
                "generic": "falklandski čas",
                "standard": "falklandski standardny čas",
                "daylight": "falklandski lětni čas"
              }
            },
            "Fiji": {
              "long": {
                "generic": "fidźiski čas",
                "standard": "fidźiski standardny čas",
                "daylight": "fidźiski lětni čas"
              }
            },
            "French_Guiana": {
              "long": {
                "standard": "francoskoguyanski čas"
              }
            },
            "French_Southern": {
              "long": {
                "standard": "čas Francoskeho južneho a antarktiskeho teritorija"
              }
            },
            "GMT": {
              "long": {
                "standard": "Greenwichski čas"
              }
            },
            "Galapagos": {
              "long": {
                "standard": "galapagoski čas"
              }
            },
            "Gambier": {
              "long": {
                "standard": "gambierski čas"
              }
            },
            "Georgia": {
              "long": {
                "generic": "georgiski čas",
                "standard": "georgiski standardny čas",
                "daylight": "georgiski lětni čas"
              }
            },
            "Gilbert_Islands": {
              "long": {
                "standard": "čas Gilbertowych kupow"
              }
            },
            "Greenland_Eastern": {
              "long": {
                "generic": "wuchodogrönlandski čas",
                "standard": "wuchodogrönlandski standardny čas",
                "daylight": "wuchodogrönlandski lětni čas"
              }
            },
            "Greenland_Western": {
              "long": {
                "generic": "zapadogrönlandski čas",
                "standard": "zapadogrönlandski standardny čas",
                "daylight": "zapadogrönlandski lětni čas"
              }
            },
            "Gulf": {
              "long": {
                "standard": "čas Persiskeho golfa"
              }
            },
            "Guyana": {
              "long": {
                "standard": "guyanski čas"
              }
            },
            "Hawaii_Aleutian": {
              "long": {
                "generic": "hawaiisko-aleutski čas",
                "standard": "hawaiisko-aleutski standardny čas",
                "daylight": "hawaiisko-aleutski lětni čas"
              }
            },
            "Hong_Kong": {
              "long": {
                "generic": "Hongkongski čas",
                "standard": "Hongkongski standardny čas",
                "daylight": "Hongkongski lětni čas"
              }
            },
            "Hovd": {
              "long": {
                "generic": "Chowdski čas",
                "standard": "Chowdski standardny čas",
                "daylight": "Chowdski lětni čas"
              }
            },
            "India": {
              "long": {
                "standard": "indiski čas"
              }
            },
            "Indian_Ocean": {
              "long": {
                "standard": "indiskooceanski čas"
              }
            },
            "Indochina": {
              "long": {
                "standard": "indochinski čas"
              }
            },
            "Indonesia_Central": {
              "long": {
                "standard": "srjedźoindoneski čas"
              }
            },
            "Indonesia_Eastern": {
              "long": {
                "standard": "wuchodoindoneski"
              }
            },
            "Indonesia_Western": {
              "long": {
                "standard": "zapadoindoneski čas"
              }
            },
            "Iran": {
              "long": {
                "generic": "iranski čas",
                "standard": "iranski standardny čas",
                "daylight": "iranski lětni čas"
              }
            },
            "Irkutsk": {
              "long": {
                "generic": "Irkutski čas",
                "standard": "Irkutski standardny čas",
                "daylight": "Irkutski lětni čas"
              }
            },
            "Israel": {
              "long": {
                "generic": "israelski čas",
                "standard": "israelski standardny čas",
                "daylight": "israelski lětni čas"
              }
            },
            "Japan": {
              "long": {
                "generic": "japanski čas",
                "standard": "japanski standardny čas",
                "daylight": "japanski lětni čas"
              }
            },
            "Kazakhstan_Eastern": {
              "long": {
                "standard": "wuchodnokazachski čas"
              }
            },
            "Kazakhstan_Western": {
              "long": {
                "standard": "zapadnokazachski čas"
              }
            },
            "Korea": {
              "long": {
                "generic": "korejski čas",
                "standard": "korejski standardny čas",
                "daylight": "korejski lětni čas"
              }
            },
            "Kosrae": {
              "long": {
                "standard": "kosraeski čas"
              }
            },
            "Krasnoyarsk": {
              "long": {
                "generic": "Krasnojarski čas",
                "standard": "Krasnojarski standardny čas",
                "daylight": "Krasnojarski lětni čas"
              }
            },
            "Kyrgystan": {
              "long": {
                "standard": "kirgiski čas"
              }
            },
            "Line_Islands": {
              "long": {
                "standard": "čas Linijowych kupow"
              }
            },
            "Lord_Howe": {
              "long": {
                "generic": "čas kupy Lord-Howe",
                "standard": "standardny čas kupy Lord-Howe",
                "daylight": "lětni čas kupy Lord-Howe"
              }
            },
            "Macquarie": {
              "long": {
                "standard": "čas kupy Macquarie"
              }
            },
            "Magadan": {
              "long": {
                "generic": "Magadanski čas",
                "standard": "Magadanski standardny čas",
                "daylight": "Magadanski lětni čas"
              }
            },
            "Malaysia": {
              "long": {
                "standard": "malajziski čas"
              }
            },
            "Maldives": {
              "long": {
                "standard": "malediwski čas"
              }
            },
            "Marquesas": {
              "long": {
                "standard": "marquesaski čas"
              }
            },
            "Marshall_Islands": {
              "long": {
                "standard": "čas Marshallowych kupow"
              }
            },
            "Mauritius": {
              "long": {
                "generic": "mauritiuski čas",
                "standard": "mauritiuski standardny čas",
                "daylight": "mauritiuski lětni čas"
              }
            },
            "Mawson": {
              "long": {
                "standard": "Mawsonski čas"
              }
            },
            "Mexico_Northwest": {
              "long": {
                "generic": "mexiski sewjerozapadny čas",
                "standard": "mexiski sewjerozapadny standardny čas",
                "daylight": "mexiski sewjerozapadny lětni čas"
              }
            },
            "Mexico_Pacific": {
              "long": {
                "generic": "mexiski pacifiski čas",
                "standard": "mexiski pacifiski standardny čas",
                "daylight": "mexiski pacifiski lětni čas"
              }
            },
            "Mongolia": {
              "long": {
                "generic": "Ulan-Batorski čas",
                "standard": "Ulan-Batorski standardny čas",
                "daylight": "Ulan-Batorski lětni čas"
              }
            },
            "Moscow": {
              "long": {
                "generic": "Moskowski čas",
                "standard": "Moskowski standardny čas",
                "daylight": "Moskowski lětni čas"
              }
            },
            "Myanmar": {
              "long": {
                "standard": "myanmarski čas"
              }
            },
            "Nauru": {
              "long": {
                "standard": "nauruski čas"
              }
            },
            "Nepal": {
              "long": {
                "standard": "nepalski čas"
              }
            },
            "New_Caledonia": {
              "long": {
                "generic": "nowokaledonski čas",
                "standard": "nowokaledonski standardny čas",
                "daylight": "nowokaledonski lětni čas"
              }
            },
            "New_Zealand": {
              "long": {
                "generic": "nowoseelandski čas",
                "standard": "nowoseelandski standardny čas",
                "daylight": "nowoseelandski lětni čas"
              }
            },
            "Newfoundland": {
              "long": {
                "generic": "nowofundlandski čas",
                "standard": "nowofundlandski standardny čas",
                "daylight": "nowofundlandski lětni čas"
              }
            },
            "Niue": {
              "long": {
                "standard": "niueski čas"
              }
            },
            "Norfolk": {
              "long": {
                "standard": "čas kupy Norfolk"
              }
            },
            "Noronha": {
              "long": {
                "generic": "čas kupow Fernando de Noronha",
                "standard": "standardny čas kupow Fernando de Noronha",
                "daylight": "lětni čas kupow Fernando de Noronha"
              }
            },
            "Novosibirsk": {
              "long": {
                "generic": "Nowosibirski čas",
                "standard": "Nowosibirski standardny čas",
                "daylight": "Nowosibirski lětni čas"
              }
            },
            "Omsk": {
              "long": {
                "generic": "Omski čas",
                "standard": "Omski standardny čas",
                "daylight": "Omski lětni čas"
              }
            },
            "Pakistan": {
              "long": {
                "generic": "pakistanski čas",
                "standard": "pakistanski standardny čas",
                "daylight": "pakistanski lětni čas"
              }
            },
            "Palau": {
              "long": {
                "standard": "palauski čas"
              }
            },
            "Papua_New_Guinea": {
              "long": {
                "standard": "papua-nowoginejski čas"
              }
            },
            "Paraguay": {
              "long": {
                "generic": "Paraguayski čas",
                "standard": "Paraguayski standardny čas",
                "daylight": "Paraguayski lětni čas"
              }
            },
            "Peru": {
              "long": {
                "generic": "peruski čas",
                "standard": "peruski standardny čas",
                "daylight": "peruski lětni čas"
              }
            },
            "Philippines": {
              "long": {
                "generic": "filipinski čas",
                "standard": "filipinski standardny čas",
                "daylight": "filipinski lětni čas"
              }
            },
            "Phoenix_Islands": {
              "long": {
                "standard": "čas Phoenixowych kupow"
              }
            },
            "Pierre_Miquelon": {
              "long": {
                "generic": "čas kupow St. Pierre a Miquelon",
                "standard": "standardny čas kupow St. Pierre a Miquelon",
                "daylight": "lětni čas kupow St. Pierre a Miquelon"
              }
            },
            "Pitcairn": {
              "long": {
                "standard": "čas Pitcairnowych kupow"
              }
            },
            "Ponape": {
              "long": {
                "standard": "ponapeski čas"
              }
            },
            "Reunion": {
              "long": {
                "standard": "reunionski čas"
              }
            },
            "Rothera": {
              "long": {
                "standard": "Rotheraski čas"
              }
            },
            "Sakhalin": {
              "long": {
                "generic": "sachalinski čas",
                "standard": "sachalinski standardny čas",
                "daylight": "sachalinski lětni čas"
              }
            },
            "Samoa": {
              "long": {
                "generic": "samoaski čas",
                "standard": "samoaski standardny čas",
                "daylight": "samoaski lětni čas"
              }
            },
            "Seychelles": {
              "long": {
                "standard": "seychellski čas"
              }
            },
            "Singapore": {
              "long": {
                "standard": "Singapurski čas"
              }
            },
            "Solomon": {
              "long": {
                "standard": "čas Salomonskich kupow"
              }
            },
            "South_Georgia": {
              "long": {
                "standard": "južnogeorgiski čas"
              }
            },
            "Suriname": {
              "long": {
                "standard": "surinamski čas"
              }
            },
            "Syowa": {
              "long": {
                "standard": "Syowaski čas"
              }
            },
            "Tahiti": {
              "long": {
                "standard": "tahitiski čas"
              }
            },
            "Taipei": {
              "long": {
                "generic": "Taipehski čas",
                "standard": "Taipehski standardny čas",
                "daylight": "Taipehski lětni čas"
              }
            },
            "Tajikistan": {
              "long": {
                "standard": "tadźikski čas"
              }
            },
            "Tokelau": {
              "long": {
                "standard": "tokelauski čas"
              }
            },
            "Tonga": {
              "long": {
                "generic": "tongaski čas",
                "standard": "tongaski standardny čas",
                "daylight": "tongaski lětni čas"
              }
            },
            "Truk": {
              "long": {
                "standard": "chuukski čas"
              }
            },
            "Turkmenistan": {
              "long": {
                "generic": "turkmenski čas",
                "standard": "turkmenski standardny čas",
                "daylight": "turkmenski lětni čas"
              }
            },
            "Tuvalu": {
              "long": {
                "standard": "tuvaluski čas"
              }
            },
            "Uruguay": {
              "long": {
                "generic": "uruguayski čas",
                "standard": "uruguayski standardny čas",
                "daylight": "uruguayski lětni čas"
              }
            },
            "Uzbekistan": {
              "long": {
                "generic": "uzbekski čas",
                "standard": "uzbekski standardny čas",
                "daylight": "uzbekski lětni čas"
              }
            },
            "Vanuatu": {
              "long": {
                "generic": "vanuatuski čas",
                "standard": "vanuatuski standardny čas",
                "daylight": "vanuatuski lětni čas"
              }
            },
            "Venezuela": {
              "long": {
                "standard": "venezuelski čas"
              }
            },
            "Vladivostok": {
              "long": {
                "generic": "Wladiwostokski čas",
                "standard": "Wladiwostokski standardny čas",
                "daylight": "Wladiwostokski lětni čas"
              }
            },
            "Volgograd": {
              "long": {
                "generic": "Wolgogradski čas",
                "standard": "Wolgogradski standardny čas",
                "daylight": "Wolgogradski lětni čas"
              }
            },
            "Vostok": {
              "long": {
                "standard": "Wostokski čas"
              }
            },
            "Wake": {
              "long": {
                "standard": "čas kupy Wake"
              }
            },
            "Wallis": {
              "long": {
                "standard": "čas kupow Wallis a Futuna"
              }
            },
            "Yakutsk": {
              "long": {
                "generic": "Jakutski čas",
                "standard": "Jakutski standardny čas",
                "daylight": "Jakutski lětni čas"
              }
            },
            "Yekaterinburg": {
              "long": {
                "generic": "Jekaterinburgski čas",
                "standard": "Jekaterinburgski standardny čas",
                "daylight": "Jekaterinburgski lětni čas"
              }
            }
          }
        }
      }
    }
  }
}
