{
  "main": {
    "sw-UG": {
      "identity": {
        "version": {
          "_cldrVersion": "26",
          "_number": "$Revision: 10669 $"
        },
        "generation": {
          "_date": "$Date: 2014-07-23 16:10:33 -0500 (Wed, 23 Jul 2014) $"
        },
        "language": "root",
        "territory": "UG"
      },
      "dates": {
        "calendars": {
          "gregorian": {
            "months": {
              "format": {
                "abbreviated": {
                  "1": "Jan",
                  "2": "Feb",
                  "3": "Mac",
                  "4": "Apr",
                  "5": "Mei",
                  "6": "Jun",
                  "7": "Jul",
                  "8": "Ago",
                  "9": "Sep",
                  "10": "Okt",
                  "11": "Nov",
                  "12": "Des"
                },
                "narrow": {
                  "1": "J",
                  "2": "F",
                  "3": "M",
                  "4": "A",
                  "5": "M",
                  "6": "J",
                  "7": "J",
                  "8": "A",
                  "9": "S",
                  "10": "O",
                  "11": "N",
                  "12": "D"
                },
                "wide": {
                  "1": "Januari",
                  "2": "Februari",
                  "3": "Machi",
                  "4": "Aprili",
                  "5": "Mei",
                  "6": "Juni",
                  "7": "Julai",
                  "8": "Agosti",
                  "9": "Septemba",
                  "10": "Oktoba",
                  "11": "Novemba",
                  "12": "Desemba"
                }
              },
              "stand-alone": {
                "abbreviated": {
                  "1": "Jan",
                  "2": "Feb",
                  "3": "Mac",
                  "4": "Apr",
                  "5": "Mei",
                  "6": "Jun",
                  "7": "Jul",
                  "8": "Ago",
                  "9": "Sep",
                  "10": "Okt",
                  "11": "Nov",
                  "12": "Des"
                },
                "narrow": {
                  "1": "J",
                  "2": "F",
                  "3": "M",
                  "4": "A",
                  "5": "M",
                  "6": "J",
                  "7": "J",
                  "8": "A",
                  "9": "S",
                  "10": "O",
                  "11": "N",
                  "12": "D"
                },
                "wide": {
                  "1": "Januari",
                  "2": "Februari",
                  "3": "Machi",
                  "4": "Aprili",
                  "5": "Mei",
                  "6": "Juni",
                  "7": "Julai",
                  "8": "Agosti",
                  "9": "Septemba",
                  "10": "Oktoba",
                  "11": "Novemba",
                  "12": "Desemba"
                }
              }
            },
            "days": {
              "format": {
                "abbreviated": {
                  "sun": "Jumapili",
                  "mon": "Jumatatu",
                  "tue": "Jumanne",
                  "wed": "Jumatano",
                  "thu": "Alhamisi",
                  "fri": "Ijumaa",
                  "sat": "Jumamosi"
                },
                "narrow": {
                  "sun": "S",
                  "mon": "M",
                  "tue": "T",
                  "wed": "W",
                  "thu": "T",
                  "fri": "F",
                  "sat": "S"
                },
                "short": {
                  "sun": "Jumapili",
                  "mon": "Jumatatu",
                  "tue": "Jumanne",
                  "wed": "Jumatano",
                  "thu": "Alhamisi",
                  "fri": "Ijumaa",
                  "sat": "Jumamosi"
                },
                "wide": {
                  "sun": "Jumapili",
                  "mon": "Jumatatu",
                  "tue": "Jumanne",
                  "wed": "Jumatano",
                  "thu": "Alhamisi",
                  "fri": "Ijumaa",
                  "sat": "Jumamosi"
                }
              },
              "stand-alone": {
                "abbreviated": {
                  "sun": "Jumapili",
                  "mon": "Jumatatu",
                  "tue": "Jumanne",
                  "wed": "Jumatano",
                  "thu": "Alhamisi",
                  "fri": "Ijumaa",
                  "sat": "Jumamosi"
                },
                "narrow": {
                  "sun": "S",
                  "mon": "M",
                  "tue": "T",
                  "wed": "W",
                  "thu": "T",
                  "fri": "F",
                  "sat": "S"
                },
                "short": {
                  "sun": "Jumapili",
                  "mon": "Jumatatu",
                  "tue": "Jumanne",
                  "wed": "Jumatano",
                  "thu": "Alhamisi",
                  "fri": "Ijumaa",
                  "sat": "Jumamosi"
                },
                "wide": {
                  "sun": "Jumapili",
                  "mon": "Jumatatu",
                  "tue": "Jumanne",
                  "wed": "Jumatano",
                  "thu": "Alhamisi",
                  "fri": "Ijumaa",
                  "sat": "Jumamosi"
                }
              }
            },
            "quarters": {
              "format": {
                "abbreviated": {
                  "1": "Robo ya 1",
                  "2": "Robo ya 2",
                  "3": "Robo ya 3",
                  "4": "Robo ya 4"
                },
                "narrow": {
                  "1": "1",
                  "2": "2",
                  "3": "3",
                  "4": "4"
                },
                "wide": {
                  "1": "Robo ya 1",
                  "2": "Robo ya 2",
                  "3": "Robo ya 3",
                  "4": "Robo ya 4"
                }
              },
              "stand-alone": {
                "abbreviated": {
                  "1": "Robo ya 1",
                  "2": "Robo ya 2",
                  "3": "Robo ya 3",
                  "4": "Robo ya 4"
                },
                "narrow": {
                  "1": "1",
                  "2": "2",
                  "3": "3",
                  "4": "4"
                },
                "wide": {
                  "1": "Robo ya 1",
                  "2": "Robo ya 2",
                  "3": "Robo ya 3",
                  "4": "Robo ya 4"
                }
              }
            },
            "dayPeriods": {
              "format": {
                "abbreviated": {
                  "am": "AM",
                  "noon": "PM",
                  "pm": "PM"
                },
                "narrow": {
                  "am": "am",
                  "noon": "PM",
                  "pm": "pm"
                },
                "wide": {
                  "am": "AM",
                  "noon": "PM",
                  "pm": "PM"
                }
              },
              "stand-alone": {
                "abbreviated": {
                  "am": "AM",
                  "noon": "PM",
                  "pm": "PM"
                },
                "narrow": {
                  "am": "am",
                  "noon": "PM",
                  "pm": "pm"
                },
                "wide": {
                  "am": "AM",
                  "noon": "PM",
                  "pm": "PM"
                }
              }
            },
            "eras": {
              "eraNames": {
                "0": "Kabla ya Kristo",
                "0-alt-variant": "BCE",
                "1": "Baada ya Kristo",
                "1-alt-variant": "CE"
              },
              "eraAbbr": {
                "0": "BC",
                "0-alt-variant": "BCE",
                "1": "AD",
                "1-alt-variant": "CE"
              },
              "eraNarrow": {
                "0": "BC",
                "0-alt-variant": "BCE",
                "1": "AD",
                "1-alt-variant": "CE"
              }
            },
            "dateFormats": {
              "full": "EEEE, d MMMM y",
              "long": "d MMMM y",
              "medium": "d MMM y",
              "short": "dd/MM/y"
            },
            "timeFormats": {
              "full": "h:mm:ss a zzzz",
              "long": "h:mm:ss a z",
              "medium": "h:mm:ss a",
              "short": "h:mm a"
            },
            "dateTimeFormats": {
              "full": "{1} {0}",
              "long": "{1} {0}",
              "medium": "{1} {0}",
              "short": "{1} {0}",
              "availableFormats": {
                "E": "ccc",
                "EHm": "E HH:mm",
                "EHms": "E HH:mm:ss",
                "Ed": "E d",
                "Ehm": "E h:mm a",
                "Ehms": "E h:mm:ss a",
                "Gy": "y G",
                "GyMMM": "MMM y G",
                "GyMMMEd": "E, MMM d, y G",
                "GyMMMd": "d MMM y G",
                "H": "HH",
                "Hm": "HH:mm",
                "Hms": "HH:mm:ss",
                "M": "L",
                "MEd": "E, d/M",
                "MMM": "LLL",
                "MMMEd": "E, d MMM",
                "MMMMEd": "E, d MMMM",
                "MMMMd": "d MMMM",
                "MMMd": "d MMM",
                "Md": "d-M",
                "d": "d",
                "h": "h a",
                "hm": "h:mm a",
                "hms": "h:mm:ss a",
                "ms": "mm:ss",
                "y": "y",
                "yM": "M/y",
                "yMEd": "E, d/M/y",
                "yMMM": "MMM y",
                "yMMMEd": "E, MMM d, y",
                "yMMMM": "MMMM y",
                "yMMMd": "d MMM y",
                "yMd": "d/M/y",
                "yQQQ": "QQQ y",
                "yQQQQ": "QQQQ y"
              },
              "appendItems": {
                "Day": "{0} ({2}: {1})",
                "Day-Of-Week": "{0} {1}",
                "Era": "{1} {0}",
                "Hour": "{0} ({2}: {1})",
                "Minute": "{0} ({2}: {1})",
                "Month": "{0} ({2}: {1})",
                "Quarter": "{0} ({2}: {1})",
                "Second": "{0} ({2}: {1})",
                "Timezone": "{0} {1}",
                "Week": "{0} ({2}: {1})",
                "Year": "{1} {0}"
              },
              "intervalFormats": {
                "intervalFormatFallback": "{0} – {1}",
                "H": {
                  "H": "HH – HH"
                },
                "Hm": {
                  "H": "HH:mm - HH:mm",
                  "m": "HH:mm – HH:mm"
                },
                "Hmv": {
                  "H": "HH:mm – HH:mm v",
                  "m": "HH:mm - HH:mm v"
                },
                "Hv": {
                  "H": "HH – HH v"
                },
                "M": {
                  "M": "M - M"
                },
                "MEd": {
                  "M": "E, d/M - E, d/M",
                  "d": "E, d/M - E, d/M"
                },
                "MMM": {
                  "M": "MMM - MMM"
                },
                "MMMEd": {
                  "M": "E, MMM d- E, MMM d",
                  "d": "E, MMM d- E, MMM d"
                },
                "MMMd": {
                  "M": "MMM d – MMM d",
                  "d": "MMM d–d"
                },
                "Md": {
                  "M": "d/M - d/M",
                  "d": "d/M - d/M"
                },
                "d": {
                  "d": "d - d"
                },
                "h": {
                  "a": "h a – h a",
                  "h": "h – h a"
                },
                "hm": {
                  "a": "h:mm a – h:mm a",
                  "h": "h:mm–h:mm a",
                  "m": "h:mm – h:mm a"
                },
                "hmv": {
                  "a": "h:mm a – h:mm a v",
                  "h": "h:mm - h:mm a v",
                  "m": "h:mm - h:mm a v"
                },
                "hv": {
                  "a": "h a – h a v",
                  "h": "h – h a v"
                },
                "y": {
                  "y": "y - y"
                },
                "yM": {
                  "M": "M/y - M/y",
                  "y": "M/y - M/y"
                },
                "yMEd": {
                  "M": "E, d/M/y - E, d/M/y",
                  "d": "E, d/M/y - E, d/M/y",
                  "y": "E, d/M/y - E, d/M/y"
                },
                "yMMM": {
                  "M": "MMM - MMM y",
                  "y": "MMM y - MMM y"
                },
                "yMMMEd": {
                  "M": "E, MMM d- E, MMM d y",
                  "d": "E, MMM d - E, MMM d y",
                  "y": "E, MMM d y - E, MMM d y"
                },
                "yMMMM": {
                  "M": "MMMM-MMMM y",
                  "y": "MMMM y – MMMM y"
                },
                "yMMMd": {
                  "M": "MMM d - d, y",
                  "d": "MMM d - d, y",
                  "y": "MMM d y - MMM d y"
                },
                "yMd": {
                  "M": "d/M/y - d/M/y",
                  "d": "d/M/y - d/M/y",
                  "y": "d/M/y - d/M/y"
                }
              }
            }
          }
        }
      }
    }
  }
}
