{
  "main": {
    "mk": {
      "identity": {
        "version": {
          "_cldrVersion": "26",
          "_number": "$Revision: 10809 $"
        },
        "generation": {
          "_date": "$Date: 2014-08-14 15:10:07 -0500 (Thu, 14 Aug 2014) $"
        },
        "language": "mk"
      },
      "dates": {
        "calendars": {
          "roc": {
            "months": {
              "format": {
                "abbreviated": {
                  "1": "јан.",
                  "2": "фев.",
                  "3": "мар.",
                  "4": "апр.",
                  "5": "мај",
                  "6": "јун.",
                  "7": "јул.",
                  "8": "авг.",
                  "9": "септ.",
                  "10": "окт.",
                  "11": "ноем.",
                  "12": "дек."
                },
                "narrow": {
                  "1": "ј",
                  "2": "ф",
                  "3": "м",
                  "4": "а",
                  "5": "м",
                  "6": "ј",
                  "7": "ј",
                  "8": "а",
                  "9": "с",
                  "10": "о",
                  "11": "н",
                  "12": "д"
                },
                "wide": {
                  "1": "јануари",
                  "2": "февруари",
                  "3": "март",
                  "4": "април",
                  "5": "мај",
                  "6": "јуни",
                  "7": "јули",
                  "8": "август",
                  "9": "септември",
                  "10": "октомври",
                  "11": "ноември",
                  "12": "декември"
                }
              },
              "stand-alone": {
                "abbreviated": {
                  "1": "јан.",
                  "2": "фев.",
                  "3": "мар.",
                  "4": "апр.",
                  "5": "мај",
                  "6": "јун.",
                  "7": "јул.",
                  "8": "авг.",
                  "9": "септ.",
                  "10": "окт.",
                  "11": "ноем.",
                  "12": "дек."
                },
                "narrow": {
                  "1": "ј",
                  "2": "ф",
                  "3": "м",
                  "4": "а",
                  "5": "м",
                  "6": "ј",
                  "7": "ј",
                  "8": "а",
                  "9": "с",
                  "10": "о",
                  "11": "н",
                  "12": "д"
                },
                "wide": {
                  "1": "јануари",
                  "2": "февруари",
                  "3": "март",
                  "4": "април",
                  "5": "мај",
                  "6": "јуни",
                  "7": "јули",
                  "8": "август",
                  "9": "септември",
                  "10": "октомври",
                  "11": "ноември",
                  "12": "декември"
                }
              }
            },
            "days": {
              "format": {
                "abbreviated": {
                  "sun": "нед.",
                  "mon": "пон.",
                  "tue": "вт.",
                  "wed": "сре.",
                  "thu": "чет.",
                  "fri": "пет.",
                  "sat": "саб."
                },
                "narrow": {
                  "sun": "н",
                  "mon": "п",
                  "tue": "в",
                  "wed": "с",
                  "thu": "ч",
                  "fri": "п",
                  "sat": "с"
                },
                "short": {
                  "sun": "нед.",
                  "mon": "пон.",
                  "tue": "вт.",
                  "wed": "сре.",
                  "thu": "чет.",
                  "fri": "пет.",
                  "sat": "саб."
                },
                "wide": {
                  "sun": "недела",
                  "mon": "понеделник",
                  "tue": "вторник",
                  "wed": "среда",
                  "thu": "четврток",
                  "fri": "петок",
                  "sat": "сабота"
                }
              },
              "stand-alone": {
                "abbreviated": {
                  "sun": "нед.",
                  "mon": "пон.",
                  "tue": "вт.",
                  "wed": "сре.",
                  "thu": "чет.",
                  "fri": "пет.",
                  "sat": "саб."
                },
                "narrow": {
                  "sun": "н",
                  "mon": "п",
                  "tue": "в",
                  "wed": "с",
                  "thu": "ч",
                  "fri": "п",
                  "sat": "с"
                },
                "short": {
                  "sun": "нед.",
                  "mon": "пон.",
                  "tue": "вто.",
                  "wed": "сре.",
                  "thu": "чет.",
                  "fri": "пет.",
                  "sat": "саб."
                },
                "wide": {
                  "sun": "недела",
                  "mon": "понеделник",
                  "tue": "вторник",
                  "wed": "среда",
                  "thu": "четврток",
                  "fri": "петок",
                  "sat": "сабота"
                }
              }
            },
            "quarters": {
              "format": {
                "abbreviated": {
                  "1": "јан-мар",
                  "2": "апр-јун",
                  "3": "јул-сеп",
                  "4": "окт-дек"
                },
                "narrow": {
                  "1": "1",
                  "2": "2",
                  "3": "3",
                  "4": "4"
                },
                "wide": {
                  "1": "прво тромесечје",
                  "2": "второ тромесечје",
                  "3": "трето тромесечје",
                  "4": "четврто тромесечје"
                }
              },
              "stand-alone": {
                "abbreviated": {
                  "1": "јан-мар",
                  "2": "апр-јун",
                  "3": "јул-сеп",
                  "4": "окт-дек"
                },
                "narrow": {
                  "1": "1",
                  "2": "2",
                  "3": "3",
                  "4": "4"
                },
                "wide": {
                  "1": "прво тромесечје",
                  "2": "второ тромесечје",
                  "3": "трето тромесечје",
                  "4": "четврто тромесечје"
                }
              }
            },
            "dayPeriods": {
              "format": {
                "abbreviated": {
                  "am": "претпладне",
                  "noon": "на пладне",
                  "pm": "попладне"
                },
                "narrow": {
                  "am": "прет.",
                  "noon": "напл.",
                  "pm": "попл."
                },
                "wide": {
                  "am": "претпладне",
                  "noon": "на пладне",
                  "pm": "попладне"
                }
              },
              "stand-alone": {
                "abbreviated": {
                  "am": "претпладне",
                  "noon": "на пладне",
                  "pm": "попладне"
                },
                "narrow": {
                  "am": "прет.",
                  "noon": "напл.",
                  "pm": "попл."
                },
                "wide": {
                  "am": "претпладне",
                  "noon": "на пладне",
                  "pm": "попладне"
                }
              }
            },
            "eras": {
              "eraNames": {
                "0": "Before R.O.C.",
                "1": "R.O.C."
              },
              "eraAbbr": {
                "0": "Before R.O.C.",
                "1": "R.O.C."
              },
              "eraNarrow": {
                "0": "Before R.O.C.",
                "1": "R.O.C."
              }
            },
            "dateFormats": {
              "full": "EEEE, dd MMMM y 'г'. G",
              "long": "dd MMMM y 'г'. G",
              "medium": "dd.M.y G",
              "short": "dd.M.y GGGGG"
            },
            "timeFormats": {
              "full": "HH:mm:ss zzzz",
              "long": "HH:mm:ss z",
              "medium": "HH:mm:ss",
              "short": "HH:mm"
            },
            "dateTimeFormats": {
              "full": "{1} {0}",
              "long": "{1} {0}",
              "medium": "{1} {0}",
              "short": "{1} {0}",
              "availableFormats": {
                "E": "ccc",
                "EHm": "E HH:mm",
                "EHms": "E HH:mm:ss",
                "Ed": "d E",
                "Ehm": "E h:mm a",
                "Ehms": "E h:mm:ss a",
                "Gy": "y 'г'. G",
                "GyMMM": "MMM y 'г'. G",
                "GyMMMEd": "E, dd MMM y 'г'. G",
                "GyMMMd": "dd MMM y 'г'. G",
                "H": "HH",
                "Hm": "HH:mm",
                "Hms": "HH:mm:ss",
                "M": "L",
                "MEd": "E, dd.M",
                "MMM": "LLL",
                "MMMEd": "E, dd MMM",
                "MMMMEd": "E, dd MMMM",
                "MMMMd": "dd MMMM",
                "MMMd": "dd MMM",
                "Md": "dd.M",
                "d": "d",
                "h": "h a",
                "hm": "h:mm a",
                "hms": "h:mm:ss a",
                "ms": "mm:ss",
                "y": "y 'г'. G",
                "yyyy": "y 'г'. G",
                "yyyyM": "M.y G",
                "yyyyMEd": "E, dd.M.y G",
                "yyyyMMM": "MMM y 'г'. G",
                "yyyyMMMEd": "E, dd MMM y 'г'. G",
                "yyyyMMMM": "MMMM y 'г'. G",
                "yyyyMMMd": "dd MMM y 'г'. G",
                "yyyyMd": "dd.M.y G",
                "yyyyQQQ": "G y QQQ",
                "yyyyQQQQ": "G y QQQQ"
              },
              "appendItems": {
                "Day": "{0} ({2}: {1})",
                "Day-Of-Week": "{0} {1}",
                "Era": "{1} {0}",
                "Hour": "{0} ({2}: {1})",
                "Minute": "{0} ({2}: {1})",
                "Month": "{0} ({2}: {1})",
                "Quarter": "{0} ({2}: {1})",
                "Second": "{0} ({2}: {1})",
                "Timezone": "{0} {1}",
                "Week": "{0} ({2}: {1})",
                "Year": "{1} {0}"
              },
              "intervalFormats": {
                "intervalFormatFallback": "{0} - {1}",
                "H": {
                  "H": "HH-HH"
                },
                "Hm": {
                  "H": "HH:mm-HH:mm",
                  "m": "HH:mm-HH:mm"
                },
                "Hmv": {
                  "H": "HH:mm-HH:mm v",
                  "m": "HH:mm-HH:mm v"
                },
                "Hv": {
                  "H": "HH-HH v"
                },
                "M": {
                  "M": "M-M"
                },
                "MEd": {
                  "M": "E, dd.M - E, dd.M",
                  "d": "E, dd.M - E, dd.M"
                },
                "MMM": {
                  "M": "MMM-MMM"
                },
                "MMMEd": {
                  "M": "E, dd MMM - E, dd MMM",
                  "d": "E, dd - E, dd MMM"
                },
                "MMMM": {
                  "M": "LLLL–LLLL"
                },
                "MMMd": {
                  "M": "dd MMM - dd MMM",
                  "d": "dd-dd MMM"
                },
                "Md": {
                  "M": "dd.M - dd.M",
                  "d": "dd.M - dd.M"
                },
                "d": {
                  "d": "d-d"
                },
                "h": {
                  "a": "h a – h a",
                  "h": "h-h a"
                },
                "hm": {
                  "a": "h:mm a – h:mm a",
                  "h": "h:mm-h:mm a",
                  "m": "h:mm-h:mm a"
                },
                "hmv": {
                  "a": "h:mm a – h:mm a v",
                  "h": "h:mm-h:mm a v",
                  "m": "h:mm-h:mm a v"
                },
                "hv": {
                  "a": "h a – h a v",
                  "h": "h-h a v"
                },
                "y": {
                  "y": "y-y G"
                },
                "yM": {
                  "M": "M.y - M.y G",
                  "y": "M.y - M.y G"
                },
                "yMEd": {
                  "M": "E, dd.M.y - E, dd.M.y G",
                  "d": "E, dd.M.y - E, dd.M.y G",
                  "y": "E, dd.M.y - E, dd.M.y G"
                },
                "yMMM": {
                  "M": "MMM-MMM y G",
                  "y": "MMM y - MMM y G"
                },
                "yMMMEd": {
                  "M": "E, dd MMM - E, dd MMM y G",
                  "d": "E, dd - E, dd MMM y G",
                  "y": "E, dd MMM y - E, dd MMM y G"
                },
                "yMMMM": {
                  "M": "MMMM-MMMM y G",
                  "y": "MMMM y - MMMM y G"
                },
                "yMMMd": {
                  "M": "dd MMM - dd MMM y G",
                  "d": "dd-dd MMM y G",
                  "y": "dd MMM y - dd MMM y G"
                },
                "yMd": {
                  "M": "dd.M.y - dd.M.y G",
                  "d": "dd.M.y - dd.M.y G",
                  "y": "dd.M.y - dd.M.y G"
                }
              }
            }
          }
        }
      }
    }
  }
}
