{
  "main": {
    "ee": {
      "identity": {
        "version": {
          "_cldrVersion": "26",
          "_number": "$Revision: 10809 $"
        },
        "generation": {
          "_date": "$Date: 2014-08-14 15:10:07 -0500 (Thu, 14 Aug 2014) $"
        },
        "language": "ee"
      },
      "localeDisplayNames": {
        "languages": {
          "aa": "aa",
          "ab": "abkhaziagbe",
          "ace": "ace",
          "ach": "ach",
          "ada": "ada",
          "ady": "adyghegbe",
          "ae": "ae",
          "aeb": "aeb",
          "af": "afrikaangbe",
          "afh": "afh",
          "agq": "aghemgbe",
          "ain": "ain",
          "ak": "blugbe",
          "akk": "akk",
          "akz": "akz",
          "ale": "ale",
          "aln": "aln",
          "alt": "alt",
          "am": "amhariagbe",
          "an": "an",
          "ang": "ang",
          "anp": "anp",
          "ar": "arabiagbe",
          "ar-001": "ar_001",
          "arc": "arc",
          "arn": "arn",
          "aro": "aro",
          "arp": "arp",
          "arq": "arq",
          "arw": "arw",
          "ary": "ary",
          "arz": "arz",
          "as": "assamegbe",
          "asa": "asagbe",
          "ase": "ase",
          "ast": "asturiagbe",
          "av": "avariagbe",
          "avk": "avk",
          "awa": "awa",
          "ay": "aymargbe",
          "az": "azerbaijangbe",
          "az-alt-short": "az",
          "azb": "azb",
          "ba": "bashkigbe",
          "bal": "bal",
          "ban": "ban",
          "bar": "bar",
          "bas": "basaagbe",
          "bax": "bamugbe",
          "bbc": "bbc",
          "bbj": "ghomalagbe",
          "be": "belarusiagbe",
          "bej": "bej",
          "bem": "bembagbe",
          "bew": "bew",
          "bez": "benagbe",
          "bfd": "bafutgbe",
          "bfq": "bfq",
          "bg": "bulgariagbe",
          "bho": "bho",
          "bi": "bislamagbe",
          "bik": "bik",
          "bin": "bin",
          "bjn": "bjn",
          "bkm": "komgbe",
          "bla": "bla",
          "bm": "bambaragbe",
          "bn": "bengalgbe",
          "bo": "tibetagbe",
          "bpy": "bpy",
          "bqi": "bqi",
          "br": "bretongbe",
          "bra": "bra",
          "brh": "brh",
          "brx": "bodogbe",
          "bs": "bosniagbe",
          "bss": "akoosiagbe",
          "bua": "bua",
          "bug": "bug",
          "bum": "bulugbe",
          "byn": "byn",
          "byv": "medumbagbe",
          "ca": "katalagbe",
          "cad": "cad",
          "car": "car",
          "cay": "cay",
          "cch": "cch",
          "ce": "ce",
          "ceb": "Sebuanogbe",
          "cgg": "cgg",
          "ch": "kamorrogbe",
          "chb": "chb",
          "chg": "chg",
          "chk": "tsukesegbe",
          "chm": "tsetsniagbe",
          "chn": "chn",
          "cho": "cho",
          "chp": "chp",
          "chr": "chr",
          "chy": "chy",
          "ckb": "ckb",
          "co": "co",
          "cop": "cop",
          "cps": "cps",
          "cr": "cr",
          "crh": "crh",
          "cs": "tsɛkgbe",
          "csb": "csb",
          "cu": "cu",
          "cv": "cv",
          "cy": "walesgbe",
          "da": "denmarkgbe",
          "dak": "dak",
          "dar": "dar",
          "dav": "dav",
          "de": "germaniagbe",
          "de-AT": "austriatɔwo ƒe germaniagbe",
          "de-CH": "swizerlanɖ germaniagbe kɔkɔtɔ",
          "del": "del",
          "den": "den",
          "dgr": "dgr",
          "din": "din",
          "dje": "zamagbe",
          "doi": "doi",
          "dsb": "dsb",
          "dtp": "dtp",
          "dua": "dualagbe",
          "dum": "dum",
          "dv": "divehgbe",
          "dyo": "dzola-fonyigbe",
          "dyu": "dyu",
          "dz": "dzongkhagbe",
          "dzg": "dzg",
          "ebu": "embugbe",
          "ee": "eʋegbe",
          "efi": "efigbe",
          "egl": "egl",
          "egy": "egy",
          "eka": "eka",
          "el": "grisigbe",
          "elx": "elx",
          "en": "yevugbe",
          "en-AU": "australiatɔwo ƒe yevugbe",
          "en-CA": "kanadatɔwo ƒe yevugbe",
          "en-GB": "britaintɔwo ƒe yevugbe",
          "en-GB-alt-short": "en_GB",
          "en-US": "u.s.dukɔmetɔwo ƒe yevugbe",
          "en-US-alt-short": "en_US",
          "enm": "enm",
          "eo": "esperantogbe",
          "es": "spaniagbe",
          "es-419": "latin amerikatɔwo ƒe spaniagbe",
          "es-ES": "iberiatɔwo ƒe spaniagbe",
          "es-MX": "es_MX",
          "esu": "esu",
          "et": "estoniagbe",
          "eu": "basqugbe",
          "ewo": "ewondogbe",
          "ext": "ext",
          "fa": "persiagbe",
          "fan": "fangbe",
          "fat": "fat",
          "ff": "fulagbe",
          "fi": "finlanɖgbe",
          "fil": "filipingbe",
          "fit": "fit",
          "fj": "fidzigbe",
          "fo": "faroegbe",
          "fon": "fon",
          "fr": "fransegbe",
          "fr-CA": "kanadatɔwo ƒe fransegbe",
          "fr-CH": "swizerlanɖtɔwo ƒe fransegbe",
          "frc": "frc",
          "frm": "frm",
          "fro": "fro",
          "frp": "frp",
          "frr": "frr",
          "frs": "frs",
          "fur": "fur",
          "fy": "ɣetoɖoƒe frisiagbe",
          "ga": "irelanɖgbe",
          "gaa": "gɛgbe",
          "gag": "gag",
          "gan": "gan",
          "gay": "gay",
          "gba": "gba",
          "gbz": "gbz",
          "gd": "skɔtlanɖ gaeliagbe",
          "gez": "gez",
          "gil": "gilbertgbe",
          "gl": "galatagbe",
          "glk": "glk",
          "gmh": "gmh",
          "gn": "guarangbe",
          "goh": "goh",
          "gom": "gom",
          "gon": "gon",
          "gor": "gor",
          "got": "got",
          "grb": "grb",
          "grc": "grc",
          "gsw": "swizerlanɖtɔwo ƒe germaniagbe",
          "gu": "gujarati",
          "guc": "guc",
          "gur": "gur",
          "guz": "guz",
          "gv": "gv",
          "gwi": "gwi",
          "ha": "hausagbe",
          "hai": "hai",
          "hak": "hak",
          "haw": "hawaigbe",
          "he": "hebrigbe",
          "hi": "hindigbe",
          "hif": "hif",
          "hil": "hiligenɔgbe",
          "hit": "hit",
          "hmn": "hmn",
          "ho": "hiri motugbe",
          "hr": "kroatiagbe",
          "hsb": "hsb",
          "hsn": "hsn",
          "ht": "haitigbe",
          "hu": "hungarigbe",
          "hup": "hup",
          "hy": "armeniagbe",
          "hz": "hz",
          "ia": "ia",
          "iba": "iba",
          "ibb": "ibibiogbe",
          "id": "indonesiagbe",
          "ie": "ie",
          "ig": "igbogbe",
          "ii": "ii",
          "ik": "ik",
          "ilo": "ilikogbe",
          "inh": "ingusigbe",
          "io": "io",
          "is": "icelanɖgbe",
          "it": "italiagbe",
          "iu": "iu",
          "izh": "izh",
          "ja": "dzapangbe",
          "jam": "jam",
          "jbo": "jbo",
          "jgo": "jgo",
          "jmc": "jmc",
          "jpr": "jpr",
          "jrb": "jrb",
          "jut": "jut",
          "jv": "dzavangbe",
          "ka": "gɔgiagbe",
          "kaa": "kaa",
          "kab": "kab",
          "kac": "kac",
          "kaj": "kaj",
          "kam": "kam",
          "kaw": "kaw",
          "kbd": "kabardiagbe",
          "kbl": "kbl",
          "kcg": "kcg",
          "kde": "kde",
          "kea": "cape verdegbe",
          "ken": "ken",
          "kfo": "kfo",
          "kg": "kongogbe",
          "kgp": "kgp",
          "kha": "khasigbe",
          "kho": "kho",
          "khq": "khq",
          "khw": "khw",
          "ki": "ki",
          "kiu": "kiu",
          "kj": "kunyamagbe",
          "kk": "kazakhstangbe",
          "kkj": "kakogbe",
          "kl": "kalaalisugbe",
          "kln": "kln",
          "km": "khmergbe",
          "kmb": "kmb",
          "kn": "kannadagbe",
          "ko": "koreagbe",
          "koi": "koi",
          "kok": "konkaniagbe",
          "kos": "kosraeagbe",
          "kpe": "kpe",
          "kr": "kanuriagbe",
          "krc": "karakay-bakargbe",
          "kri": "kri",
          "krj": "krj",
          "krl": "krl",
          "kru": "kru",
          "ks": "kashmirgbe",
          "ksb": "ksb",
          "ksf": "bafiagbe",
          "ksh": "ksh",
          "ku": "kurdiagbe",
          "kum": "kumikagbe",
          "kut": "kut",
          "kv": "kv",
          "kw": "kw",
          "ky": "kirghistangbe",
          "la": "latin",
          "lad": "lad",
          "lag": "lag",
          "lah": "lahndagbe",
          "lam": "lam",
          "lb": "laksembɔggbe",
          "lez": "lezghiagbe",
          "lfn": "lfn",
          "lg": "lg",
          "li": "li",
          "lij": "lij",
          "liv": "liv",
          "lkt": "lkt",
          "lmo": "lmo",
          "ln": "lingala",
          "lo": "laogbe",
          "lol": "lol",
          "loz": "loz",
          "lt": "lithuaniagbe",
          "ltg": "ltg",
          "lu": "luba-katangagbe",
          "lua": "luba-lulugbe",
          "lui": "lui",
          "lun": "lun",
          "luo": "luo",
          "lus": "lus",
          "luy": "luyiagbe",
          "lv": "latviagbe",
          "lzh": "lzh",
          "lzz": "lzz",
          "mad": "mad",
          "maf": "mafagbe",
          "mag": "mag",
          "mai": "maitiligbe",
          "mak": "mak",
          "man": "man",
          "mas": "mas",
          "mde": "mde",
          "mdf": "moktsiagbe",
          "mdr": "mdr",
          "men": "men",
          "mer": "mer",
          "mfe": "mfe",
          "mg": "malagasegbe",
          "mga": "mga",
          "mgh": "makuwa-mitogbe",
          "mgo": "mgo",
          "mh": "marshalgbe",
          "mi": "maorgbe",
          "mic": "mic",
          "min": "min",
          "mk": "makedoniagbe",
          "ml": "malayagbe",
          "mn": "mongoliagbe",
          "mnc": "mnc",
          "mni": "mni",
          "moh": "moh",
          "mos": "mos",
          "mr": "marathiagbe",
          "mrj": "mrj",
          "ms": "malaygbe",
          "mt": "maltagbe",
          "mua": "mundangbe",
          "mul": "gbegbɔgblɔ sɔgbɔwo",
          "mus": "mus",
          "mwl": "mwl",
          "mwr": "mwr",
          "mwv": "mwv",
          "my": "burmagbe",
          "mye": "myenegbe",
          "myv": "erziyagbe",
          "mzn": "mzn",
          "na": "naurugbe",
          "nan": "nan",
          "nap": "nap",
          "naq": "naq",
          "nb": "nɔweigbe bokmål",
          "nd": "dziehe ndebelegbe",
          "nds": "nds",
          "ne": "nepalgbe",
          "new": "new",
          "ng": "ng",
          "nia": "nia",
          "niu": "niuegbe",
          "njo": "njo",
          "nl": "hɔlandgbe",
          "nl-BE": "flemiagbe",
          "nmg": "kwasiogbe",
          "nn": "nɔweigbe ninɔsk",
          "nnh": "ngiemboongbe",
          "no": "nɔweigbe",
          "nog": "nog",
          "non": "non",
          "nov": "nov",
          "nqo": "nqo",
          "nr": "anyiehe ndebelegbe",
          "nso": "dziehe sothogbe",
          "nus": "nuergbe",
          "nv": "nv",
          "nwc": "nwc",
          "ny": "nyanjagbe",
          "nym": "nym",
          "nyn": "nyn",
          "nyo": "nyo",
          "nzi": "nzi",
          "oc": "oc",
          "oj": "oj",
          "om": "om",
          "or": "oriyagbe",
          "os": "ossetiagbe",
          "osa": "osa",
          "ota": "ota",
          "pa": "pundzabgbe",
          "pag": "pangsinagbe",
          "pal": "pal",
          "pam": "pam",
          "pap": "papiamentogbe",
          "pau": "paluagbe",
          "pcd": "pcd",
          "pdc": "pdc",
          "pdt": "pdt",
          "peo": "peo",
          "pfl": "pfl",
          "phn": "phn",
          "pi": "pi",
          "pl": "polandgbe",
          "pms": "pms",
          "pnt": "pnt",
          "pon": "ponpeiagbe",
          "prg": "prg",
          "pro": "pro",
          "ps": "pashtogbe",
          "pt": "pɔtugalgbe",
          "pt-BR": "braziltɔwo ƒe portugalgbe",
          "pt-PT": "iberiatɔwo ƒe portugalgbe",
          "qu": "kwetsuagbe",
          "quc": "quc",
          "qug": "qug",
          "raj": "raj",
          "rap": "rap",
          "rar": "rar",
          "rgn": "rgn",
          "rif": "rif",
          "rm": "romanshgbe",
          "rn": "rundigbe",
          "ro": "romaniagbe",
          "ro-MD": "ro_MD",
          "rof": "rombogbe",
          "rom": "rom",
          "root": "root",
          "rtm": "rtm",
          "ru": "rɔtsiagbe",
          "rue": "rue",
          "rug": "rug",
          "rup": "rup",
          "rw": "ruwandagbe",
          "rwk": "rwagbe",
          "sa": "sanskrigbe",
          "sad": "sad",
          "sah": "sakagbe",
          "sam": "sam",
          "saq": "saq",
          "sas": "sas",
          "sat": "santaligbe",
          "saz": "saz",
          "sba": "sba",
          "sbp": "sangugbe",
          "sc": "sc",
          "scn": "scn",
          "sco": "sco",
          "sd": "sindhgbe",
          "sdc": "sdc",
          "se": "dziehe samigbe",
          "see": "see",
          "seh": "seh",
          "sei": "sei",
          "sel": "sel",
          "ses": "ses",
          "sg": "sangogbe",
          "sga": "sga",
          "sgs": "sgs",
          "sh": "serbo-croatiagbe",
          "shi": "shi",
          "shn": "shn",
          "shu": "shu",
          "si": "sinhalgbe",
          "sid": "sid",
          "sk": "slovakiagbe",
          "sl": "sloveniagbe",
          "sli": "sli",
          "sly": "sly",
          "sm": "samoagbe",
          "sma": "sma",
          "smj": "smj",
          "smn": "smn",
          "sms": "sms",
          "sn": "shonagbe",
          "snk": "snk",
          "so": "somaliagbe",
          "sog": "sog",
          "sq": "albaniagbe",
          "sr": "serbiagbe",
          "srn": "srn",
          "srr": "srr",
          "ss": "swatgbe",
          "ssy": "ssy",
          "st": "anyiehe sothogbe",
          "stq": "stq",
          "su": "sudangbe",
          "suk": "suk",
          "sus": "sus",
          "sux": "sux",
          "sv": "swedengbe",
          "sw": "swahili",
          "swb": "komorogbe",
          "swc": "swc",
          "syc": "syc",
          "syr": "syr",
          "szl": "szl",
          "ta": "tamilgbe",
          "tcy": "tcy",
          "te": "telegugbe",
          "tem": "tem",
          "teo": "teo",
          "ter": "ter",
          "tet": "tetumgbe",
          "tg": "tadzikistangbe",
          "th": "tailandgbe",
          "ti": "tigrinyagbe",
          "tig": "tig",
          "tiv": "tiv",
          "tk": "tɛkmengbe",
          "tkl": "tokelaugbe",
          "tkr": "tkr",
          "tl": "tagalogbe",
          "tlh": "tlh",
          "tli": "tli",
          "tly": "tly",
          "tmh": "tmh",
          "tn": "tswanagbe",
          "to": "tongagbe",
          "tog": "tog",
          "tpi": "tok pisigbe",
          "tr": "tɛkigbe",
          "tru": "tru",
          "trv": "trv",
          "ts": "tsongagbe",
          "tsd": "tsd",
          "tsi": "tsi",
          "tt": "tatargbe",
          "ttt": "ttt",
          "tum": "tum",
          "tvl": "tuvalugbe",
          "tw": "tw",
          "twq": "tasawakgbe",
          "ty": "tahitigbe",
          "tyv": "tuviniagbe",
          "tzm": "tzm",
          "udm": "udmurtgbe",
          "ug": "uighurgbe",
          "uga": "uga",
          "uk": "ukraingbe",
          "umb": "umb",
          "und": "gbegbɔgblɔ manya",
          "ur": "urdugbe",
          "uz": "uzbekistangbe",
          "vai": "vaigbe",
          "ve": "vendagbe",
          "vec": "vec",
          "vep": "vep",
          "vi": "vietnamgbe",
          "vls": "vls",
          "vmf": "vmf",
          "vo": "vo",
          "vot": "vot",
          "vro": "vro",
          "vun": "vun",
          "wa": "wa",
          "wae": "walsegbe",
          "wal": "wal",
          "war": "waraygbe",
          "was": "was",
          "wo": "wolofgbe",
          "wuu": "wuu",
          "xal": "xal",
          "xh": "xhosagbe",
          "xmf": "xmf",
          "xog": "xog",
          "yao": "yao",
          "yap": "yapesigbe",
          "yav": "yangbengbe",
          "ybb": "yembagbe",
          "yi": "yi",
          "yo": "yorubagbe",
          "yrl": "yrl",
          "yue": "cantongbe",
          "za": "zhuangbe",
          "zap": "zap",
          "zbl": "zbl",
          "zea": "zea",
          "zen": "zen",
          "zgh": "zgh",
          "zh": "kinagbe",
          "zh-Hans": "tsainagbe",
          "zh-Hant": "blema tsainagbe",
          "zu": "zulugbe",
          "zun": "zun",
          "zxx": "gbegbɔgblɔ manɔmee",
          "zza": "zza"
        }
      }
    }
  }
}
