{
  "main": {
    "bg-BG": {
      "identity": {
        "version": {
          "_cldrVersion": "26",
          "_number": "$Revision: 10669 $"
        },
        "generation": {
          "_date": "$Date: 2014-07-23 16:10:33 -0500 (Wed, 23 Jul 2014) $"
        },
        "language": "bg",
        "territory": "BG"
      },
      "localeDisplayNames": {
        "variants": {
          "1606NICT": "Късен средновековен френски до 1606",
          "1694ACAD": "Ранен съвременен френски",
          "1901": "Традиционен немски правопис",
          "1959ACAD": "Академичен",
          "1994": "Стандартен резиански правопис",
          "1996": "Немски правопис от 1996",
          "ALALC97": "ALALC97",
          "ALUKU": "ALUKU",
          "AREVELA": "Източно арменски",
          "AREVMDA": "Западно арменски",
          "BAKU1926": "Унифицирана тюркска азбука",
          "BALANKA": "BALANKA",
          "BARLA": "BARLA",
          "BAUDDHA": "BAUDDHA",
          "BISCAYAN": "BISCAYAN",
          "BISKE": "Диалект Сан Джорджио/Била",
          "BOHORIC": "BOHORIC",
          "BOONT": "Бунтлинг",
          "DAJNKO": "DAJNKO",
          "EKAVSK": "EKAVSK",
          "EMODENG": "EMODENG",
          "FONIPA": "Международна фонетична азбука",
          "FONUPA": "Уралска фонетична азбука",
          "FONXSAMP": "FONXSAMP",
          "HEPBURN": "HEPBURN",
          "HOGNORSK": "HOGNORSK",
          "IJEKAVSK": "IJEKAVSK",
          "ITIHASA": "ITIHASA",
          "JAUER": "JAUER",
          "JYUTPING": "JYUTPING",
          "KKCOR": "Общ правопис",
          "KSCOR": "KSCOR",
          "LAUKIKA": "LAUKIKA",
          "LIPAW": "Диалект Липовац",
          "LUNA1918": "LUNA1918",
          "METELKO": "METELKO",
          "MONOTON": "Монотонично",
          "NDYUKA": "NDYUKA",
          "NEDIS": "Диалект Натисоне",
          "NJIVA": "Диалект Нджива",
          "NULIK": "NULIK",
          "OSOJS": "Диалект Осеако/Осояне",
          "PAMAKA": "PAMAKA",
          "PETR1708": "PETR1708",
          "PINYIN": "Пинин романизация",
          "POLYTON": "Политонично",
          "POSIX": "Компютърен",
          "PUTER": "PUTER",
          "REVISED": "Променен правопис",
          "RIGIK": "RIGIK",
          "ROZAJ": "Резиански",
          "RUMGR": "RUMGR",
          "SAAHO": "Сахо",
          "SCOTLAND": "Шотландски английски",
          "SCOUSE": "Ливърпулски диалект",
          "SOLBA": "Диалект Столвиза",
          "SOTAV": "SOTAV",
          "SURMIRAN": "SURMIRAN",
          "SURSILV": "SURSILV",
          "SUTSILV": "SUTSILV",
          "TARASK": "Тарашкевица",
          "UCCOR": "UCCOR",
          "UCRCOR": "UCRCOR",
          "ULSTER": "ULSTER",
          "UNIFON": "UNIFON",
          "VAIDIKA": "VAIDIKA",
          "VALENCIA": "Валенсиански",
          "VALLADER": "VALLADER",
          "WADEGILE": "Уейд-Джайлс романизация"
        }
      }
    }
  }
}
