{
  "main": {
    "hy-AM": {
      "identity": {
        "version": {
          "_cldrVersion": "26",
          "_number": "$Revision: 10669 $"
        },
        "generation": {
          "_date": "$Date: 2014-07-23 16:10:33 -0500 (Wed, 23 Jul 2014) $"
        },
        "language": "hy",
        "territory": "AM"
      },
      "localeDisplayNames": {
        "languages": {
          "aa": "aa",
          "ab": "աբխազերեն",
          "ace": "ace",
          "ach": "ach",
          "ada": "ada",
          "ady": "ady",
          "ae": "ae",
          "aeb": "aeb",
          "af": "աֆրիկաանս",
          "afh": "afh",
          "agq": "աղեմ",
          "ain": "ain",
          "ak": "աքաներեն",
          "akk": "akk",
          "akz": "akz",
          "ale": "ale",
          "aln": "aln",
          "alt": "alt",
          "am": "ամհարերեն",
          "an": "an",
          "ang": "ang",
          "anp": "anp",
          "ar": "արաբերեն",
          "ar-001": "ժամանակակից ստանդարտ արաբերեն",
          "arc": "arc",
          "arn": "մապուչի",
          "aro": "aro",
          "arp": "arp",
          "arq": "arq",
          "arw": "arw",
          "ary": "ary",
          "arz": "arz",
          "as": "ասամերեն",
          "asa": "ասու",
          "ase": "ase",
          "ast": "ast",
          "av": "av",
          "avk": "avk",
          "awa": "awa",
          "ay": "ay",
          "az": "ադրբեջաներեն",
          "az-alt-short": "az",
          "azb": "azb",
          "ba": "բաշկիրերեն",
          "bal": "bal",
          "ban": "ban",
          "bar": "bar",
          "bas": "bas",
          "bax": "bax",
          "bbc": "bbc",
          "bbj": "bbj",
          "be": "բելառուսերեն",
          "bej": "bej",
          "bem": "բեմբա",
          "bew": "bew",
          "bez": "բենա",
          "bfd": "bfd",
          "bfq": "bfq",
          "bg": "բուլղարերեն",
          "bho": "bho",
          "bi": "bi",
          "bik": "bik",
          "bin": "bin",
          "bjn": "bjn",
          "bkm": "bkm",
          "bla": "bla",
          "bm": "բամբարա",
          "bn": "բենգալերեն",
          "bo": "տիբեթերեն",
          "bpy": "bpy",
          "bqi": "bqi",
          "br": "բրետոներեն",
          "bra": "bra",
          "brh": "brh",
          "brx": "բոդո",
          "bs": "բոսնիերեն",
          "bss": "bss",
          "bua": "bua",
          "bug": "bug",
          "bum": "bum",
          "byn": "byn",
          "byv": "byv",
          "ca": "կատալաներեն",
          "cad": "cad",
          "car": "car",
          "cay": "cay",
          "cch": "cch",
          "ce": "ce",
          "ceb": "ceb",
          "cgg": "չիգա",
          "ch": "ch",
          "chb": "chb",
          "chg": "chg",
          "chk": "chk",
          "chm": "chm",
          "chn": "chn",
          "cho": "cho",
          "chp": "chp",
          "chr": "շերոկի",
          "chy": "chy",
          "ckb": "սորանի (քրդերեն)",
          "co": "կորսիկերեն",
          "cop": "cop",
          "cps": "cps",
          "cr": "cr",
          "crh": "crh",
          "cs": "չեխերեն",
          "csb": "csb",
          "cu": "cu",
          "cv": "cv",
          "cy": "ուելսերեն",
          "da": "դանիերեն",
          "dak": "dak",
          "dar": "dar",
          "dav": "թաիթա",
          "de": "գերմաներեն",
          "de-AT": "ավստրիական գերմաներեն",
          "de-CH": "շվեյցարական բարձր գերմաներեն",
          "del": "del",
          "den": "den",
          "dgr": "dgr",
          "din": "din",
          "dje": "զարմա",
          "doi": "doi",
          "dsb": "ստորին սորբիերեն",
          "dtp": "dtp",
          "dua": "դուալա",
          "dum": "dum",
          "dv": "dv",
          "dyo": "ջոլա-ֆոնյի",
          "dyu": "dyu",
          "dz": "ջոնգքհա",
          "dzg": "dzg",
          "ebu": "էմբու",
          "ee": "էվե",
          "efi": "efi",
          "egl": "egl",
          "egy": "egy",
          "eka": "eka",
          "el": "հունարեն",
          "elx": "elx",
          "en": "անգլերեն",
          "en-AU": "ավստրալական անգլերեն",
          "en-CA": "կանադական անգլերեն",
          "en-GB": "բրիտանական անգլերեն",
          "en-GB-alt-short": "անգլերեն (ՄԹ)",
          "en-US": "ամերիկյան անգլերեն",
          "en-US-alt-short": "անգլերեն (ԱՄՆ)",
          "enm": "enm",
          "eo": "էսպերանտո",
          "es": "իսպաներեն",
          "es-419": "լատինաամերիկյան իսպաներեն",
          "es-ES": "եվրոպական իսպաներեն",
          "es-MX": "մեքսիկական իսպաներեն",
          "esu": "esu",
          "et": "էստոներեն",
          "eu": "բասկերեն",
          "ewo": "ewo",
          "ext": "ext",
          "fa": "պարսկերեն",
          "fan": "fan",
          "fat": "fat",
          "ff": "ff",
          "fi": "ֆիններեն",
          "fil": "ֆիլիպիներեն",
          "fit": "fit",
          "fj": "ֆիջիերեն",
          "fo": "ֆարյորերեն",
          "fon": "fon",
          "fr": "ֆրանսերեն",
          "fr-CA": "կանադական ֆրանսերեն",
          "fr-CH": "շվեյցարական ֆրանսերեն",
          "frc": "frc",
          "frm": "frm",
          "fro": "fro",
          "frp": "frp",
          "frr": "frr",
          "frs": "frs",
          "fur": "fur",
          "fy": "արևմտյան ֆրիզերեն",
          "ga": "իռլանդերեն",
          "gaa": "gaa",
          "gag": "գագաուզերեն",
          "gan": "gan",
          "gay": "gay",
          "gba": "gba",
          "gbz": "gbz",
          "gd": "Գաելյան Շոտլանդերեն",
          "gez": "gez",
          "gil": "gil",
          "gl": "գալիսերեն",
          "glk": "glk",
          "gmh": "gmh",
          "gn": "գուարանի",
          "goh": "goh",
          "gom": "gom",
          "gon": "gon",
          "gor": "gor",
          "got": "got",
          "grb": "grb",
          "grc": "grc",
          "gsw": "շվեյցարական գերմաներեն",
          "gu": "գուջարաթի",
          "guc": "guc",
          "gur": "gur",
          "guz": "գուսի",
          "gv": "մեներեն",
          "gwi": "gwi",
          "ha": "հաուսա",
          "hai": "hai",
          "hak": "hak",
          "haw": "հավայիերեն",
          "he": "եբրայերեն",
          "hi": "հինդի",
          "hif": "hif",
          "hil": "hil",
          "hit": "hit",
          "hmn": "hmn",
          "ho": "ho",
          "hr": "խորվաթերեն",
          "hsb": "վերին սորբիերեն",
          "hsn": "hsn",
          "ht": "հաիթերեն",
          "hu": "հունգարերեն",
          "hup": "hup",
          "hy": "հայերեն",
          "hz": "hz",
          "ia": "Ինտերլինգուա",
          "iba": "iba",
          "ibb": "ibb",
          "id": "ինդոնեզերեն",
          "ie": "Ինտերլինգ",
          "ig": "իգբո",
          "ii": "սիխուան յի",
          "ik": "ik",
          "ilo": "ilo",
          "inh": "inh",
          "io": "io",
          "is": "իսլանդերեն",
          "it": "իտալերեն",
          "iu": "ինուկտիտուտ",
          "izh": "izh",
          "ja": "ճապոներեն",
          "jam": "jam",
          "jbo": "jbo",
          "jgo": "նգոմբա",
          "jmc": "մաշամե",
          "jpr": "jpr",
          "jrb": "jrb",
          "jut": "jut",
          "jv": "ճավայերեն",
          "ka": "վրացերեն",
          "kaa": "kaa",
          "kab": "կաբիլերեն",
          "kac": "kac",
          "kaj": "kaj",
          "kam": "կամբա",
          "kaw": "kaw",
          "kbd": "kbd",
          "kbl": "kbl",
          "kcg": "kcg",
          "kde": "մակոնդե",
          "kea": "կուբավերդիանու",
          "ken": "ken",
          "kfo": "kfo",
          "kg": "kg",
          "kgp": "kgp",
          "kha": "kha",
          "kho": "kho",
          "khq": "կոյրա չինի",
          "khw": "khw",
          "ki": "կիկույու",
          "kiu": "kiu",
          "kj": "kj",
          "kk": "ղազախերեն",
          "kkj": "kkj",
          "kl": "կալաալիսուտ",
          "kln": "կալենջին",
          "km": "քմերերեն",
          "kmb": "kmb",
          "kn": "կաննադա",
          "ko": "կորեերեն",
          "koi": "կոմի-պերմյակ",
          "kok": "կոնկանի",
          "kos": "kos",
          "kpe": "kpe",
          "kr": "kr",
          "krc": "krc",
          "kri": "kri",
          "krj": "krj",
          "krl": "krl",
          "kru": "kru",
          "ks": "քաշմիրերեն",
          "ksb": "շամբալա",
          "ksf": "բաֆիա",
          "ksh": "ksh",
          "ku": "քրդերեն",
          "kum": "kum",
          "kut": "kut",
          "kv": "kv",
          "kw": "կոռներեն",
          "ky": "ղրղզերեն",
          "la": "լատիներեն",
          "lad": "lad",
          "lag": "լանգի",
          "lah": "lah",
          "lam": "lam",
          "lb": "լյուքսեմբուրգերեն",
          "lez": "lez",
          "lfn": "lfn",
          "lg": "գանդա",
          "li": "li",
          "lij": "lij",
          "liv": "liv",
          "lkt": "լակոտա",
          "lmo": "lmo",
          "ln": "լինգալա",
          "lo": "լաոսերեն",
          "lol": "lol",
          "loz": "loz",
          "lt": "լիտվերեն",
          "ltg": "ltg",
          "lu": "լուբա-կատանգա",
          "lua": "lua",
          "lui": "lui",
          "lun": "lun",
          "luo": "լուո",
          "lus": "lus",
          "luy": "լույա",
          "lv": "լատվիերեն",
          "lzh": "lzh",
          "lzz": "lzz",
          "mad": "mad",
          "maf": "maf",
          "mag": "mag",
          "mai": "mai",
          "mak": "mak",
          "man": "man",
          "mas": "մասաի",
          "mde": "mde",
          "mdf": "mdf",
          "mdr": "mdr",
          "men": "men",
          "mer": "մերու",
          "mfe": "մորիսյեն",
          "mg": "մալագասերեն",
          "mga": "mga",
          "mgh": "մաքուա-մետտո",
          "mgo": "մետա",
          "mh": "mh",
          "mi": "մաորի",
          "mic": "mic",
          "min": "min",
          "mk": "մակեդոներեն",
          "ml": "մալայալամ",
          "mn": "մոնղոլերեն",
          "mnc": "mnc",
          "mni": "mni",
          "moh": "մոհավք",
          "mos": "mos",
          "mr": "մարաթի",
          "mrj": "mrj",
          "ms": "մալայերեն",
          "mt": "մալթերեն",
          "mua": "մունդանգ",
          "mul": "mul",
          "mus": "mus",
          "mwl": "mwl",
          "mwr": "mwr",
          "mwv": "mwv",
          "my": "բիրմայերեն",
          "mye": "mye",
          "myv": "myv",
          "mzn": "mzn",
          "na": "na",
          "nan": "nan",
          "nap": "nap",
          "naq": "նամա",
          "nb": "նորվեգերեն բուկմոլ",
          "nd": "հյուսիսային նդեբելե",
          "nds": "nds",
          "ne": "նեպալերեն",
          "new": "new",
          "ng": "ng",
          "nia": "nia",
          "niu": "niu",
          "njo": "njo",
          "nl": "հոլանդերեն",
          "nl-BE": "ֆլամանդերեն",
          "nmg": "կվասիո",
          "nn": "նորվեգերեն նյունորսկ",
          "nnh": "nnh",
          "no": "Նորվեգերեն",
          "nog": "nog",
          "non": "non",
          "nov": "nov",
          "nqo": "նկո",
          "nr": "nr",
          "nso": "nso",
          "nus": "նուեր",
          "nv": "nv",
          "nwc": "nwc",
          "ny": "ny",
          "nym": "nym",
          "nyn": "նյանկոլե",
          "nyo": "nyo",
          "nzi": "nzi",
          "oc": "Ակվիտաներեն",
          "oj": "oj",
          "om": "օրոմո",
          "or": "օրիյա",
          "os": "os",
          "osa": "osa",
          "ota": "ota",
          "pa": "փենջաբերեն",
          "pag": "pag",
          "pal": "pal",
          "pam": "pam",
          "pap": "pap",
          "pau": "pau",
          "pcd": "pcd",
          "pdc": "pdc",
          "pdt": "pdt",
          "peo": "peo",
          "pfl": "pfl",
          "phn": "phn",
          "pi": "pi",
          "pl": "լեհերեն",
          "pms": "pms",
          "pnt": "pnt",
          "pon": "pon",
          "prg": "prg",
          "pro": "pro",
          "ps": "փուշթու",
          "pt": "պորտուգալերեն",
          "pt-BR": "բրազիլական պորտուգալերեն",
          "pt-PT": "եվրոպական պորտուգալերեն",
          "qu": "քեչուա",
          "quc": "կիչե",
          "qug": "qug",
          "raj": "raj",
          "rap": "rap",
          "rar": "rar",
          "rgn": "rgn",
          "rif": "rif",
          "rm": "ռոմանշերեն",
          "rn": "ռունդի",
          "ro": "ռումիներեն",
          "ro-MD": "մոլդովերեն",
          "rof": "ռոմբո",
          "rom": "rom",
          "root": "root",
          "rtm": "rtm",
          "ru": "ռուսերեն",
          "rue": "rue",
          "rug": "rug",
          "rup": "rup",
          "rw": "քինյարվանդա",
          "rwk": "ռվա",
          "sa": "սանսկրիտ",
          "sad": "sad",
          "sah": "sah",
          "sam": "sam",
          "saq": "սամբուրու",
          "sas": "sas",
          "sat": "sat",
          "saz": "saz",
          "sba": "sba",
          "sbp": "սանգու",
          "sc": "sc",
          "scn": "scn",
          "sco": "sco",
          "sd": "սինդհի",
          "sdc": "sdc",
          "se": "հյուսիսային սամի",
          "see": "see",
          "seh": "սենա",
          "sei": "sei",
          "sel": "sel",
          "ses": "կոյրաբորո սեննի",
          "sg": "սանգո",
          "sga": "sga",
          "sgs": "sgs",
          "sh": "Սերբա-Խորվաթերեն",
          "shi": "տաշելհիթ",
          "shn": "shn",
          "shu": "shu",
          "si": "սինհալերեն",
          "sid": "sid",
          "sk": "սլովակերեն",
          "sl": "սլովեներեն",
          "sli": "sli",
          "sly": "sly",
          "sm": "sm",
          "sma": "հարավային սամի",
          "smj": "լուլե սամի",
          "smn": "ինարի սամի",
          "sms": "սկոլտ սամի",
          "sn": "շոնա",
          "snk": "snk",
          "so": "սոմալիերեն",
          "sog": "sog",
          "sq": "ալբաներեն",
          "sr": "սերբերեն",
          "srn": "srn",
          "srr": "srr",
          "ss": "ss",
          "ssy": "ssy",
          "st": "Սեսոտո",
          "stq": "stq",
          "su": "սունդաներեն",
          "suk": "suk",
          "sus": "sus",
          "sux": "sux",
          "sv": "շվեդերեն",
          "sw": "սուահիլի",
          "swb": "swb",
          "swc": "կոնգոյի սուահիլի",
          "syc": "syc",
          "syr": "syr",
          "szl": "szl",
          "ta": "թամիլերեն",
          "tcy": "tcy",
          "te": "թելուգու",
          "tem": "tem",
          "teo": "տեսո",
          "ter": "ter",
          "tet": "tet",
          "tg": "տաջիկերեն",
          "th": "թայերեն",
          "ti": "թիգրինիա",
          "tig": "tig",
          "tiv": "tiv",
          "tk": "թուրքմեներեն",
          "tkl": "tkl",
          "tkr": "tkr",
          "tl": "tl",
          "tlh": "Կլինգոն",
          "tli": "tli",
          "tly": "tly",
          "tmh": "tmh",
          "tn": "tn",
          "to": "տոնգա",
          "tog": "tog",
          "tpi": "tpi",
          "tr": "թուրքերեն",
          "tru": "tru",
          "trv": "trv",
          "ts": "ts",
          "tsd": "tsd",
          "tsi": "tsi",
          "tt": "թաթարերեն",
          "ttt": "ttt",
          "tum": "tum",
          "tvl": "tvl",
          "tw": "Տուի",
          "twq": "տասավաք",
          "ty": "ty",
          "tyv": "tyv",
          "tzm": "կենտրոնատլասյան թամազիխտ",
          "udm": "udm",
          "ug": "ույղուրերեն",
          "uga": "uga",
          "uk": "ուկրաիներեն",
          "umb": "umb",
          "und": "անհայտ լեզու",
          "ur": "ուրդու",
          "uz": "ուզբեկերեն",
          "vai": "վաի",
          "ve": "ve",
          "vec": "vec",
          "vep": "vep",
          "vi": "վիետնամերեն",
          "vls": "vls",
          "vmf": "vmf",
          "vo": "vo",
          "vot": "vot",
          "vro": "vro",
          "vun": "վունջո",
          "wa": "wa",
          "wae": "wae",
          "wal": "wal",
          "war": "war",
          "was": "was",
          "wo": "վոլոֆ",
          "wuu": "wuu",
          "xal": "xal",
          "xh": "քսոզա",
          "xmf": "xmf",
          "xog": "սոգա",
          "yao": "yao",
          "yap": "yap",
          "yav": "yav",
          "ybb": "ybb",
          "yi": "Իդիշ",
          "yo": "յորուբա",
          "yrl": "yrl",
          "yue": "yue",
          "za": "za",
          "zap": "zap",
          "zbl": "zbl",
          "zea": "zea",
          "zen": "zen",
          "zgh": "ստանդարտ մարոկական թամազիղտ",
          "zh": "չինարեն",
          "zh-Hans": "պարզեցված չինարեն",
          "zh-Hant": "ավանդական չինարեն",
          "zu": "զուլուսերեն",
          "zun": "zun",
          "zxx": "առանց լեզվային բովանդակության",
          "zza": "zza"
        }
      }
    }
  }
}
