{
  "main": {
    "ur-IN": {
      "identity": {
        "version": {
          "_cldrVersion": "26",
          "_number": "$Revision: 10819 $"
        },
        "generation": {
          "_date": "$Date: 2014-08-14 22:53:08 -0500 (Thu, 14 Aug 2014) $"
        },
        "language": "root",
        "territory": "IN"
      },
      "characters": {
        "exemplarCharacters": "[ا أ آ ب پ ت ٹ ث ج چ ح خ د ڈ ذ ر ڑ ز ژ س ش ص ض ط ظ ع غ ف ق ک گ ل م ن ں و ؤ ہ ۂ ھ ء ی ئ ے ة ه]",
        "auxiliary": "[؀؁؂؃\u200C\u200D\u200E\u200F \u064B \u064C \u064D \u064E \u064F \u0650 \u0651 \u0652 \u0654 \u0656 \u0657 \u0658 \u0670 ۃ ٻ ٺ ټ ٽ ي]",
        "punctuation": "[، ؍ ٫ ٬ ؛ \\: ؟ . ۔ ( ) \\[ \\]]",
        "index": "[ا ب پ ت ٹ ث ج چ ح خ د ڈ ذ ر ڑ ز ژ س ش ص ض ط ظ ع غ ف ق ک گ ل م ن و ہ ھ ء ی ے]",
        "ellipsis": {
          "initial": "…{0}",
          "medial": "{0}…{1}",
          "final": "{0}…",
          "word-initial": "… {0}",
          "word-medial": "{0} … {1}",
          "word-final": "{0} …"
        },
        "moreInformation": "؟"
      }
    }
  }
}
