{
  "main": {
    "ur-IN": {
      "identity": {
        "version": {
          "_cldrVersion": "26",
          "_number": "$Revision: 10819 $"
        },
        "generation": {
          "_date": "$Date: 2014-08-14 22:53:08 -0500 (Thu, 14 Aug 2014) $"
        },
        "language": "root",
        "territory": "IN"
      },
      "localeDisplayNames": {
        "transformNames": {
          "BGN": "BGN",
          "Numeric": "عددی",
          "Tone": "ٹون",
          "UNGEGN": "UNGEGN",
          "x-Accents": "لہجے",
          "x-Fullwidth": "پورا عرض",
          "x-Halfwidth": "نصف عرض",
          "x-Jamo": "جامو",
          "x-Pinyin": "پن یِن",
          "x-Publishing": "اشاعت"
        }
      }
    }
  }
}
