{
  "main": {
    "yi": {
      "identity": {
        "version": {
          "_cldrVersion": "26",
          "_number": "$Revision: 10741 $"
        },
        "generation": {
          "_date": "$Date: 2014-08-07 13:24:47 -0500 (Thu, 07 Aug 2014) $"
        },
        "language": "root"
      },
      "characters": {
        "exemplarCharacters": "[א {א\u05B7} {א\u05B8} ב {ב\u05BF} ג ד {דזש} ה ו {ו\u05BC} {וו} {וי} ז {זש} ח ט {טש} י {י\u05B4} {יי} {ײ\u05B7} {כ\u05BC} כ ך ל מ ם נ ן ס ע {פ\u05BC} {פ\u05BF} ף צ ץ ק ר ש {ש\u05C2} {ת\u05BC} ת]",
        "auxiliary": "[\u200E\u200F]",
        "punctuation": "[\\- ‐ – — , ; \\: ! ? . ׳ ' \" ( ) \\[ \\] / ״ ־]",
        "index": "[\u05C2 \u05BC \u05BF א ב ג ד ה ו ז ח ט י כ ל מ נ ס ע פ צ ק ר ש ת]",
        "ellipsis": {
          "initial": "…{0}",
          "medial": "{0}…{1}",
          "final": "{0}…",
          "word-initial": "… {0}",
          "word-medial": "{0} … {1}",
          "word-final": "{0} …"
        },
        "moreInformation": "?"
      }
    }
  }
}
