{
  "main": {
    "yi": {
      "identity": {
        "version": {
          "_cldrVersion": "26",
          "_number": "$Revision: 10741 $"
        },
        "generation": {
          "_date": "$Date: 2014-08-07 13:24:47 -0500 (Thu, 07 Aug 2014) $"
        },
        "language": "root"
      },
      "dates": {
        "fields": {
          "era": {
            "displayName": "Era"
          },
          "year": {
            "displayName": "יאָהר",
            "relative-type--1": "פֿאַראַיאָר",
            "relative-type-0": "הײַ יאָר",
            "relative-type-1": "איבער א יאָר",
            "relativeTime-type-future": {
              "relativeTimePattern-count-one": "איבער {0} יאָר",
              "relativeTimePattern-count-other": "איבער {0} יאָר"
            },
            "relativeTime-type-past": {
              "relativeTimePattern-count-one": "פֿאַר {0} יאָר",
              "relativeTimePattern-count-other": "פֿאַר {0} יאָר"
            }
          },
          "year-short": {
            "displayName": "יאָר",
            "relative-type--1": "פֿאַראַיאָר",
            "relative-type-0": "הײַ יאָר",
            "relative-type-1": "איבער א יאָר",
            "relativeTime-type-future": {
              "relativeTimePattern-count-one": "איבער א יאָר",
              "relativeTimePattern-count-other": "איבער {0} יאָר"
            },
            "relativeTime-type-past": {
              "relativeTimePattern-count-one": "פֿאַר {0} יאָר",
              "relativeTimePattern-count-other": "פֿאַר {0} יאָר"
            }
          },
          "year-narrow": {
            "displayName": "יאָר",
            "relative-type--1": "פֿאַראַיאָר",
            "relative-type-0": "הײַ יאָר",
            "relative-type-1": "איבער א יאָר",
            "relativeTime-type-future": {
              "relativeTimePattern-count-one": "איבער {0} יאָר",
              "relativeTimePattern-count-other": "איבער {0} יאָר"
            },
            "relativeTime-type-past": {
              "relativeTimePattern-count-one": "פֿאַר {0} יאָר",
              "relativeTimePattern-count-other": "פֿאַר {0} יאָר"
            }
          },
          "quarter": {
            "displayName": "Quarter",
            "relative-type--1": "last quarter",
            "relative-type-0": "this quarter",
            "relative-type-1": "next quarter",
            "relativeTime-type-future": {
              "relativeTimePattern-count-other": "+{0} Q"
            },
            "relativeTime-type-past": {
              "relativeTimePattern-count-other": "-{0} Q"
            }
          },
          "quarter-short": {
            "displayName": "Quarter",
            "relative-type--1": "last quarter",
            "relative-type-0": "this quarter",
            "relative-type-1": "next quarter",
            "relativeTime-type-future": {
              "relativeTimePattern-count-other": "+{0} Q"
            },
            "relativeTime-type-past": {
              "relativeTimePattern-count-other": "-{0} Q"
            }
          },
          "quarter-narrow": {
            "displayName": "Quarter",
            "relative-type--1": "last quarter",
            "relative-type-0": "this quarter",
            "relative-type-1": "next quarter",
            "relativeTime-type-future": {
              "relativeTimePattern-count-other": "+{0} Q"
            },
            "relativeTime-type-past": {
              "relativeTimePattern-count-other": "-{0} Q"
            }
          },
          "month": {
            "displayName": "מאנאַט",
            "relative-type--1": "פֿאַרגאנגענעם חודש",
            "relative-type-0": "דעם חודש",
            "relative-type-1": "קומענדיקן חודש",
            "relativeTime-type-future": {
              "relativeTimePattern-count-one": "איבער {0} חודש",
              "relativeTimePattern-count-other": "איבער {0} חדשים"
            },
            "relativeTime-type-past": {
              "relativeTimePattern-count-one": "פֿאַר {0} חודש",
              "relativeTimePattern-count-other": "פֿאַר {0} חדשים"
            }
          },
          "month-short": {
            "displayName": "מאנאַט",
            "relative-type--1": "פֿאַרגאנגענעם חודש",
            "relative-type-0": "דעם חודש",
            "relative-type-1": "קומענדיקן חודש",
            "relativeTime-type-future": {
              "relativeTimePattern-count-one": "איבער {0} חודש",
              "relativeTimePattern-count-other": "איבער {0} חדשים"
            },
            "relativeTime-type-past": {
              "relativeTimePattern-count-one": "פֿאַר {0} חודש",
              "relativeTimePattern-count-other": "פֿאַר {0} חדשים"
            }
          },
          "month-narrow": {
            "displayName": "מאנאַט",
            "relative-type--1": "פֿאַרגאנגענעם חודש",
            "relative-type-0": "דעם חודש",
            "relative-type-1": "קומענדיקן חודש",
            "relativeTime-type-future": {
              "relativeTimePattern-count-one": "איבער {0} חודש",
              "relativeTimePattern-count-other": "איבער {0} חדשים"
            },
            "relativeTime-type-past": {
              "relativeTimePattern-count-one": "פֿאַר {0} חודש",
              "relativeTimePattern-count-other": "פֿאַר {0} חדשים"
            }
          },
          "week": {
            "displayName": "וואך",
            "relative-type--1": "last week",
            "relative-type-0": "this week",
            "relative-type-1": "איבער אַכט טאָג",
            "relativeTime-type-future": {
              "relativeTimePattern-count-other": "+{0} w"
            },
            "relativeTime-type-past": {
              "relativeTimePattern-count-other": "-{0} w"
            }
          },
          "week-short": {
            "displayName": "וואך",
            "relative-type--1": "last week",
            "relative-type-0": "this week",
            "relative-type-1": "איבער אַכט טאָג",
            "relativeTime-type-future": {
              "relativeTimePattern-count-other": "+{0} w"
            },
            "relativeTime-type-past": {
              "relativeTimePattern-count-other": "-{0} w"
            }
          },
          "week-narrow": {
            "displayName": "וואך",
            "relative-type--1": "last week",
            "relative-type-0": "this week",
            "relative-type-1": "איבער אַכט טאָג",
            "relativeTime-type-future": {
              "relativeTimePattern-count-other": "+{0} w"
            },
            "relativeTime-type-past": {
              "relativeTimePattern-count-other": "-{0} w"
            }
          },
          "day": {
            "displayName": "טאג",
            "relative-type--1": "נעכטן",
            "relative-type-0": "היינט",
            "relative-type-1": "מארגן",
            "relativeTime-type-future": {
              "relativeTimePattern-count-one": "אין {0} טאָג אַרום",
              "relativeTimePattern-count-other": "אין {0} טעג אַרום"
            },
            "relativeTime-type-past": {
              "relativeTimePattern-count-other": "-{0} d"
            }
          },
          "day-short": {
            "displayName": "טאָג",
            "relative-type--1": "נעכטן",
            "relative-type-0": "היינט",
            "relative-type-1": "מארגן",
            "relativeTime-type-future": {
              "relativeTimePattern-count-one": "אין {0} טעג אַרום",
              "relativeTimePattern-count-other": "אין {0} טעג אַרום"
            },
            "relativeTime-type-past": {
              "relativeTimePattern-count-other": "-{0} d"
            }
          },
          "day-narrow": {
            "displayName": "טאָג",
            "relative-type--1": "נעכטן",
            "relative-type-0": "היינט",
            "relative-type-1": "מארגן",
            "relativeTime-type-future": {
              "relativeTimePattern-count-one": "אין {0} טעג אַרום",
              "relativeTimePattern-count-other": "אין {0} טעג אַרום"
            },
            "relativeTime-type-past": {
              "relativeTimePattern-count-other": "-{0} d"
            }
          },
          "weekday": {
            "displayName": "טאָג אין דער וואך"
          },
          "sun": {
            "relative-type--1": "last Sunday",
            "relative-type-0": "this Sunday",
            "relative-type-1": "קומענדיקן זונטיק"
          },
          "sun-short": {
            "relative-type--1": "last Sunday",
            "relative-type-0": "this Sunday",
            "relative-type-1": "קומענדיקן זונטיק"
          },
          "sun-narrow": {
            "relative-type--1": "last Sunday",
            "relative-type-0": "this Sunday",
            "relative-type-1": "קומענדיקן זונטיק"
          },
          "mon": {
            "relative-type--1": "last Monday",
            "relative-type-0": "this Monday",
            "relative-type-1": "next Monday"
          },
          "mon-short": {
            "relative-type--1": "last Monday",
            "relative-type-0": "this Monday",
            "relative-type-1": "next Monday"
          },
          "mon-narrow": {
            "relative-type--1": "last Monday",
            "relative-type-0": "this Monday",
            "relative-type-1": "next Monday"
          },
          "tue": {
            "relative-type--1": "last Tuesday",
            "relative-type-0": "this Tuesday",
            "relative-type-1": "next Tuesday"
          },
          "tue-short": {
            "relative-type--1": "last Tuesday",
            "relative-type-0": "this Tuesday",
            "relative-type-1": "next Tuesday"
          },
          "tue-narrow": {
            "relative-type--1": "last Tuesday",
            "relative-type-0": "this Tuesday",
            "relative-type-1": "next Tuesday"
          },
          "wed": {
            "relative-type--1": "last Wednesday",
            "relative-type-0": "this Wednesday",
            "relative-type-1": "next Wednesday"
          },
          "wed-short": {
            "relative-type--1": "last Wednesday",
            "relative-type-0": "this Wednesday",
            "relative-type-1": "next Wednesday"
          },
          "wed-narrow": {
            "relative-type--1": "last Wednesday",
            "relative-type-0": "this Wednesday",
            "relative-type-1": "next Wednesday"
          },
          "thu": {
            "relative-type--1": "last Thursday",
            "relative-type-0": "this Thursday",
            "relative-type-1": "next Thursday"
          },
          "thu-short": {
            "relative-type--1": "last Thursday",
            "relative-type-0": "this Thursday",
            "relative-type-1": "next Thursday"
          },
          "thu-narrow": {
            "relative-type--1": "last Thursday",
            "relative-type-0": "this Thursday",
            "relative-type-1": "next Thursday"
          },
          "fri": {
            "relative-type--1": "last Friday",
            "relative-type-0": "this Friday",
            "relative-type-1": "next Friday"
          },
          "fri-short": {
            "relative-type--1": "last Friday",
            "relative-type-0": "this Friday",
            "relative-type-1": "next Friday"
          },
          "fri-narrow": {
            "relative-type--1": "last Friday",
            "relative-type-0": "this Friday",
            "relative-type-1": "next Friday"
          },
          "sat": {
            "relative-type--1": "last Saturday",
            "relative-type-0": "this Saturday",
            "relative-type-1": "next Saturday"
          },
          "sat-short": {
            "relative-type--1": "last Saturday",
            "relative-type-0": "this Saturday",
            "relative-type-1": "next Saturday"
          },
          "sat-narrow": {
            "relative-type--1": "last Saturday",
            "relative-type-0": "this Saturday",
            "relative-type-1": "next Saturday"
          },
          "dayperiod": {
            "displayName": "Dayperiod"
          },
          "hour": {
            "displayName": "שעה",
            "relativeTime-type-future": {
              "relativeTimePattern-count-other": "+{0} h"
            },
            "relativeTime-type-past": {
              "relativeTimePattern-count-other": "-{0} h"
            }
          },
          "hour-short": {
            "displayName": "שעה",
            "relativeTime-type-future": {
              "relativeTimePattern-count-other": "+{0} h"
            },
            "relativeTime-type-past": {
              "relativeTimePattern-count-other": "-{0} h"
            }
          },
          "hour-narrow": {
            "displayName": "שעה",
            "relativeTime-type-future": {
              "relativeTimePattern-count-other": "+{0} h"
            },
            "relativeTime-type-past": {
              "relativeTimePattern-count-other": "-{0} h"
            }
          },
          "minute": {
            "displayName": "מינוט",
            "relativeTime-type-future": {
              "relativeTimePattern-count-other": "+{0} min"
            },
            "relativeTime-type-past": {
              "relativeTimePattern-count-other": "-{0} min"
            }
          },
          "minute-short": {
            "displayName": "מינוט",
            "relativeTime-type-future": {
              "relativeTimePattern-count-other": "+{0} min"
            },
            "relativeTime-type-past": {
              "relativeTimePattern-count-other": "-{0} min"
            }
          },
          "minute-narrow": {
            "displayName": "מינוט",
            "relativeTime-type-future": {
              "relativeTimePattern-count-other": "+{0} min"
            },
            "relativeTime-type-past": {
              "relativeTimePattern-count-other": "-{0} min"
            }
          },
          "second": {
            "displayName": "סעקונדע",
            "relative-type-0": "now",
            "relativeTime-type-future": {
              "relativeTimePattern-count-other": "+{0} s"
            },
            "relativeTime-type-past": {
              "relativeTimePattern-count-other": "-{0} s"
            }
          },
          "second-short": {
            "displayName": "סעקונדע",
            "relative-type-0": "now",
            "relativeTime-type-future": {
              "relativeTimePattern-count-other": "+{0} s"
            },
            "relativeTime-type-past": {
              "relativeTimePattern-count-other": "-{0} s"
            }
          },
          "second-narrow": {
            "displayName": "סעקונדע",
            "relative-type-0": "now",
            "relativeTime-type-future": {
              "relativeTimePattern-count-other": "+{0} s"
            },
            "relativeTime-type-past": {
              "relativeTimePattern-count-other": "-{0} s"
            }
          },
          "zone": {
            "displayName": "צײַטזאנע"
          }
        }
      }
    }
  }
}
