{
  "main": {
    "ksb": {
      "identity": {
        "version": {
          "_cldrVersion": "26",
          "_number": "$Revision: 10739 $"
        },
        "generation": {
          "_date": "$Date: 2014-08-07 12:54:13 -0500 (Thu, 07 Aug 2014) $"
        },
        "language": "ksb"
      },
      "localeDisplayNames": {
        "territories": {
          "001": "001",
          "002": "002",
          "003": "003",
          "005": "005",
          "009": "009",
          "011": "011",
          "013": "013",
          "014": "014",
          "015": "015",
          "017": "017",
          "018": "018",
          "019": "019",
          "021": "021",
          "029": "029",
          "030": "030",
          "034": "034",
          "035": "035",
          "039": "039",
          "053": "053",
          "054": "054",
          "057": "057",
          "061": "061",
          "142": "142",
          "143": "143",
          "145": "145",
          "150": "150",
          "151": "151",
          "154": "154",
          "155": "155",
          "419": "419",
          "AC": "AC",
          "AD": "Andola",
          "AE": "Falme za Kialabu",
          "AF": "Afuganistani",
          "AG": "Antigua na Balbuda",
          "AI": "Anguilla",
          "AL": "Albania",
          "AM": "Almenia",
          "AN": "Antili za Uholanzi",
          "AO": "Angola",
          "AQ": "AQ",
          "AR": "Ajentina",
          "AS": "Samoa ya Malekani",
          "AT": "Austlia",
          "AU": "Austlalia",
          "AW": "Aluba",
          "AX": "AX",
          "AZ": "Azabajani",
          "BA": "Bosnia na Hezegovina",
          "BB": "Babadosi",
          "BD": "Bangladeshi",
          "BE": "BE",
          "BF": "Bukinafaso",
          "BG": "Bulgalia",
          "BH": "Bahaleni",
          "BI": "Bulundi",
          "BJ": "Benini",
          "BL": "BL",
          "BM": "Belmuda",
          "BN": "Blunei",
          "BO": "Bolivia",
          "BQ": "BQ",
          "BR": "Blazili",
          "BS": "Bahama",
          "BT": "Butani",
          "BV": "BV",
          "BW": "Botswana",
          "BY": "Belalusi",
          "BZ": "Belize",
          "CA": "Kanada",
          "CC": "CC",
          "CD": "Jamhuli ya Kidemoklasia ya Kongo",
          "CD-alt-variant": "CD",
          "CF": "Jamhuli ya Afrika ya Gati",
          "CG": "Kongo",
          "CG-alt-variant": "CG",
          "CH": "Uswisi",
          "CI": "Kodivaa",
          "CI-alt-variant": "CI",
          "CK": "Visiwa vya Cook",
          "CL": "Chile",
          "CM": "Kameluni",
          "CN": "China",
          "CO": "Kolombia",
          "CP": "CP",
          "CR": "Kostalika",
          "CU": "Kuba",
          "CV": "Kepuvede",
          "CW": "CW",
          "CX": "CX",
          "CY": "Kuplosi",
          "CZ": "Jamhuli ya Cheki",
          "DE": "Ujeumani",
          "DG": "DG",
          "DJ": "Jibuti",
          "DK": "Denmaki",
          "DM": "Dominika",
          "DO": "Jamhuli ya Dominika",
          "DZ": "Aljelia",
          "EA": "EA",
          "EC": "Ekwado",
          "EE": "Estonia",
          "EG": "Misli",
          "EH": "EH",
          "ER": "Elitlea",
          "ES": "Hispania",
          "ET": "Uhabeshi",
          "EU": "EU",
          "FI": "Ufini",
          "FJ": "Fiji",
          "FK": "Visiwa vya Falkland",
          "FK-alt-variant": "FK",
          "FM": "Miklonesia",
          "FO": "FO",
          "FR": "Ufalansa",
          "GA": "Gaboni",
          "GB": "Uingeeza",
          "GB-alt-short": "GB",
          "GD": "Glenada",
          "GE": "Jojia",
          "GF": "Gwiyana ya Ufalansa",
          "GG": "GG",
          "GH": "Ghana",
          "GI": "Jiblalta",
          "GL": "Glinlandi",
          "GM": "Gambia",
          "GN": "Gine",
          "GP": "Gwadelupe",
          "GQ": "Ginekweta",
          "GR": "Ugiiki",
          "GS": "GS",
          "GT": "Gwatemala",
          "GU": "Gwam",
          "GW": "Ginebisau",
          "GY": "Guyana",
          "HK": "HK",
          "HK-alt-short": "HK",
          "HM": "HM",
          "HN": "Honduasi",
          "HR": "Kolasia",
          "HT": "Haiti",
          "HU": "Hungalia",
          "IC": "IC",
          "ID": "Indonesia",
          "IE": "Ayalandi",
          "IL": "Islaeli",
          "IM": "IM",
          "IN": "India",
          "IO": "Eneo ja Uingeeza mwe Bahali Hindi",
          "IQ": "Ilaki",
          "IR": "Uajemi",
          "IS": "Aislandi",
          "IT": "Italia",
          "JE": "JE",
          "JM": "Jamaika",
          "JO": "Yoldani",
          "JP": "Japani",
          "KE": "Kenya",
          "KG": "Kiigizistani",
          "KH": "Kambodia",
          "KI": "Kiibati",
          "KM": "Komolo",
          "KN": "Santakitzi na Nevis",
          "KP": "Kolea Kaskazini",
          "KR": "Kolea Kusini",
          "KW": "Kuwaiti",
          "KY": "Visiwa vya Kayman",
          "KZ": "Kazakistani",
          "LA": "Laosi",
          "LB": "Lebanoni",
          "LC": "Santalusia",
          "LI": "Lishenteni",
          "LK": "Sililanka",
          "LR": "Libelia",
          "LS": "Lesoto",
          "LT": "Litwania",
          "LU": "Lasembagi",
          "LV": "Lativia",
          "LY": "Libya",
          "MA": "Moloko",
          "MC": "Monako",
          "MD": "Moldova",
          "ME": "ME",
          "MF": "MF",
          "MG": "Bukini",
          "MH": "Visiwa vya Mashal",
          "MK": "Masedonia",
          "MK-alt-variant": "MK",
          "ML": "Mali",
          "MM": "Myama",
          "MN": "Mongolia",
          "MO": "MO",
          "MO-alt-short": "MO",
          "MP": "Visiwa vya Maliana vya Kaskazini",
          "MQ": "Maltiniki",
          "MR": "Maulitania",
          "MS": "Montselati",
          "MT": "Malta",
          "MU": "Molisi",
          "MV": "Modivu",
          "MW": "Malawi",
          "MX": "Meksiko",
          "MY": "Malesia",
          "MZ": "Msumbiji",
          "NA": "Namibia",
          "NC": "Nyukaledonia",
          "NE": "Naija",
          "NF": "Kisiwa cha Nolfok",
          "NG": "Naijelia",
          "NI": "Nikalagwa",
          "NL": "Uholanzi",
          "NO": "Nolwei",
          "NP": "Nepali",
          "NR": "Naulu",
          "NU": "Niue",
          "NZ": "Nyuzilandi",
          "OM": "Omani",
          "PA": "Panama",
          "PE": "Pelu",
          "PF": "Polinesia ya Ufalansa",
          "PG": "Papua",
          "PH": "Filipino",
          "PK": "Pakistani",
          "PL": "Polandi",
          "PM": "Santapieli na Mikeloni",
          "PN": "Pitkailni",
          "PR": "Pwetoliko",
          "PS": "Ukingo wa Maghalibi na Ukanda wa Gaza wa Palestina",
          "PS-alt-short": "PS",
          "PT": "Uleno",
          "PW": "Palau",
          "PY": "Palagwai",
          "QA": "Katali",
          "QO": "QO",
          "RE": "Liyunioni",
          "RO": "Lomania",
          "RS": "RS",
          "RU": "Ulusi",
          "RW": "Lwanda",
          "SA": "Saudi",
          "SB": "Visiwa vya Solomon",
          "SC": "Shelisheli",
          "SD": "Sudani",
          "SE": "Uswidi",
          "SG": "Singapoo",
          "SH": "Santahelena",
          "SI": "Slovenia",
          "SJ": "SJ",
          "SK": "Slovakia",
          "SL": "Siela Leoni",
          "SM": "Samalino",
          "SN": "Senegali",
          "SO": "Somalia",
          "SR": "Sulinamu",
          "SS": "SS",
          "ST": "Sao Tome na Plincipe",
          "SV": "Elsavado",
          "SX": "SX",
          "SY": "Silia",
          "SZ": "Uswazi",
          "TA": "TA",
          "TC": "Visiwa vya Tulki na Kaiko",
          "TD": "Chadi",
          "TF": "TF",
          "TG": "Togo",
          "TH": "Tailandi",
          "TJ": "Tajikistani",
          "TK": "Tokelau",
          "TL": "Timoli ya Mashaliki",
          "TL-alt-variant": "TL",
          "TM": "Tulukimenistani",
          "TN": "Tunisia",
          "TO": "Tonga",
          "TR": "Utuluki",
          "TT": "Tlinidad na Tobago",
          "TV": "Tuvalu",
          "TW": "Taiwani",
          "TZ": "Tanzania",
          "UA": "Uklaini",
          "UG": "Uganda",
          "UM": "UM",
          "US": "Malekani",
          "US-alt-short": "US",
          "UY": "Ulugwai",
          "UZ": "Uzibekistani",
          "VA": "Vatikani",
          "VC": "Santavisenti na Glenadini",
          "VE": "Venezuela",
          "VG": "Visiwa vya Vilgin vya Uingeeza",
          "VI": "Visiwa vya Vilgin vya Malekani",
          "VN": "Vietinamu",
          "VU": "Vanuatu",
          "WF": "Walis na Futuna",
          "WS": "Samoa",
          "XK": "XK",
          "YE": "Yemeni",
          "YT": "Mayotte",
          "ZA": "Aflika Kusini",
          "ZM": "Zambia",
          "ZW": "Zimbabwe",
          "ZZ": "ZZ"
        }
      }
    }
  }
}
