{
  "main": {
    "kde": {
      "identity": {
        "version": {
          "_cldrVersion": "26",
          "_number": "$Revision: 10739 $"
        },
        "generation": {
          "_date": "$Date: 2014-08-07 12:54:13 -0500 (Thu, 07 Aug 2014) $"
        },
        "language": "kde"
      },
      "dates": {
        "calendars": {
          "gregorian": {
            "months": {
              "format": {
                "abbreviated": {
                  "1": "Jan",
                  "2": "Feb",
                  "3": "Mac",
                  "4": "Apr",
                  "5": "Mei",
                  "6": "Jun",
                  "7": "Jul",
                  "8": "Ago",
                  "9": "Sep",
                  "10": "Okt",
                  "11": "Nov",
                  "12": "Des"
                },
                "narrow": {
                  "1": "J",
                  "2": "F",
                  "3": "M",
                  "4": "A",
                  "5": "M",
                  "6": "J",
                  "7": "J",
                  "8": "A",
                  "9": "S",
                  "10": "O",
                  "11": "N",
                  "12": "D"
                },
                "wide": {
                  "1": "Mwedi Ntandi",
                  "2": "Mwedi wa Pili",
                  "3": "Mwedi wa Tatu",
                  "4": "Mwedi wa Nchechi",
                  "5": "Mwedi wa Nnyano",
                  "6": "Mwedi wa Nnyano na Umo",
                  "7": "Mwedi wa Nnyano na Mivili",
                  "8": "Mwedi wa Nnyano na Mitatu",
                  "9": "Mwedi wa Nnyano na Nchechi",
                  "10": "Mwedi wa Nnyano na Nnyano",
                  "11": "Mwedi wa Nnyano na Nnyano na U",
                  "12": "Mwedi wa Nnyano na Nnyano na M"
                }
              },
              "stand-alone": {
                "abbreviated": {
                  "1": "Jan",
                  "2": "Feb",
                  "3": "Mac",
                  "4": "Apr",
                  "5": "Mei",
                  "6": "Jun",
                  "7": "Jul",
                  "8": "Ago",
                  "9": "Sep",
                  "10": "Okt",
                  "11": "Nov",
                  "12": "Des"
                },
                "narrow": {
                  "1": "J",
                  "2": "F",
                  "3": "M",
                  "4": "A",
                  "5": "M",
                  "6": "J",
                  "7": "J",
                  "8": "A",
                  "9": "S",
                  "10": "O",
                  "11": "N",
                  "12": "D"
                },
                "wide": {
                  "1": "Mwedi Ntandi",
                  "2": "Mwedi wa Pili",
                  "3": "Mwedi wa Tatu",
                  "4": "Mwedi wa Nchechi",
                  "5": "Mwedi wa Nnyano",
                  "6": "Mwedi wa Nnyano na Umo",
                  "7": "Mwedi wa Nnyano na Mivili",
                  "8": "Mwedi wa Nnyano na Mitatu",
                  "9": "Mwedi wa Nnyano na Nchechi",
                  "10": "Mwedi wa Nnyano na Nnyano",
                  "11": "Mwedi wa Nnyano na Nnyano na U",
                  "12": "Mwedi wa Nnyano na Nnyano na M"
                }
              }
            },
            "days": {
              "format": {
                "abbreviated": {
                  "sun": "Ll2",
                  "mon": "Ll3",
                  "tue": "Ll4",
                  "wed": "Ll5",
                  "thu": "Ll6",
                  "fri": "Ll7",
                  "sat": "Ll1"
                },
                "narrow": {
                  "sun": "2",
                  "mon": "3",
                  "tue": "4",
                  "wed": "5",
                  "thu": "6",
                  "fri": "7",
                  "sat": "1"
                },
                "short": {
                  "sun": "Ll2",
                  "mon": "Ll3",
                  "tue": "Ll4",
                  "wed": "Ll5",
                  "thu": "Ll6",
                  "fri": "Ll7",
                  "sat": "Ll1"
                },
                "wide": {
                  "sun": "Liduva lyapili",
                  "mon": "Liduva lyatatu",
                  "tue": "Liduva lyanchechi",
                  "wed": "Liduva lyannyano",
                  "thu": "Liduva lyannyano na linji",
                  "fri": "Liduva lyannyano na mavili",
                  "sat": "Liduva litandi"
                }
              },
              "stand-alone": {
                "abbreviated": {
                  "sun": "Ll2",
                  "mon": "Ll3",
                  "tue": "Ll4",
                  "wed": "Ll5",
                  "thu": "Ll6",
                  "fri": "Ll7",
                  "sat": "Ll1"
                },
                "narrow": {
                  "sun": "2",
                  "mon": "3",
                  "tue": "4",
                  "wed": "5",
                  "thu": "6",
                  "fri": "7",
                  "sat": "1"
                },
                "short": {
                  "sun": "Ll2",
                  "mon": "Ll3",
                  "tue": "Ll4",
                  "wed": "Ll5",
                  "thu": "Ll6",
                  "fri": "Ll7",
                  "sat": "Ll1"
                },
                "wide": {
                  "sun": "Liduva lyapili",
                  "mon": "Liduva lyatatu",
                  "tue": "Liduva lyanchechi",
                  "wed": "Liduva lyannyano",
                  "thu": "Liduva lyannyano na linji",
                  "fri": "Liduva lyannyano na mavili",
                  "sat": "Liduva litandi"
                }
              }
            },
            "quarters": {
              "format": {
                "abbreviated": {
                  "1": "L1",
                  "2": "L2",
                  "3": "L3",
                  "4": "L4"
                },
                "narrow": {
                  "1": "1",
                  "2": "2",
                  "3": "3",
                  "4": "4"
                },
                "wide": {
                  "1": "Lobo 1",
                  "2": "Lobo 2",
                  "3": "Lobo 3",
                  "4": "Lobo 4"
                }
              },
              "stand-alone": {
                "abbreviated": {
                  "1": "L1",
                  "2": "L2",
                  "3": "L3",
                  "4": "L4"
                },
                "narrow": {
                  "1": "1",
                  "2": "2",
                  "3": "3",
                  "4": "4"
                },
                "wide": {
                  "1": "Lobo 1",
                  "2": "Lobo 2",
                  "3": "Lobo 3",
                  "4": "Lobo 4"
                }
              }
            },
            "dayPeriods": {
              "format": {
                "abbreviated": {
                  "am": "Muhi",
                  "noon": "noon",
                  "pm": "Chilo"
                },
                "narrow": {
                  "am": "a",
                  "noon": "n",
                  "pm": "p"
                },
                "wide": {
                  "am": "Muhi",
                  "noon": "noon",
                  "pm": "Chilo"
                }
              },
              "stand-alone": {
                "abbreviated": {
                  "am": "Muhi",
                  "noon": "noon",
                  "pm": "Chilo"
                },
                "narrow": {
                  "am": "a",
                  "noon": "n",
                  "pm": "p"
                },
                "wide": {
                  "am": "Muhi",
                  "noon": "noon",
                  "pm": "Chilo"
                }
              }
            },
            "eras": {
              "eraNames": {
                "0": "Akanapawa Yesu",
                "0-alt-variant": "BCE",
                "1": "Nankuida Yesu",
                "1-alt-variant": "CE"
              },
              "eraAbbr": {
                "0": "AY",
                "0-alt-variant": "BCE",
                "1": "NY",
                "1-alt-variant": "CE"
              },
              "eraNarrow": {
                "0": "AY",
                "0-alt-variant": "BCE",
                "1": "NY",
                "1-alt-variant": "CE"
              }
            },
            "dateFormats": {
              "full": "EEEE, d MMMM y",
              "long": "d MMMM y",
              "medium": "d MMM y",
              "short": "dd/MM/y"
            },
            "timeFormats": {
              "full": "h:mm:ss a zzzz",
              "long": "h:mm:ss a z",
              "medium": "h:mm:ss a",
              "short": "h:mm a"
            },
            "dateTimeFormats": {
              "full": "{1} {0}",
              "long": "{1} {0}",
              "medium": "{1} {0}",
              "short": "{1} {0}",
              "availableFormats": {
                "E": "ccc",
                "EHm": "E HH:mm",
                "EHms": "E HH:mm:ss",
                "Ed": "d, E",
                "Ehm": "E h:mm a",
                "Ehms": "E h:mm:ss a",
                "Gy": "G y",
                "GyMMM": "G y MMM",
                "GyMMMEd": "G y MMM d, E",
                "GyMMMd": "G y MMM d",
                "H": "HH",
                "Hm": "HH:mm",
                "Hms": "HH:mm:ss",
                "M": "L",
                "MEd": "E, M/d",
                "MMM": "LLL",
                "MMMEd": "E, MMM d",
                "MMMMEd": "E, MMMM d",
                "MMMMd": "MMMM d",
                "MMMd": "MMM d",
                "Md": "M/d",
                "d": "d",
                "h": "h a",
                "hm": "h:mm a",
                "hms": "h:mm:ss a",
                "ms": "mm:ss",
                "y": "y",
                "yM": "M/y",
                "yMEd": "E, M/d/y",
                "yMMM": "MMM y",
                "yMMMEd": "E, MMM d, y",
                "yMMMM": "MMMM y",
                "yMMMd": "y MMM d",
                "yMd": "y-MM-dd",
                "yQQQ": "QQQ y",
                "yQQQQ": "QQQQ y"
              },
              "appendItems": {
                "Day": "{0} ({2}: {1})",
                "Day-Of-Week": "{0} {1}",
                "Era": "{1} {0}",
                "Hour": "{0} ({2}: {1})",
                "Minute": "{0} ({2}: {1})",
                "Month": "{0} ({2}: {1})",
                "Quarter": "{0} ({2}: {1})",
                "Second": "{0} ({2}: {1})",
                "Timezone": "{0} {1}",
                "Week": "{0} ({2}: {1})",
                "Year": "{1} {0}"
              },
              "intervalFormats": {
                "intervalFormatFallback": "{0} – {1}",
                "H": {
                  "H": "HH–HH"
                },
                "Hm": {
                  "H": "HH:mm–HH:mm",
                  "m": "HH:mm–HH:mm"
                },
                "Hmv": {
                  "H": "HH:mm–HH:mm v",
                  "m": "HH:mm–HH:mm v"
                },
                "Hv": {
                  "H": "HH–HH v"
                },
                "M": {
                  "M": "MM–MM"
                },
                "MEd": {
                  "M": "MM-dd, E – MM-dd, E",
                  "d": "MM-dd, E – MM-dd, E"
                },
                "MMM": {
                  "M": "LLL–LLL"
                },
                "MMMEd": {
                  "M": "MMM d, E – MMM d, E",
                  "d": "MMM d, E – MMM d, E"
                },
                "MMMd": {
                  "M": "MMM d – MMM d",
                  "d": "MMM d–d"
                },
                "Md": {
                  "M": "MM-dd – MM-dd",
                  "d": "MM-dd – MM-dd"
                },
                "d": {
                  "d": "d–d"
                },
                "h": {
                  "a": "h a – h a",
                  "h": "h–h a"
                },
                "hm": {
                  "a": "h:mm a – h:mm a",
                  "h": "h:mm–h:mm a",
                  "m": "h:mm–h:mm a"
                },
                "hmv": {
                  "a": "h:mm a – h:mm a v",
                  "h": "h:mm–h:mm a v",
                  "m": "h:mm–h:mm a v"
                },
                "hv": {
                  "a": "h a – h a v",
                  "h": "h–h a v"
                },
                "y": {
                  "y": "y–y"
                },
                "yM": {
                  "M": "y-MM – y-MM",
                  "y": "y-MM – y-MM"
                },
                "yMEd": {
                  "M": "y-MM-dd, E – y-MM-dd, E",
                  "d": "y-MM-dd, E – y-MM-dd, E",
                  "y": "y-MM-dd, E – y-MM-dd, E"
                },
                "yMMM": {
                  "M": "y MMM–MMM",
                  "y": "y MMM – y MMM"
                },
                "yMMMEd": {
                  "M": "y MMM d, E – MMM d, E",
                  "d": "y MMM d, E – MMM d, E",
                  "y": "y MMM d, E – y MMM d, E"
                },
                "yMMMM": {
                  "M": "y MMMM–MMMM",
                  "y": "y MMMM – y MMMM"
                },
                "yMMMd": {
                  "M": "y MMM d – MMM d",
                  "d": "y MMM d–d",
                  "y": "y MMM d – y MMM d"
                },
                "yMd": {
                  "M": "y-MM-dd – y-MM-dd",
                  "d": "y-MM-dd – y-MM-dd",
                  "y": "y-MM-dd – y-MM-dd"
                }
              }
            }
          }
        }
      }
    }
  }
}
