{
  "main": {
    "pt-MO": {
      "identity": {
        "version": {
          "_cldrVersion": "26",
          "_number": "$Revision: 10669 $"
        },
        "generation": {
          "_date": "$Date: 2014-07-23 16:10:33 -0500 (Wed, 23 Jul 2014) $"
        },
        "language": "pt",
        "territory": "MO"
      },
      "dates": {
        "calendars": {
          "islamic-tbla": {
            "months": {
              "format": {
                "abbreviated": {
                  "1": "Muh.",
                  "2": "Saf.",
                  "3": "Rab. I",
                  "4": "Rab. II",
                  "5": "Jum. I",
                  "6": "Jum. II",
                  "7": "Raj.",
                  "8": "Sha.",
                  "9": "Ram.",
                  "10": "Shaw.",
                  "11": "Dhuʻl-Q.",
                  "12": "Dhuʻl-H."
                },
                "narrow": {
                  "1": "1",
                  "2": "2",
                  "3": "3",
                  "4": "4",
                  "5": "5",
                  "6": "6",
                  "7": "7",
                  "8": "8",
                  "9": "9",
                  "10": "10",
                  "11": "11",
                  "12": "12"
                },
                "wide": {
                  "1": "Muharram",
                  "2": "Safar",
                  "3": "Rabiʻ I",
                  "4": "Rabiʻ II",
                  "5": "Jumada I",
                  "6": "Jumada II",
                  "7": "Rajab",
                  "8": "Shaʻban",
                  "9": "Ramadan",
                  "10": "Shawwal",
                  "11": "Dhuʻl-Qiʻdah",
                  "12": "Dhuʻl-Hijjah"
                }
              },
              "stand-alone": {
                "abbreviated": {
                  "1": "Muh.",
                  "2": "Saf.",
                  "3": "Rab. I",
                  "4": "Rab. II",
                  "5": "Jum. I",
                  "6": "Jum. II",
                  "7": "Raj.",
                  "8": "Sha.",
                  "9": "Ram.",
                  "10": "Shaw.",
                  "11": "Dhuʻl-Q.",
                  "12": "Dhuʻl-H."
                },
                "narrow": {
                  "1": "1",
                  "2": "2",
                  "3": "3",
                  "4": "4",
                  "5": "5",
                  "6": "6",
                  "7": "7",
                  "8": "8",
                  "9": "9",
                  "10": "10",
                  "11": "11",
                  "12": "12"
                },
                "wide": {
                  "1": "Muharram",
                  "2": "Safar",
                  "3": "Rabiʻ I",
                  "4": "Rabiʻ II",
                  "5": "Jumada I",
                  "6": "Jumada II",
                  "7": "Rajab",
                  "8": "Shaʻban",
                  "9": "Ramadan",
                  "10": "Shawwal",
                  "11": "Dhuʻl-Qiʻdah",
                  "12": "Dhuʻl-Hijjah"
                }
              }
            },
            "days": {
              "format": {
                "abbreviated": {
                  "sun": "dom",
                  "mon": "seg",
                  "tue": "ter",
                  "wed": "qua",
                  "thu": "qui",
                  "fri": "sex",
                  "sat": "sáb"
                },
                "narrow": {
                  "sun": "D",
                  "mon": "S",
                  "tue": "T",
                  "wed": "Q",
                  "thu": "Q",
                  "fri": "S",
                  "sat": "S"
                },
                "short": {
                  "sun": "do",
                  "mon": "sg",
                  "tue": "te",
                  "wed": "qu",
                  "thu": "qi",
                  "fri": "sx",
                  "sat": "sb"
                },
                "wide": {
                  "sun": "domingo",
                  "mon": "segunda-feira",
                  "tue": "terça-feira",
                  "wed": "quarta-feira",
                  "thu": "quinta-feira",
                  "fri": "sexta-feira",
                  "sat": "sábado"
                }
              },
              "stand-alone": {
                "abbreviated": {
                  "sun": "dom",
                  "mon": "seg",
                  "tue": "ter",
                  "wed": "qua",
                  "thu": "qui",
                  "fri": "sex",
                  "sat": "sáb"
                },
                "narrow": {
                  "sun": "D",
                  "mon": "S",
                  "tue": "T",
                  "wed": "Q",
                  "thu": "Q",
                  "fri": "S",
                  "sat": "S"
                },
                "short": {
                  "sun": "do",
                  "mon": "sg",
                  "tue": "te",
                  "wed": "qu",
                  "thu": "qi",
                  "fri": "sx",
                  "sat": "sb"
                },
                "wide": {
                  "sun": "domingo",
                  "mon": "segunda-feira",
                  "tue": "terça-feira",
                  "wed": "quarta-feira",
                  "thu": "quinta-feira",
                  "fri": "sexta-feira",
                  "sat": "sábado"
                }
              }
            },
            "quarters": {
              "format": {
                "abbreviated": {
                  "1": "T1",
                  "2": "T2",
                  "3": "T3",
                  "4": "T4"
                },
                "narrow": {
                  "1": "1",
                  "2": "2",
                  "3": "3",
                  "4": "4"
                },
                "wide": {
                  "1": "1.º trimestre",
                  "2": "2.º trimestre",
                  "3": "3.º trimestre",
                  "4": "4.º trimestre"
                }
              },
              "stand-alone": {
                "abbreviated": {
                  "1": "T1",
                  "2": "T2",
                  "3": "T3",
                  "4": "T4"
                },
                "narrow": {
                  "1": "1",
                  "2": "2",
                  "3": "3",
                  "4": "4"
                },
                "wide": {
                  "1": "1.º trimestre",
                  "2": "2.º trimestre",
                  "3": "3.º trimestre",
                  "4": "4.º trimestre"
                }
              }
            },
            "dayPeriods": {
              "format": {
                "abbreviated": {
                  "afternoon": "tarde",
                  "am": "a.m.",
                  "morning": "manhã",
                  "night": "noite",
                  "noon": "meio-dia",
                  "pm": "p.m."
                },
                "narrow": {
                  "am": "a.m.",
                  "noon": "m.d.",
                  "pm": "p.m."
                },
                "wide": {
                  "afternoon": "tarde",
                  "am": "da manhã",
                  "morning": "manhã",
                  "night": "noite",
                  "noon": "meio-dia",
                  "pm": "da tarde"
                }
              },
              "stand-alone": {
                "abbreviated": {
                  "afternoon": "tarde",
                  "am": "a.m.",
                  "morning": "manhã",
                  "night": "noite",
                  "noon": "meia-noite",
                  "pm": "p.m."
                },
                "narrow": {
                  "am": "a.m.",
                  "noon": "m.d.",
                  "pm": "p.m."
                },
                "wide": {
                  "afternoon": "tarde",
                  "am": "a.m.",
                  "morning": "manhã",
                  "night": "noite",
                  "noon": "meio-dia",
                  "pm": "p.m."
                }
              }
            },
            "eras": {
              "eraNames": {
                "0": "AH"
              },
              "eraAbbr": {
                "0": "AH"
              },
              "eraNarrow": {
                "0": "AH"
              }
            },
            "dateFormats": {
              "full": "EEEE, d 'de' MMMM 'de' y G",
              "long": "d 'de' MMMM 'de' y G",
              "medium": "d 'de' MMM, y G",
              "short": "d/M/y G"
            },
            "timeFormats": {
              "full": "HH:mm:ss zzzz",
              "long": "HH:mm:ss z",
              "medium": "HH:mm:ss",
              "short": "HH:mm"
            },
            "dateTimeFormats": {
              "full": "{1} 'às' {0}",
              "long": "{1} 'às' {0}",
              "medium": "{1}, {0}",
              "short": "{1}, {0}",
              "availableFormats": {
                "E": "ccc",
                "EHm": "E HH:mm",
                "EHms": "E HH:mm:ss",
                "Ed": "E, d",
                "Ehm": "E h:mm a",
                "Ehms": "E h:mm:ss a",
                "Gy": "y G",
                "GyMMM": "MMM 'de' y G",
                "GyMMMEd": "E, d 'de' MMM 'de' y G",
                "GyMMMd": "d 'de' MMM 'de' y G",
                "H": "HH",
                "Hm": "HH:mm",
                "Hms": "HH:mm:ss",
                "M": "L",
                "MEd": "E, dd/MM",
                "MMM": "LLL",
                "MMMEd": "E, d 'de' MMM",
                "MMMMEd": "E, d 'de' MMMM",
                "MMMMd": "d 'de' MMMM",
                "MMMd": "d 'de' MMM",
                "Md": "d/M",
                "d": "d",
                "h": "h a",
                "hm": "h:mm a",
                "hms": "h:mm:ss a",
                "ms": "mm:ss",
                "y": "y G",
                "yyyy": "y G",
                "yyyyM": "MM/y GGGGG",
                "yyyyMEd": "E, dd/MM/y GGGGG",
                "yyyyMMM": "MM/y G",
                "yyyyMMMEEEEd": "EEEE, d/MM/y",
                "yyyyMMMEd": "E, d/MM/y G",
                "yyyyMMMM": "MMMM 'de' y G",
                "yyyyMMMMEd": "E, d 'de' MMMM 'de' y G",
                "yyyyMMMMd": "d 'de' MMMM 'de' y G",
                "yyyyMMMd": "d/MM/y G",
                "yyyyMd": "dd/MM/y GGGGG",
                "yyyyQQQ": "QQQQ 'de' y G",
                "yyyyQQQQ": "QQQQ 'de' y G"
              },
              "appendItems": {
                "Day": "{0} ({2}: {1})",
                "Day-Of-Week": "{0} {1}",
                "Era": "{1} {0}",
                "Hour": "{0} ({2}: {1})",
                "Minute": "{0} ({2}: {1})",
                "Month": "{0} ({2}: {1})",
                "Quarter": "{0} ({2}: {1})",
                "Second": "{0} ({2}: {1})",
                "Timezone": "{0} {1}",
                "Week": "{0} ({2}: {1})",
                "Year": "{1} {0}"
              },
              "intervalFormats": {
                "intervalFormatFallback": "{0} - {1}",
                "H": {
                  "H": "HH'h' - HH'h'"
                },
                "Hm": {
                  "H": "HH:mm–HH:mm",
                  "m": "HH:mm–HH:mm"
                },
                "Hmv": {
                  "H": "HH:mm–HH:mm v",
                  "m": "HH:mm–HH:mm v"
                },
                "Hv": {
                  "H": "HH - HH v"
                },
                "M": {
                  "M": "M-M"
                },
                "MEd": {
                  "M": "E, dd/MM - E, dd/MM",
                  "d": "E, dd/MM - E, dd/MM"
                },
                "MMM": {
                  "M": "MMM-MMM"
                },
                "MMMEd": {
                  "M": "E, d 'de' MMM - E, d 'de' MMM",
                  "d": "E, d 'de' MMM - E, d 'de' MMM"
                },
                "MMMd": {
                  "M": "d 'de' MMM - d 'de' MMM",
                  "d": "d-d 'de' MMM"
                },
                "Md": {
                  "M": "dd/MM - dd/MM",
                  "d": "dd/MM - dd/MM"
                },
                "d": {
                  "d": "d-d"
                },
                "h": {
                  "a": "h a - h a",
                  "h": "h-h a"
                },
                "hm": {
                  "a": "h:mm a – h:mm a",
                  "h": "h:mm - h:mm a",
                  "m": "h:mm–h:mm a"
                },
                "hmv": {
                  "a": "h:mm a – h:mm a v",
                  "h": "h:mm–h:mm a v",
                  "m": "h:mm–h:mm a v"
                },
                "hv": {
                  "a": "h a - h a v",
                  "h": "h - h a v"
                },
                "y": {
                  "y": "y-y G"
                },
                "yM": {
                  "M": "MM/y - MM/y G",
                  "y": "MM/y - MM/y G"
                },
                "yMEd": {
                  "M": "E, dd/MM/y - E, dd/MM/y G",
                  "d": "E, dd/MM/y - E, dd/MM/y G",
                  "y": "E, dd/MM/y - E, dd/MM/y G"
                },
                "yMMM": {
                  "M": "MMM-MMM 'de' y G",
                  "y": "MMM 'de' y - MMM 'de' y G"
                },
                "yMMMEd": {
                  "M": "E, d 'de' MMM - E, d 'de' MMM 'de' y G",
                  "d": "E, d 'de' MMM - E, d 'de' MMM 'de' y G",
                  "y": "E, d 'de' MMM 'de' y - E, d 'de' MMM 'de' y G"
                },
                "yMMMM": {
                  "M": "MMMM - MMMM 'de' y G",
                  "y": "MMMM 'de' y - MMMM 'de' y G"
                },
                "yMMMd": {
                  "M": "d 'de' MMM - d 'de' MMM 'de' y G",
                  "d": "d-d 'de' MMM 'de' y",
                  "y": "d 'de' MMM 'de' y - d 'de' MMM 'de' y G"
                },
                "yMd": {
                  "M": "dd/MM/y - dd/MM/y G",
                  "d": "dd/MM/y - dd/MM/y G",
                  "y": "dd/MM/y - dd/MM/y G"
                }
              }
            }
          }
        }
      }
    }
  }
}
