{
  "main": {
    "eu": {
      "identity": {
        "version": {
          "_cldrVersion": "26",
          "_number": "$Revision: 10809 $"
        },
        "generation": {
          "_date": "$Date: 2014-08-14 15:10:07 -0500 (Thu, 14 Aug 2014) $"
        },
        "language": "eu"
      },
      "dates": {
        "calendars": {
          "roc": {
            "months": {
              "format": {
                "abbreviated": {
                  "1": "urt.",
                  "2": "ots.",
                  "3": "mar.",
                  "4": "api.",
                  "5": "mai.",
                  "6": "eka.",
                  "7": "uzt.",
                  "8": "abu.",
                  "9": "ira.",
                  "10": "urr.",
                  "11": "aza.",
                  "12": "abe."
                },
                "narrow": {
                  "1": "U",
                  "2": "O",
                  "3": "M",
                  "4": "A",
                  "5": "M",
                  "6": "E",
                  "7": "U",
                  "8": "A",
                  "9": "I",
                  "10": "U",
                  "11": "A",
                  "12": "A"
                },
                "wide": {
                  "1": "urtarrilak",
                  "2": "otsailak",
                  "3": "martxoak",
                  "4": "apirilak",
                  "5": "maiatzak",
                  "6": "ekainak",
                  "7": "uztailak",
                  "8": "abuztuak",
                  "9": "irailak",
                  "10": "urriak",
                  "11": "azaroak",
                  "12": "abenduak"
                }
              },
              "stand-alone": {
                "abbreviated": {
                  "1": "Urt.",
                  "2": "Ots.",
                  "3": "Mar.",
                  "4": "Api.",
                  "5": "Mai.",
                  "6": "Eka.",
                  "7": "Uzt.",
                  "8": "Abu.",
                  "9": "Ira.",
                  "10": "Urr.",
                  "11": "Aza.",
                  "12": "Abe."
                },
                "narrow": {
                  "1": "U",
                  "2": "O",
                  "3": "M",
                  "4": "A",
                  "5": "M",
                  "6": "E",
                  "7": "U",
                  "8": "A",
                  "9": "I",
                  "10": "U",
                  "11": "A",
                  "12": "A"
                },
                "wide": {
                  "1": "Urtarrila",
                  "2": "Otsaila",
                  "3": "Martxoa",
                  "4": "Apirila",
                  "5": "Maiatza",
                  "6": "Ekaina",
                  "7": "Uztaila",
                  "8": "Abuztua",
                  "9": "Iraila",
                  "10": "Urria",
                  "11": "Azaroa",
                  "12": "Abendua"
                }
              }
            },
            "days": {
              "format": {
                "abbreviated": {
                  "sun": "ig.",
                  "mon": "al.",
                  "tue": "ar.",
                  "wed": "az.",
                  "thu": "og.",
                  "fri": "or.",
                  "sat": "lr."
                },
                "narrow": {
                  "sun": "I",
                  "mon": "A",
                  "tue": "A",
                  "wed": "A",
                  "thu": "O",
                  "fri": "O",
                  "sat": "L"
                },
                "short": {
                  "sun": "ig.",
                  "mon": "al.",
                  "tue": "ar.",
                  "wed": "az.",
                  "thu": "og.",
                  "fri": "or.",
                  "sat": "lr."
                },
                "wide": {
                  "sun": "igandea",
                  "mon": "astelehena",
                  "tue": "asteartea",
                  "wed": "asteazkena",
                  "thu": "osteguna",
                  "fri": "ostirala",
                  "sat": "larunbata"
                }
              },
              "stand-alone": {
                "abbreviated": {
                  "sun": "Ig.",
                  "mon": "Al.",
                  "tue": "Ar.",
                  "wed": "Az.",
                  "thu": "Og.",
                  "fri": "Or.",
                  "sat": "Lr."
                },
                "narrow": {
                  "sun": "I",
                  "mon": "A",
                  "tue": "A",
                  "wed": "A",
                  "thu": "O",
                  "fri": "O",
                  "sat": "L"
                },
                "short": {
                  "sun": "ig.",
                  "mon": "al.",
                  "tue": "ar.",
                  "wed": "az.",
                  "thu": "og.",
                  "fri": "or.",
                  "sat": "lr."
                },
                "wide": {
                  "sun": "Igandea",
                  "mon": "Astelehena",
                  "tue": "Asteartea",
                  "wed": "Asteazkena",
                  "thu": "Osteguna",
                  "fri": "Ostirala",
                  "sat": "Larunbata"
                }
              }
            },
            "quarters": {
              "format": {
                "abbreviated": {
                  "1": "1Hh",
                  "2": "2Hh",
                  "3": "3Hh",
                  "4": "4Hh"
                },
                "narrow": {
                  "1": "1",
                  "2": "2",
                  "3": "3",
                  "4": "4"
                },
                "wide": {
                  "1": "1. hiruhilekoa",
                  "2": "2. hiruhilekoa",
                  "3": "3. hiruhilekoa",
                  "4": "4. hiruhilekoa"
                }
              },
              "stand-alone": {
                "abbreviated": {
                  "1": "1Hh",
                  "2": "2Hh",
                  "3": "3Hh",
                  "4": "4Hh"
                },
                "narrow": {
                  "1": "1",
                  "2": "2",
                  "3": "3",
                  "4": "4"
                },
                "wide": {
                  "1": "1. hiruhilekoa",
                  "2": "2. hiruhilekoa",
                  "3": "3. hiruhilekoa",
                  "4": "4. hiruhilekoa"
                }
              }
            },
            "dayPeriods": {
              "format": {
                "abbreviated": {
                  "am": "AM",
                  "noon": "eguerdia",
                  "pm": "PM"
                },
                "narrow": {
                  "am": "g",
                  "noon": "e",
                  "pm": "a"
                },
                "wide": {
                  "am": "AM",
                  "noon": "eguerdia",
                  "pm": "PM"
                }
              },
              "stand-alone": {
                "abbreviated": {
                  "am": "AM",
                  "noon": "eguerdia",
                  "pm": "PM"
                },
                "narrow": {
                  "am": "g",
                  "noon": "e",
                  "pm": "a"
                },
                "wide": {
                  "am": "AM",
                  "noon": "eguerdia",
                  "pm": "PM"
                }
              }
            },
            "eras": {
              "eraNames": {
                "0": "R.O.C. aurretik",
                "1": "R.O.C."
              },
              "eraAbbr": {
                "0": "R.O.C. aurretik",
                "1": "R.O.C."
              },
              "eraNarrow": {
                "0": "R.O.C. aurretik",
                "1": "R.O.C."
              }
            },
            "dateFormats": {
              "full": "G. 'aroko' y. 'urteko' MMMM d, EEEE",
              "long": "G. 'aroko' y. 'urteko' MMMM d",
              "medium": "G. 'aroko' y('e')'ko' MMM d",
              "short": "GGGGG y-MM-dd"
            },
            "timeFormats": {
              "full": "HH:mm:ss (zzzz)",
              "long": "HH:mm:ss (z)",
              "medium": "HH:mm:ss",
              "short": "HH:mm"
            },
            "dateTimeFormats": {
              "full": "{1} {0}",
              "long": "{1} {0}",
              "medium": "{1} {0}",
              "short": "{1} {0}",
              "availableFormats": {
                "E": "ccc",
                "EHm": "E HH:mm",
                "EHms": "E HH:mm:ss",
                "Ed": "d, EEEE",
                "Ehm": "E h:mm a",
                "Ehms": "E h:mm:ss a",
                "Gy": "G. 'aroko' y. 'urtea'",
                "GyMMM": "G. 'aroko' y('e')'ko' MMMM",
                "GyMMMEd": "G. 'aroko' y('e')'ko' MMMM d, EEEE",
                "GyMMMd": "G. 'aroko' y('e')'ko' MMMM d",
                "H": "HH",
                "Hm": "HH:mm",
                "Hms": "HH:mm:ss",
                "M": "L",
                "MEd": "MM/dd, EEEE",
                "MMM": "LLL",
                "MMMEd": "MMM d, EEEE",
                "MMMd": "MMM d",
                "Md": "MM/dd",
                "d": "d",
                "h": "h a",
                "hm": "h:mm a",
                "hms": "h:mm:ss a",
                "ms": "mm:ss",
                "y": "y",
                "yM": "y/MM",
                "yMEd": "y/MM/dd, EEEE",
                "yMMM": "y('e')'ko' MMMM",
                "yMMMEd": "y('e')'ko' MMMM d, EEEE",
                "yMMMd": "y('e')'ko' MMMM d",
                "yMd": "y/MM/dd",
                "yQQQ": "y QQQ",
                "yQQQQ": "y('e')'ko' QQQQ",
                "yyyy": "G y",
                "yyyyM": "G y/MM",
                "yyyyMEd": "G y/MM/dd, EEEE",
                "yyyyMMM": "G y MMM",
                "yyyyMMMEd": "G y MMM d, EEEE",
                "yyyyMMMM": "G y('e')'ko' MMMM",
                "yyyyMMMMEd": "G y('e')'ko' MMMM d, EEEE",
                "yyyyMMMMd": "G y('e')'ko' MMMM d",
                "yyyyMMMd": "G y MMM d",
                "yyyyMd": "G y/MM/dd",
                "yyyyQQQ": "G y QQQ",
                "yyyyQQQQ": "G y('e')'ko' QQQQ"
              },
              "appendItems": {
                "Day": "{0} ({2}: {1})",
                "Day-Of-Week": "{0} {1}",
                "Era": "{1} {0}",
                "Hour": "{0} ({2}: {1})",
                "Minute": "{0} ({2}: {1})",
                "Month": "{0} ({2}: {1})",
                "Quarter": "{0} ({2}: {1})",
                "Second": "{0} ({2}: {1})",
                "Timezone": "{0} {1}",
                "Week": "{0} ({2}: {1})",
                "Year": "{1} {0}"
              },
              "intervalFormats": {
                "intervalFormatFallback": "{0} – {1}",
                "H": {
                  "H": "HH–HH"
                },
                "Hm": {
                  "H": "HH:mm–HH:mm",
                  "m": "HH:mm–HH:mm"
                },
                "Hmv": {
                  "H": "HH:mm–HH:mm v",
                  "m": "HH:mm–HH:mm v"
                },
                "Hv": {
                  "H": "HH–HH v"
                },
                "M": {
                  "M": "MM–MM"
                },
                "MEd": {
                  "M": "MM/dd, EEEE – MM/dd, EEEE",
                  "d": "MM/dd, EEEE – MM/dd, EEEE"
                },
                "MMM": {
                  "M": "MMM–MMM"
                },
                "MMMEd": {
                  "M": "MMMM d, EEEE – MMMM d, EEEE",
                  "d": "MMMM d, EEEE – MMMM d, EEEE"
                },
                "MMMd": {
                  "M": "MMMM d – MMMM d",
                  "d": "MMMM d–d"
                },
                "Md": {
                  "M": "MM/dd – MM/dd",
                  "d": "MM/dd – MM/dd"
                },
                "d": {
                  "d": "dd–dd"
                },
                "h": {
                  "a": "h a – h a",
                  "h": "h–h a"
                },
                "hm": {
                  "a": ":h:mm a – h:mm a",
                  "h": "h:mm–h:mm a",
                  "m": "h:mm–h:mm a"
                },
                "hmv": {
                  "a": "h:mm a – h:mm a v",
                  "h": "h:mm–h:mm a v",
                  "m": "h:mm–h:mm a v"
                },
                "hv": {
                  "a": "h a – h a v",
                  "h": "h–h a v"
                },
                "y": {
                  "y": "G y–y"
                },
                "yM": {
                  "M": "G y/MM – y/MM",
                  "y": "G y/MM – y/MM"
                },
                "yMEd": {
                  "M": "G y/MM/dd, EEEE – y/MM/dd, EEEE",
                  "d": "G y/MM/dd, EEEE – y/MM/dd, EEEE",
                  "y": "G y/MM/dd, EEEE – y/MM/dd, EEEE"
                },
                "yMMM": {
                  "M": "G y('e')'ko' MMMM–MMMM",
                  "y": "G y('e')'ko' MMMM – y('e')'ko' MMMM"
                },
                "yMMMEd": {
                  "M": "G y('e')'ko' MMMM dd, EEEE – MMMM dd, EEEE",
                  "d": "G y('e')'ko' MMMM dd, EEEE – MMMM dd, EEEE",
                  "y": "G y('e')'ko' MMMM dd, EEEE – MMMM dd, EEEE"
                },
                "yMMMM": {
                  "M": "G y('e')'ko' MMMM – MMMM",
                  "y": "G y('e')'ko' MMMM – y('e')'ko' MMMM"
                },
                "yMMMd": {
                  "M": "G y('e')'ko' MMMM dd – MMMM dd",
                  "d": "G y('e')'ko' MMMM dd–dd",
                  "y": "G y('e')'ko' MMMM dd – y('e')'ko' MMMM dd"
                },
                "yMd": {
                  "M": "G y/MM/dd – y/MM/dd",
                  "d": "G y/MM/dd – y/MM/dd",
                  "y": "G y/MM/dd – y/MM/dd"
                }
              }
            }
          }
        }
      }
    }
  }
}
