{
  "main": {
    "ks": {
      "identity": {
        "version": {
          "_cldrVersion": "26",
          "_number": "$Revision: 10809 $"
        },
        "generation": {
          "_date": "$Date: 2014-08-14 15:10:07 -0500 (Thu, 14 Aug 2014) $"
        },
        "language": "ks"
      },
      "localeDisplayNames": {
        "scripts": {
          "Afak": "Afak",
          "Aghb": "Aghb",
          "Arab": "اَربی",
          "Armi": "Armi",
          "Armn": "اَرمانیَن",
          "Avst": "اَویستَن",
          "Bali": "بالَنیٖز",
          "Bamu": "Bamu",
          "Bass": "Bass",
          "Batk": "باتَک",
          "Beng": "بیٚنگٲلۍ",
          "Blis": "بِلِس سِمبلز",
          "Bopo": "بوپوموفو",
          "Brah": "برٛاہمی",
          "Brai": "بریل",
          "Bugi": "بُگِنیٖز",
          "Buhd": "بُہِد",
          "Cakm": "Cakm",
          "Cans": "یُنِفایِڑ کنیڑِیَن ایٚب آرجِنَل سِلیبِک",
          "Cari": "کاریَن",
          "Cham": "چَم",
          "Cher": "چیٚروکی",
          "Cirt": "کِرتھ",
          "Copt": "کاپٹِک",
          "Cprt": "کِپرایِٹ",
          "Cyrl": "سَیرِلِک",
          "Cyrs": "پرون چٔرچسلیوونِک سَیرِلِک",
          "Deva": "دیوناگری",
          "Dsrt": "ڈیٚسٔریٚٹ",
          "Dupl": "Dupl",
          "Egyd": "اِجپشِیَن ڈِماٹِک",
          "Egyh": "اِجِپشَن ہَیریٹِک",
          "Egyp": "اِجِپشَن ہَیروگلِپھس",
          "Elba": "Elba",
          "Ethi": "اِتھیوپِک",
          "Geok": "جارجِیَن کھتسوری",
          "Geor": "جارجِیَن",
          "Glag": "گلیگولِٹِک",
          "Goth": "گوتھِک",
          "Gran": "Gran",
          "Grek": "گرَنتھا",
          "Gujr": "گریٖک",
          "Guru": "گُجرٲتۍ",
          "Hang": "ہانٛگُل",
          "Hani": "ہان",
          "Hano": "ہانُنوٗ",
          "Hans": "سِمپلِفایِڑ ہان",
          "Hans-alt-stand-alone": "Hans",
          "Hant": "ٹریڑِشَنَل",
          "Hant-alt-stand-alone": "Hant",
          "Hebr": "ہِبرِو",
          "Hira": "ہیٖراگانا",
          "Hluw": "Hluw",
          "Hmng": "پَہاو مانٛگ",
          "Hrkt": "کَٹاکانا یا ہِراگانا",
          "Hung": "پرون ہَنگیریَن",
          "Inds": "اِنڈَس",
          "Ital": "اولڈ اِٹیلِک",
          "Java": "جاوَنیٖز",
          "Jpan": "جیٚپَنیٖز",
          "Jurc": "Jurc",
          "Kali": "کایا لی",
          "Kana": "کَتاکانا",
          "Khar": "خَروشتھی",
          "Khmr": "کھٕمیر",
          "Khoj": "Khoj",
          "Knda": "کَنَڑا",
          "Kore": "کوریَن",
          "Kpel": "Kpel",
          "Kthi": "Kthi",
          "Lana": "لانا",
          "Laoo": "لاو",
          "Latf": "فرٛکتُر لیٹِن",
          "Latg": "گیلِک لیٹَن",
          "Latn": "لیٹِن",
          "Lepc": "لیٚپکا",
          "Limb": "لِمبوٗ",
          "Lina": "لیٖنیَر اے",
          "Linb": "لیٖنیَر بی",
          "Lisu": "Lisu",
          "Loma": "Loma",
          "Lyci": "لیسِیَن",
          "Lydi": "لیدِیَن",
          "Mahj": "Mahj",
          "Mand": "مَندییَن",
          "Mani": "مانیشییَن",
          "Maya": "مایَن ہیٖروگلِپھ",
          "Mend": "Mend",
          "Merc": "Merc",
          "Mero": "مِرایٹِک",
          "Mlym": "مَلیالَم",
          "Modi": "Modi",
          "Mong": "مَنٛگولیَن",
          "Moon": "موٗن",
          "Mroo": "Mroo",
          "Mtei": "میتی مایَک",
          "Mymr": "مَیَنمار",
          "Narb": "Narb",
          "Nbat": "Nbat",
          "Nkgb": "Nkgb",
          "Nkoo": "ایٚن کو",
          "Nshu": "Nshu",
          "Ogam": "اوگہام",
          "Olck": "اول چِکی",
          "Orkh": "اورکھون",
          "Orya": "اورِیا",
          "Osma": "اوسمانیا",
          "Palm": "Palm",
          "Pauc": "Pauc",
          "Perm": "اولڈ پٔرمِک",
          "Phag": "پھاگس پا",
          "Phli": "Phli",
          "Phlp": "Phlp",
          "Phlv": "بوٗک پَہَلوی",
          "Phnx": "پھونِشِیَن",
          "Plrd": "پولاڑ پھونِٹِک",
          "Prti": "Prti",
          "Qaaa": "Qaaa",
          "Qaab": "Qaab",
          "Qaac": "Qaac",
          "Qaad": "Qaad",
          "Qaae": "Qaae",
          "Qaaf": "Qaaf",
          "Qaag": "Qaag",
          "Qaah": "Qaah",
          "Qaaj": "Qaaj",
          "Qaak": "Qaak",
          "Qaal": "Qaal",
          "Qaam": "Qaam",
          "Qaan": "Qaan",
          "Qaao": "Qaao",
          "Qaap": "Qaap",
          "Qaaq": "Qaaq",
          "Qaar": "Qaar",
          "Qaas": "Qaas",
          "Qaat": "Qaat",
          "Qaau": "Qaau",
          "Qaav": "Qaav",
          "Qaaw": "Qaaw",
          "Qaax": "Qaax",
          "Qaay": "Qaay",
          "Qaaz": "Qaaz",
          "Qaba": "Qaba",
          "Qabb": "Qabb",
          "Qabc": "Qabc",
          "Qabd": "Qabd",
          "Qabe": "Qabe",
          "Qabf": "Qabf",
          "Qabg": "Qabg",
          "Qabh": "Qabh",
          "Qabi": "Qabi",
          "Qabj": "Qabj",
          "Qabk": "Qabk",
          "Qabl": "Qabl",
          "Qabm": "Qabm",
          "Qabn": "Qabn",
          "Qabo": "Qabo",
          "Qabp": "Qabp",
          "Qabq": "Qabq",
          "Qabr": "Qabr",
          "Qabs": "Qabs",
          "Qabt": "Qabt",
          "Qabu": "Qabu",
          "Qabv": "Qabv",
          "Qabw": "Qabw",
          "Qabx": "Qabx",
          "Rjng": "ریجَنٛگ",
          "Roro": "رونٛگو رونٛگو",
          "Runr": "رَنِک",
          "Samr": "سَمارِٹَن",
          "Sara": "سَراتی",
          "Sarb": "Sarb",
          "Saur": "سوراشٹرا",
          "Sgnw": "اِشارٲتی لِکھٲے",
          "Shaw": "شاویَن",
          "Shrd": "Shrd",
          "Sidd": "Sidd",
          "Sind": "Sind",
          "Sinh": "سِنہالا",
          "Sora": "Sora",
          "Sund": "سَنڈَنیٖز",
          "Sylo": "سیلوتی ناگری",
          "Syrc": "سیٖرِیَک",
          "Syre": "ایٚسٹرینجِلو سیٖرِیَک",
          "Syrj": "مغرِبی سیٖریَک",
          "Syrn": "مشرَقی سیٖریَک",
          "Tagb": "تَگبَنوا",
          "Takr": "Takr",
          "Tale": "تَیلیے",
          "Talu": "نوٚو تیلو",
          "Taml": "تَمِل",
          "Tang": "Tang",
          "Tavt": "Tavt",
          "Telu": "تیلگوٗ",
          "Teng": "تیٚنگوار",
          "Tfng": "تِفِناگ",
          "Tglg": "تَگَلوگ",
          "Thaa": "تھانا",
          "Thai": "تھاے",
          "Tibt": "تِبتی",
          "Tirh": "Tirh",
          "Ugar": "اُگارِٹِک",
          "Vaii": "واے",
          "Visp": "وِزِبٕل سپیٖچ",
          "Wara": "Wara",
          "Wole": "Wole",
          "Xpeo": "پرون فارسی",
          "Xsux": "سُمیرو اکادیَن کوٗنِفام",
          "Yiii": "یٖی",
          "Zinh": "Zinh",
          "Zmth": "Zmth",
          "Zsym": "Zsym",
          "Zxxx": "لیٚکھنَے",
          "Zyyy": "عام",
          "Zzzz": "اَن زٲنۍ یا نا لَگہٕ ہار رَسمُل خظ"
        }
      }
    }
  }
}
