{
  "main": {
    "ne": {
      "identity": {
        "version": {
          "_cldrVersion": "26",
          "_number": "$Revision: 10895 $"
        },
        "generation": {
          "_date": "$Date: 2014-09-01 13:57:54 -0500 (Mon, 01 Sep 2014) $"
        },
        "language": "ne"
      },
      "localeDisplayNames": {
        "variants": {
          "1606NICT": "1606NICT",
          "1694ACAD": "1694ACAD",
          "1901": "1901",
          "1959ACAD": "1959ACAD",
          "1994": "1994",
          "1996": "1996",
          "ALALC97": "ALALC97",
          "ALUKU": "ALUKU",
          "AREVELA": "पूर्वी आर्मेनियाली",
          "AREVMDA": "AREVMDA",
          "BAKU1926": "BAKU1926",
          "BALANKA": "BALANKA",
          "BARLA": "BARLA",
          "BAUDDHA": "BAUDDHA",
          "BISCAYAN": "BISCAYAN",
          "BISKE": "BISKE",
          "BOHORIC": "BOHORIC",
          "BOONT": "BOONT",
          "DAJNKO": "DAJNKO",
          "EKAVSK": "EKAVSK",
          "EMODENG": "EMODENG",
          "FONIPA": "FONIPA",
          "FONUPA": "FONUPA",
          "FONXSAMP": "FONXSAMP",
          "HEPBURN": "HEPBURN",
          "HOGNORSK": "HOGNORSK",
          "IJEKAVSK": "IJEKAVSK",
          "ITIHASA": "ITIHASA",
          "JAUER": "JAUER",
          "JYUTPING": "JYUTPING",
          "KKCOR": "KKCOR",
          "KSCOR": "KSCOR",
          "LAUKIKA": "LAUKIKA",
          "LIPAW": "LIPAW",
          "LUNA1918": "LUNA1918",
          "METELKO": "METELKO",
          "MONOTON": "MONOTON",
          "NDYUKA": "NDYUKA",
          "NEDIS": "NEDIS",
          "NJIVA": "NJIVA",
          "NULIK": "NULIK",
          "OSOJS": "OSOJS",
          "PAMAKA": "PAMAKA",
          "PETR1708": "PETR1708",
          "PINYIN": "PINYIN",
          "POLYTON": "POLYTON",
          "POSIX": "कम्प्युटर",
          "PUTER": "PUTER",
          "REVISED": "REVISED",
          "RIGIK": "RIGIK",
          "ROZAJ": "ROZAJ",
          "RUMGR": "RUMGR",
          "SAAHO": "SAAHO",
          "SCOTLAND": "SCOTLAND",
          "SCOUSE": "SCOUSE",
          "SOLBA": "SOLBA",
          "SOTAV": "SOTAV",
          "SURMIRAN": "SURMIRAN",
          "SURSILV": "SURSILV",
          "SUTSILV": "SUTSILV",
          "TARASK": "TARASK",
          "UCCOR": "UCCOR",
          "UCRCOR": "UCRCOR",
          "ULSTER": "ULSTER",
          "UNIFON": "UNIFON",
          "VAIDIKA": "VAIDIKA",
          "VALENCIA": "VALENCIA",
          "VALLADER": "VALLADER",
          "WADEGILE": "WADEGILE"
        }
      }
    }
  }
}
