{
  "main": {
    "ro-MD": {
      "identity": {
        "version": {
          "_cldrVersion": "26",
          "_number": "$Revision: 10669 $"
        },
        "generation": {
          "_date": "$Date: 2014-07-23 16:10:33 -0500 (Wed, 23 Jul 2014) $"
        },
        "language": "ro",
        "territory": "MD"
      },
      "dates": {
        "calendars": {
          "roc": {
            "months": {
              "format": {
                "abbreviated": {
                  "1": "ian.",
                  "2": "feb.",
                  "3": "mar.",
                  "4": "apr.",
                  "5": "mai",
                  "6": "iun.",
                  "7": "iul.",
                  "8": "aug.",
                  "9": "sept.",
                  "10": "oct.",
                  "11": "nov.",
                  "12": "dec."
                },
                "narrow": {
                  "1": "I",
                  "2": "F",
                  "3": "M",
                  "4": "A",
                  "5": "M",
                  "6": "I",
                  "7": "I",
                  "8": "A",
                  "9": "S",
                  "10": "O",
                  "11": "N",
                  "12": "D"
                },
                "wide": {
                  "1": "ianuarie",
                  "2": "februarie",
                  "3": "martie",
                  "4": "aprilie",
                  "5": "mai",
                  "6": "iunie",
                  "7": "iulie",
                  "8": "august",
                  "9": "septembrie",
                  "10": "octombrie",
                  "11": "noiembrie",
                  "12": "decembrie"
                }
              },
              "stand-alone": {
                "abbreviated": {
                  "1": "ian.",
                  "2": "feb.",
                  "3": "mar.",
                  "4": "apr.",
                  "5": "mai",
                  "6": "iun.",
                  "7": "iul.",
                  "8": "aug.",
                  "9": "sept.",
                  "10": "oct.",
                  "11": "nov.",
                  "12": "dec."
                },
                "narrow": {
                  "1": "I",
                  "2": "F",
                  "3": "M",
                  "4": "A",
                  "5": "M",
                  "6": "I",
                  "7": "I",
                  "8": "A",
                  "9": "S",
                  "10": "O",
                  "11": "N",
                  "12": "D"
                },
                "wide": {
                  "1": "Ianuarie",
                  "2": "Februarie",
                  "3": "Martie",
                  "4": "Aprilie",
                  "5": "Mai",
                  "6": "Iunie",
                  "7": "Iulie",
                  "8": "August",
                  "9": "Septembrie",
                  "10": "Octombrie",
                  "11": "Noiembrie",
                  "12": "Decembrie"
                }
              }
            },
            "days": {
              "format": {
                "abbreviated": {
                  "sun": "Dum",
                  "mon": "Lun",
                  "tue": "Mar",
                  "wed": "Mie",
                  "thu": "Joi",
                  "fri": "Vin",
                  "sat": "Sâm"
                },
                "narrow": {
                  "sun": "D",
                  "mon": "L",
                  "tue": "M",
                  "wed": "M",
                  "thu": "J",
                  "fri": "V",
                  "sat": "S"
                },
                "short": {
                  "sun": "Du",
                  "mon": "Lu",
                  "tue": "Ma",
                  "wed": "Mi",
                  "thu": "Jo",
                  "fri": "Vi",
                  "sat": "Sâ"
                },
                "wide": {
                  "sun": "duminică",
                  "mon": "luni",
                  "tue": "marți",
                  "wed": "miercuri",
                  "thu": "joi",
                  "fri": "vineri",
                  "sat": "sâmbătă"
                }
              },
              "stand-alone": {
                "abbreviated": {
                  "sun": "Dum",
                  "mon": "Lun",
                  "tue": "Mar",
                  "wed": "Mie",
                  "thu": "Joi",
                  "fri": "Vin",
                  "sat": "Sâm"
                },
                "narrow": {
                  "sun": "D",
                  "mon": "L",
                  "tue": "M",
                  "wed": "M",
                  "thu": "J",
                  "fri": "V",
                  "sat": "S"
                },
                "short": {
                  "sun": "Du",
                  "mon": "Lu",
                  "tue": "Ma",
                  "wed": "Mi",
                  "thu": "Jo",
                  "fri": "Vi",
                  "sat": "Sâ"
                },
                "wide": {
                  "sun": "Duminică",
                  "mon": "Luni",
                  "tue": "Marți",
                  "wed": "Miercuri",
                  "thu": "Joi",
                  "fri": "Vineri",
                  "sat": "Sâmbătă"
                }
              }
            },
            "quarters": {
              "format": {
                "abbreviated": {
                  "1": "trim. I",
                  "2": "trim. II",
                  "3": "trim. III",
                  "4": "trim. IV"
                },
                "narrow": {
                  "1": "1",
                  "2": "2",
                  "3": "3",
                  "4": "4"
                },
                "wide": {
                  "1": "trimestrul I",
                  "2": "trimestrul al II-lea",
                  "3": "trimestrul al III-lea",
                  "4": "trimestrul al IV-lea"
                }
              },
              "stand-alone": {
                "abbreviated": {
                  "1": "Trim. I",
                  "2": "Trim. II",
                  "3": "Trim. III",
                  "4": "Trim. IV"
                },
                "narrow": {
                  "1": "1",
                  "2": "2",
                  "3": "3",
                  "4": "4"
                },
                "wide": {
                  "1": "Trimestrul I",
                  "2": "Trimestrul al II-lea",
                  "3": "Trimestrul al III-lea",
                  "4": "Trimestrul al IV-lea"
                }
              }
            },
            "dayPeriods": {
              "format": {
                "abbreviated": {
                  "am": "a.m.",
                  "noon": "la prânz",
                  "pm": "p.m."
                },
                "narrow": {
                  "am": "a.m.",
                  "noon": "prânz",
                  "pm": "p.m."
                },
                "wide": {
                  "am": "a.m.",
                  "noon": "la prânz",
                  "pm": "p.m."
                }
              },
              "stand-alone": {
                "abbreviated": {
                  "am": "a.m.",
                  "noon": "la prânz",
                  "pm": "p.m."
                },
                "narrow": {
                  "am": "a.m.",
                  "noon": "prânz",
                  "pm": "p.m."
                },
                "wide": {
                  "am": "a.m.",
                  "noon": "la prânz",
                  "pm": "p.m."
                }
              }
            },
            "eras": {
              "eraNames": {
                "0": "Before R.O.C.",
                "1": "R.O.C."
              },
              "eraAbbr": {
                "0": "Before R.O.C.",
                "1": "R.O.C."
              },
              "eraNarrow": {
                "0": "Before R.O.C.",
                "1": "R.O.C."
              }
            },
            "dateFormats": {
              "full": "EEEE, d MMMM y G",
              "long": "d MMMM y G",
              "medium": "dd.MM.y G",
              "short": "dd.MM.y GGGGG"
            },
            "timeFormats": {
              "full": "HH:mm:ss zzzz",
              "long": "HH:mm:ss z",
              "medium": "HH:mm:ss",
              "short": "HH:mm"
            },
            "dateTimeFormats": {
              "full": "{1} 'la' {0}",
              "long": "{1} 'la' {0}",
              "medium": "{1}, {0}",
              "short": "{1}, {0}",
              "availableFormats": {
                "E": "ccc",
                "EHm": "E HH:mm",
                "EHms": "E HH:mm:ss",
                "Ed": "E d",
                "Ehm": "E h:mm a",
                "Ehms": "E h:mm:ss a",
                "Gy": "y G",
                "GyMMM": "MMM y G",
                "GyMMMEd": "E, d MMM y G",
                "GyMMMd": "d MMM y G",
                "H": "HH",
                "Hm": "HH:mm",
                "Hms": "HH:mm:ss",
                "M": "L",
                "MEd": "E, dd.MM",
                "MMM": "LLL",
                "MMMEd": "E, d MMM",
                "MMMMEd": "E, d MMMM",
                "MMMMd": "d MMMM",
                "MMMd": "d MMM",
                "Md": "dd.MM",
                "d": "d",
                "h": "h a",
                "hm": "h:mm a",
                "hms": "h:mm:ss a",
                "ms": "mm:ss",
                "y": "y",
                "yyyy": "y G",
                "yyyyM": "MM.y G",
                "yyyyMEd": "E, dd.MM.y G",
                "yyyyMMM": "MMM y G",
                "yyyyMMMEd": "E, d MMM y G",
                "yyyyMMMM": "MMMM y G",
                "yyyyMMMd": "d MMM y G",
                "yyyyMd": "dd.MM.y G",
                "yyyyQQQ": "QQQ y G",
                "yyyyQQQQ": "QQQQ y G"
              },
              "appendItems": {
                "Day": "{0} ({2}: {1})",
                "Day-Of-Week": "{0} {1}",
                "Era": "{1} {0}",
                "Hour": "{0} ({2}: {1})",
                "Minute": "{0} ({2}: {1})",
                "Month": "{0} ({2}: {1})",
                "Quarter": "{0} ({2}: {1})",
                "Second": "{0} ({2}: {1})",
                "Timezone": "{0} {1}",
                "Week": "{0} ({2}: {1})",
                "Year": "{1} {0}"
              },
              "intervalFormats": {
                "intervalFormatFallback": "{0} - {1}",
                "H": {
                  "H": "HH-HH"
                },
                "Hm": {
                  "H": "HH:mm-HH:mm",
                  "m": "HH:mm-HH:mm"
                },
                "Hmv": {
                  "H": "HH:mm-HH:mm v",
                  "m": "HH:mm-HH:mm v"
                },
                "Hv": {
                  "H": "HH-HH v"
                },
                "M": {
                  "M": "M-M"
                },
                "MEd": {
                  "M": "E, dd.MM - E, dd.MM",
                  "d": "E, dd.MM - E, dd.MM"
                },
                "MMM": {
                  "M": "MMM-MMM"
                },
                "MMMEd": {
                  "M": "E, d MMM - E, d MMM",
                  "d": "E, d MMM - E, d MMM"
                },
                "MMMd": {
                  "M": "d MMM - d MMM",
                  "d": "d-d MMM"
                },
                "Md": {
                  "M": "dd.MM - dd.MM",
                  "d": "dd.MM - dd.MM"
                },
                "d": {
                  "d": "d-d"
                },
                "h": {
                  "a": "h a - h a",
                  "h": "h-h a"
                },
                "hm": {
                  "a": "h:mm a - h:mm a",
                  "h": "h:mm-h:mm a",
                  "m": "h:mm-h:mm a"
                },
                "hmv": {
                  "a": "h:mm a - h:mm a v",
                  "h": "h:mm-h:mm a v",
                  "m": "h:mm-h:mm a v"
                },
                "hv": {
                  "a": "h a - h a v",
                  "h": "h-h a v"
                },
                "y": {
                  "y": "y-y G"
                },
                "yM": {
                  "M": "MM.y - MM.y G",
                  "y": "MM.y - MM.y G"
                },
                "yMEd": {
                  "M": "E, dd.MM.y - E, dd.MM.y G",
                  "d": "E, dd.MM.y - E, dd.MM.y G",
                  "y": "E, dd.MM.y - E, dd.MM.y G"
                },
                "yMMM": {
                  "M": "MMM-MMM y G",
                  "y": "MMM y - MMM y G"
                },
                "yMMMEd": {
                  "M": "E, d MMM - E, d MMM y G",
                  "d": "E, d MMM - E, d MMM y G",
                  "y": "E, d MMM y - E, d MMM y G"
                },
                "yMMMM": {
                  "M": "MMMM-MMMM y G",
                  "y": "MMMM y – MMMM y G"
                },
                "yMMMd": {
                  "M": "d MMM - d MMM y G",
                  "d": "d-d MMM y G",
                  "y": "d MMM y - d MMM y G"
                },
                "yMd": {
                  "M": "dd.MM.y - dd.MM.y G",
                  "d": "dd.MM.y - dd.MM.y G",
                  "y": "dd.MM.y - dd.MM.y G"
                }
              }
            }
          }
        }
      }
    }
  }
}
