{
  "main": {
    "vo": {
      "identity": {
        "version": {
          "_cldrVersion": "26",
          "_number": "$Revision: 10669 $"
        },
        "generation": {
          "_date": "$Date: 2014-07-23 16:10:33 -0500 (Wed, 23 Jul 2014) $"
        },
        "language": "root"
      },
      "characters": {
        "exemplarCharacters": "[a ä b c d e f g h i j k l m n o ö p q r s š t u ü v x y z]",
        "auxiliary": "[w]",
        "punctuation": "[\\- ‐ – — , ; \\: ! ? . … ' ‘ ’ \" “ ” « » ( ) \\[ \\] \\{ \\} § @ * / \\& #]",
        "index": "[A Ä B C D E F G H I J K L M N O Ö P R S T U Ü V X Y Z]",
        "ellipsis": {
          "initial": "… {0}",
          "medial": "{0} … {1}",
          "final": "{0}…",
          "word-initial": "… {0}",
          "word-medial": "{0} … {1}",
          "word-final": "{0} …"
        },
        "moreInformation": "?"
      }
    }
  }
}
