{
  "main": {
    "sr-Latn": {
      "identity": {
        "version": {
          "_cldrVersion": "26",
          "_number": "$Revision: 10820 $"
        },
        "generation": {
          "_date": "$Date: 2014-08-14 23:26:58 -0500 (Thu, 14 Aug 2014) $"
        },
        "language": "root",
        "script": "Latn"
      },
      "posix": {
        "messages": {
          "yesstr": "da:d",
          "nostr": "ne:n"
        }
      }
    }
  }
}
