{
  "main": {
    "dz": {
      "identity": {
        "version": {
          "_cldrVersion": "26",
          "_number": "$Revision: 10669 $"
        },
        "generation": {
          "_date": "$Date: 2014-07-23 16:10:33 -0500 (Wed, 23 Jul 2014) $"
        },
        "language": "dz"
      },
      "dates": {
        "calendars": {
          "ethiopic-amete-alem": {
            "months": {
              "format": {
                "abbreviated": {
                  "1": "Meskerem",
                  "2": "Tekemt",
                  "3": "Hedar",
                  "4": "Tahsas",
                  "5": "Ter",
                  "6": "Yekatit",
                  "7": "Megabit",
                  "8": "Miazia",
                  "9": "Genbot",
                  "10": "Sene",
                  "11": "Hamle",
                  "12": "Nehasse",
                  "13": "Pagumen"
                },
                "narrow": {
                  "1": "1",
                  "2": "2",
                  "3": "3",
                  "4": "4",
                  "5": "5",
                  "6": "6",
                  "7": "7",
                  "8": "8",
                  "9": "9",
                  "10": "10",
                  "11": "11",
                  "12": "12",
                  "13": "13"
                },
                "wide": {
                  "1": "Meskerem",
                  "2": "Tekemt",
                  "3": "Hedar",
                  "4": "Tahsas",
                  "5": "Ter",
                  "6": "Yekatit",
                  "7": "Megabit",
                  "8": "Miazia",
                  "9": "Genbot",
                  "10": "Sene",
                  "11": "Hamle",
                  "12": "Nehasse",
                  "13": "Pagumen"
                }
              },
              "stand-alone": {
                "abbreviated": {
                  "1": "Meskerem",
                  "2": "Tekemt",
                  "3": "Hedar",
                  "4": "Tahsas",
                  "5": "Ter",
                  "6": "Yekatit",
                  "7": "Megabit",
                  "8": "Miazia",
                  "9": "Genbot",
                  "10": "Sene",
                  "11": "Hamle",
                  "12": "Nehasse",
                  "13": "Pagumen"
                },
                "narrow": {
                  "1": "1",
                  "2": "2",
                  "3": "3",
                  "4": "4",
                  "5": "5",
                  "6": "6",
                  "7": "7",
                  "8": "8",
                  "9": "9",
                  "10": "10",
                  "11": "11",
                  "12": "12",
                  "13": "13"
                },
                "wide": {
                  "1": "Meskerem",
                  "2": "Tekemt",
                  "3": "Hedar",
                  "4": "Tahsas",
                  "5": "Ter",
                  "6": "Yekatit",
                  "7": "Megabit",
                  "8": "Miazia",
                  "9": "Genbot",
                  "10": "Sene",
                  "11": "Hamle",
                  "12": "Nehasse",
                  "13": "Pagumen"
                }
              }
            },
            "days": {
              "format": {
                "abbreviated": {
                  "sun": "ཟླ་",
                  "mon": "མིར་",
                  "tue": "ལྷག་",
                  "wed": "ཕུར་",
                  "thu": "སངས་",
                  "fri": "སྤེན་",
                  "sat": "ཉི་"
                },
                "narrow": {
                  "sun": "ཟླ",
                  "mon": "མིར",
                  "tue": "ལྷག",
                  "wed": "ཕུར",
                  "thu": "སངྶ",
                  "fri": "སྤེན",
                  "sat": "ཉི"
                },
                "short": {
                  "sun": "ཟླ་",
                  "mon": "མིར་",
                  "tue": "ལྷག་",
                  "wed": "ཕུར་",
                  "thu": "སངས་",
                  "fri": "སྤེན་",
                  "sat": "ཉི་"
                },
                "wide": {
                  "sun": "གཟའ་ཟླ་བ་",
                  "mon": "གཟའ་མིག་དམར་",
                  "tue": "གཟའ་ལྷག་པ་",
                  "wed": "གཟའ་ཕུར་བུ་",
                  "thu": "གཟའ་པ་སངས་",
                  "fri": "གཟའ་སྤེན་པ་",
                  "sat": "གཟའ་ཉི་མ་"
                }
              },
              "stand-alone": {
                "abbreviated": {
                  "sun": "ཟླ་",
                  "mon": "མིར་",
                  "tue": "ལྷག་",
                  "wed": "ཕུར་",
                  "thu": "སངས་",
                  "fri": "སྤེན་",
                  "sat": "ཉི་"
                },
                "narrow": {
                  "sun": "ཟླ",
                  "mon": "མིར",
                  "tue": "ལྷག",
                  "wed": "ཕུར",
                  "thu": "སངྶ",
                  "fri": "སྤེན",
                  "sat": "ཉི"
                },
                "short": {
                  "sun": "ཟླ་",
                  "mon": "མིར་",
                  "tue": "ལྷག་",
                  "wed": "ཕུར་",
                  "thu": "སངས་",
                  "fri": "སྤེན་",
                  "sat": "ཉི་"
                },
                "wide": {
                  "sun": "གཟའ་ཟླ་བ་",
                  "mon": "གཟའ་མིག་དམར་",
                  "tue": "གཟའ་ལྷག་པ་",
                  "wed": "གཟའ་ཕུར་བུ་",
                  "thu": "གཟའ་པ་སངས་",
                  "fri": "གཟའ་སྤེན་པ་",
                  "sat": "གཟའ་ཉི་མ་"
                }
              }
            },
            "quarters": {
              "format": {
                "abbreviated": {
                  "1": "བཞི་དཔྱ་༡",
                  "2": "བཞི་དཔྱ་༢",
                  "3": "བཞི་དཔྱ་༣",
                  "4": "བཞི་དཔྱ་༤"
                },
                "narrow": {
                  "1": "༡",
                  "2": "༢",
                  "3": "༣",
                  "4": "༤"
                },
                "wide": {
                  "1": "བཞི་དཔྱ་དང་པ་",
                  "2": "བཞི་དཔྱ་གཉིས་པ་",
                  "3": "བཞི་དཔྱ་གསུམ་པ་",
                  "4": "བཞི་དཔྱ་བཞི་པ་"
                }
              },
              "stand-alone": {
                "abbreviated": {
                  "1": "བཞི་དཔྱ་༡",
                  "2": "བཞི་དཔྱ་༢",
                  "3": "བཞི་དཔྱ་༣",
                  "4": "བཞི་དཔྱ་༤"
                },
                "narrow": {
                  "1": "༡",
                  "2": "༢",
                  "3": "༣",
                  "4": "༤"
                },
                "wide": {
                  "1": "བཞི་དཔྱ་དང་པ་",
                  "2": "བཞི་དཔྱ་གཉིས་པ་",
                  "3": "བཞི་དཔྱ་གསུམ་པ་",
                  "4": "བཞི་དཔྱ་བཞི་པ་"
                }
              }
            },
            "dayPeriods": {
              "format": {
                "abbreviated": {
                  "am": "སྔ་ཆ་",
                  "noon": "noon",
                  "pm": "ཕྱི་ཆ་"
                },
                "narrow": {
                  "am": "སྔ་ཆ་",
                  "noon": "n",
                  "pm": "ཕྱི་ཆ་"
                },
                "wide": {
                  "am": "སྔ་ཆ་",
                  "noon": "noon",
                  "pm": "ཕྱི་ཆ་"
                }
              },
              "stand-alone": {
                "abbreviated": {
                  "am": "སྔ་ཆ་",
                  "noon": "noon",
                  "pm": "ཕྱི་ཆ་"
                },
                "narrow": {
                  "am": "སྔ་ཆ་",
                  "noon": "n",
                  "pm": "ཕྱི་ཆ་"
                },
                "wide": {
                  "am": "སྔ་ཆ་",
                  "noon": "noon",
                  "pm": "ཕྱི་ཆ་"
                }
              }
            },
            "eras": {
              "eraNames": {
                "0": "ERA0"
              },
              "eraAbbr": {
                "0": "ERA0"
              },
              "eraNarrow": {
                "0": "ERA0"
              }
            },
            "dateFormats": {
              "full": "EEEE, G སྤྱི་ལོ་y MMMM ཚེས་dd",
              "long": "G སྤྱི་ལོ་y MMMM ཚེས་ dd",
              "medium": "G སྤྱི་ལོ་y ཟླ་MMM ཚེས་dd",
              "short": "GGGGG y-MM-dd"
            },
            "timeFormats": {
              "full": "ཆུ་ཚོད་ h སྐར་མ་ mm:ss a zzzz",
              "long": "ཆུ་ཚོད་ h སྐར་མ་ mm:ss a z",
              "medium": "ཆུ་ཚོད་h:mm:ss a",
              "short": "ཆུ་ཚོད་ h སྐར་མ་ mm a"
            },
            "dateTimeFormats": {
              "full": "{1} {0}",
              "long": "{1} {0}",
              "medium": "{1} {0}",
              "short": "{1} {0}",
              "availableFormats": {
                "E": "ccc",
                "EHm": "E HH:mm",
                "EHms": "E HH:mm:ss",
                "Ed": "d E",
                "Ehm": "E h:mm a",
                "Ehms": "E h:mm:ss a",
                "Gy": "G y",
                "GyMMM": "G y སྤྱི་ཟླ་MMM",
                "GyMMMEd": "གཟའ་E, G ལོy ཟླ་MMM ཚེ་d",
                "GyMMMd": "G y MMM d",
                "H": "ཆུ་ཚོད་HH",
                "Hm": "HH:mm",
                "Hms": "HH:mm:ss",
                "M": "L",
                "MEd": "E, M-d",
                "MMM": "སྤྱི་LLL",
                "MMMEd": "E, སྤྱི་LLL ཚེ་d",
                "MMMd": "སྤྱི་LLL ཚེ་d",
                "Md": "M-d",
                "d": "d",
                "h": "ཆུ་ཚོད་h a",
                "hm": "h:mm a",
                "hms": "h:mm:ss a",
                "ms": "mm:ss",
                "y": "G y",
                "yyyy": "G y",
                "yyyyM": "G y-M",
                "yyyyMEd": "E, G y-M-d",
                "yyyyMMM": "G y སྤྱི་ཟླ་MMM",
                "yyyyMMMEd": "གཟའ་E, G ལོy ཟླ་MMM ཚེ་d",
                "yyyyMMMd": "G y MMM d",
                "yyyyMd": "G y-M-d",
                "yyyyQQQ": "G y QQQ",
                "yyyyQQQQ": "G y QQQQ"
              },
              "appendItems": {
                "Day": "{0} ({2}: {1})",
                "Day-Of-Week": "{0} {1}",
                "Era": "{1} {0}",
                "Hour": "{0} ({2}: {1})",
                "Minute": "{0} ({2}: {1})",
                "Month": "{0} ({2}: {1})",
                "Quarter": "{0} ({2}: {1})",
                "Second": "{0} ({2}: {1})",
                "Timezone": "{0} {1}",
                "Week": "{0} ({2}: {1})",
                "Year": "{1} {0}"
              },
              "intervalFormats": {
                "intervalFormatFallback": "{0} – {1}",
                "H": {
                  "H": "HH–HH"
                },
                "Hm": {
                  "H": "HH:mm–HH:mm",
                  "m": "HH:mm–HH:mm"
                },
                "Hmv": {
                  "H": "HH:mm–HH:mm v",
                  "m": "HH:mm–HH:mm v"
                },
                "Hv": {
                  "H": "HH–HH v"
                },
                "M": {
                  "M": "སྤྱི་ཟླ་M–M"
                },
                "MEd": {
                  "M": "E, སྤྱི་ཟླ་MM ཚེས་dd–ཟླ་MM ཚེས་dd",
                  "d": "E, སྤྱི་ཟླ་MM ཚེས་dd–ཟླ་MM ཚེས་dd"
                },
                "MMM": {
                  "M": "སྤྱི་LLL–LLL"
                },
                "MMMEd": {
                  "M": "E, སྤྱི་ཟླ་MM ཚེས་d – E, ཟླ་MM ཚེས་d",
                  "d": "E, སྤྱི་ཟླ་MM ཚེས་d – E, ཟླ་MM ཚེས་d"
                },
                "MMMd": {
                  "M": "སྤྱི་ཟླ་MM ཚེས་d–ཟླ་MM ཚེས་d",
                  "d": "སྤྱི་ཟླ་MM ཚེས་d–d"
                },
                "Md": {
                  "M": "སྤྱི་ཟླ་MM ཚེས་dd–ཟླ་MM ཚེས་dd",
                  "d": "སྤྱི་ཟླ་M ཚེས་dd/dd"
                },
                "d": {
                  "d": "d–d"
                },
                "h": {
                  "a": "h a – h a",
                  "h": "h–h a"
                },
                "hm": {
                  "a": "h:mm a – h:mm a",
                  "h": "h:mm–h:mm a",
                  "m": "h:mm–h:mm a"
                },
                "hmv": {
                  "a": "h:mm a – h:mm a v",
                  "h": "h:mm–h:mm a v",
                  "m": "h:mm–h:mm a v"
                },
                "hv": {
                  "a": "h a – h a v",
                  "h": "h–h a v"
                },
                "y": {
                  "y": "G y–y"
                },
                "yM": {
                  "M": "G y-MM – MM",
                  "y": "G y-MM – y-MM"
                },
                "yMEd": {
                  "M": "E, y-MM-dd – E, y-MM-dd",
                  "d": "E, y-MM-dd – E, y-MM-dd",
                  "y": "E, y-MM-dd – E, y-MM-dd"
                },
                "yMMM": {
                  "M": "སྤྱི་ཟླ་MMM/MMM, y",
                  "y": "G y-MM – y-MM"
                },
                "yMMMEd": {
                  "M": "E, y-MM-dd – E, y-MM-dd",
                  "d": "E, y-MM-dd – E, y-MM-dd",
                  "y": "E, y-MM-dd – E, y-MM-dd"
                },
                "yMMMM": {
                  "M": "G y-སྤྱི་ཟླ་MM – MM",
                  "y": "G y-MM – y-MM"
                },
                "yMMMd": {
                  "M": "G y-MM-dd – MM-d",
                  "d": "G y-MM-d – d",
                  "y": "G y-MM-dd – y-MM-dd"
                },
                "yMd": {
                  "M": "G y-MM-dd – MM-dd",
                  "d": "G y-MM-dd – dd",
                  "y": "G y-MM-dd – y-MM-dd"
                }
              }
            }
          }
        }
      }
    }
  }
}
