{
  "main": {
    "dz": {
      "identity": {
        "version": {
          "_cldrVersion": "26",
          "_number": "$Revision: 10669 $"
        },
        "generation": {
          "_date": "$Date: 2014-07-23 16:10:33 -0500 (Wed, 23 Jul 2014) $"
        },
        "language": "dz"
      },
      "dates": {
        "timeZoneNames": {
          "hourFormat": "+HH:mm;-HH:mm",
          "gmtFormat": "ཇི་ཨེམ་ཏི་{0}",
          "gmtZeroFormat": "ཇི་ཨེམ་ཊི་",
          "regionFormat": "{0}་ཆུ་ཚོད།",
          "regionFormat-type-standard": "{0} (+0)",
          "regionFormat-type-daylight": "{0} (+1)",
          "fallbackFormat": "{1}། ({0}་)",
          "zone": {
            "America": {
              "Adak": {
                "exemplarCity": "Adak"
              },
              "Anchorage": {
                "exemplarCity": "Anchorage"
              },
              "Anguilla": {
                "exemplarCity": "Anguilla"
              },
              "Antigua": {
                "exemplarCity": "ཨན་ཊི་གུ་ཝ་"
              },
              "Araguaina": {
                "exemplarCity": "Araguaina"
              },
              "Argentina": {
                "La_Rioja": {
                  "exemplarCity": "La Rioja"
                },
                "Rio_Gallegos": {
                  "exemplarCity": "Rio Gallegos"
                },
                "Salta": {
                  "exemplarCity": "Salta"
                },
                "San_Juan": {
                  "exemplarCity": "San Juan"
                },
                "San_Luis": {
                  "exemplarCity": "San Luis"
                },
                "Tucuman": {
                  "exemplarCity": "Tucuman"
                },
                "Ushuaia": {
                  "exemplarCity": "Ushuaia"
                }
              },
              "Aruba": {
                "exemplarCity": "Aruba"
              },
              "Asuncion": {
                "exemplarCity": "ཨ་སུན་སི་འོན"
              },
              "Bahia": {
                "exemplarCity": "Bahia"
              },
              "Bahia_Banderas": {
                "exemplarCity": "Bahia Banderas"
              },
              "Barbados": {
                "exemplarCity": "བྷར་བེ་ཌོས"
              },
              "Belem": {
                "exemplarCity": "Belem"
              },
              "Belize": {
                "exemplarCity": "བྷེ་ལིཛ"
              },
              "Blanc-Sablon": {
                "exemplarCity": "Blanc-Sablon"
              },
              "Boa_Vista": {
                "exemplarCity": "Boa Vista"
              },
              "Bogota": {
                "exemplarCity": "བྷོ་ག་ཊ"
              },
              "Boise": {
                "exemplarCity": "Boise"
              },
              "Buenos_Aires": {
                "exemplarCity": "བྷུའི་ནོས་ ཨའི་རིས"
              },
              "Cambridge_Bay": {
                "exemplarCity": "ཀེམ་བིརིདཆ་ བའེ"
              },
              "Campo_Grande": {
                "exemplarCity": "Campo Grande"
              },
              "Cancun": {
                "exemplarCity": "Cancun"
              },
              "Caracas": {
                "exemplarCity": "ཀ་ར་ཀཱས"
              },
              "Catamarca": {
                "exemplarCity": "Catamarca"
              },
              "Cayenne": {
                "exemplarCity": "Cayenne"
              },
              "Cayman": {
                "exemplarCity": "Cayman"
              },
              "Chicago": {
                "exemplarCity": "ཅི་ཀཱ་གོ"
              },
              "Chihuahua": {
                "exemplarCity": "Chihuahua"
              },
              "Coral_Harbour": {
                "exemplarCity": "ཨ་ཏི་ཀོ་ཀཱན"
              },
              "Cordoba": {
                "exemplarCity": "Cordoba"
              },
              "Costa_Rica": {
                "exemplarCity": "ཀོས་ཊ་རི་ཀ"
              },
              "Creston": {
                "exemplarCity": "Creston"
              },
              "Cuiaba": {
                "exemplarCity": "Cuiaba"
              },
              "Curacao": {
                "exemplarCity": "Curacao"
              },
              "Danmarkshavn": {
                "exemplarCity": "Danmarkshavn"
              },
              "Dawson": {
                "exemplarCity": "དའུ་སཱོན"
              },
              "Dawson_Creek": {
                "exemplarCity": "དའུ་སཱོན་ ཀིརིཀ"
              },
              "Denver": {
                "exemplarCity": "Denver"
              },
              "Detroit": {
                "exemplarCity": "Detroit"
              },
              "Dominica": {
                "exemplarCity": "ཌོ་མི་ནི་ཀ"
              },
              "Edmonton": {
                "exemplarCity": "ཨེཌ་མཱོན་ཊོན"
              },
              "Eirunepe": {
                "exemplarCity": "Eirunepe"
              },
              "El_Salvador": {
                "exemplarCity": "ཨེལ་ སཱལ་བ་ཌོ"
              },
              "Fortaleza": {
                "exemplarCity": "Fortaleza"
              },
              "Glace_Bay": {
                "exemplarCity": "Glace Bay"
              },
              "Godthab": {
                "exemplarCity": "Nuuk"
              },
              "Goose_Bay": {
                "exemplarCity": "གཱུསི་ བའེ"
              },
              "Grand_Turk": {
                "exemplarCity": "Grand Turk"
              },
              "Grenada": {
                "exemplarCity": "Grenada"
              },
              "Guadeloupe": {
                "exemplarCity": "Guadeloupe"
              },
              "Guatemala": {
                "exemplarCity": "གྷོ་ཊ་མ་ལ"
              },
              "Guayaquil": {
                "exemplarCity": "Guayaquil"
              },
              "Guyana": {
                "exemplarCity": "གྷ་ཡ་ན"
              },
              "Halifax": {
                "exemplarCity": "ཧ་ལི་ཕེགསི"
              },
              "Havana": {
                "exemplarCity": "Havana"
              },
              "Hermosillo": {
                "exemplarCity": "Hermosillo"
              },
              "Indiana": {
                "Knox": {
                  "exemplarCity": "Knox, Indiana"
                },
                "Marengo": {
                  "exemplarCity": "Marengo, Indiana"
                },
                "Petersburg": {
                  "exemplarCity": "Petersburg, Indiana"
                },
                "Tell_City": {
                  "exemplarCity": "Tell City, Indiana"
                },
                "Vevay": {
                  "exemplarCity": "Vevay, Indiana"
                },
                "Vincennes": {
                  "exemplarCity": "Vincennes, Indiana"
                },
                "Winamac": {
                  "exemplarCity": "Winamac, Indiana"
                }
              },
              "Indianapolis": {
                "exemplarCity": "Indianapolis"
              },
              "Inuvik": {
                "exemplarCity": "ཨི་ནུ་ཝིཀ"
              },
              "Iqaluit": {
                "exemplarCity": "Iqaluit"
              },
              "Jamaica": {
                "exemplarCity": "ཇཱ་མའེ་ཀ"
              },
              "Jujuy": {
                "exemplarCity": "Jujuy"
              },
              "Juneau": {
                "exemplarCity": "Juneau"
              },
              "Kentucky": {
                "Monticello": {
                  "exemplarCity": "Monticello, Kentucky"
                }
              },
              "Kralendijk": {
                "exemplarCity": "Kralendijk"
              },
              "La_Paz": {
                "exemplarCity": "ལ་པཱཛ྄"
              },
              "Lima": {
                "exemplarCity": "ལི་མ"
              },
              "Los_Angeles": {
                "exemplarCity": "Los Angeles"
              },
              "Louisville": {
                "exemplarCity": "Louisville"
              },
              "Lower_Princes": {
                "exemplarCity": "Lower Prince’s Quarter"
              },
              "Maceio": {
                "exemplarCity": "Maceio"
              },
              "Managua": {
                "exemplarCity": "Managua"
              },
              "Manaus": {
                "exemplarCity": "Manaus"
              },
              "Marigot": {
                "exemplarCity": "Marigot"
              },
              "Martinique": {
                "exemplarCity": "Martinique"
              },
              "Matamoros": {
                "exemplarCity": "Matamoros"
              },
              "Mazatlan": {
                "exemplarCity": "Mazatlan"
              },
              "Mendoza": {
                "exemplarCity": "Mendoza"
              },
              "Menominee": {
                "exemplarCity": "Menominee"
              },
              "Merida": {
                "exemplarCity": "Merida"
              },
              "Metlakatla": {
                "exemplarCity": "Metlakatla"
              },
              "Mexico_City": {
                "exemplarCity": "མེཀ་སི་ཀོ་ སི་ཊི"
              },
              "Miquelon": {
                "exemplarCity": "Miquelon"
              },
              "Moncton": {
                "exemplarCity": "མཱོངཀ་ཊོན"
              },
              "Monterrey": {
                "exemplarCity": "Monterrey"
              },
              "Montevideo": {
                "exemplarCity": "མོན་ཊེ་བྷི་ཌིའོ"
              },
              "Montserrat": {
                "exemplarCity": "Montserrat"
              },
              "Nassau": {
                "exemplarCity": "ན་སའོ"
              },
              "New_York": {
                "exemplarCity": "New York"
              },
              "Nipigon": {
                "exemplarCity": "ནི་པི་གཱོན"
              },
              "Nome": {
                "exemplarCity": "Nome"
              },
              "Noronha": {
                "exemplarCity": "Noronha"
              },
              "North_Dakota": {
                "Beulah": {
                  "exemplarCity": "Beulah, North Dakota"
                },
                "Center": {
                  "exemplarCity": "Center, North Dakota"
                },
                "New_Salem": {
                  "exemplarCity": "New Salem, North Dakota"
                }
              },
              "Ojinaga": {
                "exemplarCity": "Ojinaga"
              },
              "Panama": {
                "exemplarCity": "པ་ན་མ"
              },
              "Pangnirtung": {
                "exemplarCity": "པེང་ནིར་ཏུང"
              },
              "Paramaribo": {
                "exemplarCity": "པ་ར་མ་རི་བྷོ"
              },
              "Phoenix": {
                "exemplarCity": "Phoenix"
              },
              "Port-au-Prince": {
                "exemplarCity": "Port-au-Prince"
              },
              "Port_of_Spain": {
                "exemplarCity": "Port of Spain"
              },
              "Porto_Velho": {
                "exemplarCity": "Porto Velho"
              },
              "Puerto_Rico": {
                "exemplarCity": "Puerto Rico"
              },
              "Rainy_River": {
                "exemplarCity": "རཱེ་ནི་རི་ཝར"
              },
              "Rankin_Inlet": {
                "exemplarCity": "རེན་ཀིན་ ཨིན་ལེཊ"
              },
              "Recife": {
                "exemplarCity": "Recife"
              },
              "Regina": {
                "exemplarCity": "རི་ཇི་ན"
              },
              "Resolute": {
                "exemplarCity": "རི་སོ་ལིའུཊ"
              },
              "Rio_Branco": {
                "exemplarCity": "Rio Branco"
              },
              "Santa_Isabel": {
                "exemplarCity": "Santa Isabel"
              },
              "Santarem": {
                "exemplarCity": "Santarem"
              },
              "Santiago": {
                "exemplarCity": "སཱན་ཊི་ཡ་གྷོ"
              },
              "Santo_Domingo": {
                "exemplarCity": "སཱན་ཊོ་ ཌོ་མིང་གྷོ"
              },
              "Sao_Paulo": {
                "exemplarCity": "Sao Paulo"
              },
              "Scoresbysund": {
                "exemplarCity": "Ittoqqortoormiit"
              },
              "Sitka": {
                "exemplarCity": "Sitka"
              },
              "St_Barthelemy": {
                "exemplarCity": "St. Barthelemy"
              },
              "St_Johns": {
                "exemplarCity": "ཨིསི་ཊེཊ་ ཇཱོནསི་"
              },
              "St_Kitts": {
                "exemplarCity": "St. Kitts"
              },
              "St_Lucia": {
                "exemplarCity": "St. Lucia"
              },
              "St_Thomas": {
                "exemplarCity": "St. Thomas"
              },
              "St_Vincent": {
                "exemplarCity": "St. Vincent"
              },
              "Swift_Current": {
                "exemplarCity": "སུ་ཨིཕཊ་ཀ་རེནཊ"
              },
              "Tegucigalpa": {
                "exemplarCity": "ཊེ་གུ་སི་གཱལ་པ"
              },
              "Thule": {
                "exemplarCity": "Thule"
              },
              "Thunder_Bay": {
                "exemplarCity": "ཐན་ཌར་ བའེ"
              },
              "Tijuana": {
                "exemplarCity": "ཏིའུ་ཝ་ན"
              },
              "Toronto": {
                "exemplarCity": "ཊོ་རོན་ཊོ"
              },
              "Tortola": {
                "exemplarCity": "Tortola"
              },
              "Vancouver": {
                "exemplarCity": "Vancouver"
              },
              "Whitehorse": {
                "exemplarCity": "Whitehorse"
              },
              "Winnipeg": {
                "exemplarCity": "Winnipeg"
              },
              "Yakutat": {
                "exemplarCity": "ཡ་ཀུ་ཏཏ"
              },
              "Yellowknife": {
                "exemplarCity": "Yellowknife"
              }
            },
            "Atlantic": {
              "Azores": {
                "exemplarCity": "Azores"
              },
              "Bermuda": {
                "exemplarCity": "བར་མུ་ད"
              },
              "Canary": {
                "exemplarCity": "Canary"
              },
              "Cape_Verde": {
                "exemplarCity": "ཀེཔ་བཱཌ"
              },
              "Faeroe": {
                "exemplarCity": "ཕཱའེ་རོ་"
              },
              "Madeira": {
                "exemplarCity": "Madeira"
              },
              "Reykjavik": {
                "exemplarCity": "རེ་ཁི་ཡ་བིཀ"
              },
              "South_Georgia": {
                "exemplarCity": "སཱའུཐ་ཇོ་ཇཱ"
              },
              "St_Helena": {
                "exemplarCity": "St. Helena"
              },
              "Stanley": {
                "exemplarCity": "Stanley"
              }
            },
            "Europe": {
              "Amsterdam": {
                "exemplarCity": "ཨམས་ཊར་ཌམ"
              },
              "Andorra": {
                "exemplarCity": "ཨཱན་དོ་ར"
              },
              "Athens": {
                "exemplarCity": "ཨེ་ཐེནས་"
              },
              "Belgrade": {
                "exemplarCity": "Belgrade"
              },
              "Berlin": {
                "exemplarCity": "བྷར་ལིན"
              },
              "Bratislava": {
                "exemplarCity": "Bratislava"
              },
              "Brussels": {
                "exemplarCity": "བྲ་སེལས"
              },
              "Bucharest": {
                "exemplarCity": "བྷུ་ཀ་རེསཊ"
              },
              "Budapest": {
                "exemplarCity": "བྷུ་ཌ་པེསཊ"
              },
              "Busingen": {
                "exemplarCity": "Busingen"
              },
              "Chisinau": {
                "exemplarCity": "ཀི་ཤི་ནཱཝ"
              },
              "Copenhagen": {
                "exemplarCity": "ཀོ་པེན་ཧེ་གེན"
              },
              "Dublin": {
                "long": {
                  "daylight": "ཨཱ་ཡརིཤ་བྱཱར་དུས་ཆུ་ཚོད"
                },
                "exemplarCity": "ཌབ་ལིན"
              },
              "Gibraltar": {
                "exemplarCity": "Gibraltar"
              },
              "Guernsey": {
                "exemplarCity": "Guernsey"
              },
              "Helsinki": {
                "exemplarCity": "ཧེལ་སིང་ཀི"
              },
              "Isle_of_Man": {
                "exemplarCity": "Isle of Man"
              },
              "Istanbul": {
                "exemplarCity": "Istanbul"
              },
              "Jersey": {
                "exemplarCity": "Jersey"
              },
              "Kaliningrad": {
                "exemplarCity": "Kaliningrad"
              },
              "Kiev": {
                "exemplarCity": "Kiev"
              },
              "Lisbon": {
                "exemplarCity": "Lisbon"
              },
              "Ljubljana": {
                "exemplarCity": "Ljubljana"
              },
              "London": {
                "long": {
                  "daylight": "བྲཱི་ཊིཤ་བྱཱར་དུས་ཆུ་ཚོད"
                },
                "exemplarCity": "ལཱན་ཌཱན"
              },
              "Luxembourg": {
                "exemplarCity": "ལག་སམ་བྷཀ"
              },
              "Madrid": {
                "exemplarCity": "མ་ཌེ་རེཌ"
              },
              "Malta": {
                "exemplarCity": "Malta"
              },
              "Mariehamn": {
                "exemplarCity": "Mariehamn"
              },
              "Minsk": {
                "exemplarCity": "མིནསཀ"
              },
              "Monaco": {
                "exemplarCity": "མོ་ན་ཀོ"
              },
              "Moscow": {
                "exemplarCity": "མཱོས་ཀོ"
              },
              "Oslo": {
                "exemplarCity": "ཨོས་ལོ"
              },
              "Paris": {
                "exemplarCity": "པེ་རིས"
              },
              "Podgorica": {
                "exemplarCity": "Podgorica"
              },
              "Prague": {
                "exemplarCity": "པྲག"
              },
              "Riga": {
                "exemplarCity": "རི་གྷ"
              },
              "Rome": {
                "exemplarCity": "Rome"
              },
              "Samara": {
                "exemplarCity": "Samara"
              },
              "San_Marino": {
                "exemplarCity": "San Marino"
              },
              "Sarajevo": {
                "exemplarCity": "ས་ར་ཡེ་བོ"
              },
              "Simferopol": {
                "exemplarCity": "Simferopol"
              },
              "Skopje": {
                "exemplarCity": "Skopje"
              },
              "Sofia": {
                "exemplarCity": "སོ་ཕི་ཡ"
              },
              "Stockholm": {
                "exemplarCity": "ཨིས་ཊོཀ་ཧོལམ"
              },
              "Tallinn": {
                "exemplarCity": "ཊཱ་ལཱིན"
              },
              "Tirane": {
                "exemplarCity": "ཊ་ར་ནི"
              },
              "Uzhgorod": {
                "exemplarCity": "Uzhgorod"
              },
              "Vaduz": {
                "exemplarCity": "བ་དུདས"
              },
              "Vatican": {
                "exemplarCity": "Vatican"
              },
              "Vienna": {
                "exemplarCity": "ཝི་ཡེ་ན"
              },
              "Vilnius": {
                "exemplarCity": "བིལ་ནི་ཡཱས"
              },
              "Volgograd": {
                "exemplarCity": "Volgograd"
              },
              "Warsaw": {
                "exemplarCity": "ཝར་སོ"
              },
              "Zagreb": {
                "exemplarCity": "Zagreb"
              },
              "Zaporozhye": {
                "exemplarCity": "Zaporozhye"
              },
              "Zurich": {
                "exemplarCity": "ཛུ་རིཆ"
              }
            },
            "Africa": {
              "Abidjan": {
                "exemplarCity": "Abidjan"
              },
              "Accra": {
                "exemplarCity": "ཨེཀ་ཀྲ"
              },
              "Addis_Ababa": {
                "exemplarCity": "ཨ་ཌིས་ ཨ་བྷ་བྷ"
              },
              "Algiers": {
                "exemplarCity": "ཨལ་ཇི་ཡས"
              },
              "Asmera": {
                "exemplarCity": "ཨཱས་མ་ར"
              },
              "Bamako": {
                "exemplarCity": "བྷ་མ་ཀོ"
              },
              "Bangui": {
                "exemplarCity": "བྷང་གི"
              },
              "Banjul": {
                "exemplarCity": "བྷཱན་ཇུལ"
              },
              "Bissau": {
                "exemplarCity": "བྷི་སཱའུ"
              },
              "Blantyre": {
                "exemplarCity": "Blantyre"
              },
              "Brazzaville": {
                "exemplarCity": "བྷྲ་ཛ་བིལ"
              },
              "Bujumbura": {
                "exemplarCity": "བྷུ་ཇུམ་བྷུ་ར"
              },
              "Cairo": {
                "exemplarCity": "ཀཱའི་རོ"
              },
              "Casablanca": {
                "exemplarCity": "Casablanca"
              },
              "Ceuta": {
                "exemplarCity": "Ceuta"
              },
              "Conakry": {
                "exemplarCity": "ཀོ་ནཀ་རི"
              },
              "Dakar": {
                "exemplarCity": "ཌཱ་ཀར"
              },
              "Dar_es_Salaam": {
                "exemplarCity": "Dar es Salaam"
              },
              "Djibouti": {
                "exemplarCity": "ཇི་བྷུ་ཊི"
              },
              "Douala": {
                "exemplarCity": "Douala"
              },
              "El_Aaiun": {
                "exemplarCity": "El Aaiun"
              },
              "Freetown": {
                "exemplarCity": "Freetown"
              },
              "Gaborone": {
                "exemplarCity": "གྷ་བྷོ་རོ་ནེ"
              },
              "Harare": {
                "exemplarCity": "ཧ་རཱ་རེ"
              },
              "Johannesburg": {
                "exemplarCity": "Johannesburg"
              },
              "Juba": {
                "exemplarCity": "Juba"
              },
              "Kampala": {
                "exemplarCity": "ཀེམ་པ་ལ"
              },
              "Khartoum": {
                "exemplarCity": "ཁཱར་ཊུམ"
              },
              "Kigali": {
                "exemplarCity": "ཀི་གྷ་ལི"
              },
              "Kinshasa": {
                "exemplarCity": "ཀིན་ཤ་ས"
              },
              "Lagos": {
                "exemplarCity": "Lagos"
              },
              "Libreville": {
                "exemplarCity": "ལི་བྷྲ་བིལ"
              },
              "Lome": {
                "exemplarCity": "ལོ་མེ"
              },
              "Luanda": {
                "exemplarCity": "ལུ་ཝེན་ཌ"
              },
              "Lubumbashi": {
                "exemplarCity": "Lubumbashi"
              },
              "Lusaka": {
                "exemplarCity": "ལུ་སཱ་ཀ"
              },
              "Malabo": {
                "exemplarCity": "མ་ལ་བྷོ"
              },
              "Maputo": {
                "exemplarCity": "མ་པུ་ཏོ"
              },
              "Maseru": {
                "exemplarCity": "མ་ས་རུ"
              },
              "Mbabane": {
                "exemplarCity": "འུམ་བྷ་བྷ་ནི"
              },
              "Mogadishu": {
                "exemplarCity": "མོ་གཱ་ཌི་ཤུ"
              },
              "Monrovia": {
                "exemplarCity": "མཱན་རོ་བི་ཡ"
              },
              "Nairobi": {
                "exemplarCity": "ནཱའི་རོ་བི"
              },
              "Ndjamena": {
                "exemplarCity": "Ndjamena"
              },
              "Niamey": {
                "exemplarCity": "ནི་ཡ་མེ"
              },
              "Nouakchott": {
                "exemplarCity": "ནུ་ཨཀ་ཤའོཊ"
              },
              "Ouagadougou": {
                "exemplarCity": "ཝ་གཱ་ཌུ་གུ"
              },
              "Porto-Novo": {
                "exemplarCity": "Porto-Novo"
              },
              "Sao_Tome": {
                "exemplarCity": "སཝ་ ཊོ་མེ"
              },
              "Tripoli": {
                "exemplarCity": "ཏྲི་པོ་ལི"
              },
              "Tunis": {
                "exemplarCity": "ཊུ་ནིས྄"
              },
              "Windhoek": {
                "exemplarCity": "ཝིནཌ་ཧུཀ"
              }
            },
            "Asia": {
              "Aden": {
                "exemplarCity": "Aden"
              },
              "Almaty": {
                "exemplarCity": "Almaty"
              },
              "Amman": {
                "exemplarCity": "Amman"
              },
              "Anadyr": {
                "exemplarCity": "Anadyr"
              },
              "Aqtau": {
                "exemplarCity": "Aqtau"
              },
              "Aqtobe": {
                "exemplarCity": "Aqtobe"
              },
              "Ashgabat": {
                "exemplarCity": "Ashgabat"
              },
              "Baghdad": {
                "exemplarCity": "Baghdad"
              },
              "Bahrain": {
                "exemplarCity": "བྷ་རེན་"
              },
              "Baku": {
                "exemplarCity": "Baku"
              },
              "Bangkok": {
                "exemplarCity": "Bangkok"
              },
              "Beirut": {
                "exemplarCity": "Beirut"
              },
              "Bishkek": {
                "exemplarCity": "Bishkek"
              },
              "Brunei": {
                "exemplarCity": "བྷྲུ་ནའི"
              },
              "Calcutta": {
                "exemplarCity": "ཀཱོལ་ཀ་ཊ"
              },
              "Chita": {
                "exemplarCity": "Chita"
              },
              "Choibalsan": {
                "exemplarCity": "Choibalsan"
              },
              "Colombo": {
                "exemplarCity": "ཀོ་ལོམ་བྷོ"
              },
              "Damascus": {
                "exemplarCity": "Damascus"
              },
              "Dhaka": {
                "exemplarCity": "ཌཱ་ཀ"
              },
              "Dili": {
                "exemplarCity": "Dili"
              },
              "Dubai": {
                "exemplarCity": "Dubai"
              },
              "Dushanbe": {
                "exemplarCity": "Dushanbe"
              },
              "Gaza": {
                "exemplarCity": "Gaza"
              },
              "Hebron": {
                "exemplarCity": "Hebron"
              },
              "Hong_Kong": {
                "exemplarCity": "Hong Kong"
              },
              "Hovd": {
                "exemplarCity": "Hovd"
              },
              "Irkutsk": {
                "exemplarCity": "Irkutsk"
              },
              "Jakarta": {
                "exemplarCity": "ཇཱ་ཀར་ཊ"
              },
              "Jayapura": {
                "exemplarCity": "ཇ་ཡ་པུ་ར"
              },
              "Jerusalem": {
                "exemplarCity": "Jerusalem"
              },
              "Kabul": {
                "exemplarCity": "ཀ་བྷུལ"
              },
              "Kamchatka": {
                "exemplarCity": "Kamchatka"
              },
              "Karachi": {
                "exemplarCity": "ཀ་ར་ཅི"
              },
              "Katmandu": {
                "exemplarCity": "ཀཱཊ་མཱན་ཌུ"
              },
              "Khandyga": {
                "exemplarCity": "Khandyga"
              },
              "Krasnoyarsk": {
                "exemplarCity": "Krasnoyarsk"
              },
              "Kuala_Lumpur": {
                "exemplarCity": "ཀོ་ལ་ ལམ་པུར"
              },
              "Kuching": {
                "exemplarCity": "Kuching"
              },
              "Kuwait": {
                "exemplarCity": "Kuwait"
              },
              "Macau": {
                "exemplarCity": "Macau"
              },
              "Magadan": {
                "exemplarCity": "Magadan"
              },
              "Makassar": {
                "exemplarCity": "Makassar"
              },
              "Manila": {
                "exemplarCity": "Manila"
              },
              "Muscat": {
                "exemplarCity": "Muscat"
              },
              "Nicosia": {
                "exemplarCity": "Nicosia"
              },
              "Novokuznetsk": {
                "exemplarCity": "Novokuznetsk"
              },
              "Novosibirsk": {
                "exemplarCity": "Novosibirsk"
              },
              "Omsk": {
                "exemplarCity": "Omsk"
              },
              "Oral": {
                "exemplarCity": "Oral"
              },
              "Phnom_Penh": {
                "exemplarCity": "Phnom Penh"
              },
              "Pontianak": {
                "exemplarCity": "པཱོན་ཊའེ་ནཀ"
              },
              "Pyongyang": {
                "exemplarCity": "Pyongyang"
              },
              "Qatar": {
                "exemplarCity": "Qatar"
              },
              "Qyzylorda": {
                "exemplarCity": "Qyzylorda"
              },
              "Rangoon": {
                "exemplarCity": "རང་གྷུན"
              },
              "Riyadh": {
                "exemplarCity": "Riyadh"
              },
              "Saigon": {
                "exemplarCity": "Ho Chi Minh"
              },
              "Sakhalin": {
                "exemplarCity": "Sakhalin"
              },
              "Samarkand": {
                "exemplarCity": "Samarkand"
              },
              "Seoul": {
                "exemplarCity": "Seoul"
              },
              "Shanghai": {
                "exemplarCity": "Shanghai"
              },
              "Singapore": {
                "exemplarCity": "Singapore"
              },
              "Srednekolymsk": {
                "exemplarCity": "Srednekolymsk"
              },
              "Taipei": {
                "exemplarCity": "Taipei"
              },
              "Tashkent": {
                "exemplarCity": "Tashkent"
              },
              "Tbilisi": {
                "exemplarCity": "Tbilisi"
              },
              "Tehran": {
                "exemplarCity": "ཊེ་རཱན"
              },
              "Thimphu": {
                "exemplarCity": "ཐིམ་ཕུག"
              },
              "Tokyo": {
                "exemplarCity": "Tokyo"
              },
              "Ulaanbaatar": {
                "exemplarCity": "Ulaanbaatar"
              },
              "Urumqi": {
                "exemplarCity": "Urumqi"
              },
              "Ust-Nera": {
                "exemplarCity": "Ust-Nera"
              },
              "Vientiane": {
                "exemplarCity": "བི་ཡཱན་ཊི་ཡཱན"
              },
              "Vladivostok": {
                "exemplarCity": "Vladivostok"
              },
              "Yakutsk": {
                "exemplarCity": "Yakutsk"
              },
              "Yekaterinburg": {
                "exemplarCity": "Yekaterinburg"
              },
              "Yerevan": {
                "exemplarCity": "Yerevan"
              }
            },
            "Indian": {
              "Antananarivo": {
                "exemplarCity": "ཨཱན་ཏ་ན་ན་དི་བོ"
              },
              "Chagos": {
                "exemplarCity": "Chagos"
              },
              "Christmas": {
                "exemplarCity": "ཀིརིསཊ་མསི"
              },
              "Cocos": {
                "exemplarCity": "ཀོ་ཀོསི"
              },
              "Comoro": {
                "exemplarCity": "ཀོ་མོ་རོ"
              },
              "Kerguelen": {
                "exemplarCity": "ཀིར་གུ་ལིན"
              },
              "Mahe": {
                "exemplarCity": "Mahe"
              },
              "Maldives": {
                "exemplarCity": "མཱལ་དིབས"
              },
              "Mauritius": {
                "exemplarCity": "མོ་རི་ཤཱས"
              },
              "Mayotte": {
                "exemplarCity": "Mayotte"
              },
              "Reunion": {
                "exemplarCity": "Reunion"
              }
            },
            "Australia": {
              "Adelaide": {
                "exemplarCity": "Adelaide"
              },
              "Brisbane": {
                "exemplarCity": "Brisbane"
              },
              "Broken_Hill": {
                "exemplarCity": "Broken Hill"
              },
              "Currie": {
                "exemplarCity": "Currie"
              },
              "Darwin": {
                "exemplarCity": "Darwin"
              },
              "Eucla": {
                "exemplarCity": "Eucla"
              },
              "Hobart": {
                "exemplarCity": "Hobart"
              },
              "Lindeman": {
                "exemplarCity": "Lindeman"
              },
              "Lord_Howe": {
                "exemplarCity": "Lord Howe"
              },
              "Melbourne": {
                "exemplarCity": "Melbourne"
              },
              "Perth": {
                "exemplarCity": "Perth"
              },
              "Sydney": {
                "exemplarCity": "Sydney"
              }
            },
            "Pacific": {
              "Apia": {
                "exemplarCity": "ཨ་པི་ཡ"
              },
              "Auckland": {
                "exemplarCity": "Auckland"
              },
              "Chatham": {
                "exemplarCity": "Chatham"
              },
              "Easter": {
                "exemplarCity": "Easter"
              },
              "Efate": {
                "exemplarCity": "Efate"
              },
              "Enderbury": {
                "exemplarCity": "Enderbury"
              },
              "Fakaofo": {
                "exemplarCity": "ཕ་ཀའོ་ཕོ"
              },
              "Fiji": {
                "exemplarCity": "Fiji"
              },
              "Funafuti": {
                "exemplarCity": "ཕུ་ན་ཕུ་ཊི"
              },
              "Galapagos": {
                "exemplarCity": "Galapagos"
              },
              "Gambier": {
                "exemplarCity": "གེམ་བིཡར"
              },
              "Guadalcanal": {
                "exemplarCity": "Guadalcanal"
              },
              "Guam": {
                "exemplarCity": "Guam"
              },
              "Honolulu": {
                "exemplarCity": "Honolulu"
              },
              "Johnston": {
                "exemplarCity": "ཇཱོནསི་ཊོན"
              },
              "Kiritimati": {
                "exemplarCity": "Kiritimati"
              },
              "Kosrae": {
                "exemplarCity": "Kosrae"
              },
              "Kwajalein": {
                "exemplarCity": "Kwajalein"
              },
              "Majuro": {
                "exemplarCity": "མེ་ཇུ་རོ"
              },
              "Marquesas": {
                "exemplarCity": "Marquesas"
              },
              "Midway": {
                "exemplarCity": "མིཌ་ཝེ"
              },
              "Nauru": {
                "exemplarCity": "ནཱཝ་རུ"
              },
              "Niue": {
                "exemplarCity": "Niue"
              },
              "Norfolk": {
                "exemplarCity": "Norfolk"
              },
              "Noumea": {
                "exemplarCity": "Noumea"
              },
              "Pago_Pago": {
                "exemplarCity": "པ་གོ་ པ་གོ"
              },
              "Palau": {
                "exemplarCity": "པ་ལཱཝ"
              },
              "Pitcairn": {
                "exemplarCity": "Pitcairn"
              },
              "Ponape": {
                "exemplarCity": "Pohnpei"
              },
              "Port_Moresby": {
                "exemplarCity": "Port Moresby"
              },
              "Rarotonga": {
                "exemplarCity": "རཱ་རོ་་ཏོང་ག"
              },
              "Saipan": {
                "exemplarCity": "སཱའེ་ཕཱན"
              },
              "Tahiti": {
                "exemplarCity": "Tahiti"
              },
              "Tarawa": {
                "exemplarCity": "Tarawa"
              },
              "Tongatapu": {
                "exemplarCity": "ཏོང་ག་ཏ་པུ"
              },
              "Truk": {
                "exemplarCity": "Chuuk"
              },
              "Wake": {
                "exemplarCity": "ཝེཀ"
              },
              "Wallis": {
                "exemplarCity": "Wallis"
              }
            },
            "Arctic": {
              "Longyearbyen": {
                "exemplarCity": "Longyearbyen"
              }
            },
            "Antarctica": {
              "Casey": {
                "exemplarCity": "Casey"
              },
              "Davis": {
                "exemplarCity": "ཌེ་ཝིས།"
              },
              "DumontDUrville": {
                "exemplarCity": "Dumont d’Urville"
              },
              "Macquarie": {
                "exemplarCity": "Macquarie"
              },
              "Mawson": {
                "exemplarCity": "མའུ་སཱོན"
              },
              "McMurdo": {
                "exemplarCity": "McMurdo"
              },
              "Palmer": {
                "exemplarCity": "ཕཱལ་མར"
              },
              "Rothera": {
                "exemplarCity": "རཱོ་ཐེ་ར"
              },
              "Syowa": {
                "exemplarCity": "Syowa"
              },
              "Troll": {
                "exemplarCity": "Troll"
              },
              "Vostok": {
                "exemplarCity": "ཝོསི་ཊོཀ"
              }
            },
            "Etc": {
              "GMT": {
                "exemplarCity": "GMT"
              },
              "GMT1": {
                "exemplarCity": "GMT+1"
              },
              "GMT10": {
                "exemplarCity": "GMT+10"
              },
              "GMT11": {
                "exemplarCity": "GMT+11"
              },
              "GMT12": {
                "exemplarCity": "GMT+12"
              },
              "GMT2": {
                "exemplarCity": "GMT+2"
              },
              "GMT3": {
                "exemplarCity": "GMT+3"
              },
              "GMT4": {
                "exemplarCity": "GMT+4"
              },
              "GMT5": {
                "exemplarCity": "GMT+5"
              },
              "GMT6": {
                "exemplarCity": "GMT+6"
              },
              "GMT7": {
                "exemplarCity": "GMT+7"
              },
              "GMT8": {
                "exemplarCity": "GMT+8"
              },
              "GMT9": {
                "exemplarCity": "GMT+9"
              },
              "GMT-1": {
                "exemplarCity": "GMT-1"
              },
              "GMT-10": {
                "exemplarCity": "GMT-10"
              },
              "GMT-11": {
                "exemplarCity": "GMT-11"
              },
              "GMT-12": {
                "exemplarCity": "GMT-12"
              },
              "GMT-13": {
                "exemplarCity": "GMT-13"
              },
              "GMT-14": {
                "exemplarCity": "GMT-14"
              },
              "GMT-2": {
                "exemplarCity": "GMT-2"
              },
              "GMT-3": {
                "exemplarCity": "GMT-3"
              },
              "GMT-4": {
                "exemplarCity": "GMT-4"
              },
              "GMT-5": {
                "exemplarCity": "GMT-5"
              },
              "GMT-6": {
                "exemplarCity": "GMT-6"
              },
              "GMT-7": {
                "exemplarCity": "GMT-7"
              },
              "GMT-8": {
                "exemplarCity": "GMT-8"
              },
              "GMT-9": {
                "exemplarCity": "GMT-9"
              },
              "Unknown": {
                "exemplarCity": "མ་ཤེས་པའི་ཁྲོམ་སྡེ"
              }
            }
          },
          "metazone": {
            "Afghanistan": {
              "long": {
                "standard": "ཨཕ་ག་ནི་ས྄ཏཱནཆུ་ཚོད"
              }
            },
            "Africa_Central": {
              "long": {
                "standard": "དབུས་ཕྱོགས་ཨཕ་རི་ཀཱ་ཆུ་ཚོད"
              }
            },
            "Africa_Eastern": {
              "long": {
                "standard": "ཤར་ཕྱོགས་ཨཕ་རི་ཀཱ་ཆུ་ཚོད"
              }
            },
            "Africa_Southern": {
              "long": {
                "standard": "ལྷོ་ཕྱོགས་ཨཕ་རི་ཀཱ་ཆུ་ཚོད"
              }
            },
            "Africa_Western": {
              "long": {
                "generic": "ནུབ་ཕྱོགས་ཨཕ་རི་ཀཱ་ཆུ་ཚོད",
                "standard": "ནུབ་ཕྱོགས་ཨཕ་རི་ཀཱ་ཚད་ལྡན་ཆུ་ཚོད",
                "daylight": "ནུབ་ཕྱོགས་ཨཕ་རི་ཀཱ་བྱཱར་དུས་ཆུ་ཚོད"
              }
            },
            "Alaska": {
              "long": {
                "generic": "ཨ་ལསི་ཀ་ཆུ་ཚོད",
                "standard": "ཨ་ལསི་ཀ་ཚད་ལྡན་ཆུ་ཚོད",
                "daylight": "ཨ་ལསི་ཀ་ཉིན་སྲུང་ཆུ་ཚོད"
              }
            },
            "Amazon": {
              "long": {
                "generic": "ཨེ་མ་ཛཱོན་ཆུ་ཚོད",
                "standard": "ཨེ་མ་ཛཱོན་ཚད་ལྡན་ཆུ་ཚོད",
                "daylight": "ཨེ་མ་ཛཱོན་བྱཱར་དུས་ཆུ་ཚོད"
              }
            },
            "America_Central": {
              "long": {
                "generic": "བྱང་ཨ་མི་རི་ཀ་དབུས་ཕྱོགས་ཆུ་ཚོད",
                "standard": "བྱང་ཨ་མི་རི་ཀ་དབུས་ཕྱོགས་ཚད་ལྡན་ཆུ་ཚོད",
                "daylight": "བྱང་ཨ་མི་རི་ཀ་དབུས་ཕྱོགས་ཉིན་སྲུང་ཆུ་ཚོད"
              }
            },
            "America_Eastern": {
              "long": {
                "generic": "བྱང་ཨ་མི་རི་ཀ་ཤར་ཕྱོགས་ཆུ་ཚོད",
                "standard": "བྱང་ཨ་མི་རི་ཀ་ཤར་ཕྱོགས་ཚད་ལྡན་ཆུ་ཚོད",
                "daylight": "བྱང་ཨ་མི་རི་ཀ་ཤར་ཕྱོགས་ཉིན་སྲུང་ཆུ་ཚོད"
              }
            },
            "America_Mountain": {
              "long": {
                "generic": "བྱང་ཨ་མི་རི་ཀ་མའུ་ཊེན་ཆུ་ཚོད",
                "standard": "བྱང་ཨ་མི་རི་ཀ་མའུ་ཊེན་ཚད་ལྡན་ཆུ་ཚོད",
                "daylight": "བྱང་ཨ་མི་རི་ཀ་མའུ་ཊེན་ཉིན་སྲུང་ཆུ་ཚོད"
              }
            },
            "America_Pacific": {
              "long": {
                "generic": "བྱང་ཨ་མི་རི་ཀ་པེ་སི་ཕིག་ཆུ་ཚོད",
                "standard": "བྱང་ཨ་མི་རི་ཀ་པེ་སི་ཕིག་ཚད་ལྡན་ཆུ་ཚོད",
                "daylight": "བྱང་ཨ་མི་རི་ཀ་པེ་སི་ཕིག་ཉིན་སྲུང་ཆུ་ཚོད"
              }
            },
            "Arabian": {
              "long": {
                "generic": "ཨ་རེ་བྷི་ཡན་ཆུ་ཚོད",
                "standard": "ཨ་རེ་བྷི་ཡན་ཚད་ལྡན་ཆུ་ཚོད",
                "daylight": "ཨ་རེ་བྷི་ཡན་སྲུང་ཆུ་ཚོད"
              }
            },
            "Argentina": {
              "long": {
                "generic": "ཨར་ཇེན་ཊི་ན་ཆུ་ཚོད",
                "standard": "ཨར་ཇེན་ཊི་ན་ཚད་ལྡན་ཆུ་ཚོད",
                "daylight": "ཨར་ཇེན་ཊི་ན་བྱཱར་དུས་ཆུ་ཚོད"
              }
            },
            "Argentina_Western": {
              "long": {
                "generic": "ནུབ་ཕྱོགས་ཨར་ཇེན་ཊི་ན་ཆུ་ཚོད",
                "standard": "ནུབ་ཕྱོགས་ཨར་ཇེན་ཊི་ན་ཚད་ལྡན་ཆུ་ཚོད",
                "daylight": "ནུབ་ཕྱོགས་ཨར་ཇེན་ཊི་ན་བྱཱར་དུས་ཆུ་ཚོད"
              }
            },
            "Armenia": {
              "long": {
                "generic": "ཨར་མི་ནི་ཡ་ཆུ་ཚོད",
                "standard": "ཨར་མི་ནི་ཡ་ཚད་ལྡན་ཆུ་ཚོད",
                "daylight": "ཨར་མི་ནི་ཡ་བྱཱར་དུས་ཆུ་ཚོད"
              }
            },
            "Atlantic": {
              "long": {
                "generic": "ཨེཊ་ལེན་ཊིཀ་ཆུ་ཚོད",
                "standard": "ཨེཊ་ལེན་ཊིཀ་ཚད་ལྡན་ཆུ་ཚོད",
                "daylight": "ཨེཊ་ལེན་ཊིཀ་ཉིན་སྲུང་ཆུ་ཚོད"
              }
            },
            "Australia_Central": {
              "long": {
                "generic": "དབུས་ཕྱོགས་ཨཱོས་ཊྲེལ་ལི་ཡ་ཆུ་ཚོད",
                "standard": "དབུས་ཕྱོགས་ཨཱོས་ཊྲེལ་ལི་ཡ་ཚད་ལྡན་ཆུ་ཚོད",
                "daylight": "དབུས་ཕྱོགས་ཨཱོས་ཊྲེལ་ལི་ཡ་ཉིན་སྲུང་ཆུ་ཚོད"
              }
            },
            "Australia_CentralWestern": {
              "long": {
                "generic": "བུས་ནུབ་ཕྱོགས་ཨཱོས་ཊྲེལ་ལི་ཡ་ཆུ་ཚོད",
                "standard": "དབུས་ནུབ་ཕྱོགས་ཨཱོས་ཊྲེལ་ལི་ཡ་ཚད་ལྡན་ཆུ་ཚོད",
                "daylight": "དབུས་ནུབ་ཕྱོགས་ཨཱོས་ཊྲེལ་ལི་ཡ་ཉིན་སྲུང་ཆུ་ཚོད"
              }
            },
            "Australia_Eastern": {
              "long": {
                "generic": "ཤར་ཕྱོགས་ཕྱོགས་ཨཱོས་ཊྲེལ་ལི་ཡ་ཆུ་ཚོད",
                "standard": "ཤར་ཕྱོགས་ཕྱོགས་ཨཱོས་ཊྲེལ་ལི་ཡ་ཚད་ལྡན་ཆུ་ཚོད",
                "daylight": "ཤར་ཕྱོགས་ཕྱོགས་ཨཱོས་ཊྲེལ་ལི་ཡ་ཉིན་སྲུང་ཆུ་ཚོད"
              }
            },
            "Australia_Western": {
              "long": {
                "generic": "ནུབ་ཕྱོགས་ཨཱོས་ཊྲེལ་ལི་ཡ་ཆུ་ཚོད",
                "standard": "ནུབ་ཕྱོགས་ཨཱོས་ཊྲེལ་ལི་ཡ་ཚད་ལྡན་ཆུ་ཚོད",
                "daylight": "ནུབ་ཕྱོགས་ཨཱོས་ཊྲེལ་ལི་ཡ་ཉིན་སྲུང་ཆུ་ཚོད"
              }
            },
            "Azerbaijan": {
              "long": {
                "generic": "ཨ་ཛར་བྷའི་ཇཱན་ཆུ་ཚོད",
                "standard": "ཨ་ཛར་བྷའི་ཇཱན་ཚད་ལྡན་ཆུ་ཚོད",
                "daylight": "ཨ་ཛར་བྷའི་ཇཱན་བྱཱར་དུས་ཆུ་ཚོད"
              }
            },
            "Azores": {
              "long": {
                "generic": "ཨེ་ཛོརས་ཆུ་ཚོད",
                "standard": "ཨེ་ཛོརས་ཚད་ལྡན་ཆུ་ཚོད",
                "daylight": "ཨེ་ཛོརས་བྱཱར་དུས་ཆུ་ཚོད"
              }
            },
            "Bangladesh": {
              "long": {
                "generic": "བངྒ་ལ་དེཤ་ཆུ་ཚོད",
                "standard": "བངྒ་ལ་དེཤ་ཚད་ལྡན་ཆུ་ཚོད",
                "daylight": "བངྒ་ལ་དེཤ་བྱཱར་དུས་ཆུ་ཚོད"
              }
            },
            "Bhutan": {
              "long": {
                "standard": "འབྲུག་ཡུལ་ཆུ་ཚོད"
              },
              "short": {
                "standard": "BT"
              }
            },
            "Bolivia": {
              "long": {
                "standard": "བྷོ་ལི་བི་ཡ་ཆུ་ཚོད"
              }
            },
            "Brasilia": {
              "long": {
                "generic": "བྲ་ཛི་ལི་ཡ་ཆུ་ཚོད",
                "standard": "བྲ་ཛི་ལི་ཡ་ཚད་ལྡན་ཆུ་ཚོད",
                "daylight": "བྲ་ཛི་ལི་ཡ་བྱཱར་དུས་ཆུ་ཚོད"
              }
            },
            "Cape_Verde": {
              "long": {
                "generic": "ཀེཔ་བཱཌ་ཆུ་ཚོད",
                "standard": "ཀེཔ་བཱཌ་ཚད་ལྡན་ཆུ་ཚོད",
                "daylight": "ཀེཔ་བཱཌ་བྱཱར་དུས་ཆུ་ཚོད"
              }
            },
            "Chile": {
              "long": {
                "generic": "ཅི་ལི་ཆུ་ཚོད",
                "standard": "ཅི་ལི་ཚད་ལྡན་ཆུ་ཚོད",
                "daylight": "ཅི་ལི་བྱཱར་དུས་ཆུ་ཚོད"
              }
            },
            "China": {
              "long": {
                "generic": "རྒྱ་ནག་ཆུ་ཚོད",
                "standard": "རྒྱ་ནག་ཚད་ལྡན་ཆུ་ཚོད",
                "daylight": "རྒྱ་ནག་ཉིན་སྲུང་ཆུ་ཚོད"
              }
            },
            "Christmas": {
              "long": {
                "standard": "ཁི་རིསྟ་མེས་མཚོ་གླིང་ཆུ་ཚོད"
              }
            },
            "Colombia": {
              "long": {
                "generic": "ཀོ་ལོམ་བྷི་ཡ་ཆུ་ཚོད",
                "standard": "ཀོ་ལོམ་བྷི་ཡ་ཚད་ལྡན་ཆུ་ཚོད",
                "daylight": "ཀོ་ལོམ་བྷི་ཡ་བྱཱར་དུས་ཆུ་ཚོད"
              }
            },
            "Cuba": {
              "long": {
                "generic": "ཀིའུ་བྷ་ཆུ་ཚོད",
                "standard": "ཀིའུ་བྷ་ཚད་ལྡན་ཆུ་ཚོད",
                "daylight": "ཀིའུ་བྷ་ཉིན་སྲུང་ཆུ་ཚོད"
              }
            },
            "Easter": {
              "long": {
                "generic": "ཨིསི་ཊར་ཨཱའི་ལེནཌ་ཆུ་ཚོད",
                "standard": "ཨིསི་ཊར་ཨཱའི་ལེནཌ་ཚད་ལྡན་ཆུ་ཚོད",
                "daylight": "ཨིསི་ཊར་ཨཱའི་ལེནཌ་བྱཱར་དུས་ཆུ་ཚོད"
              }
            },
            "Ecuador": {
              "long": {
                "standard": "ཨེ་ཀུ་ཌཽ་ཆུ་ཚོད"
              }
            },
            "Europe_Central": {
              "long": {
                "generic": "དབུས་ཕྱོགས་ཡུ་རོ་པེན་ཆུ་ཚོད",
                "standard": "དབུས་ཕྱོགས་ཡུ་རོ་པེན་ཚད་ལྡན་ཆུ་ཚོད",
                "daylight": "དབུས་ཕྱོགས་ཡུ་རོ་པེན་བྱཱར་དུས་ཆུ་ཚོད"
              }
            },
            "Europe_Eastern": {
              "long": {
                "generic": "ཤར་ཕྱོགས་ཡུ་རོ་པེན་ཆུ་ཚོད",
                "standard": "ཤར་ཕྱོགས་ཡུ་རོ་པེན་ཚད་ལྡན་ཆུ་ཚོད",
                "daylight": "ཤར་ཕྱོགས་ཡུ་རོ་པེན་བྱཱར་དུས་ཆུ་ཚོད"
              }
            },
            "Europe_Western": {
              "long": {
                "generic": "ནུབ་ཕྱོགས་ཡུ་རོ་པེན་ཆུ་ཚོད",
                "standard": "ནུབ་ཕྱོགས་ཡུ་རོ་པེན་ཚད་ལྡན་ཆུ་ཚོད",
                "daylight": "ནུབ་ཕྱོགས་ཡུ་རོ་པེན་བྱཱར་དུས་ཆུ་ཚོད"
              }
            },
            "Falkland": {
              "long": {
                "generic": "ཕལཀ་ལེནཌ་ཨཱའི་ལེནཌས་ཆུ་ཚོད",
                "standard": "ཕལཀ་ལེནཌ་ཨཱའི་ལེནཌས་ཚད་ལྡན་ཆུ་ཚོད",
                "daylight": "ཕལཀ་ལེནཌ་ཨཱའི་ལེནཌས་བྱཱར་དུས་ཆུ་ཚོད"
              }
            },
            "French_Guiana": {
              "long": {
                "standard": "ཕིརེནཅ་གི་ཡ་ན་ཆུ་ཚོད"
              }
            },
            "GMT": {
              "long": {
                "standard": "གིརིན་ཝིཆ་ལུ་ཡོད་པའི་ཆུ་ཚོད"
              }
            },
            "Galapagos": {
              "long": {
                "standard": "ག་ལ་པ་གོསི་ཆུ་ཚོད"
              }
            },
            "Georgia": {
              "long": {
                "generic": "ཇཽ་ཇཱ་ཆུ་ཚོད",
                "standard": "ཇཽ་ཇཱ་ཚད་ལྡན་ཆུ་ཚོད",
                "daylight": "ཇཽ་ཇཱ་བྱཱར་དུས་ཆུ་ཚོད"
              }
            },
            "Greenland_Eastern": {
              "long": {
                "generic": "ཤར་ཕྱོགས་གིརིན་ལེནཌ་ཆུ་ཚོད",
                "standard": "ཤར་ཕྱོགས་གིརིན་ལེནཌ་ཚད་ལྡན་ཆུ་ཚོད",
                "daylight": "ཤར་ཕྱོགས་གིརིན་ལེནཌ་བྱཱར་དུས་ཆུ་ཚོད"
              }
            },
            "Greenland_Western": {
              "long": {
                "generic": "ནུབ་ཕྱོགས་གིརིན་ལེནཌ་ཆུ་ཚོད",
                "standard": "ནུབ་ཕྱོགས་གིརིན་ལེནཌ་ཚད་ལྡན་ཆུ་ཚོད",
                "daylight": "ནུབ་ཕྱོགས་གིརིན་ལེནཌ་བྱཱར་དུས་ཆུ་ཚོད"
              }
            },
            "Gulf": {
              "long": {
                "standard": "གཱལཕི་ཆུ་ཚོད"
              }
            },
            "Guyana": {
              "long": {
                "standard": "གུ་ཡ་ན་ཆུ་ཚོད"
              }
            },
            "Hawaii_Aleutian": {
              "long": {
                "generic": "ཧ་ཝའི་-ཨེ་ལིའུ་ཤེན་ཆུ་ཚོད",
                "standard": "ཧ་ཝའི་-ཨེ་ལིའུ་ཤེན་ཚད་ལྡན་ཆུ་ཚོད",
                "daylight": "ཧ་ཝའི་-ཨེ་ལིའུ་ཤེན་ཉིན་སྲུང་ཆུ་ཚོད"
              }
            },
            "India": {
              "long": {
                "standard": "རྒྱ་གར་ཆུ་ཚོད"
              }
            },
            "Indian_Ocean": {
              "long": {
                "standard": "རྒྱ་གར་གྱི་རྒྱ་མཚོ་ཆུ་ཚོད"
              }
            },
            "Indochina": {
              "long": {
                "standard": "ཨིན་ཌོ་ཅཱའི་ན་ཆུ་ཚོད"
              }
            },
            "Indonesia_Central": {
              "long": {
                "standard": "དབུས་ཕྱོགས་ཨིན་ཌོ་ནེ་ཤི་ཡ་ཆུ་ཚོད"
              }
            },
            "Indonesia_Eastern": {
              "long": {
                "standard": "ཤར་ཕྱོགས་ཨིན་ཌོ་ནེ་ཤི་ཡ་ཆུ་ཚོད"
              }
            },
            "Indonesia_Western": {
              "long": {
                "standard": "ནུབ་ཕྱོགས་ཨིན་ཌོ་ནེ་ཤི་ཡ་ཆུ་ཚོད"
              }
            },
            "Iran": {
              "long": {
                "generic": "ཨི་རཱན་ཆུ་ཚོད",
                "standard": "ཨི་རཱན་ཚད་ལྡན་ཆུ་ཚོད",
                "daylight": "ཨི་རཱན་ཉིན་སྲུང་ཆུ་ཚོད"
              }
            },
            "Irkutsk": {
              "long": {
                "generic": "ཨར་ཀུཙི་ཆུ་ཚོད",
                "standard": "ཨར་ཀུཙི་ཚད་ལྡན་ཆུ་ཚོད",
                "daylight": "ཨར་ཀུཙི་བྱཱར་དུས་ཆུ་ཚོད"
              }
            },
            "Israel": {
              "long": {
                "generic": "ཨིས་རེལ་ཆུ་ཚོད",
                "standard": "ཨིས་རེལ་ཚད་ལྡན་ཆུ་ཚོད",
                "daylight": "ཨིས་རེལ་ཉིན་སྲུང་ཆུ་ཚོད"
              }
            },
            "Japan": {
              "long": {
                "generic": "ཇ་པཱན་ཆུ་ཚོད",
                "standard": "ཇ་པཱན་ཚད་ལྡན་ཆུ་ཚོད",
                "daylight": "ཇ་པཱན་ཉིན་སྲུང་ཆུ་ཚོད"
              }
            },
            "Korea": {
              "long": {
                "generic": "ཀོ་རི་ཡ་ཆུ་ཚོད",
                "standard": "ཀོ་རི་ཡ་ཚད་ལྡན་ཆུ་ཚོད",
                "daylight": "ཀོ་རི་ཡ་ཉིན་སྲུང་ཆུ་ཚོད"
              }
            },
            "Krasnoyarsk": {
              "long": {
                "generic": "ཀརསི་ནོ་ཡརསཀི་ཆུ་ཚོད",
                "standard": "ཀརསི་ནོ་ཡརསཀི་ཚད་ལྡན་ཆུ་ཚོད",
                "daylight": "ཀརསི་ནོ་ཡརསཀི་བྱཱར་དུས་ཆུ་ཚོད"
              }
            },
            "Magadan": {
              "long": {
                "generic": "མ་གྷ་དཱན་ཆུ་ཚོད",
                "standard": "མ་གྷ་དཱན་ཚད་ལྡན་ཆུ་ཚོད",
                "daylight": "མ་གྷ་དཱན་བྱཱར་དུས་ཆུ་ཚོད"
              }
            },
            "Maldives": {
              "long": {
                "standard": "མཱལ་དིབས་ཆུ་ཚོད"
              }
            },
            "Mauritius": {
              "long": {
                "generic": "མོ་རི་ཤཱས་ཆུ་ཚོད",
                "standard": "མོ་རི་ཤཱས་ཚད་ལྡན་ཆུ་ཚོད",
                "daylight": "མོ་རི་ཤཱས་བྱཱར་དུས་ཆུ་ཚོད"
              }
            },
            "Moscow": {
              "long": {
                "generic": "མཽས་ཀོ་ཆུ་ཚོད",
                "standard": "མཽས་ཀོ་ཚད་ལྡན་ཆུ་ཚོད",
                "daylight": "མཽས་ཀོ་བྱཱར་དུས་ཆུ་ཚོད"
              }
            },
            "Nepal": {
              "long": {
                "standard": "ནེ་པཱལ་ཆུ་ཚོད"
              }
            },
            "New_Zealand": {
              "long": {
                "generic": "ནིའུ་ཛི་ལེནཌ་ཆུ་ཚོད",
                "standard": "ནིའུ་ཛི་ལེནཌ་ཚད་ལྡན་ཆུ་ཚོད",
                "daylight": "ནིའུ་ཛི་ལེནཌ་ཉིན་སྲུང་ཆུ་ཚོད"
              }
            },
            "Newfoundland": {
              "long": {
                "generic": "ནིའུ་ཕའུནཌ་ལེནཌ་ཆུ་ཚོད",
                "standard": "ནིའུ་ཕའུནཌ་ལེནཌ་ཚད་ལྡན་ཆུ་ཚོད",
                "daylight": "ནིའུ་ཕའུནཌ་ལེནཌ་ཉིན་སྲུང་ཆུ་ཚོད"
              }
            },
            "Noronha": {
              "long": {
                "generic": "ཕར་ནེན་ཌོ་ ཌི་ ནོ་རཱོན་ཧ་ཆུ་ཚོད",
                "standard": "ཕར་ནེན་ཌོ་ ཌི་ ནོ་རཱོན་ཧ་ཚད་ལྡན་ཆུ་ཚོད",
                "daylight": "ཕར་ནེན་ཌོ་ ཌི་ ནོ་རཱོན་ཧ་བྱཱར་དུས་ཆུ་ཚོད"
              }
            },
            "Novosibirsk": {
              "long": {
                "generic": "ནོ་བོ་སི་བིརསཀི་ཆུ་ཚོད",
                "standard": "ནོ་བོ་སི་བིརསཀི་ཚད་ལྡན་ཆུ་ཚོད",
                "daylight": "ནོ་བོ་སི་བིརསཀི་བྱཱར་དུས་ཆུ་ཚོད"
              }
            },
            "Omsk": {
              "long": {
                "generic": "ཨོམསཀི་ཆུ་ཚོད",
                "standard": "ཨོམསཀི་ཚད་ལྡན་ཆུ་ཚོད",
                "daylight": "ཨོམསཀི་བྱཱར་དུས་ཆུ་ཚོད"
              }
            },
            "Pakistan": {
              "long": {
                "generic": "པ་ཀི་ས྄ཏཱན་ཆུ་ཚོད",
                "standard": "པ་ཀི་ས྄ཏཱན་ཚད་ལྡན་ཆུ་ཚོད",
                "daylight": "པ་ཀི་ས྄ཏཱན་བྱཱར་དུས་ཆུ་ཚོད"
              }
            },
            "Paraguay": {
              "long": {
                "generic": "པ་ར་གུ་ཝའི་ཆུ་ཚོད",
                "standard": "པ་ར་གུ་ཝའི་ཚད་ལྡན་ཆུ་ཚོད",
                "daylight": "པ་ར་གུ་ཝའི་བྱཱར་དུས་ཆུ་ཚོད"
              }
            },
            "Peru": {
              "long": {
                "generic": "པ་རུ་ཆུ་ཚོད",
                "standard": "པ་རུ་ཚད་ལྡན་ཆུ་ཚོད",
                "daylight": "པ་རུ་བྱཱར་དུས་ཆུ་ཚོད"
              }
            },
            "Pierre_Miquelon": {
              "long": {
                "generic": "པའི་རི་དང་མི་ཀི་ལཱོན་ཆུ་ཚོད",
                "standard": "པའི་རི་དང་མི་ཀི་ལཱོན་ཚད་ལྡན་ཆུ་ཚོད",
                "daylight": "པའི་རི་དང་མི་ཀི་ལཱོན་ཉིན་སྲུང་ཆུ་ཚོད"
              }
            },
            "Reunion": {
              "long": {
                "standard": "རི་ཡུ་ནི་ཡཱན་ཆུ་ཚོད"
              }
            },
            "Sakhalin": {
              "long": {
                "generic": "ས་ཁ་ལིན་ཆུ་ཚོད",
                "standard": "ས་ཁ་ལིན་ཚད་ལྡན་ཆུ་ཚོད",
                "daylight": "ས་ཁ་ལིན་བྱཱར་དུས་ཆུ་ཚོད"
              }
            },
            "Seychelles": {
              "long": {
                "standard": "སེ་ཤཱལས་ཆུ་ཚོད"
              }
            },
            "Suriname": {
              "long": {
                "standard": "སུ་རི་ནཱམ་ཆུ་ཚོད"
              }
            },
            "Uruguay": {
              "long": {
                "generic": "ཡུ་རུ་གུ་ཝཱའི་ཆུ་ཚོད",
                "standard": "ཡུ་རུ་གུ་ཝཱའི་ཚད་ལྡན་ཆུ་ཚོད",
                "daylight": "ཡུ་རུ་གུ་ཝཱའི་བྱཱར་དུས་ཆུ་ཚོད"
              }
            },
            "Venezuela": {
              "long": {
                "standard": "བེ་ནི་ཛུ་ཝེ་ལ་ཆུ་ཚོད"
              }
            },
            "Vladivostok": {
              "long": {
                "generic": "བ་ལ་ཌི་བོསི་ཏོཀ་ཆུ་ཚོད",
                "standard": "བ་ལ་ཌི་བོསི་ཏོཀ་ཚད་ལྡན་ཆུ་ཚོད",
                "daylight": "བ་ལ་ཌི་བོསི་ཏོཀ་བྱཱར་དུས་ཆུ་ཚོད"
              }
            },
            "Volgograd": {
              "long": {
                "generic": "བཱོལ་གོ་གིརེཌ་ཆུ་ཚོད",
                "standard": "བཱོལ་གོ་གིརེཌ་ཚད་ལྡན་ཆུ་ཚོད",
                "daylight": "བཱོལ་གོ་གིརེཌ་བྱཱར་དུས་ཆུ་ཚོད"
              }
            },
            "Yakutsk": {
              "long": {
                "generic": "ཡ་ཀུཙིཀི་ཆུ་ཚོད",
                "standard": "ཡ་ཀུཙིཀི་ཚད་ལྡན་ཆུ་ཚོད",
                "daylight": "ཡ་ཀུཙིཀི་བྱཱར་དུས་ཆུ་ཚོད"
              }
            },
            "Yekaterinburg": {
              "long": {
                "generic": "ཡེ་ཀ་ཏེ་རིན་བརག་ཆུ་ཚོད",
                "standard": "ཡེ་ཀ་ཏེ་རིན་བརག་ཚད་ལྡན་ཆུ་ཚོད",
                "daylight": "ཡེ་ཀ་ཏེ་རིན་བརག་བྱཱར་དུས་ཆུ་ཚོད"
              }
            }
          }
        }
      }
    }
  }
}
