{
  "main": {
    "or-IN": {
      "identity": {
        "version": {
          "_cldrVersion": "26",
          "_number": "$Revision: 10669 $"
        },
        "generation": {
          "_date": "$Date: 2014-07-23 16:10:33 -0500 (Wed, 23 Jul 2014) $"
        },
        "language": "or",
        "territory": "IN"
      },
      "dates": {
        "calendars": {
          "gregorian": {
            "months": {
              "format": {
                "abbreviated": {
                  "1": "ଜାନୁଆରୀ",
                  "2": "ଫେବୃଆରୀ",
                  "3": "ମାର୍ଚ୍ଚ",
                  "4": "ଅପ୍ରେଲ",
                  "5": "ମଇ",
                  "6": "ଜୁନ",
                  "7": "ଜୁଲାଇ",
                  "8": "ଅଗଷ୍ଟ",
                  "9": "ସେପ୍ଟେମ୍ବର",
                  "10": "ଅକ୍ଟୋବର",
                  "11": "ନଭେମ୍ବର",
                  "12": "ଡିସେମ୍ବର"
                },
                "narrow": {
                  "1": "ଜା",
                  "2": "ଫେ",
                  "3": "ମା",
                  "4": "ଅ",
                  "5": "ମଇ",
                  "6": "ଜୁ",
                  "7": "ଜୁ",
                  "8": "ଅ",
                  "9": "ସେ",
                  "10": "ଅ",
                  "11": "ନ",
                  "12": "ଡି"
                },
                "wide": {
                  "1": "ଜାନୁଆରୀ",
                  "2": "ଫେବୃଆରୀ",
                  "3": "ମାର୍ଚ୍ଚ",
                  "4": "ଅପ୍ରେଲ",
                  "5": "ମଇ",
                  "6": "ଜୁନ",
                  "7": "ଜୁଲାଇ",
                  "8": "ଅଗଷ୍ଟ",
                  "9": "ସେପ୍ଟେମ୍ବର",
                  "10": "ଅକ୍ଟୋବର",
                  "11": "ନଭେମ୍ବର",
                  "12": "ଡିସେମ୍ବର"
                }
              },
              "stand-alone": {
                "abbreviated": {
                  "1": "ଜାନୁଆରୀ",
                  "2": "ଫେବୃଆରୀ",
                  "3": "ମାର୍ଚ୍ଚ",
                  "4": "ଅପ୍ରେଲ",
                  "5": "ମଇ",
                  "6": "ଜୁନ",
                  "7": "ଜୁଲାଇ",
                  "8": "ଅଗଷ୍ଟ",
                  "9": "ସେପ୍ଟେମ୍ବର",
                  "10": "ଅକ୍ଟୋବର",
                  "11": "ନଭେମ୍ବର",
                  "12": "ଡିସେମ୍ବର"
                },
                "narrow": {
                  "1": "ଜା",
                  "2": "ଫେ",
                  "3": "ମା",
                  "4": "ଅ",
                  "5": "ମଇ",
                  "6": "ଜୁ",
                  "7": "ଜୁ",
                  "8": "ଅ",
                  "9": "ସେ",
                  "10": "ଅ",
                  "11": "ନ",
                  "12": "ଡି"
                },
                "wide": {
                  "1": "ଜାନୁଆରୀ",
                  "2": "ଫେବୃଆରୀ",
                  "3": "ମାର୍ଚ୍ଚ",
                  "4": "ଅପ୍ରେଲ",
                  "5": "ମଇ",
                  "6": "ଜୁନ",
                  "7": "ଜୁଲାଇ",
                  "8": "ଅଗଷ୍ଟ",
                  "9": "ସେପ୍ଟେମ୍ବର",
                  "10": "ଅକ୍ଟୋବର",
                  "11": "ନଭେମ୍ବର",
                  "12": "ଡିସେମ୍ବର"
                }
              }
            },
            "days": {
              "format": {
                "abbreviated": {
                  "sun": "ରବି",
                  "mon": "ସୋମ",
                  "tue": "ମଙ୍ଗଳ",
                  "wed": "ବୁଧ",
                  "thu": "ଗୁରୁ",
                  "fri": "ଶୁକ୍ର",
                  "sat": "ଶନି"
                },
                "narrow": {
                  "sun": "ର",
                  "mon": "ସୋ",
                  "tue": "ମ",
                  "wed": "ବୁ",
                  "thu": "ଗୁ",
                  "fri": "ଶୁ",
                  "sat": "ଶ"
                },
                "short": {
                  "sun": "ରବି",
                  "mon": "ସୋମ",
                  "tue": "ମଙ୍ଗଳ",
                  "wed": "ବୁଧ",
                  "thu": "ଗୁରୁ",
                  "fri": "ଶୁକ୍ର",
                  "sat": "ଶନି"
                },
                "wide": {
                  "sun": "ରବିବାର",
                  "mon": "ସୋମବାର",
                  "tue": "ମଙ୍ଗଳବାର",
                  "wed": "ବୁଧବାର",
                  "thu": "ଗୁରୁବାର",
                  "fri": "ଶୁକ୍ରବାର",
                  "sat": "ଶନିବାର"
                }
              },
              "stand-alone": {
                "abbreviated": {
                  "sun": "ରବି",
                  "mon": "ସୋମ",
                  "tue": "ମଙ୍ଗଳ",
                  "wed": "ବୁଧ",
                  "thu": "ଗୁରୁ",
                  "fri": "ଶୁକ୍ର",
                  "sat": "ଶନି"
                },
                "narrow": {
                  "sun": "ର",
                  "mon": "ସୋ",
                  "tue": "ମ",
                  "wed": "ବୁ",
                  "thu": "ଗୁ",
                  "fri": "ଶୁ",
                  "sat": "ଶ"
                },
                "short": {
                  "sun": "ରବି",
                  "mon": "ସୋମ",
                  "tue": "ମଙ୍ଗଳ",
                  "wed": "ବୁଧ",
                  "thu": "ଗୁରୁ",
                  "fri": "ଶୁକ୍ର",
                  "sat": "ଶନି"
                },
                "wide": {
                  "sun": "ରବିବାର",
                  "mon": "ସୋମବାର",
                  "tue": "ମଙ୍ଗଳବାର",
                  "wed": "ବୁଧବାର",
                  "thu": "ଗୁରୁବାର",
                  "fri": "ଶୁକ୍ରବାର",
                  "sat": "ଶନିବାର"
                }
              }
            },
            "quarters": {
              "format": {
                "abbreviated": {
                  "1": "Q1",
                  "2": "Q2",
                  "3": "Q3",
                  "4": "Q4"
                },
                "narrow": {
                  "1": "1",
                  "2": "2",
                  "3": "3",
                  "4": "4"
                },
                "wide": {
                  "1": "Q1",
                  "2": "Q2",
                  "3": "Q3",
                  "4": "Q4"
                }
              },
              "stand-alone": {
                "abbreviated": {
                  "1": "Q1",
                  "2": "Q2",
                  "3": "Q3",
                  "4": "Q4"
                },
                "narrow": {
                  "1": "1",
                  "2": "2",
                  "3": "3",
                  "4": "4"
                },
                "wide": {
                  "1": "Q1",
                  "2": "Q2",
                  "3": "Q3",
                  "4": "Q4"
                }
              }
            },
            "dayPeriods": {
              "format": {
                "abbreviated": {
                  "am": "am",
                  "noon": "noon",
                  "pm": "pm"
                },
                "narrow": {
                  "am": "am",
                  "noon": "n",
                  "pm": "pm"
                },
                "wide": {
                  "am": "am",
                  "noon": "noon",
                  "pm": "pm"
                }
              },
              "stand-alone": {
                "abbreviated": {
                  "am": "am",
                  "noon": "noon",
                  "pm": "pm"
                },
                "narrow": {
                  "am": "am",
                  "noon": "n",
                  "pm": "pm"
                },
                "wide": {
                  "am": "am",
                  "noon": "noon",
                  "pm": "pm"
                }
              }
            },
            "eras": {
              "eraNames": {
                "0": "BCE",
                "0-alt-variant": "BCE",
                "1": "CE",
                "1-alt-variant": "CE"
              },
              "eraAbbr": {
                "0": "BCE",
                "0-alt-variant": "BCE",
                "1": "CE",
                "1-alt-variant": "CE"
              },
              "eraNarrow": {
                "0": "BCE",
                "0-alt-variant": "BCE",
                "1": "CE",
                "1-alt-variant": "CE"
              }
            },
            "dateFormats": {
              "full": "EEEE, d MMMM y",
              "long": "d MMMM y",
              "medium": "d MMM y",
              "short": "d-M-yy"
            },
            "timeFormats": {
              "full": "h:mm:ss a zzzz",
              "long": "h:mm:ss a z",
              "medium": "h:mm:ss a",
              "short": "h:mm a"
            },
            "dateTimeFormats": {
              "full": "{1} {0}",
              "long": "{1} {0}",
              "medium": "{1} {0}",
              "short": "{1} {0}",
              "availableFormats": {
                "E": "ccc",
                "EHm": "E HH:mm",
                "EHms": "E HH:mm:ss",
                "Ed": "d, E",
                "Ehm": "E h:mm a",
                "Ehms": "E h:mm:ss a",
                "Gy": "G y",
                "GyMMM": "G y MMM",
                "GyMMMEd": "G y MMM d, E",
                "GyMMMd": "G y MMM d",
                "H": "HH",
                "Hm": "HH:mm",
                "Hms": "HH:mm:ss",
                "M": "L",
                "MEd": "MM-dd, E",
                "MMM": "LLL",
                "MMMEd": "MMM d, E",
                "MMMMd": "MMMM d",
                "MMMd": "MMM d",
                "MMdd": "dd-MM",
                "Md": "MM-dd",
                "d": "d",
                "h": "h a",
                "hm": "h:mm a",
                "hms": "h:mm:ss a",
                "ms": "mm:ss",
                "y": "y",
                "yM": "y-MM",
                "yMEd": "y-MM-dd, E",
                "yMM": "MM-y",
                "yMMM": "y MMM",
                "yMMMEd": "y MMM d, E",
                "yMMMM": "MMMM y",
                "yMMMd": "y MMM d",
                "yMd": "y-MM-dd",
                "yQQQ": "QQQ y",
                "yQQQQ": "y QQQQ"
              },
              "appendItems": {
                "Day": "{0} ({2}: {1})",
                "Day-Of-Week": "{0} {1}",
                "Era": "{1} {0}",
                "Hour": "{0} ({2}: {1})",
                "Minute": "{0} ({2}: {1})",
                "Month": "{0} ({2}: {1})",
                "Quarter": "{0} ({2}: {1})",
                "Second": "{0} ({2}: {1})",
                "Timezone": "{0} {1}",
                "Week": "{0} ({2}: {1})",
                "Year": "{1} {0}"
              },
              "intervalFormats": {
                "intervalFormatFallback": "{0} – {1}",
                "H": {
                  "H": "HH–HH"
                },
                "Hm": {
                  "H": "HH:mm–HH:mm",
                  "m": "HH:mm–HH:mm"
                },
                "Hmv": {
                  "H": "HH:mm–HH:mm v",
                  "m": "HH:mm–HH:mm v"
                },
                "Hv": {
                  "H": "HH–HH v"
                },
                "M": {
                  "M": "MM–MM"
                },
                "MEd": {
                  "M": "MM-dd, E – MM-dd, E",
                  "d": "MM-dd, E – MM-dd, E"
                },
                "MMM": {
                  "M": "LLL–LLL"
                },
                "MMMEd": {
                  "M": "MMM d, E – MMM d, E",
                  "d": "MMM d, E – MMM d, E"
                },
                "MMMd": {
                  "M": "MMM d – MMM d",
                  "d": "MMM d–d"
                },
                "Md": {
                  "M": "MM-dd – MM-dd",
                  "d": "MM-dd – MM-dd"
                },
                "d": {
                  "d": "d–d"
                },
                "h": {
                  "a": "h a – h a",
                  "h": "h–h a"
                },
                "hm": {
                  "a": "h:mm a – h:mm a",
                  "h": "h:mm–h:mm a",
                  "m": "h:mm–h:mm a"
                },
                "hmv": {
                  "a": "h:mm a – h:mm a v",
                  "h": "h:mm–h:mm a v",
                  "m": "h:mm–h:mm a v"
                },
                "hv": {
                  "a": "h a – h a v",
                  "h": "h–h a v"
                },
                "y": {
                  "y": "y–y"
                },
                "yM": {
                  "M": "y-MM – y-MM",
                  "y": "y-MM – y-MM"
                },
                "yMEd": {
                  "M": "y-MM-dd, E – y-MM-dd, E",
                  "d": "y-MM-dd, E – y-MM-dd, E",
                  "y": "y-MM-dd, E – y-MM-dd, E"
                },
                "yMMM": {
                  "M": "y MMM–MMM",
                  "y": "y MMM – y MMM"
                },
                "yMMMEd": {
                  "M": "y MMM d, E – MMM d, E",
                  "d": "y MMM d, E – MMM d, E",
                  "y": "y MMM d, E – y MMM d, E"
                },
                "yMMMM": {
                  "M": "y MMMM–MMMM",
                  "y": "y MMMM – y MMMM"
                },
                "yMMMd": {
                  "M": "y MMM d – MMM d",
                  "d": "y MMM d–d",
                  "y": "y MMM d – y MMM d"
                },
                "yMd": {
                  "M": "y-MM-dd – y-MM-dd",
                  "d": "y-MM-dd – y-MM-dd",
                  "y": "y-MM-dd – y-MM-dd"
                }
              }
            }
          }
        }
      }
    }
  }
}
