{
  "main": {
    "or-IN": {
      "identity": {
        "version": {
          "_cldrVersion": "26",
          "_number": "$Revision: 10669 $"
        },
        "generation": {
          "_date": "$Date: 2014-07-23 16:10:33 -0500 (Wed, 23 Jul 2014) $"
        },
        "language": "or",
        "territory": "IN"
      },
      "characters": {
        "exemplarCharacters": "[\u0B3C ଅ ଆ ଇ ଈ ଉ ଊ ଋ ଏ ଐ ଓ ଔ \u0B01 ଂ ଃ କ ଖ ଗ ଘ ଙ ଚ ଛ ଜ ଝ ଞ ଟ ଠ ଡ {ଡ\u0B3C} ଢ {ଢ\u0B3C} ଣ ତ ଥ ଦ ଧ ନ ପ ଫ ବ ଭ ମ ଯ ୟ ର ଲ ଳ ଵ ୱ ଶ ଷ ସ ହ ା \u0B3F ୀ \u0B41 \u0B42 \u0B43 େ ୈ ୋ ୌ \u0B4D]",
        "auxiliary": "[\u200C\u200D]",
        "punctuation": "[\\- , ; \\: ! ? . ( ) \\[ \\] \\{ \\}]",
        "index": "[ଅ ଆ ଇ ଈ ଉ ଊ ଋ ଏ ଐ ଓ ଔ କ ଖ ଗ ଘ ଙ ଚ ଛ ଜ ଝ ଞ ଟ ଠ ଡ ଢ ଣ ତ ଥ ଦ ଧ ନ ପ ଫ ବ ଭ ମ ଯ ର ଲ ଳ ଶ ଷ ସ ହ {କ\u0B4Dଷ}]",
        "ellipsis": {
          "initial": "…{0}",
          "medial": "{0}…{1}",
          "final": "{0}…",
          "word-initial": "… {0}",
          "word-medial": "{0} … {1}",
          "word-final": "{0} …"
        },
        "moreInformation": "?"
      }
    }
  }
}
