{
  "main": {
    "or-IN": {
      "identity": {
        "version": {
          "_cldrVersion": "26",
          "_number": "$Revision: 10669 $"
        },
        "generation": {
          "_date": "$Date: 2014-07-23 16:10:33 -0500 (Wed, 23 Jul 2014) $"
        },
        "language": "or",
        "territory": "IN"
      },
      "localeDisplayNames": {
        "languages": {
          "aa": "ଅଫାର୍",
          "ab": "ଆବ୍ଖାଜିଆନ୍",
          "ace": "ଆଚାଇନୀଜ୍",
          "ach": "ଆକୋଲି",
          "ada": "ଆଦାଙ୍ଗେମ୍",
          "ady": "ଅଦ୍ୟଘେ",
          "ae": "ଅବେସ୍ତନ",
          "aeb": "aeb",
          "af": "ଆଫ୍ରିକାନସ୍",
          "afh": "ଆଫ୍ରିହିଲି",
          "agq": "ଆଘେମ",
          "ain": "ଆଇନୁ",
          "ak": "ଅକନ୍",
          "akk": "ଆକାଡିଆନ୍",
          "akz": "akz",
          "ale": "ଆଲେଇଟୁ",
          "aln": "aln",
          "alt": "ଦକ୍ଷିଣ ଆଲ୍ଟାଇ",
          "am": "ଆମହାରକି",
          "an": "ଆର୍ଗୋନୀ",
          "ang": "ପୁରୁଣା ଇଁରାଜୀ",
          "anp": "ଅଁଗୀକା",
          "ar": "ଆରବିକ୍",
          "ar-001": "ମାନକ ଆରବିକ",
          "arc": "ଆରାମାଇକ୍",
          "arn": "ଆରାଉକାନିଆନ୍",
          "aro": "aro",
          "arp": "ଆରାପାହୋ",
          "arq": "arq",
          "arw": "ଆରୱକ",
          "ary": "ary",
          "arz": "arz",
          "as": "ଆସାମୀ",
          "asa": "ଆସୁ",
          "ase": "ase",
          "ast": "ଆଷ୍ଟୁରିଆନ୍",
          "av": "ଆଭାରିକ୍",
          "avk": "avk",
          "awa": "ଆୱାଧି",
          "ay": "ଆୟମାରା",
          "az": "ଆଜେରବାଇଜାନି",
          "az-alt-short": "az",
          "azb": "azb",
          "ba": "ବଶଖିର୍",
          "bal": "ବାଲୁଚି",
          "ban": "ବାଲିନୀଜ୍",
          "bar": "bar",
          "bas": "ବାସା",
          "bax": "bax",
          "bbc": "bbc",
          "bbj": "bbj",
          "be": "ବେଲାରୁଷିଆନ୍",
          "bej": "ବେଜା",
          "bem": "ବେମ୍ବା",
          "bew": "bew",
          "bez": "ବେନା",
          "bfd": "bfd",
          "bfq": "bfq",
          "bg": "ବୁଲଗେରିଆନ୍",
          "bho": "ଭୋଜପୁରୀ",
          "bi": "ବିସଲାମା",
          "bik": "ବିକୋଲ୍",
          "bin": "ବିନି",
          "bjn": "bjn",
          "bkm": "bkm",
          "bla": "ବିକ୍ସିକା",
          "bm": "ବାମ୍ବାରା",
          "bn": "ବଙ୍ଗାଳୀ",
          "bo": "ତିବେତାନ୍",
          "bpy": "bpy",
          "bqi": "bqi",
          "br": "ବ୍ରେଟନ୍",
          "bra": "ବ୍ରାଜ୍",
          "brh": "brh",
          "brx": "brx",
          "bs": "କାଟଲାନ୍",
          "bss": "bss",
          "bua": "ବୁରିଆଟ୍",
          "bug": "ବୁଗୀନୀଜ୍",
          "bum": "bum",
          "byn": "ବ୍ଲିନ୍",
          "byv": "byv",
          "ca": "କାଟାଲାନ୍",
          "cad": "କାଡୋ",
          "car": "କାରିବ୍",
          "cay": "cay",
          "cch": "ଆତ୍ସମ୍",
          "ce": "ଚେଚନ୍",
          "ceb": "ସୀବୁଆନୋ",
          "cgg": "cgg",
          "ch": "ଚାମୋରୋ",
          "chb": "ଚିବ୍ଚା",
          "chg": "ଛଗତାଇ",
          "chk": "ଚୁକୀସେ",
          "chm": "ମାରୀ",
          "chn": "ଚିନୁକ୍ ଜାରଗାଁନ୍",
          "cho": "ଚୋଟୱା",
          "chp": "ଚିପେୱାନ୍",
          "chr": "ଚେରୋକୀ",
          "chy": "ଚେଚେନା",
          "ckb": "ସୋରାନି କୁର୍ଦିଶ",
          "co": "କୋର୍ସିକାନ୍",
          "cop": "କପ୍ଟିକ୍",
          "cps": "cps",
          "cr": "କ୍ରୀ",
          "crh": "କ୍ରୀମିନ୍ ତୁର୍କୀସ୍",
          "cs": "ଚେକ୍",
          "csb": "କାଶୁବିଆନ୍",
          "cu": "ଚର୍ଚ୍ଚ ସ୍ଲାଭିକ୍",
          "cv": "ଚୁଭାଶ୍",
          "cy": "ୱେଲ୍ସ",
          "da": "ଡାନ୍ନିସ୍",
          "dak": "ଡାକୋଟା",
          "dar": "ଡାରାଗ୍ୱା",
          "dav": "dav",
          "de": "ଜର୍ମାନ୍",
          "de-AT": "ଅଷ୍ଟ୍ରିଆନ୍ ଜର୍ମାନ",
          "de-CH": "ସ୍ବିସ୍ ହାଇ ଜର୍ମାନ୍",
          "del": "ଡେଲାୱେର୍",
          "den": "ସ୍ଲେଭ୍",
          "dgr": "ଡୋଗ୍ରିବ୍",
          "din": "ଦିଙ୍କା",
          "dje": "dje",
          "doi": "ଡୋଗ୍ରୀ",
          "dsb": "ନିଚଳା ସର୍ବିଆନ୍",
          "dtp": "dtp",
          "dua": "ଡୁଆନା",
          "dum": "ମଧ୍ୟ ପର୍ତ୍ତୁଗାଲୀ",
          "dv": "ଡିଭେହୀ",
          "dyo": "dyo",
          "dyu": "ଡୁଆଲା",
          "dz": "ଭୂଟାନୀ",
          "dzg": "dzg",
          "ebu": "ebu",
          "ee": "ଇୱେ",
          "efi": "ଏଫିକ୍",
          "egl": "egl",
          "egy": "ପ୍ରାଚୀନ୍ ମିଶିରି",
          "eka": "ଏକାଜୁକ୍",
          "el": "ଗ୍ରୀକ୍",
          "elx": "ଏଲାମାଇଟ୍",
          "en": "ଇଂରାଜୀ",
          "en-AU": "ଅଷ୍ଟ୍ରେଲିଆନ୍ ଇଁରାଜୀ",
          "en-CA": "କାନାଡିଆନ୍ ଇଁରାଜୀ",
          "en-GB": "ବ୍ରିଟିଶ୍ ଇଁରାଜୀ",
          "en-GB-alt-short": "en_GB",
          "en-US": "ୟୁ.ଏସ୍. ଇଁରାଜୀ",
          "en-US-alt-short": "en_US",
          "enm": "ମଧ୍ୟ ଇଁରାଜୀ",
          "eo": "ଏସ୍ପାରେଣ୍ଟୋ",
          "es": "ସ୍ପାନିସ୍",
          "es-419": "ଲାଟିନ୍ ଆମେରିକାନ୍ ସ୍ପାନିଶ୍",
          "es-ES": "ଲେବେରିଆନ୍ ସ୍ପାନିଶ୍",
          "es-MX": "es_MX",
          "esu": "esu",
          "et": "ଏସ୍ତୋନିଆନ୍",
          "eu": "ବାସ୍କ୍ୱି",
          "ewo": "ଇୱୋଣ୍ଡୋ",
          "ext": "ext",
          "fa": "ପର୍ସିଆନ୍",
          "fan": "ଫାଙ୍ଗ",
          "fat": "ଫାଣ୍ଟି",
          "ff": "ଫୁଲାହ",
          "fi": "ଫିନ୍ନିସ୍",
          "fil": "ଫିଲିପିନୋ",
          "fit": "fit",
          "fj": "ଫିଜି",
          "fo": "ଫାରୋଏସେ",
          "fon": "ଫନ୍",
          "fr": "ଫ୍ରେଞ୍ଚ",
          "fr-CA": "କାନାଡିଆନ୍ ଫ୍ରେଞ୍ଚ",
          "fr-CH": "ସ୍ବିସ୍ ଫ୍ରେଞ୍ଚ୍",
          "frc": "frc",
          "frm": "ମଧ୍ୟ ଫ୍ରେଞ୍ଚ",
          "fro": "ପୁରୁଣା ଫ୍ରେଞ୍ଚ",
          "frp": "frp",
          "frr": "ଉତ୍ତର ଫ୍ରିସିୟାନ୍",
          "frs": "ପୂର୍ବ ଫ୍ରିସିୟାନ୍",
          "fur": "ଫ୍ରିୟୁଲୀୟାନ୍",
          "fy": "ପଶ୍ଚିମ ଫ୍ରିସିୟନ୍",
          "ga": "ଇରିସ୍",
          "gaa": "ଗା",
          "gag": "gag",
          "gan": "gan",
          "gay": "ଗାୟୋ",
          "gba": "ଗବାୟା",
          "gbz": "gbz",
          "gd": "ସ୍କଟିସ୍ ଗାଏଲିକ୍",
          "gez": "ଗୀଜ୍",
          "gil": "ଜିବ୍ରାଟୀଜ୍",
          "gl": "ଗାଲସିଆନ୍",
          "glk": "glk",
          "gmh": "ମିଡିଲ୍ ହାଇ ଜର୍ମାନ୍",
          "gn": "ଗୁଆରାନୀ",
          "goh": "ପୁରୁଣା ହାଇ ଜର୍ମାନ୍",
          "gom": "gom",
          "gon": "ଗୋଣ୍ଡି",
          "gor": "ଗୋରୋଣ୍ଟାଲୋ",
          "got": "ଗୋଥିକ୍",
          "grb": "ଗ୍ରେବୋ",
          "grc": "ପ୍ରାଚୀନ୍ ୟୁନାନୀ",
          "gsw": "ସ୍ବିସ୍ ଜର୍ମାନ୍",
          "gu": "ଗୁଜୁରାଟୀ",
          "guc": "guc",
          "gur": "gur",
          "guz": "guz",
          "gv": "ମାଁକ୍ସ",
          "gwi": "ସ୍ବିଚ୍ ଇନ୍",
          "ha": "ହୌସା",
          "hai": "ହାଇଡା",
          "hak": "hak",
          "haw": "ହାୱାଇନ୍",
          "he": "ହେବ୍ର୍ୟୁ",
          "hi": "ହିନ୍ଦୀ",
          "hif": "hif",
          "hil": "ହିଲିଗୈନନ୍",
          "hit": "ହିତୀତେ",
          "hmn": "ହଁଙ୍ଗ",
          "ho": "ହିରି ମୋଟୁ",
          "hr": "କ୍ରୋଆଟିଆନ୍",
          "hsb": "ଉପର ସର୍ବିଆନ୍",
          "hsn": "hsn",
          "ht": "ହୈତାୟିନ୍",
          "hu": "ହଙ୍ଗେରିଆନ୍",
          "hup": "ହୁପା",
          "hy": "ଆର୍ମେନିଆନ୍",
          "hz": "ହେରେରୋ",
          "ia": "ଇର୍ଣ୍ଟଲିଙ୍ଗୁଆ",
          "iba": "ଇବାନ୍",
          "ibb": "ibb",
          "id": "ଇଣ୍ଡୋନେସିଆନ୍",
          "ie": "ଇର୍ଣ୍ଟରଲିଙ୍ଗୁଇ",
          "ig": "ଇଗ୍ବୋ",
          "ii": "ସିଚୁଆନ୍ ୟୀ",
          "ik": "ଇନୁପିୟାକ୍",
          "ilo": "ଇଲୋକୋ",
          "inh": "ଇଁଙ୍ଗୁଶ୍",
          "io": "ଇଡୋ",
          "is": "ଆଇସଲାଣ୍ଡିକ୍",
          "it": "ଇଟାଲିଆନ୍",
          "iu": "ଇନକୀଟୁତ୍",
          "izh": "izh",
          "ja": "ଜାପାନୀଜ୍",
          "jam": "jam",
          "jbo": "ଲୋଜବାନ୍",
          "jgo": "jgo",
          "jmc": "jmc",
          "jpr": "ଜୁଡେଓ-ପର୍ସିଆନ୍",
          "jrb": "ଜୁଡେଓ-ଆରବୀକ୍",
          "jut": "jut",
          "jv": "ଜାଭାନୀଜ୍",
          "ka": "ଜର୍ଜିଆନ୍",
          "kaa": "କାରା-କଲ୍ପକ୍",
          "kab": "କବାଇଲ୍",
          "kac": "କଚିନ୍",
          "kaj": "ଜ୍ଜୁ",
          "kam": "କମ୍ବା",
          "kaw": "କାୱି",
          "kbd": "କାବାର୍ଡିଆନ୍",
          "kbl": "kbl",
          "kcg": "ତ୍ୟାପ୍",
          "kde": "kde",
          "kea": "kea",
          "ken": "ken",
          "kfo": "କୋରୋ",
          "kg": "କଙ୍ଗୋ",
          "kgp": "kgp",
          "kha": "ଖାସୀ",
          "kho": "ଖୋତାନୀଜ୍",
          "khq": "khq",
          "khw": "khw",
          "ki": "କୀକୁୟୁ",
          "kiu": "kiu",
          "kj": "କ୍ୱାନ୍ୟାମ୍",
          "kk": "କାଜାକ୍",
          "kkj": "kkj",
          "kl": "ଗ୍ରୀନଲାଣ୍ଡିକ୍",
          "kln": "kln",
          "km": "ଖ୍ମେର୍",
          "kmb": "କିମ୍ବୁଣ୍ଡୁ",
          "kn": "କନ୍ନଡ",
          "ko": "କୋରିଆନ୍",
          "koi": "koi",
          "kok": "କୋନକାନୀ",
          "kos": "କୋସରୈନ୍",
          "kpe": "କୈପେଲେ",
          "kr": "କନୁରୀ",
          "krc": "କରାଚୟ-ବଲ୍କାର",
          "kri": "kri",
          "krj": "krj",
          "krl": "କାରେଲିୟାନ୍",
          "kru": "କୁରୁଖ",
          "ks": "କାଶ୍ମିରୀ",
          "ksb": "ksb",
          "ksf": "ksf",
          "ksh": "ksh",
          "ku": "କୁର୍ଦ୍ଦିଶ୍",
          "kum": "କୁମୀକ୍",
          "kut": "କୁତେନାଉ",
          "kv": "କୋମି",
          "kw": "କୋର୍ନିସ୍",
          "ky": "କିରଗିଜ୍",
          "la": "ଲାଟିନ୍",
          "lad": "ଲାଦିନୋ",
          "lag": "lag",
          "lah": "ଲାହାଣ୍ଡା",
          "lam": "ଲାମ୍ବା",
          "lb": "ଲକ୍ସେମବର୍ଗିସ୍",
          "lez": "ଲେଜଗିୟାନ୍",
          "lfn": "lfn",
          "lg": "ଗନ୍ଦା",
          "li": "ଲିମ୍ବୁର୍ଗିସ୍",
          "lij": "lij",
          "liv": "liv",
          "lkt": "lkt",
          "lmo": "lmo",
          "ln": "ଲିଙ୍ଗାଲା",
          "lo": "ଲାଓ",
          "lol": "ମଙ୍ଗୋ",
          "loz": "ଲୋଜି",
          "lt": "ଲିଥୁଆନିଆନ୍",
          "ltg": "ltg",
          "lu": "ଲ୍ୟୁବା-କାଟାଙ୍ଗା",
          "lua": "ଲୁବା-ଲୁଲୁଆ",
          "lui": "ଲୁଇସେନୋ",
          "lun": "ଲୁଣ୍ଡା",
          "luo": "ଲୁଓ",
          "lus": "ଲୁସାଉ",
          "luy": "luy",
          "lv": "ଲାଟଭିଆନ୍",
          "lzh": "lzh",
          "lzz": "lzz",
          "mad": "ମାଦୁରୀସ୍",
          "maf": "maf",
          "mag": "ମାଗାହୀ",
          "mai": "ମୈଥିଳୀ",
          "mak": "ମକାସର୍",
          "man": "ମାଣ୍ଡିଙ୍ଗୋ",
          "mas": "ମାସାଇ",
          "mde": "mde",
          "mdf": "ମୋକ୍ଷ",
          "mdr": "ମନ୍ଦାର",
          "men": "ମେଣ୍ଡେ",
          "mer": "mer",
          "mfe": "mfe",
          "mg": "ମାଲାଗାସୀ",
          "mga": "ମଧ୍ୟ ଇରିଶ୍",
          "mgh": "mgh",
          "mgo": "mgo",
          "mh": "ମାର୍ଶାଲୀଜ୍",
          "mi": "ମାଓରୀ",
          "mic": "ମିକମୌକ୍",
          "min": "ମିନାଙ୍ଗାବାଉ",
          "mk": "ମାକଡୋନିଆନ୍",
          "ml": "ମାଲାୟଲମ୍",
          "mn": "ମଙ୍ଗୋଲିଆନ୍",
          "mnc": "ମାଞ୍ଚୁ",
          "mni": "ମଣିପୁରୀ",
          "moh": "ମୋହୌକ",
          "mos": "ମୋସି",
          "mr": "ମରାଠୀ",
          "mrj": "mrj",
          "ms": "ମାଲୟ",
          "mt": "ମାଲଟୀଜ୍",
          "mua": "mua",
          "mul": "ବିବିଧ ଭାଷାମାନ",
          "mus": "କ୍ରୀକ୍",
          "mwl": "ମିରାଣ୍ଡିଜ୍",
          "mwr": "ମାରୱାରୀ",
          "mwv": "mwv",
          "my": "ବର୍ମୀଜ୍",
          "mye": "mye",
          "myv": "ଏର୍ଜୟା",
          "mzn": "mzn",
          "na": "ନାଉରୁ",
          "nan": "nan",
          "nap": "ନୀପୋଲିଟାନ୍",
          "naq": "naq",
          "nb": "ନରୱେଜିଆନ୍ ବୋକମଲ୍",
          "nd": "ଉତ୍ତର ନେଡବେଲେ",
          "nds": "ଲୋ ଜର୍ମାନ୍",
          "ne": "ନେପାଳୀ",
          "new": "ନେୱାରୀ",
          "ng": "ଡୋଙ୍ଗା",
          "nia": "ନୀୟାସ୍",
          "niu": "ନିୟୁଆନ୍",
          "njo": "njo",
          "nl": "ଡଚ୍",
          "nl-BE": "ଫ୍ଲେମିଶ୍",
          "nmg": "nmg",
          "nn": "ନରୱେଜିଆନ୍ ନିୟୋର୍ସ୍କ",
          "nnh": "nnh",
          "no": "ନରୱେଜିଆନ୍",
          "nog": "ନୋଗାଇ",
          "non": "ପୁରୁଣା ନର୍ସ",
          "nov": "nov",
          "nqo": "ଏନ୍କୋ",
          "nr": "ଦକ୍ଷିଣ ନେଡବେଲେ",
          "nso": "ଉତ୍ତରୀ ସୋଥୋ",
          "nus": "nus",
          "nv": "ନାଭାଜୋ",
          "nwc": "ପାରମ୍ପରିକ ନେୱାରୀ",
          "ny": "ନିୟାଞ୍ଜ",
          "nym": "ନ୍ୟାମୱେଜୀ",
          "nyn": "ନ୍ୟାନକୋଲ୍",
          "nyo": "ନ୍ୟାରୋ",
          "nzi": "ଞ୍ଜିମା",
          "oc": "ଓସିଟାନ୍",
          "oj": "ଓଜିୱା",
          "om": "ଓରୋମୋ",
          "or": "ଓଡ଼ିଆ",
          "os": "ଓସେଟିକ୍",
          "osa": "ୱୌସେଜ୍",
          "ota": "ଓଟ୍ଟୋମନ୍ ତୁର୍କିସ୍",
          "pa": "ପଞ୍ଜାବୀ",
          "pag": "ପାଙ୍ଗାସିନିଆନ୍",
          "pal": "ପାହ୍ଲାଭି",
          "pam": "ପାମ୍ପାଙ୍ଗା",
          "pap": "ପାପିୟାମିଣ୍ଟୋ",
          "pau": "ପାଲାଉଆନ୍",
          "pcd": "pcd",
          "pdc": "pdc",
          "pdt": "pdt",
          "peo": "ପୁରୁଣା ପର୍ସିଆନ୍",
          "pfl": "pfl",
          "phn": "ଫୋନେସିଆନ୍",
          "pi": "ପାଲି",
          "pl": "ପୋଲିଶ୍",
          "pms": "pms",
          "pnt": "pnt",
          "pon": "ପୋହପିଏନ୍",
          "prg": "prg",
          "pro": "ପୁରୁଣା ପ୍ରେଭେନେସିଆଲ୍",
          "ps": "ପାସ୍ତୋ",
          "pt": "ପର୍ତ୍ତୁଗ୍ରୀଜ୍",
          "pt-BR": "ବ୍ରାଜିଲିଆନ୍ ପର୍ତ୍ତୁଗୀଜ୍",
          "pt-PT": "ଲେବେରିଆନ୍ ପର୍ତ୍ତୁଗୀଜ୍",
          "qu": "କ୍ୱେଚୁଆ",
          "quc": "quc",
          "qug": "qug",
          "raj": "ରାଜସ୍ଥାନୀ",
          "rap": "ରାପାନୁଇ",
          "rar": "ରାରୋତୋଙ୍ଗନ୍",
          "rgn": "rgn",
          "rif": "rif",
          "rm": "ରେହେଟୋ-ରୋମାନ୍ସ",
          "rn": "ରୁଣ୍ଡି",
          "ro": "ରୋମାନିଆନ୍",
          "ro-MD": "ମୋଲଡୋଭିଆନ୍",
          "rof": "ରୋମ୍ବୋ",
          "rom": "ରୋମାନି",
          "root": "ମୂଳ",
          "rtm": "rtm",
          "ru": "ରଷିଆନ୍",
          "rue": "rue",
          "rug": "rug",
          "rup": "ଆରୋମାନିଆନ୍",
          "rw": "କିନ୍ୟାରୱାଣ୍ଡା",
          "rwk": "rwk",
          "sa": "ସଂସ୍କୃତ",
          "sad": "ସଣ୍ଡାୱେ",
          "sah": "ୟାକୁଟ୍",
          "sam": "ସାମୌରିଟନ୍ ଆରମାଇକ୍",
          "saq": "saq",
          "sas": "ସାସାକ୍",
          "sat": "ସାନ୍ତାଳି",
          "saz": "saz",
          "sba": "sba",
          "sbp": "sbp",
          "sc": "ସର୍ଦିନିଆନ୍",
          "scn": "ସିଶିଲିଆନ୍",
          "sco": "ସ୍କଟସ୍",
          "sd": "ସିନ୍ଧୀ",
          "sdc": "sdc",
          "se": "ଉତ୍ତର ସାମି",
          "see": "see",
          "seh": "seh",
          "sei": "sei",
          "sel": "ସେଲ୍କପ୍",
          "ses": "ses",
          "sg": "ସାଙ୍ଗୋ",
          "sga": "ପୁରୁଣା ଇରିଶ୍",
          "sgs": "sgs",
          "sh": "ସର୍ବୋ-କ୍ରୋଆଟିଆନ୍",
          "shi": "shi",
          "shn": "ଶାନ୍",
          "shu": "shu",
          "si": "ସିଂହଳ",
          "sid": "ସିଦାମୋ",
          "sk": "ସ୍ଲୋଭାକ୍",
          "sl": "ସ୍ଲୋଭେନିଆନ୍",
          "sli": "sli",
          "sly": "sly",
          "sm": "ସାମୋଆନ୍",
          "sma": "ଦକ୍ଷିଣ ସାମି",
          "smj": "ଲୁଲେ ସାମି",
          "smn": "ଇନାରୀ ସାମି",
          "sms": "ସ୍କୋଲ୍ଟ ସାମୀ",
          "sn": "ଶୋନା",
          "snk": "ସୋନିଙ୍କେ",
          "so": "ସୋମାଲିଆ",
          "sog": "ସୋଗଡିଏନ୍",
          "sq": "ଆଲବାନିଆନ୍",
          "sr": "ସର୍ବିଆନ୍",
          "srn": "ଶାରାନା ଟୋଙ୍ଗୋ",
          "srr": "ଶେରେର୍",
          "ss": "ସ୍ବାତୀ",
          "ssy": "ssy",
          "st": "ସେସୋଥୋ",
          "stq": "stq",
          "su": "ସୁଦାନୀଜ୍",
          "suk": "ସୁକୁମା",
          "sus": "ଶୁଶୁ",
          "sux": "ସୁମେରିଆନ୍",
          "sv": "ସ୍ୱେଡିସ୍",
          "sw": "ସ୍ୱାହିଲ୍",
          "swb": "swb",
          "swc": "swc",
          "syc": "କ୍ଲାସିକାଲ୍ ସିରିକ୍",
          "syr": "ସିରିକ୍",
          "szl": "szl",
          "ta": "ତାମିଲ୍",
          "tcy": "tcy",
          "te": "ତେଲୁଗୁ",
          "tem": "ତିମନେ",
          "teo": "teo",
          "ter": "ତେରେନୋ",
          "tet": "ତେତୁମ୍",
          "tg": "ତାଜିକ୍",
          "th": "ଥାଇ",
          "ti": "ଟ୍ରିଗିନିଆ",
          "tig": "ଟାଇଗ୍ରେ",
          "tiv": "ତୀଭ୍",
          "tk": "ତୁର୍କମେନ୍",
          "tkl": "ଟୋକେଲାଉ",
          "tkr": "tkr",
          "tl": "ଟାଗାଲଗ୍",
          "tlh": "କ୍ଲିଙ୍ଗନ୍",
          "tli": "ତ୍ଲିଙ୍ଗିଟ୍",
          "tly": "tly",
          "tmh": "ତାମାଶେକ୍",
          "tn": "ସେସ୍ବାନା",
          "to": "ଟୋଙ୍ଗା",
          "tog": "ନ୍ୟାସା ଟୋଙ୍ଗୋ",
          "tpi": "ଟୋକ୍ ପିସିନ୍",
          "tr": "ତୁର୍କିସ୍",
          "tru": "tru",
          "trv": "trv",
          "ts": "ସୋଂଗା",
          "tsd": "tsd",
          "tsi": "ତିସିମିସିଆନ୍",
          "tt": "ତାତାର୍",
          "ttt": "ttt",
          "tum": "ଟୁମ୍ବୁକା",
          "tvl": "ତୁଭାଲୁ",
          "tw": "ତ୍ୱି",
          "twq": "twq",
          "ty": "ତାହିତିଆନ୍",
          "tyv": "ତୁଭିନିଆନ୍",
          "tzm": "tzm",
          "udm": "ଉଦମୂର୍ତ୍ତ",
          "ug": "ୟୁଘୁର୍",
          "uga": "ୟୁଗୋରଟିକ୍",
          "uk": "ୟୁକ୍ରାନିଆନ୍",
          "umb": "ଉମ୍ବୁଣ୍ଡୁ",
          "und": "ଅଜଣା ଏବଂ ଅବୈଧ ଭାଷା",
          "ur": "ଉର୍ଦ୍ଦୁ",
          "uz": "ଉଜବେକ୍",
          "vai": "ଭାଇ",
          "ve": "ଭେଣ୍ଡା",
          "vec": "vec",
          "vep": "vep",
          "vi": "ଭିଏତନାମିଜ୍",
          "vls": "vls",
          "vmf": "vmf",
          "vo": "ବୋଲାପୁକ",
          "vot": "ଭୋଟିକ୍",
          "vro": "vro",
          "vun": "vun",
          "wa": "ୱାଲୁନ୍",
          "wae": "wae",
          "wal": "ୱାଲମୋ",
          "war": "ୱାରୈ",
          "was": "ୱାସୋ",
          "wo": "ୱୋଲଫ୍",
          "wuu": "wuu",
          "xal": "କାଲ୍ମୀକ୍",
          "xh": "ଖୋସା",
          "xmf": "xmf",
          "xog": "xog",
          "yao": "ୟାଓ",
          "yap": "ୟାପୀସ୍",
          "yav": "yav",
          "ybb": "ybb",
          "yi": "ୟିଡିସ୍",
          "yo": "ୟୋରୁବା",
          "yrl": "yrl",
          "yue": "yue",
          "za": "ଜୁଆଙ୍ଗ",
          "zap": "ଜାପୋଟେକ୍",
          "zbl": "ବ୍ଲିସିମ୍ବଲସ୍",
          "zea": "zea",
          "zen": "ଜେନାଗା",
          "zgh": "zgh",
          "zh": "ଚାଇନୀଜ୍",
          "zh-Hans": "ସରଳିକରଣ ଚାଇନୀଜ୍",
          "zh-Hant": "ପାରମ୍ପରିକ ଚାଇନୀଜ୍",
          "zu": "ଜୁଲୁ",
          "zun": "ଜୁନୀ",
          "zxx": "କୌଣସି ଲିଙ୍ଗୁଇଷ୍ଟ ସାମଗ୍ରୀ ନାହିଁ",
          "zza": "ଜାଜା"
        }
      }
    }
  }
}
