{
  "main": {
    "fur-IT": {
      "identity": {
        "version": {
          "_cldrVersion": "26",
          "_number": "$Revision: 10669 $"
        },
        "generation": {
          "_date": "$Date: 2014-07-23 16:10:33 -0500 (Wed, 23 Jul 2014) $"
        },
        "language": "fur",
        "territory": "IT"
      },
      "dates": {
        "calendars": {
          "islamic-rgsa": {
            "months": {
              "format": {
                "abbreviated": {
                  "1": "Muh.",
                  "2": "Saf.",
                  "3": "Rab. I",
                  "4": "Rab. II",
                  "5": "Jum. I",
                  "6": "Jum. II",
                  "7": "Raj.",
                  "8": "Sha.",
                  "9": "Ram.",
                  "10": "Shaw.",
                  "11": "Dhuʻl-Q.",
                  "12": "Dhuʻl-H."
                },
                "narrow": {
                  "1": "1",
                  "2": "2",
                  "3": "3",
                  "4": "4",
                  "5": "5",
                  "6": "6",
                  "7": "7",
                  "8": "8",
                  "9": "9",
                  "10": "10",
                  "11": "11",
                  "12": "12"
                },
                "wide": {
                  "1": "Muharram",
                  "2": "Safar",
                  "3": "Rabiʻ I",
                  "4": "Rabiʻ II",
                  "5": "Jumada I",
                  "6": "Jumada II",
                  "7": "Rajab",
                  "8": "Shaʻban",
                  "9": "Ramadan",
                  "10": "Shawwal",
                  "11": "Dhuʻl-Qiʻdah",
                  "12": "Dhuʻl-Hijjah"
                }
              },
              "stand-alone": {
                "abbreviated": {
                  "1": "Muh.",
                  "2": "Saf.",
                  "3": "Rab. I",
                  "4": "Rab. II",
                  "5": "Jum. I",
                  "6": "Jum. II",
                  "7": "Raj.",
                  "8": "Sha.",
                  "9": "Ram.",
                  "10": "Shaw.",
                  "11": "Dhuʻl-Q.",
                  "12": "Dhuʻl-H."
                },
                "narrow": {
                  "1": "1",
                  "2": "2",
                  "3": "3",
                  "4": "4",
                  "5": "5",
                  "6": "6",
                  "7": "7",
                  "8": "8",
                  "9": "9",
                  "10": "10",
                  "11": "11",
                  "12": "12"
                },
                "wide": {
                  "1": "Muharram",
                  "2": "Safar",
                  "3": "Rabiʻ I",
                  "4": "Rabiʻ II",
                  "5": "Jumada I",
                  "6": "Jumada II",
                  "7": "Rajab",
                  "8": "Shaʻban",
                  "9": "Ramadan",
                  "10": "Shawwal",
                  "11": "Dhuʻl-Qiʻdah",
                  "12": "Dhuʻl-Hijjah"
                }
              }
            },
            "days": {
              "format": {
                "abbreviated": {
                  "sun": "dom",
                  "mon": "lun",
                  "tue": "mar",
                  "wed": "mie",
                  "thu": "joi",
                  "fri": "vin",
                  "sat": "sab"
                },
                "narrow": {
                  "sun": "D",
                  "mon": "L",
                  "tue": "M",
                  "wed": "M",
                  "thu": "J",
                  "fri": "V",
                  "sat": "S"
                },
                "short": {
                  "sun": "dom",
                  "mon": "lun",
                  "tue": "mar",
                  "wed": "mie",
                  "thu": "joi",
                  "fri": "vin",
                  "sat": "sab"
                },
                "wide": {
                  "sun": "domenie",
                  "mon": "lunis",
                  "tue": "martars",
                  "wed": "miercus",
                  "thu": "joibe",
                  "fri": "vinars",
                  "sat": "sabide"
                }
              },
              "stand-alone": {
                "abbreviated": {
                  "sun": "dom",
                  "mon": "lun",
                  "tue": "mar",
                  "wed": "mie",
                  "thu": "joi",
                  "fri": "vin",
                  "sat": "sab"
                },
                "narrow": {
                  "sun": "D",
                  "mon": "L",
                  "tue": "M",
                  "wed": "M",
                  "thu": "J",
                  "fri": "V",
                  "sat": "S"
                },
                "short": {
                  "sun": "dom",
                  "mon": "lun",
                  "tue": "mar",
                  "wed": "mie",
                  "thu": "joi",
                  "fri": "vin",
                  "sat": "sab"
                },
                "wide": {
                  "sun": "domenie",
                  "mon": "lunis",
                  "tue": "martars",
                  "wed": "miercus",
                  "thu": "joibe",
                  "fri": "vinars",
                  "sat": "sabide"
                }
              }
            },
            "quarters": {
              "format": {
                "abbreviated": {
                  "1": "T1",
                  "2": "T2",
                  "3": "T3",
                  "4": "T4"
                },
                "narrow": {
                  "1": "1",
                  "2": "2",
                  "3": "3",
                  "4": "4"
                },
                "wide": {
                  "1": "Prin trimestri",
                  "2": "Secont trimestri",
                  "3": "Tierç trimestri",
                  "4": "Cuart trimestri"
                }
              },
              "stand-alone": {
                "abbreviated": {
                  "1": "T1",
                  "2": "T2",
                  "3": "T3",
                  "4": "T4"
                },
                "narrow": {
                  "1": "1",
                  "2": "2",
                  "3": "3",
                  "4": "4"
                },
                "wide": {
                  "1": "Prin trimestri",
                  "2": "Secont trimestri",
                  "3": "Tierç trimestri",
                  "4": "Cuart trimestri"
                }
              }
            },
            "dayPeriods": {
              "format": {
                "abbreviated": {
                  "am": "a.",
                  "noon": "noon",
                  "pm": "p."
                },
                "narrow": {
                  "am": "a",
                  "noon": "n",
                  "pm": "p"
                },
                "wide": {
                  "am": "a.",
                  "noon": "noon",
                  "pm": "p."
                }
              },
              "stand-alone": {
                "abbreviated": {
                  "am": "a.",
                  "noon": "noon",
                  "pm": "p."
                },
                "narrow": {
                  "am": "a",
                  "noon": "n",
                  "pm": "p"
                },
                "wide": {
                  "am": "a.",
                  "noon": "noon",
                  "pm": "p."
                }
              }
            },
            "eras": {
              "eraNames": {
                "0": "AH"
              },
              "eraAbbr": {
                "0": "AH"
              },
              "eraNarrow": {
                "0": "AH"
              }
            },
            "dateFormats": {
              "full": "EEEE d 'di' MMMM 'dal' y G",
              "long": "d 'di' MMMM 'dal' y G",
              "medium": "dd/MM/y G",
              "short": "dd/MM/yy GGGGG"
            },
            "timeFormats": {
              "full": "HH:mm:ss zzzz",
              "long": "HH:mm:ss z",
              "medium": "HH:mm:ss",
              "short": "HH:mm"
            },
            "dateTimeFormats": {
              "full": "{1} {0}",
              "long": "{1} {0}",
              "medium": "{1} {0}",
              "short": "{1} {0}",
              "availableFormats": {
                "E": "ccc",
                "EHm": "E HH:mm",
                "EHms": "E HH:mm:ss",
                "Ed": "d E",
                "Ehm": "E h:mm a",
                "Ehms": "E h:mm:ss a",
                "Gy": "G y",
                "GyMMM": "G y MMM",
                "GyMMMEd": "G y MMM d, E",
                "GyMMMd": "G y MMM d",
                "H": "HH",
                "Hm": "H:mm",
                "Hms": "HH:mm:ss",
                "M": "L",
                "MEd": "E d/M",
                "MMM": "LLL",
                "MMMEd": "E d MMM",
                "MMMMEd": "E d MMMM",
                "MMMMd": "d 'di' MMMM",
                "MMMd": "d MMM",
                "MMd": "d/MM",
                "Md": "d/M",
                "d": "d",
                "h": "h a",
                "hm": "h:mm a",
                "hms": "h:mm:ss a",
                "ms": "mm:ss",
                "y": "y",
                "yM": "M/y",
                "yMEd": "E, d/M/y",
                "yMMM": "MMM y",
                "yMMMEd": "E d MMM y",
                "yMMMM": "LLLL 'dal' y",
                "yQQQ": "QQQ y",
                "yQQQQ": "QQQQ y",
                "yyyy": "G y",
                "yyyyM": "GGGGG y-MM",
                "yyyyMEd": "GGGGG y-MM-dd, E",
                "yyyyMMM": "G y MMM",
                "yyyyMMMEd": "G y MMM d, E",
                "yyyyMMMd": "G y MMM d",
                "yyyyMd": "GGGGG y-MM-dd",
                "yyyyQQQ": "G y QQQ",
                "yyyyQQQQ": "G y QQQQ"
              },
              "appendItems": {
                "Day": "{0} ({2}: {1})",
                "Day-Of-Week": "{0} {1}",
                "Era": "{1} {0}",
                "Hour": "{0} ({2}: {1})",
                "Minute": "{0} ({2}: {1})",
                "Month": "{0} ({2}: {1})",
                "Quarter": "{0} ({2}: {1})",
                "Second": "{0} ({2}: {1})",
                "Timezone": "{0} {1}",
                "Week": "{0} ({2}: {1})",
                "Year": "{1} {0}"
              },
              "intervalFormats": {
                "intervalFormatFallback": "{0} – {1}",
                "H": {
                  "H": "HH-HH"
                },
                "Hm": {
                  "H": "HH:mm-HH:mm",
                  "m": "HH:mm-HH:mm"
                },
                "Hmv": {
                  "H": "HH:mm-HH:mm v",
                  "m": "HH:mm-HH:mm v"
                },
                "Hv": {
                  "H": "HH-HH v"
                },
                "M": {
                  "M": "M-M"
                },
                "MEd": {
                  "M": "E dd/MM - E dd/MM",
                  "d": "E dd/MM - E dd/MM"
                },
                "MMM": {
                  "M": "LLL-LLL"
                },
                "MMMEd": {
                  "M": "E d 'di' MMM - E d 'di' MMM",
                  "d": "E d - E d 'di' MMM"
                },
                "MMMd": {
                  "M": "d 'di' MMM - d 'di' MMM",
                  "d": "d-d 'di' MMM"
                },
                "Md": {
                  "M": "dd/MM - dd/MM",
                  "d": "dd/MM - dd/MM"
                },
                "d": {
                  "d": "d-d"
                },
                "h": {
                  "a": "h a - h a",
                  "h": "h-h a"
                },
                "hm": {
                  "a": "h:mm a - h:mm a",
                  "h": "h:mm-h:mm a",
                  "m": "h:mm-h:mm a"
                },
                "hmv": {
                  "a": "h:mm a - h:mm a v",
                  "h": "h:mm-h:mm a v",
                  "m": "h:mm-h:mm a v"
                },
                "hv": {
                  "a": "h a - h a v",
                  "h": "h-h a v"
                },
                "y": {
                  "y": "y-y"
                },
                "yM": {
                  "M": "MM/y - MM/y",
                  "y": "MM/y - MM/y"
                },
                "yMEd": {
                  "M": "E dd/MM/y - E dd/MM/y",
                  "d": "E dd/MM/y - E dd/MM/y",
                  "y": "E dd/MM/y - E dd/MM/y"
                },
                "yMMM": {
                  "M": "MM - MM/y",
                  "y": "MM/y - MM/y"
                },
                "yMMMEd": {
                  "M": "E dd/MM/y - E dd/MM/y",
                  "d": "E dd/MM/y - E dd/MM/y",
                  "y": "E dd/MM/y - E dd/MM/y"
                },
                "yMMMM": {
                  "M": "MM - MM/y",
                  "y": "MM/y - MM/y"
                },
                "yMMMd": {
                  "M": "dd/MM/y - d/MM",
                  "d": "d - d/MM/y",
                  "y": "dd/MM/y - dd/MM/y"
                },
                "yMd": {
                  "M": "dd/MM/y - dd/MM/y",
                  "d": "dd/MM/y - dd/MM/y",
                  "y": "dd/MM/y - dd/MM/y"
                }
              }
            }
          }
        }
      }
    }
  }
}
