{
  "main": {
    "sr-Latn-BA": {
      "identity": {
        "version": {
          "_cldrVersion": "26",
          "_number": "$Revision: 10820 $"
        },
        "generation": {
          "_date": "$Date: 2014-08-14 23:26:58 -0500 (Thu, 14 Aug 2014) $"
        },
        "language": "root",
        "script": "Latn",
        "territory": "BA"
      },
      "localeDisplayNames": {
        "transformNames": {
          "BGN": "BGN (BGN)",
          "Numeric": "Numerička",
          "Tone": "Ton",
          "UNGEGN": "UNGEGN (BGN)",
          "x-Accents": "Akcenti",
          "x-Fullwidth": "puna širina",
          "x-Halfwidth": "pola širine",
          "x-Jamo": "Džamo",
          "x-Pinyin": "Pinjin",
          "x-Publishing": "Izdavački"
        }
      }
    }
  }
}
