{
  "main": {
    "dsb-DE": {
      "identity": {
        "version": {
          "_cldrVersion": "26",
          "_number": "$Revision: 10671 $"
        },
        "generation": {
          "_date": "$Date: 2014-07-23 17:52:33 -0500 (Wed, 23 Jul 2014) $"
        },
        "language": "dsb",
        "territory": "DE"
      },
      "delimiters": {
        "quotationStart": "„",
        "quotationEnd": "“",
        "alternateQuotationStart": "‚",
        "alternateQuotationEnd": "‘"
      }
    }
  }
}
