{
  "main": {
    "hsb-DE": {
      "identity": {
        "version": {
          "_cldrVersion": "26",
          "_number": "$Revision: 10671 $"
        },
        "generation": {
          "_date": "$Date: 2014-07-23 17:52:33 -0500 (Wed, 23 Jul 2014) $"
        },
        "language": "hsb",
        "territory": "DE"
      },
      "dates": {
        "calendars": {
          "coptic": {
            "months": {
              "format": {
                "abbreviated": {
                  "1": "Tout",
                  "2": "Baba",
                  "3": "Hator",
                  "4": "Kiahk",
                  "5": "Toba",
                  "6": "Amshir",
                  "7": "Baramhat",
                  "8": "Baramouda",
                  "9": "Bashans",
                  "10": "Paona",
                  "11": "Epep",
                  "12": "Mesra",
                  "13": "Nasie"
                },
                "narrow": {
                  "1": "1",
                  "2": "2",
                  "3": "3",
                  "4": "4",
                  "5": "5",
                  "6": "6",
                  "7": "7",
                  "8": "8",
                  "9": "9",
                  "10": "10",
                  "11": "11",
                  "12": "12",
                  "13": "13"
                },
                "wide": {
                  "1": "Tout",
                  "2": "Baba",
                  "3": "Hator",
                  "4": "Kiahk",
                  "5": "Toba",
                  "6": "Amshir",
                  "7": "Baramhat",
                  "8": "Baramouda",
                  "9": "Bashans",
                  "10": "Paona",
                  "11": "Epep",
                  "12": "Mesra",
                  "13": "Nasie"
                }
              },
              "stand-alone": {
                "abbreviated": {
                  "1": "Tout",
                  "2": "Baba",
                  "3": "Hator",
                  "4": "Kiahk",
                  "5": "Toba",
                  "6": "Amshir",
                  "7": "Baramhat",
                  "8": "Baramouda",
                  "9": "Bashans",
                  "10": "Paona",
                  "11": "Epep",
                  "12": "Mesra",
                  "13": "Nasie"
                },
                "narrow": {
                  "1": "1",
                  "2": "2",
                  "3": "3",
                  "4": "4",
                  "5": "5",
                  "6": "6",
                  "7": "7",
                  "8": "8",
                  "9": "9",
                  "10": "10",
                  "11": "11",
                  "12": "12",
                  "13": "13"
                },
                "wide": {
                  "1": "Tout",
                  "2": "Baba",
                  "3": "Hator",
                  "4": "Kiahk",
                  "5": "Toba",
                  "6": "Amshir",
                  "7": "Baramhat",
                  "8": "Baramouda",
                  "9": "Bashans",
                  "10": "Paona",
                  "11": "Epep",
                  "12": "Mesra",
                  "13": "Nasie"
                }
              }
            },
            "days": {
              "format": {
                "abbreviated": {
                  "sun": "nje",
                  "mon": "pón",
                  "tue": "wut",
                  "wed": "srj",
                  "thu": "štw",
                  "fri": "pja",
                  "sat": "sob"
                },
                "narrow": {
                  "sun": "n",
                  "mon": "p",
                  "tue": "w",
                  "wed": "s",
                  "thu": "š",
                  "fri": "p",
                  "sat": "s"
                },
                "short": {
                  "sun": "nj",
                  "mon": "pó",
                  "tue": "wu",
                  "wed": "sr",
                  "thu": "št",
                  "fri": "pj",
                  "sat": "so"
                },
                "wide": {
                  "sun": "njedźela",
                  "mon": "póndźela",
                  "tue": "wutora",
                  "wed": "srjeda",
                  "thu": "štwórtk",
                  "fri": "pjatk",
                  "sat": "sobota"
                }
              },
              "stand-alone": {
                "abbreviated": {
                  "sun": "nje",
                  "mon": "pón",
                  "tue": "wut",
                  "wed": "srj",
                  "thu": "štw",
                  "fri": "pja",
                  "sat": "sob"
                },
                "narrow": {
                  "sun": "n",
                  "mon": "p",
                  "tue": "w",
                  "wed": "s",
                  "thu": "š",
                  "fri": "p",
                  "sat": "s"
                },
                "short": {
                  "sun": "nj",
                  "mon": "pó",
                  "tue": "wu",
                  "wed": "sr",
                  "thu": "št",
                  "fri": "pj",
                  "sat": "so"
                },
                "wide": {
                  "sun": "njedźela",
                  "mon": "póndźela",
                  "tue": "wutora",
                  "wed": "srjeda",
                  "thu": "štwórtk",
                  "fri": "pjatk",
                  "sat": "sobota"
                }
              }
            },
            "quarters": {
              "format": {
                "abbreviated": {
                  "1": "Q1",
                  "2": "Q2",
                  "3": "Q3",
                  "4": "Q4"
                },
                "narrow": {
                  "1": "1",
                  "2": "2",
                  "3": "3",
                  "4": "4"
                },
                "wide": {
                  "1": "1. kwartal",
                  "2": "2. kwartal",
                  "3": "3. kwartal",
                  "4": "4. kwartal"
                }
              },
              "stand-alone": {
                "abbreviated": {
                  "1": "Q1",
                  "2": "Q2",
                  "3": "Q3",
                  "4": "Q4"
                },
                "narrow": {
                  "1": "1",
                  "2": "2",
                  "3": "3",
                  "4": "4"
                },
                "wide": {
                  "1": "1. kwartal",
                  "2": "2. kwartal",
                  "3": "3. kwartal",
                  "4": "4. kwartal"
                }
              }
            },
            "dayPeriods": {
              "format": {
                "abbreviated": {
                  "am": "dopołdnja",
                  "noon": "připołdnju",
                  "pm": "popołdnju"
                },
                "narrow": {
                  "am": "dop.",
                  "noon": "připołd.",
                  "pm": "pop."
                },
                "wide": {
                  "am": "dopołdnja",
                  "noon": "připołdnju",
                  "pm": "popołdnju"
                }
              },
              "stand-alone": {
                "abbreviated": {
                  "am": "dopołdnja",
                  "noon": "připołdnju",
                  "pm": "popołdnju"
                },
                "narrow": {
                  "am": "dop.",
                  "noon": "připołd.",
                  "pm": "pop."
                },
                "wide": {
                  "am": "dopołdnja",
                  "noon": "připołdnju",
                  "pm": "popołdnju"
                }
              }
            },
            "eras": {
              "eraNames": {
                "0": "ERA0",
                "1": "ERA1"
              },
              "eraAbbr": {
                "0": "ERA0",
                "1": "ERA1"
              },
              "eraNarrow": {
                "0": "ERA0",
                "1": "ERA1"
              }
            },
            "dateFormats": {
              "full": "EEEE, d. MMMM y G",
              "long": "d. MMMM y G",
              "medium": "d.M.y G",
              "short": "d.M.yy GGGGG"
            },
            "timeFormats": {
              "full": "H:mm:ss zzzz",
              "long": "H:mm:ss z",
              "medium": "H:mm:ss",
              "short": "H:mm 'hodź'."
            },
            "dateTimeFormats": {
              "full": "{1} {0}",
              "long": "{1} {0}",
              "medium": "{1} {0}",
              "short": "{1} {0}",
              "availableFormats": {
                "E": "ccc",
                "EHm": "E HH:mm",
                "EHms": "E HH:mm:ss",
                "Ed": "E, d.",
                "Ehm": "E h:mm a",
                "Ehms": "E h:mm:ss a",
                "Gy": "y G",
                "GyMMM": "MMM y G",
                "GyMMMEd": "E, d. MMM y G",
                "GyMMMd": "d. MMM y G",
                "H": "HH",
                "Hm": "HH:mm",
                "Hms": "HH:mm:ss",
                "M": "L",
                "MEd": "E, d.M.",
                "MMM": "LLL",
                "MMMEd": "E, d. MMM",
                "MMMd": "d. MMM",
                "Md": "d.M.",
                "d": "d",
                "h": "h a",
                "hm": "h:mm a",
                "hms": "h:mm:ss a",
                "ms": "mm:ss",
                "y": "y G",
                "yyyy": "y G",
                "yyyyM": "M.y GGGGG",
                "yyyyMEd": "E, d.M.y GGGGG",
                "yyyyMMM": "MMM y G",
                "yyyyMMMEd": "E, d. MMM y G",
                "yyyyMMMd": "d. MMM y G",
                "yyyyMd": "d.M.y GGGGG",
                "yyyyQQQ": "QQQ y G",
                "yyyyQQQQ": "QQQQ y G"
              },
              "appendItems": {
                "Day": "{0} ({2}: {1})",
                "Day-Of-Week": "{0} {1}",
                "Era": "{1} {0}",
                "Hour": "{0} ({2}: {1})",
                "Minute": "{0} ({2}: {1})",
                "Month": "{0} ({2}: {1})",
                "Quarter": "{0} ({2}: {1})",
                "Second": "{0} ({2}: {1})",
                "Timezone": "{0} {1}",
                "Week": "{0} ({2}: {1})",
                "Year": "{1} {0}"
              },
              "intervalFormats": {
                "intervalFormatFallback": "{0} – {1}",
                "H": {
                  "H": "HH–HH"
                },
                "Hm": {
                  "H": "HH:mm–HH:mm",
                  "m": "HH:mm–HH:mm"
                },
                "Hmv": {
                  "H": "HH:mm–HH:mm v",
                  "m": "HH:mm–HH:mm v"
                },
                "Hv": {
                  "H": "HH–HH v"
                },
                "M": {
                  "M": "M. – M."
                },
                "MEd": {
                  "M": "E, d.M. – E, d.M.",
                  "d": "E, d.M. – E, d.M."
                },
                "MMM": {
                  "M": "LLL – LLL"
                },
                "MMMEd": {
                  "M": "E, d. MMM – E, d. MMM",
                  "d": "E, d. – E, d. MMM"
                },
                "MMMd": {
                  "M": "d. MMM – d. MMM",
                  "d": "d. – d. MMM"
                },
                "Md": {
                  "M": "d.M. – d.M.",
                  "d": "d.M. – d.M."
                },
                "d": {
                  "d": "d. – d."
                },
                "h": {
                  "a": "h a – h a",
                  "h": "h–h a"
                },
                "hm": {
                  "a": "h:mm a – h:mm a",
                  "h": "h:mm–h:mm a",
                  "m": "h:mm–h:mm a"
                },
                "hmv": {
                  "a": "h:mm a – h:mm a v",
                  "h": "h:mm–h:mm a v",
                  "m": "h:mm–h:mm a v"
                },
                "hv": {
                  "a": "h a – h a v",
                  "h": "h–h a v"
                },
                "y": {
                  "y": "y–y G"
                },
                "yM": {
                  "M": "M.y – M.y G",
                  "y": "M.y – M.y G"
                },
                "yMEd": {
                  "M": "E, d.M.y – E, d.M.y G",
                  "d": "E, d.M.y – E, d.M.y G",
                  "y": "E, d.M.y – E, d.M.y G"
                },
                "yMMM": {
                  "M": "LLL – LLL y G",
                  "y": "LLL y – LLL y G"
                },
                "yMMMEd": {
                  "M": "E, d. MMM – E, d. MMM y G",
                  "d": "E, d. – E, d. MMM y G",
                  "y": "E, d. MMM y – E, d. MMM y G"
                },
                "yMMMM": {
                  "M": "LLLL – LLLL y G",
                  "y": "LLLL y – LLLL y G"
                },
                "yMMMd": {
                  "M": "d. MMM – d. MMM y G",
                  "d": "d. – d. MMM y G",
                  "y": "d. MMM y – d. MMM y G"
                },
                "yMd": {
                  "M": "d.M.y – d.M.y G",
                  "d": "d.M.y – d.M.y G",
                  "y": "d.M.y – d.M.y G"
                }
              }
            }
          }
        }
      }
    }
  }
}
