{
  "main": {
    "hsb-DE": {
      "identity": {
        "version": {
          "_cldrVersion": "26",
          "_number": "$Revision: 10671 $"
        },
        "generation": {
          "_date": "$Date: 2014-07-23 17:52:33 -0500 (Wed, 23 Jul 2014) $"
        },
        "language": "hsb",
        "territory": "DE"
      },
      "dates": {
        "calendars": {
          "gregorian": {
            "months": {
              "format": {
                "abbreviated": {
                  "1": "jan.",
                  "2": "feb.",
                  "3": "měr.",
                  "4": "apr.",
                  "5": "mej.",
                  "6": "jun.",
                  "7": "jul.",
                  "8": "awg.",
                  "9": "sep.",
                  "10": "okt.",
                  "11": "now.",
                  "12": "dec."
                },
                "narrow": {
                  "1": "j",
                  "2": "f",
                  "3": "m",
                  "4": "a",
                  "5": "m",
                  "6": "j",
                  "7": "j",
                  "8": "a",
                  "9": "s",
                  "10": "o",
                  "11": "n",
                  "12": "d"
                },
                "wide": {
                  "1": "januara",
                  "2": "februara",
                  "3": "měrca",
                  "4": "apryla",
                  "5": "meje",
                  "6": "junija",
                  "7": "julija",
                  "8": "awgusta",
                  "9": "septembra",
                  "10": "oktobra",
                  "11": "nowembra",
                  "12": "decembra"
                }
              },
              "stand-alone": {
                "abbreviated": {
                  "1": "jan",
                  "2": "feb",
                  "3": "měr",
                  "4": "apr",
                  "5": "mej",
                  "6": "jun",
                  "7": "jul",
                  "8": "awg",
                  "9": "sep",
                  "10": "okt",
                  "11": "now",
                  "12": "dec"
                },
                "narrow": {
                  "1": "j",
                  "2": "f",
                  "3": "m",
                  "4": "a",
                  "5": "m",
                  "6": "j",
                  "7": "j",
                  "8": "a",
                  "9": "s",
                  "10": "o",
                  "11": "n",
                  "12": "d"
                },
                "wide": {
                  "1": "januar",
                  "2": "februar",
                  "3": "měrc",
                  "4": "apryl",
                  "5": "meja",
                  "6": "junij",
                  "7": "julij",
                  "8": "awgust",
                  "9": "september",
                  "10": "oktober",
                  "11": "nowember",
                  "12": "december"
                }
              }
            },
            "days": {
              "format": {
                "abbreviated": {
                  "sun": "nje",
                  "mon": "pón",
                  "tue": "wut",
                  "wed": "srj",
                  "thu": "štw",
                  "fri": "pja",
                  "sat": "sob"
                },
                "narrow": {
                  "sun": "n",
                  "mon": "p",
                  "tue": "w",
                  "wed": "s",
                  "thu": "š",
                  "fri": "p",
                  "sat": "s"
                },
                "short": {
                  "sun": "nj",
                  "mon": "pó",
                  "tue": "wu",
                  "wed": "sr",
                  "thu": "št",
                  "fri": "pj",
                  "sat": "so"
                },
                "wide": {
                  "sun": "njedźela",
                  "mon": "póndźela",
                  "tue": "wutora",
                  "wed": "srjeda",
                  "thu": "štwórtk",
                  "fri": "pjatk",
                  "sat": "sobota"
                }
              },
              "stand-alone": {
                "abbreviated": {
                  "sun": "nje",
                  "mon": "pón",
                  "tue": "wut",
                  "wed": "srj",
                  "thu": "štw",
                  "fri": "pja",
                  "sat": "sob"
                },
                "narrow": {
                  "sun": "n",
                  "mon": "p",
                  "tue": "w",
                  "wed": "s",
                  "thu": "š",
                  "fri": "p",
                  "sat": "s"
                },
                "short": {
                  "sun": "nj",
                  "mon": "pó",
                  "tue": "wu",
                  "wed": "sr",
                  "thu": "št",
                  "fri": "pj",
                  "sat": "so"
                },
                "wide": {
                  "sun": "njedźela",
                  "mon": "póndźela",
                  "tue": "wutora",
                  "wed": "srjeda",
                  "thu": "štwórtk",
                  "fri": "pjatk",
                  "sat": "sobota"
                }
              }
            },
            "quarters": {
              "format": {
                "abbreviated": {
                  "1": "Q1",
                  "2": "Q2",
                  "3": "Q3",
                  "4": "Q4"
                },
                "narrow": {
                  "1": "1",
                  "2": "2",
                  "3": "3",
                  "4": "4"
                },
                "wide": {
                  "1": "1. kwartal",
                  "2": "2. kwartal",
                  "3": "3. kwartal",
                  "4": "4. kwartal"
                }
              },
              "stand-alone": {
                "abbreviated": {
                  "1": "Q1",
                  "2": "Q2",
                  "3": "Q3",
                  "4": "Q4"
                },
                "narrow": {
                  "1": "1",
                  "2": "2",
                  "3": "3",
                  "4": "4"
                },
                "wide": {
                  "1": "1. kwartal",
                  "2": "2. kwartal",
                  "3": "3. kwartal",
                  "4": "4. kwartal"
                }
              }
            },
            "dayPeriods": {
              "format": {
                "abbreviated": {
                  "am": "dopołdnja",
                  "noon": "připołdnju",
                  "pm": "popołdnju"
                },
                "narrow": {
                  "am": "dop.",
                  "noon": "připołd.",
                  "pm": "pop."
                },
                "wide": {
                  "am": "dopołdnja",
                  "noon": "připołdnju",
                  "pm": "popołdnju"
                }
              },
              "stand-alone": {
                "abbreviated": {
                  "am": "dopołdnja",
                  "noon": "připołdnju",
                  "pm": "popołdnju"
                },
                "narrow": {
                  "am": "dop.",
                  "noon": "připołd.",
                  "pm": "pop."
                },
                "wide": {
                  "am": "dopołdnja",
                  "noon": "připołdnju",
                  "pm": "popołdnju"
                }
              }
            },
            "eras": {
              "eraNames": {
                "0": "před Chrystowym narodźenjom",
                "0-alt-variant": "před našim ličenjom časa",
                "1": "po Chrystowym narodźenju",
                "1-alt-variant": "našeho ličenja časa"
              },
              "eraAbbr": {
                "0": "př.Chr.n.",
                "0-alt-variant": "př.n.l.č.",
                "1": "po Chr.n.",
                "1-alt-variant": "n.l.č."
              },
              "eraNarrow": {
                "0": "př.Chr.n.",
                "0-alt-variant": "př.n.l.č.",
                "1": "po Chr.n.",
                "1-alt-variant": "n.l.č."
              }
            },
            "dateFormats": {
              "full": "EEEE, d. MMMM y",
              "long": "d. MMMM y",
              "medium": "d.M.y",
              "short": "d.M.yy"
            },
            "timeFormats": {
              "full": "H:mm:ss zzzz",
              "long": "H:mm:ss z",
              "medium": "H:mm:ss",
              "short": "H:mm 'hodź'."
            },
            "dateTimeFormats": {
              "full": "{1} {0}",
              "long": "{1} {0}",
              "medium": "{1} {0}",
              "short": "{1} {0}",
              "availableFormats": {
                "E": "ccc",
                "EHm": "E, H:mm 'hodź'.",
                "EHms": "E, HH:mm:ss",
                "Ed": "E, d.",
                "Ehm": "E, h:mm a",
                "Ehms": "E, h:mm:ss a",
                "Gy": "y G",
                "GyMMM": "MMM y G",
                "GyMMMEd": "E, d. MMM y G",
                "GyMMMd": "d. MMM y G",
                "H": "H 'hodź'.",
                "Hm": "H:mm 'hodź'.",
                "Hms": "H:mm:ss",
                "M": "L",
                "MEd": "E, d.M.",
                "MMM": "LLL",
                "MMMEd": "E, d. MMM",
                "MMMd": "d. MMM",
                "Md": "d.M.",
                "d": "d",
                "h": "h a",
                "hm": "h:mm a",
                "hms": "h:mm:ss a",
                "ms": "mm:ss",
                "y": "y",
                "yM": "M.y",
                "yMEd": "E, d.M.y",
                "yMMM": "MMM y",
                "yMMMEd": "E, d. MMM y",
                "yMMMd": "d. MMM y",
                "yMd": "d.M.y",
                "yQQQ": "QQQ y",
                "yQQQQ": "QQQQ y"
              },
              "appendItems": {
                "Day": "{0} ({2}: {1})",
                "Day-Of-Week": "{0} {1}",
                "Era": "{1} {0}",
                "Hour": "{0} ({2}: {1})",
                "Minute": "{0} ({2}: {1})",
                "Month": "{0} ({2}: {1})",
                "Quarter": "{0} ({2}: {1})",
                "Second": "{0} ({2}: {1})",
                "Timezone": "{0} {1}",
                "Week": "{0} ({2}: {1})",
                "Year": "{1} {0}"
              },
              "intervalFormats": {
                "intervalFormatFallback": "{0} – {1}",
                "H": {
                  "H": "H–H 'hodź'."
                },
                "Hm": {
                  "H": "H:mm – H:mm 'hodź'.",
                  "m": "H:mm – H:mm 'hodź'."
                },
                "Hmv": {
                  "H": "H:mm – H:mm 'hodź'. v",
                  "m": "H:mm – H:mm 'hodź'. v"
                },
                "Hv": {
                  "H": "H–H v"
                },
                "M": {
                  "M": "M. – M."
                },
                "MEd": {
                  "M": "E, d.M. – E, d.M.",
                  "d": "E, d.M. – E, d.M."
                },
                "MMM": {
                  "M": "LLL – LLL"
                },
                "MMMEd": {
                  "M": "E, d. MMM – E, d. MMM",
                  "d": "E, d. – E, d. MMM"
                },
                "MMMd": {
                  "M": "d. MMM – d. MMM",
                  "d": "d. – d. MMM"
                },
                "Md": {
                  "M": "d.M. – d.M.",
                  "d": "d.M. – d.M."
                },
                "d": {
                  "d": "d. – d."
                },
                "h": {
                  "a": "h a – h a",
                  "h": "h–h a"
                },
                "hm": {
                  "a": "h:mm a – h:mm a",
                  "h": "h:mm – h:mm a",
                  "m": "h:mm – h:mm a"
                },
                "hmv": {
                  "a": "h:mm a – h:mm a v",
                  "h": "h:mm – h:mm a v",
                  "m": "h:mm – h:mm a v"
                },
                "hv": {
                  "a": "h a – h a v",
                  "h": "h–h a v"
                },
                "y": {
                  "y": "y–y"
                },
                "yM": {
                  "M": "M.y – M.y",
                  "y": "M.y – M.y"
                },
                "yMEd": {
                  "M": "E, d.M.y – E, d.M.y",
                  "d": "E, d.M.y – E, d.M.y",
                  "y": "E, d.M.y – E, d.M.y"
                },
                "yMMM": {
                  "M": "LLL – LLL y",
                  "y": "LLL y – LLL y"
                },
                "yMMMEd": {
                  "M": "E, d. MMM – E, d. MMM y",
                  "d": "E, d. – E, d. MMM y",
                  "y": "E, d. MMM y – E, d. MMM y"
                },
                "yMMMM": {
                  "M": "LLLL – LLLL y",
                  "y": "LLLL y – LLLL y"
                },
                "yMMMd": {
                  "M": "d. MMM – d. MMM y",
                  "d": "d. – d. MMM y",
                  "y": "d. MMM y – d. MMM y"
                },
                "yMd": {
                  "M": "d.M.y – d.M.y",
                  "d": "d.M.y – d.M.y",
                  "y": "d.M.y – d.M.y"
                }
              }
            }
          }
        }
      }
    }
  }
}
