{
  "main": {
    "kl": {
      "identity": {
        "version": {
          "_cldrVersion": "26",
          "_number": "$Revision: 10669 $"
        },
        "generation": {
          "_date": "$Date: 2014-07-23 16:10:33 -0500 (Wed, 23 Jul 2014) $"
        },
        "language": "kl"
      },
      "localeDisplayNames": {
        "territories": {
          "001": "silarsuaq",
          "002": "Afrika",
          "003": "Amerika Avannarleq",
          "005": "Amerika Kujalleq",
          "009": "Oceania",
          "011": "Afrika Killiit",
          "013": "America Qitiusumik",
          "014": "Afrika Kangilliit",
          "015": "Afrika Avannarleq",
          "017": "Afrika Qitiusumik",
          "018": "Afrika Kujalleq",
          "019": "Amerika",
          "021": "021",
          "029": "029",
          "030": "Asia Kangilliit",
          "034": "Asia Kujalleq",
          "035": "035",
          "039": "Europa Kujalleq",
          "053": "Australia aamma Nutaaq Zeelandi",
          "054": "Melanesia",
          "057": "057",
          "061": "Polynesia",
          "142": "Asia",
          "143": "Asia Qitiusumik",
          "145": "Asia Killiit",
          "150": "Europa",
          "151": "Europa Kangilliit",
          "154": "Europa Avannarleq",
          "155": "Europa Killiit",
          "419": "America Latin aamma Karibia",
          "AC": "Ascension qeqertaq",
          "AD": "Andorra",
          "AE": "AE",
          "AF": "Afghanistani",
          "AG": "Antigua aamma Barbuda",
          "AI": "Anguilla",
          "AL": "Albania",
          "AM": "Armenia",
          "AO": "Angola",
          "AQ": "Qalasersuaq Kujalleq",
          "AR": "Argentina",
          "AS": "AS",
          "AT": "Østrigi",
          "AU": "Australia",
          "AW": "Aruba",
          "AX": "Ålandi",
          "AZ": "AZ",
          "BA": "Bosnia aamma Herzegovina",
          "BB": "Barbados",
          "BD": "Bangladesh",
          "BE": "Belgia",
          "BF": "Burkina Faso",
          "BG": "Bulgaria",
          "BH": "Bahrain",
          "BI": "Burundi",
          "BJ": "Benin",
          "BL": "Saint Barthélemy",
          "BM": "Bermuda",
          "BN": "Brunei",
          "BO": "Bolivia",
          "BQ": "BQ",
          "BR": "Brazil",
          "BS": "Bahamas",
          "BT": "Bhutan",
          "BV": "Bouvet qeqertaq",
          "BW": "Botswana",
          "BY": "Hvideruslandi",
          "BZ": "Belize",
          "CA": "Canada",
          "CC": "Cocos qeqertaq",
          "CD": "Kongo-Kinshasa",
          "CD-alt-variant": "CD",
          "CF": "CF",
          "CG": "Kongo-Brazzaville",
          "CG-alt-variant": "CG",
          "CH": "Schweizi",
          "CI": "CI",
          "CI-alt-variant": "CI",
          "CK": "Cook qeqertaq",
          "CL": "Chile",
          "CM": "Kamerun",
          "CN": "Kina",
          "CO": "Colombia",
          "CP": "Clipperton qeqertaq",
          "CR": "Costa Rica",
          "CU": "Kuba",
          "CV": "Cap Verde",
          "CW": "Curaçao",
          "CX": "Jul-qeqertaq",
          "CY": "Cypern",
          "CZ": "Tjekkia",
          "DE": "Tysklandi",
          "DG": "Diego Garcia",
          "DJ": "Djibouti",
          "DK": "Danmarki",
          "DM": "Dominica",
          "DO": "DO",
          "DZ": "Algeriet",
          "EA": "Ceuta aamma Melilla",
          "EC": "Ecuador",
          "EE": "Estlandi",
          "EG": "Egypten",
          "EH": "Sahara Killiit",
          "ER": "Eritrea",
          "ES": "Spania",
          "ET": "Ethiopia",
          "EU": "Europami nunat kattusimaffiat",
          "FI": "Finlandi",
          "FJ": "Fiji",
          "FK": "Falklandi qeqertaq",
          "FK-alt-variant": "FK",
          "FM": "Micronesia",
          "FO": "Savalimmiut",
          "FR": "Frankrigi",
          "GA": "Gabon",
          "GB": "Tuluit Nunaat",
          "GB-alt-short": "Tuluit Nunaat",
          "GD": "Grenada",
          "GE": "Georgia",
          "GF": "GF",
          "GG": "Guernsey",
          "GH": "Ghana",
          "GI": "Gibraltar",
          "GL": "Kalaallit Nunaat",
          "GM": "Gambia",
          "GN": "Guinea",
          "GP": "Guadeloupe",
          "GQ": "GQ",
          "GR": "Grækenlandi",
          "GS": "GS",
          "GT": "Guatemala",
          "GU": "Guam",
          "GW": "Guinea-Bissau",
          "GY": "Guyana",
          "HK": "Hongkong",
          "HK-alt-short": "Hongkong",
          "HM": "HM",
          "HN": "Honduras",
          "HR": "Kroatia",
          "HT": "Haiti",
          "HU": "Ungarni",
          "IC": "Kanaria qeqertaq",
          "ID": "Indonesia",
          "IE": "Irlandi",
          "IL": "Israel",
          "IM": "Isle of Man",
          "IN": "India",
          "IO": "IO",
          "IQ": "Irak",
          "IR": "Iran",
          "IS": "Islandi",
          "IT": "Italia",
          "JE": "Jersey",
          "JM": "Jamaica",
          "JO": "Jordani",
          "JP": "Japani",
          "KE": "Kenya",
          "KG": "KG",
          "KH": "Kambodia",
          "KI": "Kiribati",
          "KM": "Comoros",
          "KN": "Saint Kitts aamma Nevis",
          "KP": "Korea Avannarleq",
          "KR": "Korea Kujalleq",
          "KW": "Kuwait",
          "KY": "Cayman qeqertaq",
          "KZ": "Kasakhstani",
          "LA": "Laos",
          "LB": "Libanon",
          "LC": "Saint Lucia",
          "LI": "Liechtensteini",
          "LK": "Sri Lanka",
          "LR": "Liberia",
          "LS": "Lesotho",
          "LT": "Litaueni",
          "LU": "Luxembourg",
          "LV": "Letlandi",
          "LY": "Libya",
          "MA": "Marocko",
          "MC": "Monaco",
          "MD": "Moldova",
          "ME": "Montenegro",
          "MF": "Frankrigi Saint Martin",
          "MG": "Madagaskar",
          "MH": "MH",
          "MK": "Makedonia",
          "MK-alt-variant": "MK",
          "ML": "Mali",
          "MM": "Burma",
          "MN": "MN",
          "MO": "Macao",
          "MO-alt-short": "Macao",
          "MP": "MP",
          "MQ": "Martinique",
          "MR": "Mauritania",
          "MS": "Montserrat",
          "MT": "Malta",
          "MU": "Mauritius",
          "MV": "MV",
          "MW": "Malawi",
          "MX": "Mexiko",
          "MY": "Malaysia",
          "MZ": "Moçambique",
          "NA": "Namibia",
          "NC": "Nutaaq Caledonia",
          "NE": "Niger",
          "NF": "NF",
          "NG": "Nigeria",
          "NI": "Nicaragua",
          "NL": "Hollandi",
          "NO": "Norge",
          "NP": "Nepal",
          "NR": "Nauru",
          "NU": "Niue",
          "NZ": "Nutaaq Zeelandi",
          "OM": "Oman",
          "PA": "Panama",
          "PE": "Peru",
          "PF": "PF",
          "PG": "Papua Nutaaq Guinea",
          "PH": "PH",
          "PK": "Pakistani",
          "PL": "Poleni",
          "PM": "Saint Pierre aamma Miquelon",
          "PN": "PN",
          "PR": "Puerto Rico",
          "PS": "PS",
          "PS-alt-short": "PS",
          "PT": "Portugali",
          "PW": "Palau",
          "PY": "Paraguay",
          "QA": "Quatar",
          "QO": "QO",
          "RE": "Réunion",
          "RO": "Rumænia",
          "RS": "Serbia",
          "RU": "Ruslandi",
          "RW": "Rwanda",
          "SA": "Saudi Arabia",
          "SB": "SB",
          "SC": "SC",
          "SD": "Avannarleqsudan",
          "SE": "Sverige",
          "SG": "Singapore",
          "SH": "Saint Helena",
          "SI": "Slovenia",
          "SJ": "Svalbard aamma Jan Mayen",
          "SK": "Slovakia",
          "SL": "Sierra Leone",
          "SM": "San Marino",
          "SN": "Senegal",
          "SO": "Somalia",
          "SR": "Suriname",
          "SS": "Kujalleqsudan",
          "ST": "São Tomé aamma Príncipe",
          "SV": "El Salvador",
          "SX": "SX",
          "SY": "Syria",
          "SZ": "Swazilandi",
          "TA": "Tristan da Cunha",
          "TC": "TC",
          "TD": "Chad",
          "TF": "TF",
          "TG": "Togo",
          "TH": "Thailandi",
          "TJ": "Tajikistani",
          "TK": "Tokelau",
          "TL": "Timor Kangilliit",
          "TL-alt-variant": "TL",
          "TM": "Turkmenistani",
          "TN": "Tunisia",
          "TO": "Tonga",
          "TR": "Tyrkia",
          "TT": "Trinidad aamma Tobago",
          "TV": "Tuvalu",
          "TW": "Taiwan",
          "TZ": "Tanzania",
          "UA": "Ukraina",
          "UG": "Uganda",
          "UM": "UM",
          "US": "Naalagaaffeqatigiit",
          "US-alt-short": "USA",
          "UY": "Uruguay",
          "UZ": "Uzbekistani",
          "VA": "Vatikani",
          "VC": "VC",
          "VE": "Venezuela",
          "VG": "VG",
          "VI": "VI",
          "VN": "Vietnam",
          "VU": "Vanuatu",
          "WF": "Wallis aamma Futuna",
          "WS": "Samoa",
          "XK": "Kosovo",
          "YE": "Jemen",
          "YT": "Mayotte",
          "ZA": "Kujalleqafrika",
          "ZM": "Zambia",
          "ZW": "Zimbabwe",
          "ZZ": "(atorsinnaanngitsoq nunap imartaa nunataalu)"
        }
      }
    }
  }
}
