{
  "main": {
    "vo-001": {
      "identity": {
        "version": {
          "_cldrVersion": "26",
          "_number": "$Revision: 10669 $"
        },
        "generation": {
          "_date": "$Date: 2014-07-23 16:10:33 -0500 (Wed, 23 Jul 2014) $"
        },
        "language": "root",
        "territory": "001"
      },
      "dates": {
        "calendars": {
          "roc": {
            "months": {
              "format": {
                "abbreviated": {
                  "1": "jan",
                  "2": "feb",
                  "3": "mäz",
                  "4": "prl",
                  "5": "may",
                  "6": "yun",
                  "7": "yul",
                  "8": "gst",
                  "9": "set",
                  "10": "ton",
                  "11": "nov",
                  "12": "dek"
                },
                "narrow": {
                  "1": "J",
                  "2": "F",
                  "3": "M",
                  "4": "P",
                  "5": "M",
                  "6": "Y",
                  "7": "Y",
                  "8": "G",
                  "9": "S",
                  "10": "T",
                  "11": "N",
                  "12": "D"
                },
                "wide": {
                  "1": "janul",
                  "2": "febul",
                  "3": "mäzil",
                  "4": "prilul",
                  "5": "mayul",
                  "6": "yunul",
                  "7": "yulul",
                  "8": "gustul",
                  "9": "setul",
                  "10": "tobul",
                  "11": "novul",
                  "12": "dekul"
                }
              },
              "stand-alone": {
                "abbreviated": {
                  "1": "jan",
                  "2": "feb",
                  "3": "mäz",
                  "4": "prl",
                  "5": "may",
                  "6": "yun",
                  "7": "yul",
                  "8": "gst",
                  "9": "set",
                  "10": "tob",
                  "11": "nov",
                  "12": "Dek"
                },
                "narrow": {
                  "1": "J",
                  "2": "F",
                  "3": "M",
                  "4": "P",
                  "5": "M",
                  "6": "Y",
                  "7": "Y",
                  "8": "G",
                  "9": "S",
                  "10": "T",
                  "11": "N",
                  "12": "D"
                },
                "wide": {
                  "1": "janul",
                  "2": "febul",
                  "3": "mäzil",
                  "4": "prilul",
                  "5": "mayul",
                  "6": "yunul",
                  "7": "yulul",
                  "8": "gustul",
                  "9": "setul",
                  "10": "tobul",
                  "11": "novul",
                  "12": "dekul"
                }
              }
            },
            "days": {
              "format": {
                "abbreviated": {
                  "sun": "su.",
                  "mon": "mu.",
                  "tue": "tu.",
                  "wed": "ve.",
                  "thu": "dö.",
                  "fri": "fr.",
                  "sat": "zä."
                },
                "narrow": {
                  "sun": "S",
                  "mon": "M",
                  "tue": "T",
                  "wed": "V",
                  "thu": "D",
                  "fri": "F",
                  "sat": "Z"
                },
                "short": {
                  "sun": "su.",
                  "mon": "mu.",
                  "tue": "tu.",
                  "wed": "ve.",
                  "thu": "dö.",
                  "fri": "fr.",
                  "sat": "zä."
                },
                "wide": {
                  "sun": "sudel",
                  "mon": "mudel",
                  "tue": "tudel",
                  "wed": "vedel",
                  "thu": "dödel",
                  "fri": "fridel",
                  "sat": "zädel"
                }
              },
              "stand-alone": {
                "abbreviated": {
                  "sun": "Su",
                  "mon": "Mu",
                  "tue": "Tu",
                  "wed": "Ve",
                  "thu": "Dö",
                  "fri": "Fr",
                  "sat": "Zä"
                },
                "narrow": {
                  "sun": "S",
                  "mon": "M",
                  "tue": "T",
                  "wed": "V",
                  "thu": "D",
                  "fri": "F",
                  "sat": "Z"
                },
                "short": {
                  "sun": "su.",
                  "mon": "mu.",
                  "tue": "tu.",
                  "wed": "ve.",
                  "thu": "dö.",
                  "fri": "fr.",
                  "sat": "zä."
                },
                "wide": {
                  "sun": "sudel",
                  "mon": "mudel",
                  "tue": "tudel",
                  "wed": "vedel",
                  "thu": "dödel",
                  "fri": "fridel",
                  "sat": "zädel"
                }
              }
            },
            "quarters": {
              "format": {
                "abbreviated": {
                  "1": "Yf1",
                  "2": "Yf2",
                  "3": "Yf3",
                  "4": "Yf4"
                },
                "narrow": {
                  "1": "1",
                  "2": "2",
                  "3": "3",
                  "4": "4"
                },
                "wide": {
                  "1": "1id yelafoldil",
                  "2": "2id yelafoldil",
                  "3": "3id yelafoldil",
                  "4": "4id yelafoldil"
                }
              },
              "stand-alone": {
                "abbreviated": {
                  "1": "Yf1",
                  "2": "Yf2",
                  "3": "Yf3",
                  "4": "Yf4"
                },
                "narrow": {
                  "1": "1",
                  "2": "2",
                  "3": "3",
                  "4": "4"
                },
                "wide": {
                  "1": "1id yelafoldil",
                  "2": "2id yelafoldil",
                  "3": "3id yelafoldil",
                  "4": "4id yelafoldil"
                }
              }
            },
            "dayPeriods": {
              "format": {
                "abbreviated": {
                  "afternoon": "poszedelo",
                  "am": "posz.",
                  "earlyMorning": "gödo",
                  "evening": "soaro",
                  "morning": "büzedelo",
                  "night": "neito",
                  "noon": "zedelo",
                  "pm": "büz."
                },
                "narrow": {
                  "am": "a",
                  "noon": "n",
                  "pm": "p"
                },
                "wide": {
                  "afternoon": "poszedelo",
                  "am": "posz.",
                  "earlyMorning": "gödo",
                  "evening": "soaro",
                  "morning": "büzedelo",
                  "night": "neito",
                  "noon": "zedelo",
                  "pm": "büz."
                }
              },
              "stand-alone": {
                "abbreviated": {
                  "afternoon": "poszedelo",
                  "am": "posz.",
                  "earlyMorning": "gödo",
                  "evening": "soaro",
                  "morning": "büzedelo",
                  "night": "neito",
                  "noon": "zedelo",
                  "pm": "büz."
                },
                "narrow": {
                  "am": "a",
                  "noon": "n",
                  "pm": "p"
                },
                "wide": {
                  "afternoon": "poszedelo",
                  "am": "posz.",
                  "earlyMorning": "gödo",
                  "evening": "soaro",
                  "morning": "büzedelo",
                  "night": "neito",
                  "noon": "zedelo",
                  "pm": "büz."
                }
              }
            },
            "eras": {
              "eraNames": {
                "0": "Before R.O.C.",
                "1": "R.O.C."
              },
              "eraAbbr": {
                "0": "Before R.O.C.",
                "1": "R.O.C."
              },
              "eraNarrow": {
                "0": "Before R.O.C.",
                "1": "R.O.C."
              }
            },
            "dateFormats": {
              "full": "G y MMMMa 'd'. d'id'",
              "long": "G y MMMM d",
              "medium": "G y MMM. d",
              "short": "GGGGG y-MM-dd"
            },
            "timeFormats": {
              "full": "HH:mm:ss zzzz",
              "long": "HH:mm:ss z",
              "medium": "HH:mm:ss",
              "short": "HH:mm"
            },
            "dateTimeFormats": {
              "full": "{1} {0}",
              "long": "{1} {0}",
              "medium": "{1} {0}",
              "short": "{1} {0}",
              "availableFormats": {
                "E": "ccc",
                "EHm": "E HH:mm",
                "EHms": "E HH:mm:ss",
                "Ed": "d, E",
                "Ehm": "E h:mm a",
                "Ehms": "E h:mm:ss a",
                "Gy": "G y",
                "GyMMM": "G y MMM",
                "GyMMMEd": "G y MMM d, E",
                "GyMMMd": "G y MMM d",
                "H": "HH",
                "Hm": "HH:mm",
                "Hms": "HH:mm:ss",
                "M": "L",
                "MEd": "MM-dd, E",
                "MMM": "LLL",
                "MMMEd": "MMM d, E",
                "MMMd": "MMM d",
                "Md": "MM-dd",
                "d": "d",
                "h": "h a",
                "hm": "h:mm a",
                "hms": "h:mm:ss a",
                "ms": "mm:ss",
                "y": "G y",
                "yyyy": "G y",
                "yyyyM": "GGGGG y-MM",
                "yyyyMEd": "GGGGG y-MM-dd, E",
                "yyyyMMM": "G y MMM",
                "yyyyMMMEd": "G y MMM d, E",
                "yyyyMMMd": "G y MMM d",
                "yyyyMd": "GGGGG y-MM-dd",
                "yyyyQQQ": "G y QQQ",
                "yyyyQQQQ": "G y QQQQ"
              },
              "appendItems": {
                "Day": "{0} ({2}: {1})",
                "Day-Of-Week": "{0} {1}",
                "Era": "{1} {0}",
                "Hour": "{0} ({2}: {1})",
                "Minute": "{0} ({2}: {1})",
                "Month": "{0} ({2}: {1})",
                "Quarter": "{0} ({2}: {1})",
                "Second": "{0} ({2}: {1})",
                "Timezone": "{0} {1}",
                "Week": "{0} ({2}: {1})",
                "Year": "{1} {0}"
              },
              "intervalFormats": {
                "intervalFormatFallback": "{0} – {1}",
                "H": {
                  "H": "HH–HH"
                },
                "Hm": {
                  "H": "HH:mm–HH:mm",
                  "m": "HH:mm–HH:mm"
                },
                "Hmv": {
                  "H": "HH:mm–HH:mm v",
                  "m": "HH:mm–HH:mm v"
                },
                "Hv": {
                  "H": "HH–HH v"
                },
                "M": {
                  "M": "MM–MM"
                },
                "MEd": {
                  "M": "MM-dd, E – MM-dd, E",
                  "d": "MM-dd, E – MM-dd, E"
                },
                "MMM": {
                  "M": "LLL–LLL"
                },
                "MMMEd": {
                  "M": "MMM d, E – MMM d, E",
                  "d": "MMM d, E – MMM d, E"
                },
                "MMMd": {
                  "M": "MMM d – MMM d",
                  "d": "MMM d–d"
                },
                "Md": {
                  "M": "MM-dd – MM-dd",
                  "d": "MM-dd – MM-dd"
                },
                "d": {
                  "d": "d–d"
                },
                "h": {
                  "a": "h a – h a",
                  "h": "h–h a"
                },
                "hm": {
                  "a": "h:mm a – h:mm a",
                  "h": "h:mm–h:mm a",
                  "m": "h:mm–h:mm a"
                },
                "hmv": {
                  "a": "h:mm a – h:mm a v",
                  "h": "h:mm–h:mm a v",
                  "m": "h:mm–h:mm a v"
                },
                "hv": {
                  "a": "h a – h a v",
                  "h": "h–h a v"
                },
                "y": {
                  "y": "G y–y"
                },
                "yM": {
                  "M": "GGGGG y-MM – y-MM",
                  "y": "GGGGG y-MM – y-MM"
                },
                "yMEd": {
                  "M": "GGGGG y-MM-dd, E – y-MM-dd, E",
                  "d": "GGGGG y-MM-dd, E – y-MM-dd, E",
                  "y": "GGGGG y-MM-dd, E – y-MM-dd, E"
                },
                "yMMM": {
                  "M": "G y MMM–MMM",
                  "y": "G y MMM – y MMM"
                },
                "yMMMEd": {
                  "M": "G y MMM d, E – MMM d, E",
                  "d": "G y MMM d, E – MMM d, E",
                  "y": "G y MMM d, E – y MMM d, E"
                },
                "yMMMM": {
                  "M": "G y MMMM–MMMM",
                  "y": "G y MMMM – y MMMM"
                },
                "yMMMd": {
                  "M": "G y MMM d – MMM d",
                  "d": "G y MMM d–d",
                  "y": "G y MMM d – y MMM d"
                },
                "yMd": {
                  "M": "GGGGG y-MM-dd – y-MM-dd",
                  "d": "GGGGG y-MM-dd – y-MM-dd",
                  "y": "GGGGG y-MM-dd – y-MM-dd"
                }
              }
            }
          }
        }
      }
    }
  }
}
