{
  "main": {
    "sr-Cyrl-ME": {
      "identity": {
        "version": {
          "_cldrVersion": "26",
          "_number": "$Revision: 10669 $"
        },
        "generation": {
          "_date": "$Date: 2014-07-23 16:10:33 -0500 (Wed, 23 Jul 2014) $"
        },
        "language": "root",
        "script": "Cyrl",
        "territory": "ME"
      },
      "dates": {
        "calendars": {
          "islamic": {
            "months": {
              "format": {
                "abbreviated": {
                  "1": "Мух.",
                  "2": "Саф.",
                  "3": "Реб. 1",
                  "4": "Реб 2",
                  "5": "Џум. 1",
                  "6": "Џум. 2",
                  "7": "Реџ.",
                  "8": "Ша.",
                  "9": "Рам.",
                  "10": "Ше.",
                  "11": "Зул-к.",
                  "12": "Зул-х."
                },
                "narrow": {
                  "1": "1",
                  "2": "2",
                  "3": "3",
                  "4": "4",
                  "5": "5",
                  "6": "6",
                  "7": "7",
                  "8": "8",
                  "9": "9",
                  "10": "10",
                  "11": "11",
                  "12": "12"
                },
                "wide": {
                  "1": "Мурахам",
                  "2": "Сафар",
                  "3": "Рабиʻ I",
                  "4": "Рабиʻ II",
                  "5": "Јумада I",
                  "6": "Јумада II",
                  "7": "Рађаб",
                  "8": "Шаʻбан",
                  "9": "Рамадан",
                  "10": "Шавал",
                  "11": "Дуʻл-Киʻда",
                  "12": "Дуʻл-хиђа"
                }
              },
              "stand-alone": {
                "abbreviated": {
                  "1": "Мух.",
                  "2": "Саф.",
                  "3": "Реб. 1",
                  "4": "Реб 2",
                  "5": "Џум. 1",
                  "6": "Џум. 2",
                  "7": "Реџ.",
                  "8": "Ша.",
                  "9": "Рам.",
                  "10": "Ше.",
                  "11": "Зул-к.",
                  "12": "Зул-х."
                },
                "narrow": {
                  "1": "1",
                  "2": "2",
                  "3": "3",
                  "4": "4",
                  "5": "5",
                  "6": "6",
                  "7": "7",
                  "8": "8",
                  "9": "9",
                  "10": "10",
                  "11": "11",
                  "12": "12"
                },
                "wide": {
                  "1": "Мухарем",
                  "2": "Сафер",
                  "3": "Реби 1",
                  "4": "Реби 2",
                  "5": "Џумаде 1",
                  "6": "Џумаде 2",
                  "7": "Реџеб",
                  "8": "Шаʻбан",
                  "9": "Рамазан",
                  "10": "Шевал",
                  "11": "Зул-каде",
                  "12": "Зул-хиџе"
                }
              }
            },
            "days": {
              "format": {
                "abbreviated": {
                  "sun": "нед",
                  "mon": "пон",
                  "tue": "уто",
                  "wed": "сре",
                  "thu": "чет",
                  "fri": "пет",
                  "sat": "суб"
                },
                "narrow": {
                  "sun": "н",
                  "mon": "п",
                  "tue": "у",
                  "wed": "с",
                  "thu": "ч",
                  "fri": "п",
                  "sat": "с"
                },
                "short": {
                  "sun": "нед",
                  "mon": "пон",
                  "tue": "уто",
                  "wed": "сре",
                  "thu": "чет",
                  "fri": "пет",
                  "sat": "суб"
                },
                "wide": {
                  "sun": "недеља",
                  "mon": "понедељак",
                  "tue": "уторак",
                  "wed": "среда",
                  "thu": "четвртак",
                  "fri": "петак",
                  "sat": "субота"
                }
              },
              "stand-alone": {
                "abbreviated": {
                  "sun": "нед",
                  "mon": "пон",
                  "tue": "уто",
                  "wed": "сре",
                  "thu": "чет",
                  "fri": "пет",
                  "sat": "суб"
                },
                "narrow": {
                  "sun": "н",
                  "mon": "п",
                  "tue": "у",
                  "wed": "с",
                  "thu": "ч",
                  "fri": "п",
                  "sat": "с"
                },
                "short": {
                  "sun": "не",
                  "mon": "по",
                  "tue": "ут",
                  "wed": "ср",
                  "thu": "че",
                  "fri": "пе",
                  "sat": "су"
                },
                "wide": {
                  "sun": "недеља",
                  "mon": "понедељак",
                  "tue": "уторак",
                  "wed": "среда",
                  "thu": "четвртак",
                  "fri": "петак",
                  "sat": "субота"
                }
              }
            },
            "quarters": {
              "format": {
                "abbreviated": {
                  "1": "К1",
                  "2": "К2",
                  "3": "К3",
                  "4": "К4"
                },
                "narrow": {
                  "1": "1.",
                  "2": "2.",
                  "3": "3.",
                  "4": "4."
                },
                "wide": {
                  "1": "Прво тромесечје",
                  "2": "Друго тромесечје",
                  "3": "Треће тромесечје",
                  "4": "Четврто тромесечје"
                }
              },
              "stand-alone": {
                "abbreviated": {
                  "1": "К1",
                  "2": "К2",
                  "3": "К3",
                  "4": "К4"
                },
                "narrow": {
                  "1": "1.",
                  "2": "2.",
                  "3": "3.",
                  "4": "4."
                },
                "wide": {
                  "1": "Прво тромесечје",
                  "2": "Друго тромесечје",
                  "3": "Треће тромесечје",
                  "4": "Четврто тромесечје"
                }
              }
            },
            "dayPeriods": {
              "format": {
                "abbreviated": {
                  "am": "пре подне",
                  "noon": "у подне",
                  "pm": "по подне"
                },
                "narrow": {
                  "am": "a",
                  "noon": "n",
                  "pm": "p"
                },
                "wide": {
                  "am": "пре подне",
                  "noon": "у подне",
                  "pm": "по подне"
                }
              },
              "stand-alone": {
                "abbreviated": {
                  "am": "пре подне",
                  "noon": "у подне",
                  "pm": "по подне"
                },
                "narrow": {
                  "am": "a",
                  "noon": "n",
                  "pm": "p"
                },
                "wide": {
                  "am": "пре подне",
                  "noon": "у подне",
                  "pm": "по подне"
                }
              }
            },
            "eras": {
              "eraNames": {
                "0": "АХ"
              },
              "eraAbbr": {
                "0": "АХ"
              },
              "eraNarrow": {
                "0": "АХ"
              }
            },
            "dateFormats": {
              "full": "EEEE, dd. MMMM y. G",
              "long": "dd. MMMM y. G",
              "medium": "dd.MM.y. G",
              "short": "d.M.y. GGGGG"
            },
            "timeFormats": {
              "full": "HH.mm.ss zzzz",
              "long": "HH.mm.ss z",
              "medium": "HH.mm.ss",
              "short": "HH.mm"
            },
            "dateTimeFormats": {
              "full": "{1} {0}",
              "long": "{1} {0}",
              "medium": "{1} {0}",
              "short": "{1} {0}",
              "availableFormats": {
                "E": "ccc",
                "EHm": "E HH:mm",
                "EHms": "E HH:mm:ss",
                "Ed": "E d.",
                "Ehm": "E h:mm a",
                "Ehms": "E h:mm:ss a",
                "Gy": "y. G",
                "GyMMM": "MMM y. G",
                "GyMMMEd": "E, d. MMM y. G",
                "GyMMMd": "d. MMM y. G",
                "H": "HH",
                "Hm": "HH.mm",
                "Hms": "HH.mm.ss",
                "M": "L",
                "MEd": "E, M-d",
                "MMM": "LLL",
                "MMMEd": "E d. MMM",
                "MMMMEd": "E d. MMMM",
                "MMMMd": "d. MMMM",
                "MMMd": "d. MMM",
                "MMMdd": "dd.MMM",
                "MMdd": "MM-dd",
                "Md": "d/M",
                "d": "d",
                "h": "hh a",
                "hm": "hh.mm a",
                "hms": "hh.mm.ss a",
                "ms": "mm.ss",
                "y": "y. G",
                "yyyy": "y. G",
                "yyyyM": "M.y. G",
                "yyyyMEd": "E, d.M.y. G",
                "yyyyMM": "MM.y. G",
                "yyyyMMM": "MMM y. G",
                "yyyyMMMEd": "E, d. MMM y. G",
                "yyyyMMMM": "MMMM y. G",
                "yyyyMMMd": "d. MMM y. G",
                "yyyyMMdd": "dd.MM.y. G",
                "yyyyMd": "d.M.y. G",
                "yyyyQQQ": "QQQ, y. G",
                "yyyyQQQQ": "QQQQ y. G"
              },
              "appendItems": {
                "Day": "{0} ({2}: {1})",
                "Day-Of-Week": "{0} {1}",
                "Era": "{1} {0}",
                "Hour": "{0} ({2}: {1})",
                "Minute": "{0} ({2}: {1})",
                "Month": "{0} ({2}: {1})",
                "Quarter": "{0} ({2}: {1})",
                "Second": "{0} ({2}: {1})",
                "Timezone": "{0} {1}",
                "Week": "{0} ({2}: {1})",
                "Year": "{1} {0}"
              },
              "intervalFormats": {
                "intervalFormatFallback": "{0} - {1}",
                "H": {
                  "H": "HH-HH"
                },
                "Hm": {
                  "H": "HH.mm-HH.mm",
                  "m": "HH.mm-HH.mm"
                },
                "Hmv": {
                  "H": "HH.mm-HH.mm v",
                  "m": "HH.mm-HH.mm v"
                },
                "Hv": {
                  "H": "HH-HH v"
                },
                "M": {
                  "M": "M-M"
                },
                "MEd": {
                  "M": "E, d.M - E, d.M",
                  "d": "E, d.M - E, d.M"
                },
                "MMM": {
                  "M": "MMM-MMM"
                },
                "MMMEd": {
                  "M": "E, dd. MMM - E, dd. MMM",
                  "d": "E, dd. - E, dd. MMM"
                },
                "MMMd": {
                  "M": "dd. MMM - dd. MMM",
                  "d": "dd.-dd. MMM"
                },
                "Md": {
                  "M": "d.M - d.M",
                  "d": "d.M - d.M"
                },
                "d": {
                  "d": "d-d"
                },
                "h": {
                  "a": "h a - h a",
                  "h": "h-h a"
                },
                "hm": {
                  "a": "h.mm a - h.mm a",
                  "h": "h.mm-h.mm a",
                  "m": "h.mm-h.mm a"
                },
                "hmv": {
                  "a": "h.mm a - h.mm a v",
                  "h": "h.mm-h.mm a v",
                  "m": "h.mm-h.mm a v"
                },
                "hv": {
                  "a": "h a - h a v",
                  "h": "h-h a v"
                },
                "y": {
                  "y": "y-y"
                },
                "yM": {
                  "M": "y M - M",
                  "y": "M.y - M.y"
                },
                "yMEd": {
                  "M": "E, d.M.y. - E, d.M.y.",
                  "d": "E, d.M.y. - E, d.M.y.",
                  "y": "E, d.M.y. - E, d.M.y."
                },
                "yMMM": {
                  "M": "MMM-MMM y.",
                  "y": "MMM y. - MMM y."
                },
                "yMMMEd": {
                  "M": "E, dd. MMM - E, dd. MMM y.",
                  "d": "E, dd. - E, dd. MMM y.",
                  "y": "E, dd. MMM y. - E, dd. MMM y."
                },
                "yMMMM": {
                  "M": "y-MM – MM",
                  "y": "y-MM – y-MM"
                },
                "yMMMd": {
                  "M": "dd. MMM - dd. MMM y.",
                  "d": "dd.-dd. MMM y.",
                  "y": "dd. MMM y. - dd. MMM y."
                },
                "yMd": {
                  "M": "d.M.y. - d.M.y.",
                  "d": "d.M.y. - d.M.y.",
                  "y": "d.M.y. - d.M.y."
                }
              }
            }
          }
        }
      }
    }
  }
}
