{
  "main": {
    "bs-Cyrl": {
      "identity": {
        "version": {
          "_cldrVersion": "26",
          "_number": "$Revision: 10809 $"
        },
        "generation": {
          "_date": "$Date: 2014-08-14 15:10:07 -0500 (Thu, 14 Aug 2014) $"
        },
        "language": "bs",
        "script": "Cyrl"
      },
      "dates": {
        "calendars": {
          "islamic-umalqura": {
            "months": {
              "format": {
                "abbreviated": {
                  "1": "Мух.",
                  "2": "Саф.",
                  "3": "Реб. 1",
                  "4": "Реб 2",
                  "5": "Џум. 1",
                  "6": "Џум. 2",
                  "7": "Реџ.",
                  "8": "Ша.",
                  "9": "Рам.",
                  "10": "Ше.",
                  "11": "Зул-к.",
                  "12": "Зул-х."
                },
                "narrow": {
                  "1": "1",
                  "2": "2",
                  "3": "3",
                  "4": "4",
                  "5": "5",
                  "6": "6",
                  "7": "7",
                  "8": "8",
                  "9": "9",
                  "10": "10",
                  "11": "11",
                  "12": "12"
                },
                "wide": {
                  "1": "Мурахам",
                  "2": "Сафар",
                  "3": "Рабиʻ I",
                  "4": "Рабиʻ II",
                  "5": "Јумада I",
                  "6": "Јумада II",
                  "7": "Рађаб",
                  "8": "Шаʻбан",
                  "9": "Рамадан",
                  "10": "Шавал",
                  "11": "Дуʻл-Киʻда",
                  "12": "Дуʻл-хиђа"
                }
              },
              "stand-alone": {
                "abbreviated": {
                  "1": "Мух.",
                  "2": "Саф.",
                  "3": "Реб. 1",
                  "4": "Реб 2",
                  "5": "Џум. 1",
                  "6": "Џум. 2",
                  "7": "Реџ.",
                  "8": "Ша.",
                  "9": "Рам.",
                  "10": "Ше.",
                  "11": "Зул-к.",
                  "12": "Зул-х."
                },
                "narrow": {
                  "1": "1",
                  "2": "2",
                  "3": "3",
                  "4": "4",
                  "5": "5",
                  "6": "6",
                  "7": "7",
                  "8": "8",
                  "9": "9",
                  "10": "10",
                  "11": "11",
                  "12": "12"
                },
                "wide": {
                  "1": "Мухарем",
                  "2": "Сафер",
                  "3": "Реби 1",
                  "4": "Реби 2",
                  "5": "Џумаде 1",
                  "6": "Џумаде 2",
                  "7": "Реџеб",
                  "8": "Шаʻбан",
                  "9": "Рамазан",
                  "10": "Шевал",
                  "11": "Зул-каде",
                  "12": "Зул-хиџе"
                }
              }
            },
            "days": {
              "format": {
                "abbreviated": {
                  "sun": "нед",
                  "mon": "пон",
                  "tue": "уто",
                  "wed": "сри",
                  "thu": "чет",
                  "fri": "пет",
                  "sat": "суб"
                },
                "narrow": {
                  "sun": "н",
                  "mon": "п",
                  "tue": "у",
                  "wed": "с",
                  "thu": "ч",
                  "fri": "п",
                  "sat": "с"
                },
                "short": {
                  "sun": "нед",
                  "mon": "пон",
                  "tue": "уто",
                  "wed": "сри",
                  "thu": "чет",
                  "fri": "пет",
                  "sat": "суб"
                },
                "wide": {
                  "sun": "недеља",
                  "mon": "понедељак",
                  "tue": "уторак",
                  "wed": "сриједа",
                  "thu": "четвртак",
                  "fri": "петак",
                  "sat": "субота"
                }
              },
              "stand-alone": {
                "abbreviated": {
                  "sun": "нед",
                  "mon": "пон",
                  "tue": "уто",
                  "wed": "сри",
                  "thu": "чет",
                  "fri": "пет",
                  "sat": "суб"
                },
                "narrow": {
                  "sun": "н",
                  "mon": "п",
                  "tue": "у",
                  "wed": "с",
                  "thu": "ч",
                  "fri": "п",
                  "sat": "с"
                },
                "short": {
                  "sun": "нед",
                  "mon": "пон",
                  "tue": "уто",
                  "wed": "сри",
                  "thu": "чет",
                  "fri": "пет",
                  "sat": "суб"
                },
                "wide": {
                  "sun": "недеља",
                  "mon": "понедељак",
                  "tue": "уторак",
                  "wed": "сриједа",
                  "thu": "четвртак",
                  "fri": "петак",
                  "sat": "субота"
                }
              }
            },
            "quarters": {
              "format": {
                "abbreviated": {
                  "1": "К1",
                  "2": "К2",
                  "3": "К3",
                  "4": "К4"
                },
                "narrow": {
                  "1": "1.",
                  "2": "2.",
                  "3": "3.",
                  "4": "4."
                },
                "wide": {
                  "1": "Прво тромесечје",
                  "2": "Друго тромесечје",
                  "3": "Треће тромесечје",
                  "4": "Четврто тромесечје"
                }
              },
              "stand-alone": {
                "abbreviated": {
                  "1": "К1",
                  "2": "К2",
                  "3": "К3",
                  "4": "К4"
                },
                "narrow": {
                  "1": "1.",
                  "2": "2.",
                  "3": "3.",
                  "4": "4."
                },
                "wide": {
                  "1": "Прво тромесечје",
                  "2": "Друго тромесечје",
                  "3": "Треће тромесечје",
                  "4": "Четврто тромесечје"
                }
              }
            },
            "dayPeriods": {
              "format": {
                "abbreviated": {
                  "am": "пре подне",
                  "noon": "noon",
                  "pm": "поподне"
                },
                "narrow": {
                  "am": "a",
                  "noon": "n",
                  "pm": "p"
                },
                "wide": {
                  "am": "пре подне",
                  "noon": "noon",
                  "pm": "поподне"
                }
              },
              "stand-alone": {
                "abbreviated": {
                  "am": "пре подне",
                  "noon": "noon",
                  "pm": "поподне"
                },
                "narrow": {
                  "am": "a",
                  "noon": "n",
                  "pm": "p"
                },
                "wide": {
                  "am": "пре подне",
                  "noon": "noon",
                  "pm": "поподне"
                }
              }
            },
            "eras": {
              "eraNames": {
                "0": "АХ"
              },
              "eraAbbr": {
                "0": "АХ"
              },
              "eraNarrow": {
                "0": "АХ"
              }
            },
            "dateFormats": {
              "full": "EEEE, dd. MMMM y. G",
              "long": "dd. MMMM y. G",
              "medium": "dd.MM.y. G",
              "short": "dd.MM.y. G"
            },
            "timeFormats": {
              "full": "HH:mm:ss zzzz",
              "long": "HH:mm:ss z",
              "medium": "HH:mm:ss",
              "short": "HH:mm"
            },
            "dateTimeFormats": {
              "full": "{1} {0}",
              "long": "{1} {0}",
              "medium": "{1} {0}",
              "short": "{1} {0}",
              "availableFormats": {
                "E": "ccc",
                "EHm": "E HH:mm",
                "EHms": "E HH:mm:ss",
                "Ed": "E, dd.",
                "Ehm": "E h:mm a",
                "Ehms": "E h:mm:ss a",
                "Gy": "y. G",
                "GyMMM": "MMM y. G",
                "GyMMMEd": "E, dd. MMM y. G",
                "GyMMMd": "dd. MMM y. G",
                "H": "HH",
                "Hm": "HH:mm",
                "Hms": "HH:mm:ss",
                "M": "L",
                "MEd": "E, dd.MM.",
                "MMM": "LLL",
                "MMMEd": "E, dd. MMM",
                "MMMd": "dd. MMM",
                "Md": "dd.MM.",
                "d": "d",
                "h": "hh a",
                "hm": "hh:mm a",
                "hms": "hh:mm:ss a",
                "ms": "mm:ss",
                "y": "y. G",
                "yM": "MM.y. G",
                "yMEd": "E, dd.MM.y. G",
                "yMMM": "MMM y. G",
                "yMMMEd": "E, dd. MMM y. G",
                "yMMMd": "dd. MMM y. G",
                "yMd": "dd.MM.y. G",
                "yQQQ": "y G QQQ",
                "yQQQQ": "y G QQQQ",
                "yyyy": "y. G",
                "yyyyM": "MM.y. G",
                "yyyyMEd": "E, dd.MM.y. G",
                "yyyyMMM": "MMM y. G",
                "yyyyMMMEd": "E, dd. MMM y. G",
                "yyyyMMMd": "dd. MMM y. G",
                "yyyyMd": "dd.MM.y. G",
                "yyyyQQQ": "G y QQQ",
                "yyyyQQQQ": "G y QQQQ"
              },
              "appendItems": {
                "Day": "{0} ({2}: {1})",
                "Day-Of-Week": "{0} {1}",
                "Era": "{1} {0}",
                "Hour": "{0} ({2}: {1})",
                "Minute": "{0} ({2}: {1})",
                "Month": "{0} ({2}: {1})",
                "Quarter": "{0} ({2}: {1})",
                "Second": "{0} ({2}: {1})",
                "Timezone": "{0} {1}",
                "Week": "{0} ({2}: {1})",
                "Year": "{1} {0}"
              },
              "intervalFormats": {
                "intervalFormatFallback": "{0} - {1}",
                "H": {
                  "H": "HH-HH"
                },
                "Hm": {
                  "H": "HH:mm-HH:mm",
                  "m": "HH:mm-HH:mm"
                },
                "Hmv": {
                  "H": "HH:mm-HH:mm v",
                  "m": "HH:mm-HH:mm v"
                },
                "Hv": {
                  "H": "HH-HH v"
                },
                "M": {
                  "M": "M-M"
                },
                "MEd": {
                  "M": "E, d.M - E, d.M",
                  "d": "E, d.M - E, d.M"
                },
                "MMM": {
                  "M": "MMM-MMM"
                },
                "MMMEd": {
                  "M": "E, dd. MMM - E, dd. MMM",
                  "d": "E, dd. - E, dd. MMM"
                },
                "MMMd": {
                  "M": "dd. MMM - dd. MMM",
                  "d": "dd.-dd. MMM"
                },
                "Md": {
                  "M": "d.M - d.M",
                  "d": "d.M - d.M"
                },
                "d": {
                  "d": "d-d"
                },
                "h": {
                  "a": "hh a - hh a",
                  "h": "hh-hh a"
                },
                "hm": {
                  "a": "hh:mm a - hh:mm a",
                  "h": "hh:mm-hh:mm a",
                  "m": "hh:mm-hh:mm a"
                },
                "hmv": {
                  "a": "hh:mm a - hh:mm a v",
                  "h": "hh:mm-hh:mm a v",
                  "m": "hh:mm-hh:mm a v"
                },
                "hv": {
                  "a": "hh a - hh a v",
                  "h": "hh-hh a v"
                },
                "y": {
                  "y": "y-y G"
                },
                "yM": {
                  "M": "MM.-MM. y. G",
                  "y": "MM.y. - MM.y. G"
                },
                "yMEd": {
                  "M": "E, d.M.y. - E, d.M.y. G",
                  "d": "E, d.M.y. - E, d.M.y. G",
                  "y": "E, d.M.y. - E, d.M.y. G"
                },
                "yMMM": {
                  "M": "MMM-MMM y. G",
                  "y": "MMM y. - MMM y. G"
                },
                "yMMMEd": {
                  "M": "E, dd. MMM - E, dd. MMM y. G",
                  "d": "E, dd. - E, dd. MMM y. G",
                  "y": "E, dd. MMM y. - E, dd. MMM y. G"
                },
                "yMMMM": {
                  "M": "MMMM-MMMM y. G",
                  "y": "MMMM y. - MMMM y. G"
                },
                "yMMMd": {
                  "M": "dd. MMM - dd. MMM y. G",
                  "d": "dd.-dd. MMM y. G",
                  "y": "dd. MMM y. - dd. MMM y. G"
                },
                "yMd": {
                  "M": "d.M.y. - d.M.y. G",
                  "d": "d.M.y. - d.M.y. G",
                  "y": "d.M.y. - d.M.y. G"
                }
              }
            }
          }
        }
      }
    }
  }
}
