{
  "main": {
    "bs-Cyrl": {
      "identity": {
        "version": {
          "_cldrVersion": "26",
          "_number": "$Revision: 10809 $"
        },
        "generation": {
          "_date": "$Date: 2014-08-14 15:10:07 -0500 (Thu, 14 Aug 2014) $"
        },
        "language": "bs",
        "script": "Cyrl"
      },
      "localeDisplayNames": {
        "variants": {
          "1606NICT": "Француски из касног средњег века до 1606.",
          "1694ACAD": "Рани модерни француски",
          "1901": "Традиционална немачка ортографија",
          "1959ACAD": "Академски",
          "1994": "Стандарднизована ресијанска ортографија",
          "1996": "Немачка ортографија из 1996",
          "ALALC97": "ALALC97",
          "ALUKU": "ALUKU",
          "AREVELA": "Источни арменијски",
          "AREVMDA": "Западно јерменска",
          "BAKU1926": "Уједињен турски латинични алфабет",
          "BALANKA": "BALANKA",
          "BARLA": "BARLA",
          "BAUDDHA": "BAUDDHA",
          "BISCAYAN": "BISCAYAN",
          "BISKE": "Сан Ђорђио/Била дијалект",
          "BOHORIC": "BOHORIC",
          "BOONT": "Бунтлинг",
          "DAJNKO": "DAJNKO",
          "EKAVSK": "EKAVSK",
          "EMODENG": "EMODENG",
          "FONIPA": "ИПА фонетика",
          "FONUPA": "УПА фонетика",
          "FONXSAMP": "FONXSAMP",
          "HEPBURN": "HEPBURN",
          "HOGNORSK": "HOGNORSK",
          "IJEKAVSK": "IJEKAVSK",
          "ITIHASA": "ITIHASA",
          "JAUER": "JAUER",
          "JYUTPING": "JYUTPING",
          "KKCOR": "Уобичајена ортографија",
          "KSCOR": "KSCOR",
          "LAUKIKA": "LAUKIKA",
          "LIPAW": "Липовички дијалект ресијански",
          "LUNA1918": "LUNA1918",
          "METELKO": "METELKO",
          "MONOTON": "Монотоник",
          "NDYUKA": "NDYUKA",
          "NEDIS": "Натисоне дијалект",
          "NJIVA": "Гњива/Њива дијалкект",
          "NULIK": "NULIK",
          "OSOJS": "Осеако/Осојане дијалект",
          "PAMAKA": "PAMAKA",
          "PETR1708": "PETR1708",
          "PINYIN": "PINYIN",
          "POLYTON": "Политоник",
          "POSIX": "Компјутер",
          "PUTER": "PUTER",
          "REVISED": "Ревидирана ортографија",
          "RIGIK": "RIGIK",
          "ROZAJ": "Ресијан",
          "RUMGR": "RUMGR",
          "SAAHO": "Сахо",
          "SCOTLAND": "Шкотски стандардни Енглески",
          "SCOUSE": "Скауз",
          "SOLBA": "Столвица/Солбица дијалект",
          "SOTAV": "SOTAV",
          "SURMIRAN": "SURMIRAN",
          "SURSILV": "SURSILV",
          "SUTSILV": "SUTSILV",
          "TARASK": "Тараскијевичка ортографија",
          "UCCOR": "Уједињена ортографија",
          "UCRCOR": "Уједињена ревидирана ортографија",
          "ULSTER": "ULSTER",
          "UNIFON": "UNIFON",
          "VAIDIKA": "VAIDIKA",
          "VALENCIA": "Валенцијска",
          "VALLADER": "VALLADER",
          "WADEGILE": "WADEGILE"
        }
      }
    }
  }
}
