{
  "main": {
    "mgo-CM": {
      "identity": {
        "version": {
          "_cldrVersion": "26",
          "_number": "$Revision: 10669 $"
        },
        "generation": {
          "_date": "$Date: 2014-07-23 16:10:33 -0500 (Wed, 23 Jul 2014) $"
        },
        "language": "mgo",
        "territory": "CM"
      },
      "dates": {
        "calendars": {
          "gregorian": {
            "months": {
              "format": {
                "abbreviated": {
                  "1": "mbegtug",
                  "2": "imeg àbùbì",
                  "3": "imeg mbəŋchubi",
                  "4": "iməg ngwə̀t",
                  "5": "iməg fog",
                  "6": "iməg ichiibɔd",
                  "7": "iməg àdùmbə̀ŋ",
                  "8": "iməg ichika",
                  "9": "iməg kud",
                  "10": "iməg tèsiʼe",
                  "11": "iməg zò",
                  "12": "iməg krizmed"
                },
                "narrow": {
                  "1": "M1",
                  "2": "A2",
                  "3": "M3",
                  "4": "N4",
                  "5": "F5",
                  "6": "I6",
                  "7": "A7",
                  "8": "I8",
                  "9": "K9",
                  "10": "10",
                  "11": "11",
                  "12": "12"
                },
                "wide": {
                  "1": "iməg mbegtug",
                  "2": "imeg àbùbì",
                  "3": "imeg mbəŋchubi",
                  "4": "iməg ngwə̀t",
                  "5": "iməg fog",
                  "6": "iməg ichiibɔd",
                  "7": "iməg àdùmbə̀ŋ",
                  "8": "iməg ichika",
                  "9": "iməg kud",
                  "10": "iməg tèsiʼe",
                  "11": "iməg zò",
                  "12": "iməg krizmed"
                }
              },
              "stand-alone": {
                "abbreviated": {
                  "1": "mbegtug",
                  "2": "imeg àbùbì",
                  "3": "imeg mbəŋchubi",
                  "4": "iməg ngwə̀t",
                  "5": "iməg fog",
                  "6": "iməg ichiibɔd",
                  "7": "iməg àdùmbə̀ŋ",
                  "8": "iməg ichika",
                  "9": "iməg kud",
                  "10": "iməg tèsiʼe",
                  "11": "iməg zò",
                  "12": "iməg krizmed"
                },
                "narrow": {
                  "1": "M1",
                  "2": "A2",
                  "3": "M3",
                  "4": "N4",
                  "5": "F5",
                  "6": "I6",
                  "7": "A7",
                  "8": "I8",
                  "9": "K9",
                  "10": "10",
                  "11": "11",
                  "12": "12"
                },
                "wide": {
                  "1": "iməg mbegtug",
                  "2": "imeg àbùbì",
                  "3": "imeg mbəŋchubi",
                  "4": "iməg ngwə̀t",
                  "5": "iməg fog",
                  "6": "iməg ichiibɔd",
                  "7": "iməg àdùmbə̀ŋ",
                  "8": "iməg ichika",
                  "9": "iməg kud",
                  "10": "iməg tèsiʼe",
                  "11": "iməg zò",
                  "12": "iməg krizmed"
                }
              }
            },
            "days": {
              "format": {
                "abbreviated": {
                  "sun": "Aneg 1",
                  "mon": "Aneg 2",
                  "tue": "Aneg 3",
                  "wed": "Aneg 4",
                  "thu": "Aneg 5",
                  "fri": "Aneg 6",
                  "sat": "Aneg 7"
                },
                "narrow": {
                  "sun": "A1",
                  "mon": "A2",
                  "tue": "A3",
                  "wed": "A4",
                  "thu": "A5",
                  "fri": "A6",
                  "sat": "A7"
                },
                "short": {
                  "sun": "1",
                  "mon": "2",
                  "tue": "3",
                  "wed": "4",
                  "thu": "5",
                  "fri": "6",
                  "sat": "7"
                },
                "wide": {
                  "sun": "Aneg 1",
                  "mon": "Aneg 2",
                  "tue": "Aneg 3",
                  "wed": "Aneg 4",
                  "thu": "Aneg 5",
                  "fri": "Aneg 6",
                  "sat": "Aneg 7"
                }
              },
              "stand-alone": {
                "abbreviated": {
                  "sun": "Aneg 1",
                  "mon": "Aneg 2",
                  "tue": "Aneg 3",
                  "wed": "Aneg 4",
                  "thu": "Aneg 5",
                  "fri": "Aneg 6",
                  "sat": "Aneg 7"
                },
                "narrow": {
                  "sun": "A1",
                  "mon": "A2",
                  "tue": "A3",
                  "wed": "A4",
                  "thu": "A5",
                  "fri": "A6",
                  "sat": "A7"
                },
                "short": {
                  "sun": "1",
                  "mon": "2",
                  "tue": "3",
                  "wed": "4",
                  "thu": "5",
                  "fri": "6",
                  "sat": "7"
                },
                "wide": {
                  "sun": "Aneg 1",
                  "mon": "Aneg 2",
                  "tue": "Aneg 3",
                  "wed": "Aneg 4",
                  "thu": "Aneg 5",
                  "fri": "Aneg 6",
                  "sat": "Aneg 7"
                }
              }
            },
            "quarters": {
              "format": {
                "abbreviated": {
                  "1": "Q1",
                  "2": "Q2",
                  "3": "Q3",
                  "4": "Q4"
                },
                "narrow": {
                  "1": "1",
                  "2": "2",
                  "3": "3",
                  "4": "4"
                },
                "wide": {
                  "1": "Q1",
                  "2": "Q2",
                  "3": "Q3",
                  "4": "Q4"
                }
              },
              "stand-alone": {
                "abbreviated": {
                  "1": "Q1",
                  "2": "Q2",
                  "3": "Q3",
                  "4": "Q4"
                },
                "narrow": {
                  "1": "1",
                  "2": "2",
                  "3": "3",
                  "4": "4"
                },
                "wide": {
                  "1": "Q1",
                  "2": "Q2",
                  "3": "Q3",
                  "4": "Q4"
                }
              }
            },
            "dayPeriods": {
              "format": {
                "abbreviated": {
                  "am": "AM",
                  "noon": "noon",
                  "pm": "PM"
                },
                "narrow": {
                  "am": "a",
                  "noon": "n",
                  "pm": "p"
                },
                "wide": {
                  "am": "AM",
                  "noon": "noon",
                  "pm": "PM"
                }
              },
              "stand-alone": {
                "abbreviated": {
                  "am": "AM",
                  "noon": "noon",
                  "pm": "PM"
                },
                "narrow": {
                  "am": "a",
                  "noon": "n",
                  "pm": "p"
                },
                "wide": {
                  "am": "AM",
                  "noon": "noon",
                  "pm": "PM"
                }
              }
            },
            "eras": {
              "eraNames": {
                "0": "BCE",
                "0-alt-variant": "BCE",
                "1": "CE",
                "1-alt-variant": "CE"
              },
              "eraAbbr": {
                "0": "BCE",
                "0-alt-variant": "BCE",
                "1": "CE",
                "1-alt-variant": "CE"
              },
              "eraNarrow": {
                "0": "BCE",
                "0-alt-variant": "BCE",
                "1": "CE",
                "1-alt-variant": "CE"
              }
            },
            "dateFormats": {
              "full": "EEEE, y MMMM dd",
              "long": "y MMMM d",
              "medium": "y MMM d",
              "short": "y-MM-dd"
            },
            "timeFormats": {
              "full": "HH:mm:ss zzzz",
              "long": "HH:mm:ss z",
              "medium": "HH:mm:ss",
              "short": "HH:mm"
            },
            "dateTimeFormats": {
              "full": "{1} {0}",
              "long": "{1} {0}",
              "medium": "{1} {0}",
              "short": "{1} {0}",
              "availableFormats": {
                "E": "ccc",
                "EHm": "E HH:mm",
                "EHms": "E HH:mm:ss",
                "Ed": "d, E",
                "Ehm": "E h:mm a",
                "Ehms": "E h:mm:ss a",
                "Gy": "G y",
                "GyMMM": "G y MMM",
                "GyMMMEd": "G y MMM d, E",
                "GyMMMd": "G y MMM d",
                "H": "HH",
                "Hm": "HH:mm",
                "Hms": "HH:mm:ss",
                "M": "L",
                "MEd": "MM-dd, E",
                "MMM": "LLL",
                "MMMEd": "MMM d, E",
                "MMMd": "MMM d",
                "Md": "MM-dd",
                "d": "d",
                "h": "h a",
                "hm": "h:mm a",
                "hms": "h:mm:ss a",
                "ms": "mm:ss",
                "y": "y",
                "yM": "y-MM",
                "yMEd": "y-MM-dd, E",
                "yMMM": "y MMM",
                "yMMMEd": "y MMM d, E",
                "yMMMd": "y MMM d",
                "yMd": "y-MM-dd",
                "yQQQ": "y QQQ",
                "yQQQQ": "y QQQQ"
              },
              "appendItems": {
                "Day": "{0} ({2}: {1})",
                "Day-Of-Week": "{0} {1}",
                "Era": "{1} {0}",
                "Hour": "{0} ({2}: {1})",
                "Minute": "{0} ({2}: {1})",
                "Month": "{0} ({2}: {1})",
                "Quarter": "{0} ({2}: {1})",
                "Second": "{0} ({2}: {1})",
                "Timezone": "{0} {1}",
                "Week": "{0} ({2}: {1})",
                "Year": "{1} {0}"
              },
              "intervalFormats": {
                "intervalFormatFallback": "{0} – {1}",
                "H": {
                  "H": "HH–HH"
                },
                "Hm": {
                  "H": "HH:mm–HH:mm",
                  "m": "HH:mm–HH:mm"
                },
                "Hmv": {
                  "H": "HH:mm–HH:mm v",
                  "m": "HH:mm–HH:mm v"
                },
                "Hv": {
                  "H": "HH–HH v"
                },
                "M": {
                  "M": "MM–MM"
                },
                "MEd": {
                  "M": "MM-dd, E – MM-dd, E",
                  "d": "MM-dd, E – MM-dd, E"
                },
                "MMM": {
                  "M": "LLL–LLL"
                },
                "MMMEd": {
                  "M": "MMM d, E – MMM d, E",
                  "d": "MMM d, E – MMM d, E"
                },
                "MMMd": {
                  "M": "MMM d – MMM d",
                  "d": "MMM d–d"
                },
                "Md": {
                  "M": "MM-dd – MM-dd",
                  "d": "MM-dd – MM-dd"
                },
                "d": {
                  "d": "d–d"
                },
                "h": {
                  "a": "h a – h a",
                  "h": "h–h a"
                },
                "hm": {
                  "a": "h:mm a – h:mm a",
                  "h": "h:mm–h:mm a",
                  "m": "h:mm–h:mm a"
                },
                "hmv": {
                  "a": "h:mm a – h:mm a v",
                  "h": "h:mm–h:mm a v",
                  "m": "h:mm–h:mm a v"
                },
                "hv": {
                  "a": "h a – h a v",
                  "h": "h–h a v"
                },
                "y": {
                  "y": "y–y"
                },
                "yM": {
                  "M": "y-MM – y-MM",
                  "y": "y-MM – y-MM"
                },
                "yMEd": {
                  "M": "y-MM-dd, E – y-MM-dd, E",
                  "d": "y-MM-dd, E – y-MM-dd, E",
                  "y": "y-MM-dd, E – y-MM-dd, E"
                },
                "yMMM": {
                  "M": "y MMM–MMM",
                  "y": "y MMM – y MMM"
                },
                "yMMMEd": {
                  "M": "y MMM d, E – MMM d, E",
                  "d": "y MMM d, E – MMM d, E",
                  "y": "y MMM d, E – y MMM d, E"
                },
                "yMMMM": {
                  "M": "y MMMM–MMMM",
                  "y": "y MMMM – y MMMM"
                },
                "yMMMd": {
                  "M": "y MMM d – MMM d",
                  "d": "y MMM d–d",
                  "y": "y MMM d – y MMM d"
                },
                "yMd": {
                  "M": "y-MM-dd – y-MM-dd",
                  "d": "y-MM-dd – y-MM-dd",
                  "y": "y-MM-dd – y-MM-dd"
                }
              }
            }
          }
        }
      }
    }
  }
}
