{
  "main": {
    "nl-AW": {
      "identity": {
        "version": {
          "_cldrVersion": "26",
          "_number": "$Revision: 10669 $"
        },
        "generation": {
          "_date": "$Date: 2014-07-23 16:10:33 -0500 (Wed, 23 Jul 2014) $"
        },
        "language": "nl",
        "territory": "AW"
      },
      "dates": {
        "calendars": {
          "generic": {
            "months": {
              "format": {
                "abbreviated": {
                  "1": "M01",
                  "2": "M02",
                  "3": "M03",
                  "4": "M04",
                  "5": "M05",
                  "6": "M06",
                  "7": "M07",
                  "8": "M08",
                  "9": "M09",
                  "10": "M10",
                  "11": "M11",
                  "12": "M12"
                },
                "narrow": {
                  "1": "1",
                  "2": "2",
                  "3": "3",
                  "4": "4",
                  "5": "5",
                  "6": "6",
                  "7": "7",
                  "8": "8",
                  "9": "9",
                  "10": "10",
                  "11": "11",
                  "12": "12"
                },
                "wide": {
                  "1": "M01",
                  "2": "M02",
                  "3": "M03",
                  "4": "M04",
                  "5": "M05",
                  "6": "M06",
                  "7": "M07",
                  "8": "M08",
                  "9": "M09",
                  "10": "M10",
                  "11": "M11",
                  "12": "M12"
                }
              },
              "stand-alone": {
                "abbreviated": {
                  "1": "M01",
                  "2": "M02",
                  "3": "M03",
                  "4": "M04",
                  "5": "M05",
                  "6": "M06",
                  "7": "M07",
                  "8": "M08",
                  "9": "M09",
                  "10": "M10",
                  "11": "M11",
                  "12": "M12"
                },
                "narrow": {
                  "1": "1",
                  "2": "2",
                  "3": "3",
                  "4": "4",
                  "5": "5",
                  "6": "6",
                  "7": "7",
                  "8": "8",
                  "9": "9",
                  "10": "10",
                  "11": "11",
                  "12": "12"
                },
                "wide": {
                  "1": "M01",
                  "2": "M02",
                  "3": "M03",
                  "4": "M04",
                  "5": "M05",
                  "6": "M06",
                  "7": "M07",
                  "8": "M08",
                  "9": "M09",
                  "10": "M10",
                  "11": "M11",
                  "12": "M12"
                }
              }
            },
            "days": {
              "format": {
                "abbreviated": {
                  "sun": "zo",
                  "mon": "ma",
                  "tue": "di",
                  "wed": "wo",
                  "thu": "do",
                  "fri": "vr",
                  "sat": "za"
                },
                "narrow": {
                  "sun": "Z",
                  "mon": "M",
                  "tue": "D",
                  "wed": "W",
                  "thu": "D",
                  "fri": "V",
                  "sat": "Z"
                },
                "short": {
                  "sun": "zo",
                  "mon": "ma",
                  "tue": "di",
                  "wed": "wo",
                  "thu": "do",
                  "fri": "vr",
                  "sat": "za"
                },
                "wide": {
                  "sun": "zondag",
                  "mon": "maandag",
                  "tue": "dinsdag",
                  "wed": "woensdag",
                  "thu": "donderdag",
                  "fri": "vrijdag",
                  "sat": "zaterdag"
                }
              },
              "stand-alone": {
                "abbreviated": {
                  "sun": "Zo",
                  "mon": "Ma",
                  "tue": "Di",
                  "wed": "Wo",
                  "thu": "Do",
                  "fri": "Vr",
                  "sat": "Za"
                },
                "narrow": {
                  "sun": "Z",
                  "mon": "M",
                  "tue": "D",
                  "wed": "W",
                  "thu": "D",
                  "fri": "V",
                  "sat": "Z"
                },
                "short": {
                  "sun": "zo",
                  "mon": "ma",
                  "tue": "di",
                  "wed": "wo",
                  "thu": "do",
                  "fri": "vr",
                  "sat": "za"
                },
                "wide": {
                  "sun": "Zondag",
                  "mon": "Maandag",
                  "tue": "Dinsdag",
                  "wed": "Woensdag",
                  "thu": "Donderdag",
                  "fri": "Vrijdag",
                  "sat": "Zaterdag"
                }
              }
            },
            "quarters": {
              "format": {
                "abbreviated": {
                  "1": "K1",
                  "2": "K2",
                  "3": "K3",
                  "4": "K4"
                },
                "narrow": {
                  "1": "1",
                  "2": "2",
                  "3": "3",
                  "4": "4"
                },
                "wide": {
                  "1": "1e kwartaal",
                  "2": "2e kwartaal",
                  "3": "3e kwartaal",
                  "4": "4e kwartaal"
                }
              },
              "stand-alone": {
                "abbreviated": {
                  "1": "K1",
                  "2": "K2",
                  "3": "K3",
                  "4": "K4"
                },
                "narrow": {
                  "1": "1",
                  "2": "2",
                  "3": "3",
                  "4": "4"
                },
                "wide": {
                  "1": "1e kwartaal",
                  "2": "2e kwartaal",
                  "3": "3e kwartaal",
                  "4": "4e kwartaal"
                }
              }
            },
            "dayPeriods": {
              "format": {
                "abbreviated": {
                  "am": "a.m.",
                  "noon": "12 uur ‘s middags",
                  "pm": "p.m."
                },
                "narrow": {
                  "am": "a.m.",
                  "noon": "n",
                  "pm": "p.m."
                },
                "wide": {
                  "am": "a.m.",
                  "noon": "12 uur ‘s middags",
                  "pm": "p.m."
                }
              },
              "stand-alone": {
                "abbreviated": {
                  "am": "a.m.",
                  "noon": "12 uur ‘s middags",
                  "pm": "p.m."
                },
                "narrow": {
                  "am": "a.m.",
                  "noon": "n",
                  "pm": "p.m."
                },
                "wide": {
                  "am": "voormiddag",
                  "noon": "12 uur ‘s middags",
                  "pm": "p.m."
                }
              }
            },
            "eras": {
              "eraNames": {
                "0": "ERA0",
                "1": "ERA1"
              },
              "eraAbbr": {
                "0": "ERA0",
                "1": "ERA1"
              },
              "eraNarrow": {
                "0": "ERA0",
                "1": "ERA1"
              }
            },
            "dateFormats": {
              "full": "EEEE d MMMM y G",
              "long": "d MMMM y G",
              "medium": "d MMM y G",
              "short": "dd-MM-yy GGGGG"
            },
            "timeFormats": {
              "full": "HH:mm:ss zzzz",
              "long": "HH:mm:ss z",
              "medium": "HH:mm:ss",
              "short": "HH:mm"
            },
            "dateTimeFormats": {
              "full": "{1} {0}",
              "long": "{1} {0}",
              "medium": "{1} {0}",
              "short": "{1} {0}",
              "availableFormats": {
                "E": "ccc",
                "EHm": "E HH:mm",
                "EHms": "E HH:mm:ss",
                "Ed": "E d",
                "Ehm": "E h:mm a",
                "Ehms": "E h:mm:ss a",
                "Gy": "y G",
                "GyMMM": "MMM y G",
                "GyMMMEd": "E d MMM y G",
                "GyMMMd": "d MMM y G",
                "H": "HH",
                "Hm": "HH:mm",
                "Hms": "HH:mm:ss",
                "M": "L",
                "MEd": "E d-M",
                "MMM": "LLL",
                "MMMEd": "E d MMM",
                "MMMMd": "d MMMM",
                "MMMd": "d MMM",
                "Md": "d-M",
                "d": "d",
                "h": "h a",
                "hm": "h:mm a",
                "hms": "h:mm:ss a",
                "ms": "mm:ss",
                "y": "y G",
                "yyyy": "y G",
                "yyyyM": "M-y GGGGG",
                "yyyyMEd": "E d-M-y GGGGG",
                "yyyyMMM": "MMM y G",
                "yyyyMMMEd": "E d MMM y G",
                "yyyyMMMM": "MMMM y G",
                "yyyyMMMd": "d MMM y G",
                "yyyyMd": "d-M-y GGGGG",
                "yyyyQQQ": "QQQ y G",
                "yyyyQQQQ": "QQQQ y G"
              },
              "appendItems": {
                "Day": "{0} ({2}: {1})",
                "Day-Of-Week": "{0} {1}",
                "Era": "{1} {0}",
                "Hour": "{0} ({2}: {1})",
                "Minute": "{0} ({2}: {1})",
                "Month": "{0} ({2}: {1})",
                "Quarter": "{0} ({2}: {1})",
                "Second": "{0} ({2}: {1})",
                "Timezone": "{0} {1}",
                "Week": "{0} ({2}: {1})",
                "Year": "{1} {0}"
              },
              "intervalFormats": {
                "intervalFormatFallback": "{0} - {1}",
                "H": {
                  "H": "HH-HH"
                },
                "Hm": {
                  "H": "HH:mm-HH:mm",
                  "m": "HH:mm-HH:mm"
                },
                "Hmv": {
                  "H": "HH:mm-HH:mm v",
                  "m": "HH:mm-HH:mm v"
                },
                "Hv": {
                  "H": "HH-HH v"
                },
                "M": {
                  "M": "M-M"
                },
                "MEd": {
                  "M": "E dd-MM - E dd-MM",
                  "d": "E dd-MM - E dd-MM"
                },
                "MMM": {
                  "M": "MMM-MMM"
                },
                "MMMEd": {
                  "M": "E d MMM - E d MMM",
                  "d": "E d - E d MMM"
                },
                "MMMM": {
                  "M": "MMMM–MMMM"
                },
                "MMMd": {
                  "M": "d MMM - d MMM",
                  "d": "d-d MMM"
                },
                "Md": {
                  "M": "dd-MM - dd-MM",
                  "d": "dd-MM - dd-MM"
                },
                "d": {
                  "d": "d-d"
                },
                "h": {
                  "a": "h a - h a",
                  "h": "h-h a"
                },
                "hm": {
                  "a": "h:mm a - h:mm a",
                  "h": "h:mm-h:mm a",
                  "m": "h:mm-h:mm a"
                },
                "hmv": {
                  "a": "h:mm a - h:mm a v",
                  "h": "h:mm-h:mm a v",
                  "m": "h:mm-h:mm a v"
                },
                "hv": {
                  "a": "h a - h a v",
                  "h": "h-h a v"
                },
                "y": {
                  "y": "y-y G"
                },
                "yM": {
                  "M": "MM-y - MM-y G",
                  "y": "MM-y - MM-y G"
                },
                "yMEd": {
                  "M": "E dd-MM-y - E dd-MM-y G",
                  "d": "E dd-MM-y - E dd-MM-y G",
                  "y": "E dd-MM-y - E dd-MM-y G"
                },
                "yMMM": {
                  "M": "MMM-MMM y G",
                  "y": "MMM y - MMM y G"
                },
                "yMMMEd": {
                  "M": "E d MMM - E d MMM y G",
                  "d": "E d - E d MMM y G",
                  "y": "E d MMM y - E d MMM y G"
                },
                "yMMMM": {
                  "M": "MMMM-MMMM y G",
                  "y": "MMMM y - MMMM y G"
                },
                "yMMMd": {
                  "M": "d MMM - d MMM y G",
                  "d": "d-d MMM y G",
                  "y": "d MMM y - d MMM y G"
                },
                "yMd": {
                  "M": "dd-MM-y - dd-MM-y G",
                  "d": "dd-MM-y - dd-MM-y G",
                  "y": "dd-MM-y - dd-MM-y G"
                }
              }
            }
          }
        }
      }
    }
  }
}
