{
  "main": {
    "so-KE": {
      "identity": {
        "version": {
          "_cldrVersion": "26",
          "_number": "$Revision: 10669 $"
        },
        "generation": {
          "_date": "$Date: 2014-07-23 16:10:33 -0500 (Wed, 23 Jul 2014) $"
        },
        "language": "root",
        "territory": "KE"
      },
      "localeDisplayNames": {
        "territories": {
          "001": "001",
          "002": "002",
          "003": "003",
          "005": "005",
          "009": "009",
          "011": "011",
          "013": "013",
          "014": "Afrikada Bari",
          "015": "015",
          "017": "017",
          "018": "018",
          "019": "019",
          "021": "021",
          "029": "029",
          "030": "Aasiyada Bari",
          "034": "034",
          "035": "035",
          "039": "039",
          "053": "053",
          "054": "054",
          "057": "057",
          "061": "061",
          "142": "142",
          "143": "143",
          "145": "145",
          "150": "150",
          "151": "Yurubta Bari",
          "154": "154",
          "155": "155",
          "419": "419",
          "AC": "AC",
          "AD": "Andora",
          "AE": "Imaaraadka Carabta ee Midoobay",
          "AF": "Afgaanistaan",
          "AG": "Antigua iyo Barbuda",
          "AI": "Anguilla",
          "AL": "Albaaniya",
          "AM": "Armeeniya",
          "AN": "Netherlands Antilles",
          "AO": "Angoola",
          "AQ": "AQ",
          "AR": "Arjantiin",
          "AS": "Samowa Ameerika",
          "AT": "Awsteriya",
          "AU": "Awstaraaliya",
          "AW": "Aruba",
          "AX": "AX",
          "AZ": "Azerbajaan",
          "BA": "Bosniya Hersigoviina",
          "BB": "Baarbadoos",
          "BD": "Bangaaladheesh",
          "BE": "Biljam",
          "BF": "Burkiina Faaso",
          "BG": "Bulgaariya",
          "BH": "Baxreyn",
          "BI": "Burundi",
          "BJ": "Biniin",
          "BL": "BL",
          "BM": "Bermuuda",
          "BN": "Buruneeya",
          "BO": "Boliifiya",
          "BQ": "BQ",
          "BR": "Braasiil",
          "BS": "Bahaamas",
          "BT": "Bhutan",
          "BV": "BV",
          "BW": "Botuswaana",
          "BY": "Belarus",
          "BZ": "Belize",
          "CA": "Kanada",
          "CC": "CC",
          "CD": "Jamhuuriyadda Dimuquraadiga Kongo",
          "CD-alt-variant": "CD",
          "CF": "Jamhuuriyadda Afrikada Dhexe",
          "CG": "Kongo",
          "CG-alt-variant": "CG",
          "CH": "Swiiserlaand",
          "CI": "Ivory coast",
          "CI-alt-variant": "CI",
          "CK": "Jaziiradda Cook",
          "CL": "Jili",
          "CM": "Kaameruun",
          "CN": "Shiinaha",
          "CO": "Kolombiya",
          "CP": "CP",
          "CR": "Kosta Riika",
          "CU": "Kuuba",
          "CV": "Cape Verde Islands",
          "CW": "CW",
          "CX": "CX",
          "CY": "Qubrus",
          "CZ": "Jamhuuriyadda Jek",
          "DE": "Jarmal",
          "DG": "DG",
          "DJ": "Jabuuti",
          "DK": "Denmark",
          "DM": "Domeenika",
          "DO": "Jamhuuriyadda Domeenika",
          "DZ": "Aljeeriya",
          "EA": "EA",
          "EC": "Ikuwadoor",
          "EE": "Estooniya",
          "EG": "Masar",
          "EH": "EH",
          "ER": "Eretereeya",
          "ES": "Isbeyn",
          "ET": "Itoobiya",
          "EU": "EU",
          "FI": "Finland",
          "FJ": "Fiji",
          "FK": "Jaziiradaha Fooklaan",
          "FK-alt-variant": "FK",
          "FM": "Micronesia",
          "FO": "FO",
          "FR": "Faransiis",
          "GA": "Gaaboon",
          "GB": "United Kingdom",
          "GB-alt-short": "GB",
          "GD": "Giriinaada",
          "GE": "Joorjiya",
          "GF": "French Guiana",
          "GG": "GG",
          "GH": "Gaana",
          "GI": "Gibraltar",
          "GL": "Greenland",
          "GM": "Gambiya",
          "GN": "Gini",
          "GP": "Guadeloupe",
          "GQ": "Equatorial Guinea",
          "GR": "Giriig",
          "GS": "GS",
          "GT": "Guwaatamaala",
          "GU": "Guam",
          "GW": "Gini-Bisaaw",
          "GY": "Guyana",
          "HK": "HK",
          "HK-alt-short": "HK",
          "HM": "HM",
          "HN": "Honduras",
          "HR": "Korweeshiya",
          "HT": "Hayti",
          "HU": "Hangeri",
          "IC": "IC",
          "ID": "Indoneesiya",
          "IE": "Ayrlaand",
          "IL": "Israaʼiil",
          "IM": "IM",
          "IN": "Hindiya",
          "IO": "British Indian Ocean Territory",
          "IQ": "Ciraaq",
          "IR": "Iiraan",
          "IS": "Iislaand",
          "IT": "Talyaani",
          "JE": "JE",
          "JM": "Jameyka",
          "JO": "Urdun",
          "JP": "Jabaan",
          "KE": "Kiiniya",
          "KG": "Kirgistaan",
          "KH": "Kamboodiya",
          "KI": "Kiribati",
          "KM": "Komooros",
          "KN": "Saint Kitts and Nevis",
          "KP": "Kuuriyada Waqooyi",
          "KR": "Kuuriyada Koonfureed",
          "KW": "Kuwayt",
          "KY": "Cayman Islands",
          "KZ": "Kasaakhistaan",
          "LA": "Laos",
          "LB": "Lubnaan",
          "LC": "Saint Lucia",
          "LI": "Liechtenstein",
          "LK": "Sirilaanka",
          "LR": "Laybeeriya",
          "LS": "Losooto",
          "LT": "Lituweeniya",
          "LU": "Luksemboorg",
          "LV": "Latfiya",
          "LY": "Liibiya",
          "MA": "Marooko",
          "MC": "Moonako",
          "MD": "Moldofa",
          "ME": "ME",
          "MF": "MF",
          "MG": "Madagaskar",
          "MH": "Marshall Islands",
          "MK": "Makadooniya",
          "MK-alt-variant": "MK",
          "ML": "Maali",
          "MM": "Myanmar",
          "MN": "Mongooliya",
          "MO": "MO",
          "MO-alt-short": "MO",
          "MP": "Northern Mariana Islands",
          "MQ": "Martinique",
          "MR": "Muritaaniya",
          "MS": "Montserrat",
          "MT": "Maalda",
          "MU": "Murishiyoos",
          "MV": "Maaldiqeen",
          "MW": "Malaawi",
          "MX": "Meksiko",
          "MY": "Malaysia",
          "MZ": "Musambiig",
          "NA": "Namiibiya",
          "NC": "New Caledonia",
          "NE": "Nayjer",
          "NF": "Norfolk Island",
          "NG": "Nayjeeriya",
          "NI": "Nikaraaguwa",
          "NL": "Netherlands",
          "NO": "Noorweey",
          "NP": "Nebaal",
          "NR": "Nauru",
          "NU": "Niue",
          "NZ": "Neyuusilaand",
          "OM": "Cumaan",
          "PA": "Panama",
          "PE": "Peru",
          "PF": "French Polynesia",
          "PG": "Papua New Guinea",
          "PH": "Filibiin",
          "PK": "Bakistaan",
          "PL": "Booland",
          "PM": "Saint Pierre and Miquelon",
          "PN": "Pitcairn",
          "PR": "Puerto Rico",
          "PS": "Falastiin Daanka galbeed iyo Qasa",
          "PS-alt-short": "PS",
          "PT": "Bortuqaal",
          "PW": "Palau",
          "PY": "Paraguay",
          "QA": "Qadar",
          "QO": "QO",
          "RE": "Réunion",
          "RO": "Rumaaniya",
          "RS": "RS",
          "RU": "Ruush",
          "RW": "Ruwanda",
          "SA": "Sacuudi Carabiya",
          "SB": "Solomon Islands",
          "SC": "Sishelis",
          "SD": "Suudaan",
          "SE": "Iswidhan",
          "SG": "Singaboor",
          "SH": "Saint Helena",
          "SI": "Slovenia",
          "SJ": "SJ",
          "SK": "Slovakia",
          "SL": "Siraaliyoon",
          "SM": "San Marino",
          "SN": "Sinigaal",
          "SO": "Soomaaliya",
          "SR": "Suriname",
          "SS": "Koonfur Suudaan",
          "ST": "São Tomé and Príncipe",
          "SV": "El Salvador",
          "SX": "SX",
          "SY": "Suuriya",
          "SZ": "Iswaasilaand",
          "TA": "TA",
          "TC": "Turks and Caicos Islands",
          "TD": "Jaad",
          "TF": "TF",
          "TG": "Toogo",
          "TH": "Taylaand",
          "TJ": "Tajikistan",
          "TK": "Tokelau",
          "TL": "Timorka bari",
          "TL-alt-variant": "TL",
          "TM": "Turkmenistan",
          "TN": "Tuniisiya",
          "TO": "Tonga",
          "TR": "Turki",
          "TT": "Trinidad and Tobago",
          "TV": "Tuvalu",
          "TW": "Taywaan",
          "TZ": "Tansaaniya",
          "UA": "Ukrayn",
          "UG": "Ugaanda",
          "UM": "UM",
          "US": "Maraykanka",
          "US-alt-short": "US",
          "UY": "Uruguwaay",
          "UZ": "Uusbakistaan",
          "VA": "Faatikaan",
          "VC": "Saint Vincent and the Grenadines",
          "VE": "Fenisuweela",
          "VG": "British Virgin Islands",
          "VI": "U.S. Virgin Islands",
          "VN": "Fiyetnaam",
          "VU": "Vanuatu",
          "WF": "Wallis and Futuna",
          "WS": "Samoa",
          "XK": "XK",
          "YE": "Yaman",
          "YT": "Mayotte",
          "ZA": "Koonfur Afrika",
          "ZM": "Saambiya",
          "ZW": "Simbaabwe",
          "ZZ": "Far aan la aqoon amase aan saxnayn"
        }
      }
    }
  }
}
