{
  "main": {
    "ky-Cyrl-KG": {
      "identity": {
        "version": {
          "_cldrVersion": "26",
          "_number": "$Revision: 10669 $"
        },
        "generation": {
          "_date": "$Date: 2014-07-23 16:10:33 -0500 (Wed, 23 Jul 2014) $"
        },
        "language": "ky",
        "script": "Cyrl",
        "territory": "KG"
      },
      "dates": {
        "calendars": {
          "ethiopic-amete-alem": {
            "months": {
              "format": {
                "abbreviated": {
                  "1": "Meskerem",
                  "2": "Tekemt",
                  "3": "Hedar",
                  "4": "Tahsas",
                  "5": "Ter",
                  "6": "Yekatit",
                  "7": "Megabit",
                  "8": "Miazia",
                  "9": "Genbot",
                  "10": "Sene",
                  "11": "Hamle",
                  "12": "Nehasse",
                  "13": "Pagumen"
                },
                "narrow": {
                  "1": "1",
                  "2": "2",
                  "3": "3",
                  "4": "4",
                  "5": "5",
                  "6": "6",
                  "7": "7",
                  "8": "8",
                  "9": "9",
                  "10": "10",
                  "11": "11",
                  "12": "12",
                  "13": "13"
                },
                "wide": {
                  "1": "Meskerem",
                  "2": "Tekemt",
                  "3": "Hedar",
                  "4": "Tahsas",
                  "5": "Ter",
                  "6": "Yekatit",
                  "7": "Megabit",
                  "8": "Miazia",
                  "9": "Genbot",
                  "10": "Sene",
                  "11": "Hamle",
                  "12": "Nehasse",
                  "13": "Pagumen"
                }
              },
              "stand-alone": {
                "abbreviated": {
                  "1": "Meskerem",
                  "2": "Tekemt",
                  "3": "Hedar",
                  "4": "Tahsas",
                  "5": "Ter",
                  "6": "Yekatit",
                  "7": "Megabit",
                  "8": "Miazia",
                  "9": "Genbot",
                  "10": "Sene",
                  "11": "Hamle",
                  "12": "Nehasse",
                  "13": "Pagumen"
                },
                "narrow": {
                  "1": "1",
                  "2": "2",
                  "3": "3",
                  "4": "4",
                  "5": "5",
                  "6": "6",
                  "7": "7",
                  "8": "8",
                  "9": "9",
                  "10": "10",
                  "11": "11",
                  "12": "12",
                  "13": "13"
                },
                "wide": {
                  "1": "Meskerem",
                  "2": "Tekemt",
                  "3": "Hedar",
                  "4": "Tahsas",
                  "5": "Ter",
                  "6": "Yekatit",
                  "7": "Megabit",
                  "8": "Miazia",
                  "9": "Genbot",
                  "10": "Sene",
                  "11": "Hamle",
                  "12": "Nehasse",
                  "13": "Pagumen"
                }
              }
            },
            "days": {
              "format": {
                "abbreviated": {
                  "sun": "жек.",
                  "mon": "дүй.",
                  "tue": "шейш.",
                  "wed": "шарш.",
                  "thu": "бейш.",
                  "fri": "жума",
                  "sat": "ишм."
                },
                "narrow": {
                  "sun": "Ж",
                  "mon": "Д",
                  "tue": "Ш",
                  "wed": "Ш",
                  "thu": "Б",
                  "fri": "Ж",
                  "sat": "И"
                },
                "short": {
                  "sun": "жек.",
                  "mon": "дүй.",
                  "tue": "шейш.",
                  "wed": "шарш.",
                  "thu": "бейш.",
                  "fri": "жума",
                  "sat": "ишм."
                },
                "wide": {
                  "sun": "жекшемби",
                  "mon": "дүйшөмбү",
                  "tue": "шейшемби",
                  "wed": "шаршемби",
                  "thu": "бейшемби",
                  "fri": "жума",
                  "sat": "ишемби"
                }
              },
              "stand-alone": {
                "abbreviated": {
                  "sun": "жек.",
                  "mon": "дүй.",
                  "tue": "шейш.",
                  "wed": "шарш.",
                  "thu": "бейш.",
                  "fri": "жума",
                  "sat": "ишм."
                },
                "narrow": {
                  "sun": "Ж",
                  "mon": "Д",
                  "tue": "Ш",
                  "wed": "Ш",
                  "thu": "Б",
                  "fri": "Ж",
                  "sat": "И"
                },
                "short": {
                  "sun": "жк",
                  "mon": "дш.",
                  "tue": "шш.",
                  "wed": "шр.",
                  "thu": "бш.",
                  "fri": "жм.",
                  "sat": "иш."
                },
                "wide": {
                  "sun": "жекшемби",
                  "mon": "дүйшөмбү",
                  "tue": "шейшемби",
                  "wed": "шаршемби",
                  "thu": "бейшемби",
                  "fri": "жума",
                  "sat": "ишемби"
                }
              }
            },
            "quarters": {
              "format": {
                "abbreviated": {
                  "1": "1-чей.",
                  "2": "2-чей.",
                  "3": "3-чей.",
                  "4": "4-чей."
                },
                "narrow": {
                  "1": "1",
                  "2": "2",
                  "3": "3",
                  "4": "4"
                },
                "wide": {
                  "1": "1-чейрек",
                  "2": "2-чейрек",
                  "3": "3-чейрек",
                  "4": "4-чейрек"
                }
              },
              "stand-alone": {
                "abbreviated": {
                  "1": "1-ч.",
                  "2": "2-ч.",
                  "3": "3-ч.",
                  "4": "4-ч."
                },
                "narrow": {
                  "1": "1",
                  "2": "2",
                  "3": "3",
                  "4": "4"
                },
                "wide": {
                  "1": "1-чейрек",
                  "2": "2-чейрек",
                  "3": "3-чейрек",
                  "4": "4-чейрек"
                }
              }
            },
            "dayPeriods": {
              "format": {
                "abbreviated": {
                  "am": "таңкы",
                  "noon": "чак түш",
                  "pm": "түштөн кийин"
                },
                "narrow": {
                  "am": "тң",
                  "noon": "чт",
                  "pm": "тк"
                },
                "wide": {
                  "am": "таңкы",
                  "noon": "чак түш",
                  "pm": "түштөн кийин"
                }
              },
              "stand-alone": {
                "abbreviated": {
                  "am": "таңкы",
                  "noon": "чак түш",
                  "pm": "түштөн кийин"
                },
                "narrow": {
                  "am": "тң",
                  "noon": "чт",
                  "pm": "тк"
                },
                "wide": {
                  "am": "таңкы",
                  "noon": "чак түш",
                  "pm": "түштөн кийин"
                }
              }
            },
            "eras": {
              "eraNames": {
                "0": "ERA0"
              },
              "eraAbbr": {
                "0": "ERA0"
              },
              "eraNarrow": {
                "0": "ERA0"
              }
            },
            "dateFormats": {
              "full": "EEEE, G d-MMMM y-'ж'.",
              "long": "d-MMMM G y-'ж'.",
              "medium": "dd.MM.y G",
              "short": "dd.MM.y GGGGG"
            },
            "timeFormats": {
              "full": "HH:mm:ss zzzz",
              "long": "HH:mm:ss z",
              "medium": "HH:mm:ss",
              "short": "HH:mm"
            },
            "dateTimeFormats": {
              "full": "{1} {0}",
              "long": "{1} {0}",
              "medium": "{1} {0}",
              "short": "{1} {0}",
              "availableFormats": {
                "E": "ccc",
                "EHm": "E HH:mm",
                "EHms": "E HH:mm:ss",
                "Ed": "d, E",
                "Ehm": "E h:mm a",
                "Ehms": "E h:mm:ss a",
                "Gy": "G y",
                "GyMMM": "G y MMM",
                "GyMMMEd": "G y-'ж'. d-MMM, E",
                "GyMMMd": "G y-'ж'. d-MMM",
                "H": "HH",
                "Hm": "HH:mm",
                "Hms": "HH:mm:ss",
                "M": "L",
                "MEd": "MM-dd, E",
                "MMM": "LLL",
                "MMMEd": "d-MMM, E",
                "MMMd": "d-MMM",
                "Md": "MM-dd",
                "d": "d",
                "h": "h a",
                "hm": "h:mm a",
                "hms": "h:mm:ss a",
                "ms": "mm:ss",
                "y": "y-G",
                "yyyy": "y-G",
                "yyyyM": "GGGGG y-MM",
                "yyyyMEd": "GGGGG y-MM-dd, E",
                "yyyyMMM": "G y-'ж'. MMM",
                "yyyyMMMEd": "G y-'ж'. d-MMM, E",
                "yyyyMMMd": "G y-'ж'. d-MMM",
                "yyyyMd": "GGGGG y-MM-dd",
                "yyyyQQQ": "G y-'ж'. QQQ",
                "yyyyQQQQ": "G y-'ж'. QQQQ"
              },
              "appendItems": {
                "Day": "{0} ({2}: {1})",
                "Day-Of-Week": "{0} {1}",
                "Era": "{1} {0}",
                "Hour": "{0} ({2}: {1})",
                "Minute": "{0} ({2}: {1})",
                "Month": "{0} ({2}: {1})",
                "Quarter": "{0} ({2}: {1})",
                "Second": "{0} ({2}: {1})",
                "Timezone": "{0} {1}",
                "Week": "{0} ({2}: {1})",
                "Year": "{1} {0}"
              },
              "intervalFormats": {
                "intervalFormatFallback": "{0} - {1}",
                "H": {
                  "H": "HH-HH"
                },
                "Hm": {
                  "H": "HH:mm-HH:mm",
                  "m": "HH:mm-HH:mm"
                },
                "Hmv": {
                  "H": "HH:mm-HH:mm v",
                  "m": "HH:mm-HH:mm v"
                },
                "Hv": {
                  "H": "HH-HH v"
                },
                "M": {
                  "M": "M-M"
                },
                "MEd": {
                  "M": "E, dd.MM - E, dd.MM",
                  "d": "E, dd.MM - E, dd.MM"
                },
                "MMM": {
                  "M": "MMM-MMM"
                },
                "MMMEd": {
                  "M": "E, d MMM - E, d MMM",
                  "d": "E, d - E, d MMM"
                },
                "MMMd": {
                  "M": "d MMM - d MMM",
                  "d": "d-d MMM"
                },
                "Md": {
                  "M": "dd.MM - dd.MM",
                  "d": "dd.MM - dd.MM"
                },
                "d": {
                  "d": "d-d"
                },
                "h": {
                  "a": "h a – h a",
                  "h": "h-h a"
                },
                "hm": {
                  "a": "h:mm a – h:mm a",
                  "h": "h:mm-h:mm a",
                  "m": "h:mm-h:mm a"
                },
                "hmv": {
                  "a": "h:mm a – h:mm a v",
                  "h": "h:mm-h:mm a v",
                  "m": "h:mm-h:mm a v"
                },
                "hv": {
                  "a": "h a – h a v",
                  "h": "h-h a v"
                },
                "y": {
                  "y": "y-y G"
                },
                "yM": {
                  "M": "MM.y - MM.y G",
                  "y": "MM.y - MM.y G"
                },
                "yMEd": {
                  "M": "E, dd.MM.y - E, dd.MM.y G",
                  "d": "E, dd.MM.y - E, dd.MM.y G",
                  "y": "E, dd.MM.y - E, dd.MM.y G"
                },
                "yMMM": {
                  "M": "MMM-MMM y-'ж'. G",
                  "y": "MMM y-'ж'. - MMM y-'ж'. G"
                },
                "yMMMEd": {
                  "M": "E, d-MMM - E, d-MMM y-'ж'. G",
                  "d": "E, d - E, d-MMM y-'ж'. G",
                  "y": "E, d-MMM y-'ж'. - E, d-MMM y-'ж'. G"
                },
                "yMMMM": {
                  "M": "G y-'ж'. MMMM - MMMM",
                  "y": "G y-'ж'. MMMM - y-'ж'. MMMM"
                },
                "yMMMd": {
                  "M": "d-MMM - d-MMM y-'ж'. G",
                  "d": "d-d-MMM y-'ж'. G",
                  "y": "d-MMM y-'ж'. - d-MMM y-'ж'. G"
                },
                "yMd": {
                  "M": "dd.MM.y - dd.MM.y G",
                  "d": "dd.MM.y - dd.MM.y G",
                  "y": "dd.MM.y - dd.MM.y G"
                }
              }
            }
          }
        }
      }
    }
  }
}
