{
  "main": {
    "ky-Cyrl-KG": {
      "identity": {
        "version": {
          "_cldrVersion": "26",
          "_number": "$Revision: 10669 $"
        },
        "generation": {
          "_date": "$Date: 2014-07-23 16:10:33 -0500 (Wed, 23 Jul 2014) $"
        },
        "language": "ky",
        "script": "Cyrl",
        "territory": "KG"
      },
      "dates": {
        "calendars": {
          "gregorian": {
            "months": {
              "format": {
                "abbreviated": {
                  "1": "янв.",
                  "2": "фев.",
                  "3": "мар.",
                  "4": "апр.",
                  "5": "май",
                  "6": "июн.",
                  "7": "июл.",
                  "8": "авг.",
                  "9": "сен.",
                  "10": "окт.",
                  "11": "ноя.",
                  "12": "дек."
                },
                "narrow": {
                  "1": "Я",
                  "2": "Ф",
                  "3": "М",
                  "4": "А",
                  "5": "М",
                  "6": "И",
                  "7": "И",
                  "8": "А",
                  "9": "С",
                  "10": "О",
                  "11": "Н",
                  "12": "Д"
                },
                "wide": {
                  "1": "январь",
                  "2": "февраль",
                  "3": "март",
                  "4": "апрель",
                  "5": "май",
                  "6": "июнь",
                  "7": "июль",
                  "8": "август",
                  "9": "сентябрь",
                  "10": "октябрь",
                  "11": "ноябрь",
                  "12": "декабрь"
                }
              },
              "stand-alone": {
                "abbreviated": {
                  "1": "Янв",
                  "2": "Фев",
                  "3": "Мар",
                  "4": "Апр",
                  "5": "Май",
                  "6": "Июн",
                  "7": "Июл",
                  "8": "Авг",
                  "9": "Сен",
                  "10": "Окт",
                  "11": "Ноя",
                  "12": "Дек"
                },
                "narrow": {
                  "1": "Я",
                  "2": "Ф",
                  "3": "М",
                  "4": "А",
                  "5": "М",
                  "6": "И",
                  "7": "И",
                  "8": "А",
                  "9": "С",
                  "10": "О",
                  "11": "Н",
                  "12": "Д"
                },
                "wide": {
                  "1": "Январь",
                  "2": "Февраль",
                  "3": "Март",
                  "4": "Апрель",
                  "5": "Май",
                  "6": "Июнь",
                  "7": "Июль",
                  "8": "Август",
                  "9": "Сентябрь",
                  "10": "Октябрь",
                  "11": "Ноябрь",
                  "12": "Декабрь"
                }
              }
            },
            "days": {
              "format": {
                "abbreviated": {
                  "sun": "жек.",
                  "mon": "дүй.",
                  "tue": "шейш.",
                  "wed": "шарш.",
                  "thu": "бейш.",
                  "fri": "жума",
                  "sat": "ишм."
                },
                "narrow": {
                  "sun": "Ж",
                  "mon": "Д",
                  "tue": "Ш",
                  "wed": "Ш",
                  "thu": "Б",
                  "fri": "Ж",
                  "sat": "И"
                },
                "short": {
                  "sun": "жек.",
                  "mon": "дүй.",
                  "tue": "шейш.",
                  "wed": "шарш.",
                  "thu": "бейш.",
                  "fri": "жума",
                  "sat": "ишм."
                },
                "wide": {
                  "sun": "жекшемби",
                  "mon": "дүйшөмбү",
                  "tue": "шейшемби",
                  "wed": "шаршемби",
                  "thu": "бейшемби",
                  "fri": "жума",
                  "sat": "ишемби"
                }
              },
              "stand-alone": {
                "abbreviated": {
                  "sun": "жек.",
                  "mon": "дүй.",
                  "tue": "шейш.",
                  "wed": "шарш.",
                  "thu": "бейш.",
                  "fri": "жума",
                  "sat": "ишм."
                },
                "narrow": {
                  "sun": "Ж",
                  "mon": "Д",
                  "tue": "Ш",
                  "wed": "Ш",
                  "thu": "Б",
                  "fri": "Ж",
                  "sat": "И"
                },
                "short": {
                  "sun": "жк",
                  "mon": "дш.",
                  "tue": "шш.",
                  "wed": "шр.",
                  "thu": "бш.",
                  "fri": "жм.",
                  "sat": "иш."
                },
                "wide": {
                  "sun": "жекшемби",
                  "mon": "дүйшөмбү",
                  "tue": "шейшемби",
                  "wed": "шаршемби",
                  "thu": "бейшемби",
                  "fri": "жума",
                  "sat": "ишемби"
                }
              }
            },
            "quarters": {
              "format": {
                "abbreviated": {
                  "1": "1-чей.",
                  "2": "2-чей.",
                  "3": "3-чей.",
                  "4": "4-чей."
                },
                "narrow": {
                  "1": "1",
                  "2": "2",
                  "3": "3",
                  "4": "4"
                },
                "wide": {
                  "1": "1-чейрек",
                  "2": "2-чейрек",
                  "3": "3-чейрек",
                  "4": "4-чейрек"
                }
              },
              "stand-alone": {
                "abbreviated": {
                  "1": "1-ч.",
                  "2": "2-ч.",
                  "3": "3-ч.",
                  "4": "4-ч."
                },
                "narrow": {
                  "1": "1",
                  "2": "2",
                  "3": "3",
                  "4": "4"
                },
                "wide": {
                  "1": "1-чейрек",
                  "2": "2-чейрек",
                  "3": "3-чейрек",
                  "4": "4-чейрек"
                }
              }
            },
            "dayPeriods": {
              "format": {
                "abbreviated": {
                  "am": "таңкы",
                  "noon": "чак түш",
                  "pm": "түштөн кийин"
                },
                "narrow": {
                  "am": "тң",
                  "noon": "чт",
                  "pm": "тк"
                },
                "wide": {
                  "am": "таңкы",
                  "noon": "чак түш",
                  "pm": "түштөн кийин"
                }
              },
              "stand-alone": {
                "abbreviated": {
                  "am": "таңкы",
                  "noon": "чак түш",
                  "pm": "түштөн кийин"
                },
                "narrow": {
                  "am": "тң",
                  "noon": "чт",
                  "pm": "тк"
                },
                "wide": {
                  "am": "таңкы",
                  "noon": "чак түш",
                  "pm": "түштөн кийин"
                }
              }
            },
            "eras": {
              "eraNames": {
                "0": "биздин заманга чейин",
                "0-alt-variant": "BCE",
                "1": "биздин заман",
                "1-alt-variant": "CE"
              },
              "eraAbbr": {
                "0": "б.з.ч.",
                "0-alt-variant": "BCE",
                "1": "б.з.",
                "1-alt-variant": "CE"
              },
              "eraNarrow": {
                "0": "б.з. ч.",
                "0-alt-variant": "BCE",
                "1": "б.з.",
                "1-alt-variant": "CE"
              }
            },
            "dateFormats": {
              "full": "EEEE, d-MMMM, y-'ж'.",
              "long": "y MMMM d",
              "medium": "y MMM d",
              "short": "dd.MM.yy"
            },
            "timeFormats": {
              "full": "HH:mm:ss zzzz",
              "long": "HH:mm:ss z",
              "medium": "HH:mm:ss",
              "short": "HH:mm"
            },
            "dateTimeFormats": {
              "full": "{1} {0}",
              "long": "{1} {0}",
              "medium": "{1} {0}",
              "short": "{1} {0}",
              "availableFormats": {
                "E": "ccc",
                "EHm": "E HH:mm",
                "EHms": "E HH:mm:ss",
                "Ed": "d, E",
                "Ehm": "E h:mm a",
                "Ehms": "E h:mm:ss a",
                "Gy": "G y-'ж'.",
                "GyMMM": "G y-'ж'. MMM",
                "GyMMMEd": "G y-'ж'. d-MMM, E",
                "GyMMMd": "G y-'ж'. d-MMM",
                "H": "HH",
                "Hm": "HH:mm",
                "Hms": "HH:mm:ss",
                "M": "L",
                "MEd": "dd-MM, E",
                "MMM": "LLL",
                "MMMEd": "d-MMM, E",
                "MMMd": "d-MMM",
                "Md": "dd-MM",
                "d": "d",
                "h": "h a",
                "hm": "h:mm a",
                "hms": "h:mm:ss a",
                "ms": "mm:ss",
                "y": "y",
                "yM": "y-MM",
                "yMEd": "y-MM-dd, E",
                "yMMM": "y-'ж'. MMM",
                "yMMMEd": "y-'ж'. d-MMM, E",
                "yMMMd": "y-'ж'. d-MMM",
                "yMd": "y-MM-dd",
                "yQQQ": "y-'ж'., QQQ",
                "yQQQQ": "y-'ж'., QQQQ"
              },
              "appendItems": {
                "Day": "{0} ({2}: {1})",
                "Day-Of-Week": "{0} {1}",
                "Era": "{1} {0}",
                "Hour": "{0} ({2}: {1})",
                "Minute": "{0} ({2}: {1})",
                "Month": "{0} ({2}: {1})",
                "Quarter": "{0} ({2}: {1})",
                "Second": "{0} ({2}: {1})",
                "Timezone": "{0} {1}",
                "Week": "{0} ({2}: {1})",
                "Year": "{1} {0}"
              },
              "intervalFormats": {
                "intervalFormatFallback": "{0} - {1}",
                "H": {
                  "H": "HH-HH"
                },
                "Hm": {
                  "H": "HH:mm-HH:mm",
                  "m": "HH:mm-HH:mm"
                },
                "Hmv": {
                  "H": "HH:mm-HH:mm v",
                  "m": "HH:mm-HH:mm v"
                },
                "Hv": {
                  "H": "HH-HH v"
                },
                "M": {
                  "M": "MM–MM"
                },
                "MEd": {
                  "M": "MM-dd, E – MM-dd, E",
                  "d": "MM-dd, E – MM-dd, E"
                },
                "MMM": {
                  "M": "MMM-MMM"
                },
                "MMMEd": {
                  "M": "MMM d, E – MMM d, E",
                  "d": "MMM d, E – MMM d, E"
                },
                "MMMd": {
                  "M": "d-MMM - d-MMM",
                  "d": "d-d-MMM"
                },
                "Md": {
                  "M": "dd.MM - dd.MM",
                  "d": "dd.MM - dd.MM"
                },
                "d": {
                  "d": "d-d"
                },
                "h": {
                  "a": "a h – a h",
                  "h": "a h-h"
                },
                "hm": {
                  "a": "a h:mm – a h:mm",
                  "h": "a h:mm-h:mm",
                  "m": "a h:mm-h:mm"
                },
                "hmv": {
                  "a": "a h:mm – a h:mm v",
                  "h": "a h:mm-h:mm v",
                  "m": "a h:mm-h:mm v"
                },
                "hv": {
                  "a": "a h – a h v",
                  "h": "a h-h v"
                },
                "y": {
                  "y": "y-y"
                },
                "yM": {
                  "M": "y-MM – y-MM",
                  "y": "MM.y - MM.y"
                },
                "yMEd": {
                  "M": "y-MM-dd, E – y-MM-dd, E",
                  "d": "E, dd.MM.y - E, dd.MM.y",
                  "y": "y-MM-dd, E – y-MM-dd, E"
                },
                "yMMM": {
                  "M": "MMM-MMM y-'ж'.",
                  "y": "MMM y-'ж'. - MMM y-'ж'."
                },
                "yMMMEd": {
                  "M": "y MMM d, E – MMM d, E",
                  "d": "y MMM d, E – MMM d, E",
                  "y": "y MMM d, E – y MMM d, E"
                },
                "yMMMM": {
                  "M": "MMMM - MMMM y",
                  "y": "MMMM y - MMMM y"
                },
                "yMMMd": {
                  "M": "d-MMM - d-MMM y-'ж'.",
                  "d": "d-d-MMM y-'ж'.",
                  "y": "d-MMM y-'ж'. - d-MMM y-'ж'."
                },
                "yMd": {
                  "M": "dd.MM.y - dd.MM.y",
                  "d": "dd.MM.y - dd.MM.y",
                  "y": "dd.MM.y - dd.MM.y"
                }
              }
            }
          }
        }
      }
    }
  }
}
