{
  "main": {
    "te-IN": {
      "identity": {
        "version": {
          "_cldrVersion": "26",
          "_number": "$Revision: 10669 $"
        },
        "generation": {
          "_date": "$Date: 2014-07-23 16:10:33 -0500 (Wed, 23 Jul 2014) $"
        },
        "language": "root",
        "territory": "IN"
      },
      "dates": {
        "calendars": {
          "islamic-umalqura": {
            "months": {
              "format": {
                "abbreviated": {
                  "1": "Muh.",
                  "2": "Saf.",
                  "3": "Rab. I",
                  "4": "Rab. II",
                  "5": "Jum. I",
                  "6": "Jum. II",
                  "7": "Raj.",
                  "8": "Sha.",
                  "9": "Ram.",
                  "10": "Shaw.",
                  "11": "Dhuʻl-Q.",
                  "12": "Dhuʻl-H."
                },
                "narrow": {
                  "1": "1",
                  "2": "2",
                  "3": "3",
                  "4": "4",
                  "5": "5",
                  "6": "6",
                  "7": "7",
                  "8": "8",
                  "9": "9",
                  "10": "10",
                  "11": "11",
                  "12": "12"
                },
                "wide": {
                  "1": "Muharram",
                  "2": "Safar",
                  "3": "Rabiʻ I",
                  "4": "Rabiʻ II",
                  "5": "Jumada I",
                  "6": "Jumada II",
                  "7": "Rajab",
                  "8": "Shaʻban",
                  "9": "Ramadan",
                  "10": "Shawwal",
                  "11": "Dhuʻl-Qiʻdah",
                  "12": "Dhuʻl-Hijjah"
                }
              },
              "stand-alone": {
                "abbreviated": {
                  "1": "Muh.",
                  "2": "Saf.",
                  "3": "Rab. I",
                  "4": "Rab. II",
                  "5": "Jum. I",
                  "6": "Jum. II",
                  "7": "Raj.",
                  "8": "Sha.",
                  "9": "Ram.",
                  "10": "Shaw.",
                  "11": "Dhuʻl-Q.",
                  "12": "Dhuʻl-H."
                },
                "narrow": {
                  "1": "1",
                  "2": "2",
                  "3": "3",
                  "4": "4",
                  "5": "5",
                  "6": "6",
                  "7": "7",
                  "8": "8",
                  "9": "9",
                  "10": "10",
                  "11": "11",
                  "12": "12"
                },
                "wide": {
                  "1": "Muharram",
                  "2": "Safar",
                  "3": "Rabiʻ I",
                  "4": "Rabiʻ II",
                  "5": "Jumada I",
                  "6": "Jumada II",
                  "7": "Rajab",
                  "8": "Shaʻban",
                  "9": "Ramadan",
                  "10": "Shawwal",
                  "11": "Dhuʻl-Qiʻdah",
                  "12": "Dhuʻl-Hijjah"
                }
              }
            },
            "days": {
              "format": {
                "abbreviated": {
                  "sun": "ఆది",
                  "mon": "సోమ",
                  "tue": "మంగళ",
                  "wed": "బుధ",
                  "thu": "గురు",
                  "fri": "శుక్ర",
                  "sat": "శని"
                },
                "narrow": {
                  "sun": "ఆ",
                  "mon": "సో",
                  "tue": "మ",
                  "wed": "బు",
                  "thu": "గు",
                  "fri": "శు",
                  "sat": "శ"
                },
                "short": {
                  "sun": "ఆది",
                  "mon": "సోమ",
                  "tue": "మం",
                  "wed": "బుధ",
                  "thu": "గురు",
                  "fri": "శుక్ర",
                  "sat": "శని"
                },
                "wide": {
                  "sun": "ఆదివారం",
                  "mon": "సోమవారం",
                  "tue": "మంగళవారం",
                  "wed": "బుధవారం",
                  "thu": "గురువారం",
                  "fri": "శుక్రవారం",
                  "sat": "శనివారం"
                }
              },
              "stand-alone": {
                "abbreviated": {
                  "sun": "ఆది",
                  "mon": "సోమ",
                  "tue": "మంగళ",
                  "wed": "బుధ",
                  "thu": "గురు",
                  "fri": "శుక్ర",
                  "sat": "శని"
                },
                "narrow": {
                  "sun": "ఆ",
                  "mon": "సో",
                  "tue": "మ",
                  "wed": "బు",
                  "thu": "గు",
                  "fri": "శు",
                  "sat": "శ"
                },
                "short": {
                  "sun": "ఆది",
                  "mon": "సోమ",
                  "tue": "మం",
                  "wed": "బుధ",
                  "thu": "గురు",
                  "fri": "శుక్ర",
                  "sat": "శని"
                },
                "wide": {
                  "sun": "ఆదివారం",
                  "mon": "సోమవారం",
                  "tue": "మంగళవారం",
                  "wed": "బుధవారం",
                  "thu": "గురువారం",
                  "fri": "శుక్రవారం",
                  "sat": "శనివారం"
                }
              }
            },
            "quarters": {
              "format": {
                "abbreviated": {
                  "1": "త్రై1",
                  "2": "త్రై2",
                  "3": "త్రై3",
                  "4": "త్రై4"
                },
                "narrow": {
                  "1": "1",
                  "2": "2",
                  "3": "3",
                  "4": "4"
                },
                "wide": {
                  "1": "1వ త్రైమాసం",
                  "2": "2వ త్రైమాసం",
                  "3": "3వ త్రైమాసం",
                  "4": "4వ త్రైమాసం"
                }
              },
              "stand-alone": {
                "abbreviated": {
                  "1": "త్రై1",
                  "2": "త్రై2",
                  "3": "త్రై3",
                  "4": "త్రై4"
                },
                "narrow": {
                  "1": "1",
                  "2": "2",
                  "3": "3",
                  "4": "4"
                },
                "wide": {
                  "1": "మొదటి త్రైమాసికం",
                  "2": "రెండవ త్రైమాసికం",
                  "3": "మూడవ త్రైమాసికం",
                  "4": "నాల్గవ త్రైమాసికం"
                }
              }
            },
            "dayPeriods": {
              "format": {
                "abbreviated": {
                  "afternoon": "రాత్రి",
                  "am": "[AM]",
                  "earlyMorning": "ఉదయం",
                  "evening": "అర్ధరాత్రి",
                  "morning": "మధ్యాహ్నం",
                  "night": "తెల్లవారుఝాము",
                  "noon": "మధ్యాహ్నం",
                  "pm": "[PM]"
                },
                "narrow": {
                  "am": "ఉ",
                  "noon": "మధ్యా",
                  "pm": "సా"
                },
                "wide": {
                  "afternoon": "రాత్రి",
                  "am": "[AM]",
                  "earlyMorning": "ఉదయం",
                  "evening": "అర్ధరాత్రి",
                  "morning": "మధ్యాహ్నం",
                  "night": "తెల్లవారుఝాము",
                  "noon": "మధ్యాహ్నం",
                  "pm": "[PM]"
                }
              },
              "stand-alone": {
                "abbreviated": {
                  "afternoon": "రాత్రి",
                  "am": "[AM]",
                  "earlyMorning": "ఉదయం",
                  "evening": "అర్ధరాత్రి",
                  "morning": "మధ్యాహ్నం",
                  "night": "తెల్లవారుఝాము",
                  "noon": "మధ్యాహ్నం",
                  "pm": "[PM]"
                },
                "narrow": {
                  "am": "ఉ",
                  "noon": "మధ్యా",
                  "pm": "సా"
                },
                "wide": {
                  "afternoon": "రాత్రి",
                  "am": "[AM]",
                  "earlyMorning": "ఉదయం",
                  "evening": "అర్ధరాత్రి",
                  "morning": "మధ్యాహ్నం",
                  "night": "తెల్లవారుఝాము",
                  "noon": "మధ్యాహ్నం",
                  "pm": "[PM]"
                }
              }
            },
            "eras": {
              "eraNames": {
                "0": "AH"
              },
              "eraAbbr": {
                "0": "AH"
              },
              "eraNarrow": {
                "0": "AH"
              }
            },
            "dateFormats": {
              "full": "EEEE d MMMM y G",
              "long": "d MMMM y G",
              "medium": "d MMM y G",
              "short": "dd-MM-y GGGGG"
            },
            "timeFormats": {
              "full": "h:mm:ss a zzzz",
              "long": "h:mm:ss a z",
              "medium": "h:mm:ss a",
              "short": "h:mm a"
            },
            "dateTimeFormats": {
              "full": "{1} {0}",
              "long": "{1} {0}",
              "medium": "{1} {0}",
              "short": "{1} {0}",
              "availableFormats": {
                "E": "ccc",
                "EHm": "E HH:mm",
                "EHms": "E HH:mm:ss",
                "Ed": "E d",
                "Ehm": "E h:mm a",
                "Ehms": "E h:mm:ss a",
                "Gy": "y G",
                "GyMMM": "MMM y G",
                "GyMMMEd": "E, d, MMM y G",
                "GyMMMd": "d, MMM y G",
                "H": "HH",
                "Hm": "HH:mm",
                "Hms": "HH:mm:ss",
                "M": "L",
                "MEd": "E, d/M",
                "MMM": "LLL",
                "MMMEd": "E, d MMM",
                "MMMMd": "d MMMM",
                "MMMd": "d MMM",
                "MMdd": "dd-MM",
                "Md": "d/M",
                "d": "d",
                "h": "h a",
                "hm": "h:mm a",
                "hms": "h:mm:ss a",
                "ms": "mm:ss",
                "y": "y G",
                "yyyy": "y G",
                "yyyyM": "M/y GGGGG",
                "yyyyMEd": "E, d/M/y GGGGG",
                "yyyyMM": "MM-y G",
                "yyyyMMM": "MMM y G",
                "yyyyMMMEd": "E, d, MMM y G",
                "yyyyMMMM": "MMMM YYYY",
                "yyyyMMMd": "d, MMM y G",
                "yyyyMd": "d/M/y GGGGG",
                "yyyyQQQ": "QQQ y G",
                "yyyyQQQQ": "QQQQ y G"
              },
              "appendItems": {
                "Day": "{0} ({2}: {1})",
                "Day-Of-Week": "{0} {1}",
                "Era": "{1} {0}",
                "Hour": "{0} ({2}: {1})",
                "Minute": "{0} ({2}: {1})",
                "Month": "{0} ({2}: {1})",
                "Quarter": "{0} ({2}: {1})",
                "Second": "{0} ({2}: {1})",
                "Timezone": "{0} {1}",
                "Week": "{0} ({2}: {1})",
                "Year": "{1} {0}"
              },
              "intervalFormats": {
                "intervalFormatFallback": "{0} – {1}",
                "H": {
                  "H": "HH–HH"
                },
                "Hm": {
                  "H": "HH:mm–HH:mm",
                  "m": "HH:mm–HH:mm"
                },
                "Hmv": {
                  "H": "HH:mm–HH:mm v",
                  "m": "HH:mm–HH:mm v"
                },
                "Hv": {
                  "H": "HH–HH v"
                },
                "M": {
                  "M": "M - M"
                },
                "MEd": {
                  "M": "E, d/M – E, d/M",
                  "d": "E, d/M – E, d/M"
                },
                "MMM": {
                  "M": "MMM - MMM"
                },
                "MMMEd": {
                  "M": "E, d MMM - E, d MMM",
                  "d": "E, d MMM - E, d MMM"
                },
                "MMMd": {
                  "M": "d MMM - d MMM",
                  "d": "d - d MMM"
                },
                "Md": {
                  "M": "d/M – d/M",
                  "d": "d/M – d/M"
                },
                "d": {
                  "d": "d - d"
                },
                "h": {
                  "a": "h a – h a",
                  "h": "h–h a"
                },
                "hm": {
                  "a": "h:mm a – h:mm a",
                  "h": "h:mm–h:mm a",
                  "m": "h:mm–h:mm a"
                },
                "hmv": {
                  "a": "h:mm a – h:mm a v",
                  "h": "h:mm–h:mm a v",
                  "m": "h:mm–h:mm a v"
                },
                "hv": {
                  "a": "h a – h a v",
                  "h": "h–h a v"
                },
                "y": {
                  "y": "G y – y"
                },
                "yM": {
                  "M": "M/y – M/y GGGGG",
                  "y": "M/y – M/y GGGGG"
                },
                "yMEd": {
                  "M": "E, d/M/y - E, d/M/y",
                  "d": "E, d/M/y - E, d/M/y",
                  "y": "E, d/M/y - E, d/M/y"
                },
                "yMMM": {
                  "M": "MMM – MMM y G",
                  "y": "MMM y – MMM y G"
                },
                "yMMMEd": {
                  "M": "E, d MMM - E, d MMM, y",
                  "d": "E, d MMM - E, d MMM, y",
                  "y": "E, d MMM, y - E, d MMM, y"
                },
                "yMMMM": {
                  "M": "MMMM – MMMM y G",
                  "y": "MMMM y – MMMM y G"
                },
                "yMMMd": {
                  "M": "d MMM - d MMM, y",
                  "d": "d-d MMM, y",
                  "y": "d MMM, y - d MMM, y"
                },
                "yMd": {
                  "M": "d/M/y - d/M/y",
                  "d": "d/M/y - d/M/y GGGG",
                  "y": "d/M/y - d/M/y"
                }
              }
            }
          }
        }
      }
    }
  }
}
