{
  "main": {
    "te-IN": {
      "identity": {
        "version": {
          "_cldrVersion": "26",
          "_number": "$Revision: 10669 $"
        },
        "generation": {
          "_date": "$Date: 2014-07-23 16:10:33 -0500 (Wed, 23 Jul 2014) $"
        },
        "language": "root",
        "territory": "IN"
      },
      "localeDisplayNames": {
        "languages": {
          "aa": "అఫార్",
          "ab": "అబ్ఖాజియన్",
          "ace": "ఆఖినీస్",
          "ach": "అకోలి",
          "ada": "అడాంగ్మే",
          "ady": "అడిగాబ్జే",
          "ae": "అవేస్టాన్",
          "aeb": "టునీషియా అరబిక్",
          "af": "ఆఫ్రికాన్స్",
          "afh": "అఫ్రిహిలి",
          "agq": "అగేమ్",
          "ain": "ఐను",
          "ak": "అకాన్",
          "akk": "అక్కాడియాన్",
          "akz": "akz",
          "ale": "అలియుట్",
          "aln": "aln",
          "alt": "దక్షిణ ఆల్టై",
          "am": "అమ్హారిక్",
          "an": "అరగోనిస్",
          "ang": "ప్రాచీన ఆగ్లం",
          "anp": "ఆంగిక",
          "ar": "అరబిక్",
          "ar-001": "ఆధునిక ప్రామాణిక అరబిక్",
          "arc": "అరామేక్",
          "arn": "అరౌకేనియన్",
          "aro": "aro",
          "arp": "అరాపాహో",
          "arq": "arq",
          "arw": "అరావాక్",
          "ary": "ary",
          "arz": "ఈజిప్ట్ అరబిక్",
          "as": "అస్సామీ",
          "asa": "అసు",
          "ase": "ase",
          "ast": "అస్టురియాన్",
          "av": "అవారిక్",
          "avk": "avk",
          "awa": "అవధి",
          "ay": "ఐమారా",
          "az": "అజర్బైజాని",
          "az-alt-short": "అజెరి",
          "azb": "azb",
          "ba": "బష్కిర్",
          "bal": "బాలుచి",
          "ban": "బాలినీస్",
          "bar": "bar",
          "bas": "బసా",
          "bax": "bax",
          "bbc": "bbc",
          "bbj": "bbj",
          "be": "బెలరుశియన్",
          "bej": "బేజా",
          "bem": "బెంబా",
          "bew": "bew",
          "bez": "బీనా",
          "bfd": "bfd",
          "bfq": "bfq",
          "bg": "బల్గేరియన్",
          "bho": "భోజ్ పూరి",
          "bi": "బిస్లామా",
          "bik": "బికోల్",
          "bin": "బిని",
          "bjn": "bjn",
          "bkm": "bkm",
          "bla": "సిక్ సికా",
          "bm": "బంబారా",
          "bn": "బెంగాలీ",
          "bo": "టిబెటన్",
          "bpy": "బిష్ణుప్రియ",
          "bqi": "bqi",
          "br": "బ్రెటన్",
          "bra": "బ్రాజ్",
          "brh": "brh",
          "brx": "బోడో",
          "bs": "బోస్నియన్",
          "bss": "bss",
          "bua": "బురియట్",
          "bug": "బ్యుగినిస్",
          "bum": "bum",
          "byn": "బ్లిన్",
          "byv": "byv",
          "ca": "కెటలాన్",
          "cad": "కేడ్డో",
          "car": "కేరిబ్",
          "cay": "cay",
          "cch": "అట్సామ్",
          "ce": "చెచెన్",
          "ceb": "సేబుఆనో",
          "cgg": "ఛిగా",
          "ch": "చమర్రో",
          "chb": "చిబ్చా",
          "chg": "చాగటై",
          "chk": "చూకిస్",
          "chm": "మారి",
          "chn": "చినూక్ జార్గన్",
          "cho": "చొచ్కతావ్",
          "chp": "చిపెవ్యాన్",
          "chr": "చెరోకీ",
          "chy": "చేయేన్",
          "ckb": "సొరాని కుర్దిష్",
          "co": "కోర్సికన్",
          "cop": "కోప్టిక్",
          "cps": "cps",
          "cr": "క్రి",
          "crh": "క్రిమియన్ టర్కిష్",
          "cs": "చెక్",
          "csb": "కషుబియన్",
          "cu": "చర్చ స్లావిక్",
          "cv": "చువాష్",
          "cy": "వెల్ష్",
          "da": "డేనిష్",
          "dak": "డకోటా",
          "dar": "డార్గ్వా",
          "dav": "టైటా",
          "de": "జర్మన్",
          "de-AT": "ఆస్ట్రేలియన్ జర్మన్",
          "de-CH": "స్విస్ హై జర్మన్",
          "del": "డెలావేర్",
          "den": "స్లేవ్",
          "dgr": "డోగ్రిబ్",
          "din": "డింకా",
          "dje": "జార్మా",
          "doi": "డోగ్రి",
          "dsb": "లోవర్ సోర్బియన్",
          "dtp": "dtp",
          "dua": "దుఆలా",
          "dum": "మధ్యమ డచ్",
          "dv": "దివేహి",
          "dyo": "జోలా-ఫోనయి",
          "dyu": "డ్యులా",
          "dz": "జొన్ఖా",
          "dzg": "dzg",
          "ebu": "ఇంబు",
          "ee": "ఈవీ",
          "efi": "ఎఫిక్",
          "egl": "egl",
          "egy": "ప్రాచీన ఇజిప్షియన్",
          "eka": "ఏకాజక్",
          "el": "గ్రీక్",
          "elx": "ఎలామైట్",
          "en": "ఆంగ్లం",
          "en-AU": "ఆస్ట్రేలియన్ ఇంగ్లీష్",
          "en-CA": "కెనడియన్ ఇంగ్లీష్",
          "en-GB": "బ్రిటిష్ ఇంగ్లీష్",
          "en-GB-alt-short": "యు.కె. ఇంగ్లీష్",
          "en-US": "అమెరికన్ ఇంగ్లీష్",
          "en-US-alt-short": "యు.ఎస్. ఇంగ్లీష్",
          "enm": "మధ్యమ ఆంగ్లం",
          "eo": "ఎస్పరెన్టొ",
          "es": "స్పానిష్",
          "es-419": "లాటిన్ అమెరికెన్ స్పానిష్",
          "es-ES": "యూరోపియన్ స్పానిష్",
          "es-MX": "మెక్సికన్ స్పానిష్",
          "esu": "esu",
          "et": "ఈస్టొనియన్",
          "eu": "బాస్క్",
          "ewo": "ఎవోండొ",
          "ext": "ext",
          "fa": "పర్షియన్",
          "fan": "ఫాంగ్",
          "fat": "ఫాంటి",
          "ff": "ఫ్యుల",
          "fi": "ఫిన్నిష్",
          "fil": "ఫిలిపినో",
          "fit": "fit",
          "fj": "ఫిజియన్",
          "fo": "ఫారోయీజ్",
          "fon": "ఫాన్",
          "fr": "ఫ్రెంచ్",
          "fr-CA": "కెనడియెన్ ఫ్రెంచ్",
          "fr-CH": "స్విస్ ఫ్రెంచ్",
          "frc": "frc",
          "frm": "మధ్యమ ప్రెంచ్",
          "fro": "ప్రాచీన ప్రెంచ్",
          "frp": "frp",
          "frr": "ఉత్తర ఫ్రిసియన్",
          "frs": "తూర్పు ఫ్రిసియన్",
          "fur": "ఫ్రియులియన్",
          "fy": "పశ్చిమ ఫ్రిసియన్",
          "ga": "ఐరిష్",
          "gaa": "గా",
          "gag": "గాగౌజ్",
          "gan": "gan",
          "gay": "గాయో",
          "gba": "గ్బాయా",
          "gbz": "gbz",
          "gd": "స్కాటిష్ గేలిక్",
          "gez": "జీజ్",
          "gil": "గిల్బర్టీస్",
          "gl": "గెలిషియన్",
          "glk": "glk",
          "gmh": "మధ్యమ హై జర్మన్",
          "gn": "గురాని",
          "goh": "ప్రాచీన హై జర్మన్",
          "gom": "gom",
          "gon": "గోండి",
          "gor": "గోరోంటలా",
          "got": "గోథిక్",
          "grb": "గ్రేబో",
          "grc": "ప్రాచీన గ్రీక్",
          "gsw": "స్విస్ జర్మన్",
          "gu": "గుజరాతి",
          "guc": "guc",
          "gur": "gur",
          "guz": "గుస్సీ",
          "gv": "మంకస్",
          "gwi": "గ్విచిన్",
          "ha": "హౌసా",
          "hai": "హైడా",
          "hak": "hak",
          "haw": "హవాయియన్",
          "he": "హీబ్రు",
          "hi": "హిందీ",
          "hif": "hif",
          "hil": "హిలి గేయినోన్",
          "hit": "హిట్టిటే",
          "hmn": "మోంగ్",
          "ho": "హిరి మోటు",
          "hr": "క్రొయెషియన్",
          "hsb": "అప్పర్ సోర్బియన్",
          "hsn": "hsn",
          "ht": "హైతియన్",
          "hu": "హన్గేరియన్",
          "hup": "హుపా",
          "hy": "ఆర్మేనియన్",
          "hz": "హిరేరో",
          "ia": "ఇంటర్లింగ్వా",
          "iba": "ఐబాన్",
          "ibb": "ఇబిబియో",
          "id": "ఇండోనేషియన్",
          "ie": "ఇంటర్ లింగ్",
          "ig": "ఇగ్బో",
          "ii": "శిషువన్ ఈ",
          "ik": "ఇనూపైఏక్",
          "ilo": "ఐయోకో",
          "inh": "ఇంగుష్",
          "io": "ఈడౌ",
          "is": "ఐస్లాండిక్",
          "it": "ఇటాలియన్",
          "iu": "ఇనుక్టిటుట్",
          "izh": "izh",
          "ja": "జాపనీస్",
          "jam": "jam",
          "jbo": "లోజ్బాన్",
          "jgo": "గోంబా",
          "jmc": "మకొమ్",
          "jpr": "జ్యుడియో-పర్షియన్",
          "jrb": "జ్యుడియో-అరబిక్",
          "jut": "jut",
          "jv": "జావనీస్",
          "ka": "జార్జియన్",
          "kaa": "కారా-కల్పాక్",
          "kab": "కాబిల్",
          "kac": "కాచిన్",
          "kaj": "జ్యూ",
          "kam": "కంబా",
          "kaw": "కావి",
          "kbd": "కబార్డియన్",
          "kbl": "kbl",
          "kcg": "ట్యాప్",
          "kde": "మకొండే",
          "kea": "కాబువేర్దియను",
          "ken": "ken",
          "kfo": "కోరో",
          "kg": "కోంగో",
          "kgp": "kgp",
          "kha": "ఖాసి",
          "kho": "ఖటోనీస్",
          "khq": "కొయరా చీన్నీ",
          "khw": "khw",
          "ki": "కికుయు",
          "kiu": "kiu",
          "kj": "క్వాన్యామ",
          "kk": "కజఖ్",
          "kkj": "kkj",
          "kl": "కలాల్లిసూట్",
          "kln": "కలెంజిన్",
          "km": "ఖ్మేర్",
          "kmb": "కిమ్బుండు",
          "kn": "కన్నడ",
          "ko": "కొరియన్",
          "koi": "కోమి-పర్మాక్",
          "kok": "కొంకణి",
          "kos": "కోస్రేయన్",
          "kpe": "పెల్లే",
          "kr": "కానురి",
          "krc": "కరచే-బల్కార్",
          "kri": "kri",
          "krj": "krj",
          "krl": "కరేలియన్",
          "kru": "కూరుఖ్",
          "ks": "కాశ్మీరి",
          "ksb": "శంబాలా",
          "ksf": "బాఫియ",
          "ksh": "ksh",
          "ku": "కర్డిష్",
          "kum": "కుమ్యిక్",
          "kut": "కుటేనై",
          "kv": "కోమి",
          "kw": "కోర్నిష్",
          "ky": "కిర్గిజ్",
          "la": "లాటిన్",
          "lad": "లాడినో",
          "lag": "లాంగీ",
          "lah": "లాహండా",
          "lam": "లాంబా",
          "lb": "లుక్సంబర్గిష్",
          "lez": "లేజ్ఘియన్",
          "lfn": "lfn",
          "lg": "గాండా",
          "li": "లిమ్బర్గిష్",
          "lij": "lij",
          "liv": "liv",
          "lkt": "లకొటా",
          "lmo": "lmo",
          "ln": "లింగాల",
          "lo": "లావో",
          "lol": "మొంగో",
          "loz": "లోజి",
          "lt": "లిథుయేనియన్",
          "ltg": "ltg",
          "lu": "లూబ-కటాంగ",
          "lua": "లుబా-లులువ",
          "lui": "లుఇసేనో",
          "lun": "లుండా",
          "luo": "లువో",
          "lus": "లుషై",
          "luy": "లుయియ",
          "lv": "లాట్వియన్",
          "lzh": "lzh",
          "lzz": "lzz",
          "mad": "మాదురీస్",
          "maf": "maf",
          "mag": "మగాహి",
          "mai": "మైథిలి",
          "mak": "మకాసార్",
          "man": "మండింగో",
          "mas": "మాసాయి",
          "mde": "mde",
          "mdf": "మొక్షా",
          "mdr": "మండార్",
          "men": "మెండే",
          "mer": "మెరు",
          "mfe": "మొరిస్యేన్",
          "mg": "మాలాగసి",
          "mga": "మధ్యమ ఐరిష్",
          "mgh": "మక్వా-మిట్టో",
          "mgo": "మెటా",
          "mh": "మార్షలీస్",
          "mi": "మయోరి",
          "mic": "మికమాక్",
          "min": "మినాంగ్కాబో",
          "mk": "మసడోనియన్",
          "ml": "మలయాళం",
          "mn": "మంగోలియన్",
          "mnc": "మంచు",
          "mni": "మణిపూరి",
          "moh": "మోహుక్",
          "mos": "మోస్సి",
          "mr": "మరాఠీ",
          "mrj": "mrj",
          "ms": "మలేయ్",
          "mt": "మాల్టీస్",
          "mua": "ముదాంగ్",
          "mul": "బహుళ భాషలు",
          "mus": "క్రీక్",
          "mwl": "మిరాండిస్",
          "mwr": "మార్వాడి",
          "mwv": "mwv",
          "my": "బర్మీస్",
          "mye": "mye",
          "myv": "ఎర్జియా",
          "mzn": "mzn",
          "na": "నౌరు",
          "nan": "nan",
          "nap": "నియాపోలిటన్",
          "naq": "నమ",
          "nb": "నార్వీజియన్ బొక్మాల్",
          "nd": "ఉత్తర దెబెలె",
          "nds": "లో జర్మన్",
          "ne": "నేపాలి",
          "new": "నెవారి",
          "ng": "దోంగా",
          "nia": "నియాస్",
          "niu": "నియూఇయాన్",
          "njo": "njo",
          "nl": "డచ్",
          "nl-BE": "ఫ్లెమిష్",
          "nmg": "క్వాసియె",
          "nn": "నార్విజియాన్ న్యోర్స్క్",
          "nnh": "nnh",
          "no": "నార్విజియాన్",
          "nog": "నోగై",
          "non": "ప్రాచిన నోర్స్",
          "nov": "nov",
          "nqo": "న్కో",
          "nr": "దక్షిణ దెబెలె",
          "nso": "ఉత్తర సోతో",
          "nus": "న్యుర్",
          "nv": "నవాహో",
          "nwc": "సాంప్రదాయ న్యుఆరి",
          "ny": "న్యాన్జా",
          "nym": "న్యంవేజి",
          "nyn": "న్యాన్కోలె",
          "nyo": "నిఓరో",
          "nzi": "జీమా",
          "oc": "ఆక్సిటన్",
          "oj": "చేవా",
          "om": "ఒరోమో",
          "or": "ఒరియా",
          "os": "ఒసేటిక్",
          "osa": "ఒసాజ్",
          "ota": "ఒట్టోమన్ టర్కిష్",
          "pa": "పంజాబీ",
          "pag": "పంగా సినాన్",
          "pal": "పహ్లావి",
          "pam": "పంపగ్న",
          "pap": "పపియమేంటో",
          "pau": "పాలుఆన్",
          "pcd": "pcd",
          "pdc": "pdc",
          "pdt": "pdt",
          "peo": "ప్రాచీన పర్షియన్",
          "pfl": "pfl",
          "phn": "ఫోనికన్",
          "pi": "పాలీ",
          "pl": "పోలిష్",
          "pms": "pms",
          "pnt": "pnt",
          "pon": "పోహ్న్పెయన్",
          "prg": "prg",
          "pro": "ప్రాచీన ప్రోవెంసాల్",
          "ps": "పాష్టో",
          "ps-alt-variant": "పుష్టో",
          "pt": "పోర్చుగీస్",
          "pt-BR": "బ్రెజీలియన్ పోర్చుగీస్",
          "pt-PT": "యూరోపియన్ పోర్చుగీస్",
          "qu": "కెషుయా",
          "quc": "కిచే",
          "qug": "qug",
          "raj": "రాజస్తాని",
          "rap": "రాపన్యుయి",
          "rar": "రారోటొంగాన్",
          "rgn": "rgn",
          "rif": "rif",
          "rm": "రోమన్ష్",
          "rn": "రండి",
          "ro": "రోమానియన్",
          "ro-MD": "మొల్డావియన్",
          "rof": "రోంబో",
          "rom": "రోమానీ",
          "root": "రూట్",
          "rtm": "rtm",
          "ru": "రష్యన్",
          "rue": "rue",
          "rug": "rug",
          "rup": "ఆరోమేనియన్",
          "rw": "కిన్యర్వాండా",
          "rwk": "ర్వా",
          "sa": "సంస్కృతం",
          "sad": "సండావి",
          "sah": "యాకుట్",
          "sam": "సమారిటన్ అరమేక్",
          "saq": "సంబురు",
          "sas": "ససక్",
          "sat": "సంటాలి",
          "saz": "saz",
          "sba": "sba",
          "sbp": "సాంగు",
          "sc": "సార్డీనియన్",
          "scn": "సిసిలియన్",
          "sco": "స్కాట్స్",
          "sd": "సింధీ",
          "sdc": "sdc",
          "se": "ఉత్తర సామి",
          "see": "see",
          "seh": "సెనా",
          "sei": "sei",
          "sel": "సేల్కప్",
          "ses": "కోయోరాబోరో సెన్నీ",
          "sg": "సాంగో",
          "sga": "ప్రాచీన ఐరిష్",
          "sgs": "sgs",
          "sh": "సేర్బో-క్రొయేషియన్",
          "shi": "టాచెల్‌హిట్",
          "shn": "షాన్",
          "shu": "shu",
          "si": "సింహళం",
          "sid": "సిడామో",
          "sk": "స్లోవాక్",
          "sl": "స్లోవేనియాన్",
          "sli": "sli",
          "sly": "sly",
          "sm": "సమోవన్",
          "sma": "దక్షిణ సామి",
          "smj": "లులే సామి",
          "smn": "ఇనారి సామి",
          "sms": "స్కోల్ట్ సామి",
          "sn": "షోన",
          "snk": "సోనింకి",
          "so": "సోమాలి",
          "sog": "సోగ్డియన్",
          "sq": "అల్బేనియన్",
          "sr": "సెర్బియన్",
          "srn": "స్రానన్ టోనగో",
          "srr": "సెరేర్",
          "ss": "స్వాతి",
          "ssy": "ssy",
          "st": "దక్షిణ సోతో",
          "stq": "stq",
          "su": "సుడానీస్",
          "suk": "సుకుమా",
          "sus": "సుసు",
          "sux": "సుమేరియాన్",
          "sv": "స్వీడిష్",
          "sw": "స్వాహిలి",
          "swb": "కొమొరియన్",
          "swc": "కాంగో స్వాహిలి",
          "syc": "సాంప్రదాయ సిరియాక్",
          "syr": "సిరియాక్",
          "szl": "szl",
          "ta": "తమిళము",
          "tcy": "తుళు",
          "te": "తెలుగు",
          "tem": "టింనే",
          "teo": "టెసో",
          "ter": "టెరెనో",
          "tet": "టేటం",
          "tg": "తజిక్",
          "th": "థాయ్",
          "ti": "తిగ్రిన్యా",
          "tig": "టీగ్రె",
          "tiv": "టివ్",
          "tk": "తుర్కమెన్",
          "tkl": "టోకెలావ్",
          "tkr": "tkr",
          "tl": "తగలోగ్",
          "tlh": "క్లింగాన్",
          "tli": "లింగిట్",
          "tly": "tly",
          "tmh": "టామషేక్",
          "tn": "సెటస్వానా",
          "to": "టాంగాన్",
          "tog": "న్యాసా టోన్గా",
          "tpi": "టోక్ పిసిన్",
          "tr": "టర్కిష్",
          "tru": "tru",
          "trv": "trv",
          "ts": "సోంగా",
          "tsd": "tsd",
          "tsi": "శింషీయన్",
          "tt": "టాటర్",
          "ttt": "ttt",
          "tum": "టుంబుకా",
          "tvl": "టువాలు",
          "tw": "ట్వి",
          "twq": "టసావాఖ్",
          "ty": "తహితియన్",
          "tyv": "టువినియన్",
          "tzm": "సెంట్రల్ అట్లాస్ టామాజైట్",
          "udm": "ఉడ్ముర్ట్",
          "ug": "ఉయ్‌ఘర్",
          "uga": "ఉగారిటిక్",
          "uk": "ఉక్రేనియన్",
          "umb": "ఉమ్బుండు",
          "und": "తెలియని భాష",
          "ur": "ఉర్దూ",
          "uz": "ఉజ్బెక్",
          "vai": "వాయి",
          "ve": "వెండా",
          "vec": "vec",
          "vep": "vep",
          "vi": "వియత్నామీస్",
          "vls": "vls",
          "vmf": "vmf",
          "vo": "వోలాపుక్",
          "vot": "వోటిక్",
          "vro": "vro",
          "vun": "వుంజొ",
          "wa": "వాలూన్",
          "wae": "wae",
          "wal": "వాలామో",
          "war": "వారే",
          "was": "వాషో",
          "wo": "వొలాఫ్",
          "wuu": "wuu",
          "xal": "కల్మిక్",
          "xh": "షోసా",
          "xmf": "xmf",
          "xog": "సొగా",
          "yao": "యాఒ",
          "yap": "యాపిస్",
          "yav": "yav",
          "ybb": "ybb",
          "yi": "ఇడ్డిష్",
          "yo": "యోరుబా",
          "yrl": "yrl",
          "yue": "కాంటనీస్",
          "za": "జువాన్",
          "zap": "జపోటెక్",
          "zbl": "బ్లిసింబల్స్",
          "zea": "zea",
          "zen": "జెనాగా",
          "zgh": "ప్రామాణిక మొరొకన్ తమజియట్",
          "zh": "చైనీస్",
          "zh-Hans": "సరళీకృత చైనీస్",
          "zh-Hant": "సాంప్రదాయక చైనీస్",
          "zu": "జూలూ",
          "zun": "జుని",
          "zxx": "లిపి లేదు",
          "zza": "జాజా"
        }
      }
    }
  }
}
