{
  "main": {
    "te-IN": {
      "identity": {
        "version": {
          "_cldrVersion": "26",
          "_number": "$Revision: 10669 $"
        },
        "generation": {
          "_date": "$Date: 2014-07-23 16:10:33 -0500 (Wed, 23 Jul 2014) $"
        },
        "language": "root",
        "territory": "IN"
      },
      "dates": {
        "timeZoneNames": {
          "hourFormat": "+HH:mm;-HH:mm",
          "gmtFormat": "GMT{0}",
          "gmtZeroFormat": "GMT",
          "regionFormat": "{0} సమయం",
          "regionFormat-type-standard": "{0} ప్రామాణిక సమయం",
          "regionFormat-type-daylight": "{0} పగటి సమయం",
          "fallbackFormat": "{1} ({0})",
          "zone": {
            "America": {
              "Adak": {
                "exemplarCity": "అడాక్"
              },
              "Anchorage": {
                "exemplarCity": "యాంకరేజ్"
              },
              "Anguilla": {
                "exemplarCity": "ఆంగ్విలా"
              },
              "Antigua": {
                "exemplarCity": "అంటిగ్వా"
              },
              "Araguaina": {
                "exemplarCity": "అరాగ్వేయీనా"
              },
              "Argentina": {
                "La_Rioja": {
                  "exemplarCity": "లా రియోజ"
                },
                "Rio_Gallegos": {
                  "exemplarCity": "రియో గల్లేగోస్"
                },
                "Salta": {
                  "exemplarCity": "సాల్టా"
                },
                "San_Juan": {
                  "exemplarCity": "శాన్ జ్యూన్"
                },
                "San_Luis": {
                  "exemplarCity": "శాన్ లూయిస్"
                },
                "Tucuman": {
                  "exemplarCity": "టుకుమన్"
                },
                "Ushuaia": {
                  "exemplarCity": "ఉష్యూయ"
                }
              },
              "Aruba": {
                "exemplarCity": "అరుబా"
              },
              "Asuncion": {
                "exemplarCity": "అసున్సియోన్"
              },
              "Bahia": {
                "exemplarCity": "బహియ"
              },
              "Bahia_Banderas": {
                "exemplarCity": "బహియా బండరాస్"
              },
              "Barbados": {
                "exemplarCity": "బార్బడోస్"
              },
              "Belem": {
                "exemplarCity": "బెలెమ్"
              },
              "Belize": {
                "exemplarCity": "బెలీజ్"
              },
              "Blanc-Sablon": {
                "exemplarCity": "బ్లాంక్-సబ్లోన్"
              },
              "Boa_Vista": {
                "exemplarCity": "బోవా విస్టా"
              },
              "Bogota": {
                "exemplarCity": "బగోటా"
              },
              "Boise": {
                "exemplarCity": "బొయిసీ"
              },
              "Buenos_Aires": {
                "exemplarCity": "బ్యూనోస్ ఎయిర్స్"
              },
              "Cambridge_Bay": {
                "exemplarCity": "కేంబ్రిడ్జ్ బే"
              },
              "Campo_Grande": {
                "exemplarCity": "కాంపో గ్రాండ్"
              },
              "Cancun": {
                "exemplarCity": "కన్‌కూన్"
              },
              "Caracas": {
                "exemplarCity": "కారాకస్"
              },
              "Catamarca": {
                "exemplarCity": "కటమార్కా"
              },
              "Cayenne": {
                "exemplarCity": "కయేన్"
              },
              "Cayman": {
                "exemplarCity": "కేమాన్"
              },
              "Chicago": {
                "exemplarCity": "చికాగో"
              },
              "Chihuahua": {
                "exemplarCity": "చువావా"
              },
              "Coral_Harbour": {
                "exemplarCity": "అటికోకన్"
              },
              "Cordoba": {
                "exemplarCity": "కోర్బోడా"
              },
              "Costa_Rica": {
                "exemplarCity": "కోస్టా రికా"
              },
              "Creston": {
                "exemplarCity": "క్రెస్టన్"
              },
              "Cuiaba": {
                "exemplarCity": "కుయోబే"
              },
              "Curacao": {
                "exemplarCity": "కురాకవో"
              },
              "Danmarkshavn": {
                "exemplarCity": "డెన్మార్క్శ్వాన్"
              },
              "Dawson": {
                "exemplarCity": "డాసన్"
              },
              "Dawson_Creek": {
                "exemplarCity": "డాసన్ క్రీక్"
              },
              "Denver": {
                "exemplarCity": "డెన్వెర్"
              },
              "Detroit": {
                "exemplarCity": "డిట్రోయిట్"
              },
              "Dominica": {
                "exemplarCity": "డొమినికా"
              },
              "Edmonton": {
                "exemplarCity": "ఎడ్మోంటన్"
              },
              "Eirunepe": {
                "exemplarCity": "ఇరునెప్"
              },
              "El_Salvador": {
                "exemplarCity": "ఎల్ సాల్వడోర్"
              },
              "Fortaleza": {
                "exemplarCity": "ఫార్ట్లెజా"
              },
              "Glace_Bay": {
                "exemplarCity": "గ్లేస్ బే"
              },
              "Godthab": {
                "exemplarCity": "గాడ్తాబ్"
              },
              "Goose_Bay": {
                "exemplarCity": "గూస్ బే"
              },
              "Grand_Turk": {
                "exemplarCity": "గ్రాండ్ టర్క్"
              },
              "Grenada": {
                "exemplarCity": "గ్రెనడా"
              },
              "Guadeloupe": {
                "exemplarCity": "గ్వాడెలోప్"
              },
              "Guatemala": {
                "exemplarCity": "గ్వాటిమాలా"
              },
              "Guayaquil": {
                "exemplarCity": "గయాక్విల్"
              },
              "Guyana": {
                "exemplarCity": "గయానా"
              },
              "Halifax": {
                "exemplarCity": "హలుఫాక్స్"
              },
              "Havana": {
                "exemplarCity": "హవానా"
              },
              "Hermosillo": {
                "exemplarCity": "హెర్మోసిల్లో"
              },
              "Indiana": {
                "Knox": {
                  "exemplarCity": "నోక్స్, ఇండియాన"
                },
                "Marengo": {
                  "exemplarCity": "మరెంగో, ఇండియాన"
                },
                "Petersburg": {
                  "exemplarCity": "పీటర్స్‌బర్గ్, ఇండియాన"
                },
                "Tell_City": {
                  "exemplarCity": "టెల్ నగరం, ఇండియాన"
                },
                "Vevay": {
                  "exemplarCity": "వెవయ్, ఇండియాన"
                },
                "Vincennes": {
                  "exemplarCity": "విన్‌సెన్నెస్, ఇండియాన"
                },
                "Winamac": {
                  "exemplarCity": "వినిమాక్, ఇండియాన"
                }
              },
              "Indianapolis": {
                "exemplarCity": "ఇండియానపోలిస్"
              },
              "Inuvik": {
                "exemplarCity": "ఇనువిక్"
              },
              "Iqaluit": {
                "exemplarCity": "ఇక్వాలిట్"
              },
              "Jamaica": {
                "exemplarCity": "జమైకా"
              },
              "Jujuy": {
                "exemplarCity": "జుజుయ్"
              },
              "Juneau": {
                "exemplarCity": "జోనొవ్"
              },
              "Kentucky": {
                "Monticello": {
                  "exemplarCity": "మోంటిసెల్లో, కెన్‌టుక్కీ"
                }
              },
              "Kralendijk": {
                "exemplarCity": "క్రలెండ్జిక్"
              },
              "La_Paz": {
                "exemplarCity": "లా పాజ్"
              },
              "Lima": {
                "exemplarCity": "లిమా"
              },
              "Los_Angeles": {
                "exemplarCity": "లాస్ ఏంజల్స్"
              },
              "Louisville": {
                "exemplarCity": "లూయివిల్"
              },
              "Lower_Princes": {
                "exemplarCity": "లోయర్ ప్రిన్స్ క్వార్టర్"
              },
              "Maceio": {
                "exemplarCity": "మాసియో"
              },
              "Managua": {
                "exemplarCity": "మనాగువా"
              },
              "Manaus": {
                "exemplarCity": "మనాస్"
              },
              "Marigot": {
                "exemplarCity": "మారిగోట్"
              },
              "Martinique": {
                "exemplarCity": "మార్టినీక్"
              },
              "Matamoros": {
                "exemplarCity": "మాటమొరోస్"
              },
              "Mazatlan": {
                "exemplarCity": "మాసట్‌లాన్"
              },
              "Mendoza": {
                "exemplarCity": "మెండోజా"
              },
              "Menominee": {
                "exemplarCity": "మెనోమినీ"
              },
              "Merida": {
                "exemplarCity": "మెరిడా"
              },
              "Metlakatla": {
                "exemplarCity": "మెట్లకట్ల"
              },
              "Mexico_City": {
                "exemplarCity": "మెక్సికో నగరం"
              },
              "Miquelon": {
                "exemplarCity": "మిక్వెలాన్"
              },
              "Moncton": {
                "exemplarCity": "మోన్‌క్టోన్"
              },
              "Monterrey": {
                "exemplarCity": "మోంటెర్రే"
              },
              "Montevideo": {
                "exemplarCity": "మోంటెవీడియో"
              },
              "Montserrat": {
                "exemplarCity": "మోంటిసిరాట్"
              },
              "Nassau": {
                "exemplarCity": "నాస్సావ్"
              },
              "New_York": {
                "exemplarCity": "న్యూయార్క్"
              },
              "Nipigon": {
                "exemplarCity": "నిపిగోన్"
              },
              "Nome": {
                "exemplarCity": "నోమ్"
              },
              "Noronha": {
                "exemplarCity": "నరోన్హా"
              },
              "North_Dakota": {
                "Beulah": {
                  "exemplarCity": "బ్యులా, ఉత్తర డకోట"
                },
                "Center": {
                  "exemplarCity": "సెంట్రల్, ఉత్తర డకోటా"
                },
                "New_Salem": {
                  "exemplarCity": "న్యూ సలేమ్, ఉత్తర డకోట"
                }
              },
              "Ojinaga": {
                "exemplarCity": "ఒజినగ"
              },
              "Panama": {
                "exemplarCity": "పనామా"
              },
              "Pangnirtung": {
                "exemplarCity": "పాంగ్‌నీర్‌టుంగ్"
              },
              "Paramaribo": {
                "exemplarCity": "పరామారిబో"
              },
              "Phoenix": {
                "exemplarCity": "ఫినిక్స్"
              },
              "Port-au-Prince": {
                "exemplarCity": "పోర్ట్-అవ్-ప్రిన్స్"
              },
              "Port_of_Spain": {
                "exemplarCity": "పోర్ట్ ఆఫ్ స్పెయిన్"
              },
              "Porto_Velho": {
                "exemplarCity": "పోర్టో వెల్హో"
              },
              "Puerto_Rico": {
                "exemplarCity": "ప్యూర్టో రికో"
              },
              "Rainy_River": {
                "exemplarCity": "రెయినీ రివర్"
              },
              "Rankin_Inlet": {
                "exemplarCity": "రన్‌కిన్ ఇన్‌లెట్"
              },
              "Recife": {
                "exemplarCity": "రెసిఫీ"
              },
              "Regina": {
                "exemplarCity": "రెజీనా"
              },
              "Resolute": {
                "exemplarCity": "రిజల్యూట్"
              },
              "Rio_Branco": {
                "exemplarCity": "రియో బ్రాంకో"
              },
              "Santa_Isabel": {
                "exemplarCity": "శాంటా ఇసబెల్"
              },
              "Santarem": {
                "exemplarCity": "సాంటరెమ్"
              },
              "Santiago": {
                "exemplarCity": "శాంటియాగో"
              },
              "Santo_Domingo": {
                "exemplarCity": "శాంటో డోమింగో"
              },
              "Sao_Paulo": {
                "exemplarCity": "సావో పాలో"
              },
              "Scoresbysund": {
                "exemplarCity": "స్కోర్స్బైసుండ్"
              },
              "Sitka": {
                "exemplarCity": "సిట్కా"
              },
              "St_Barthelemy": {
                "exemplarCity": "సెయింట్ బర్తెలెమీ"
              },
              "St_Johns": {
                "exemplarCity": "సె. జాన్స్"
              },
              "St_Kitts": {
                "exemplarCity": "సెయింట్ కిట్స్"
              },
              "St_Lucia": {
                "exemplarCity": "సెయింట్ లూసియా"
              },
              "St_Thomas": {
                "exemplarCity": "సెయింట్ థామస్"
              },
              "St_Vincent": {
                "exemplarCity": "సెయింట్ విన్సెంట్"
              },
              "Swift_Current": {
                "exemplarCity": "స్విఫ్ట్ కరెంట్"
              },
              "Tegucigalpa": {
                "exemplarCity": "తెగుసిగల్పా"
              },
              "Thule": {
                "exemplarCity": "థులే"
              },
              "Thunder_Bay": {
                "exemplarCity": "థండర్ బే"
              },
              "Tijuana": {
                "exemplarCity": "తిజ్యునా"
              },
              "Toronto": {
                "exemplarCity": "టొరంటో"
              },
              "Tortola": {
                "exemplarCity": "టోర్టోలా"
              },
              "Vancouver": {
                "exemplarCity": "వాన్కూవర్"
              },
              "Whitehorse": {
                "exemplarCity": "వైట్‌హార్స్"
              },
              "Winnipeg": {
                "exemplarCity": "విన్నిపెగ్"
              },
              "Yakutat": {
                "exemplarCity": "యకుటాట్"
              },
              "Yellowknife": {
                "exemplarCity": "ఎల్లోనైఫ్"
              }
            },
            "Atlantic": {
              "Azores": {
                "exemplarCity": "అజోర్స్"
              },
              "Bermuda": {
                "exemplarCity": "బెర్ముడా"
              },
              "Canary": {
                "exemplarCity": "కెనరీ"
              },
              "Cape_Verde": {
                "exemplarCity": "కేప్ వెర్డె"
              },
              "Faeroe": {
                "exemplarCity": "ఫారో"
              },
              "Madeira": {
                "exemplarCity": "మదైరా"
              },
              "Reykjavik": {
                "exemplarCity": "రెక్జావిక్"
              },
              "South_Georgia": {
                "exemplarCity": "దక్షిణ జార్జియా"
              },
              "St_Helena": {
                "exemplarCity": "సెయింట్ హెలెనా"
              },
              "Stanley": {
                "exemplarCity": "స్టాన్లీ"
              }
            },
            "Europe": {
              "Amsterdam": {
                "exemplarCity": "ఆమ్‌స్టర్‌డామ్"
              },
              "Andorra": {
                "exemplarCity": "అండోరా"
              },
              "Athens": {
                "exemplarCity": "ఏథెన్స్"
              },
              "Belgrade": {
                "exemplarCity": "బెల్‌గ్రేడ్"
              },
              "Berlin": {
                "exemplarCity": "బెర్లిన్"
              },
              "Bratislava": {
                "exemplarCity": "బ్రటీష్‌వాలా"
              },
              "Brussels": {
                "exemplarCity": "బ్రస్సెల్స్"
              },
              "Bucharest": {
                "exemplarCity": "బుకారెస్ట్"
              },
              "Budapest": {
                "exemplarCity": "బుడాపెస్ట్"
              },
              "Busingen": {
                "exemplarCity": "బసింజన్"
              },
              "Chisinau": {
                "exemplarCity": "చిసినావ్"
              },
              "Copenhagen": {
                "exemplarCity": "కోపెన్హాగన్"
              },
              "Dublin": {
                "long": {
                  "daylight": "ఐరిష్ ప్రామాణిక సమయం"
                },
                "exemplarCity": "డబ్లిన్"
              },
              "Gibraltar": {
                "exemplarCity": "జిబ్రాల్టర్"
              },
              "Guernsey": {
                "exemplarCity": "గ్వెర్న్సే"
              },
              "Helsinki": {
                "exemplarCity": "హెల్సింకి"
              },
              "Isle_of_Man": {
                "exemplarCity": "ఐల్ ఆఫ్ మేన్"
              },
              "Istanbul": {
                "exemplarCity": "ఇస్తాంబుల్"
              },
              "Jersey": {
                "exemplarCity": "జెర్సీ"
              },
              "Kaliningrad": {
                "exemplarCity": "కలినిన్‌గ్రద్"
              },
              "Kiev": {
                "exemplarCity": "కీవ్"
              },
              "Lisbon": {
                "exemplarCity": "లిస్బన్"
              },
              "Ljubljana": {
                "exemplarCity": "ల్యూబ్ల్యానా"
              },
              "London": {
                "long": {
                  "daylight": "బ్రిటీష్ వేసవి సమయం"
                },
                "exemplarCity": "లండన్"
              },
              "Luxembourg": {
                "exemplarCity": "లక్సెంబర్గ్"
              },
              "Madrid": {
                "exemplarCity": "మాడ్రిడ్"
              },
              "Malta": {
                "exemplarCity": "మాల్టా"
              },
              "Mariehamn": {
                "exemplarCity": "మారీయుహమ్"
              },
              "Minsk": {
                "exemplarCity": "మిన్స్క్"
              },
              "Monaco": {
                "exemplarCity": "మొనాకో"
              },
              "Moscow": {
                "exemplarCity": "మాస్కో"
              },
              "Oslo": {
                "exemplarCity": "ఓస్లో"
              },
              "Paris": {
                "exemplarCity": "ప్యారిస్"
              },
              "Podgorica": {
                "exemplarCity": "పోడ్గోరికా"
              },
              "Prague": {
                "exemplarCity": "ప్రాగ్"
              },
              "Riga": {
                "exemplarCity": "రీగా"
              },
              "Rome": {
                "exemplarCity": "రోమ్"
              },
              "Samara": {
                "exemplarCity": "సమార"
              },
              "San_Marino": {
                "exemplarCity": "శాన్ మారినో"
              },
              "Sarajevo": {
                "exemplarCity": "సరాజోవో"
              },
              "Simferopol": {
                "exemplarCity": "సిమ్‌ఫెరోపోల్"
              },
              "Skopje": {
                "exemplarCity": "స్కోప్‌యే"
              },
              "Sofia": {
                "exemplarCity": "సోఫియా"
              },
              "Stockholm": {
                "exemplarCity": "స్టాక్హోమ్"
              },
              "Tallinn": {
                "exemplarCity": "తాల్లిన్"
              },
              "Tirane": {
                "exemplarCity": "టిరేన్"
              },
              "Uzhgorod": {
                "exemplarCity": "ఉజుగోరోడ్"
              },
              "Vaduz": {
                "exemplarCity": "వాడుజ్"
              },
              "Vatican": {
                "exemplarCity": "వాటికన్"
              },
              "Vienna": {
                "exemplarCity": "వియన్నా"
              },
              "Vilnius": {
                "exemplarCity": "విల్నియస్"
              },
              "Volgograd": {
                "exemplarCity": "వోల్గోగ్రాడ్"
              },
              "Warsaw": {
                "exemplarCity": "వార్షా"
              },
              "Zagreb": {
                "exemplarCity": "జాగ్రెబ్"
              },
              "Zaporozhye": {
                "exemplarCity": "జపరోజై"
              },
              "Zurich": {
                "exemplarCity": "జ్యూరిచ్"
              }
            },
            "Africa": {
              "Abidjan": {
                "exemplarCity": "అబిడ్జాన్"
              },
              "Accra": {
                "exemplarCity": "అక్రా"
              },
              "Addis_Ababa": {
                "exemplarCity": "యాడిస్ అబాబా"
              },
              "Algiers": {
                "exemplarCity": "అల్జియర్స్"
              },
              "Asmera": {
                "exemplarCity": "అస్మారా"
              },
              "Bamako": {
                "exemplarCity": "బామాకో"
              },
              "Bangui": {
                "exemplarCity": "బాంగుయ్"
              },
              "Banjul": {
                "exemplarCity": "బంజూల్"
              },
              "Bissau": {
                "exemplarCity": "బిస్సావ్"
              },
              "Blantyre": {
                "exemplarCity": "బ్లాన్టైర్"
              },
              "Brazzaville": {
                "exemplarCity": "బ్రాజావిల్లే"
              },
              "Bujumbura": {
                "exemplarCity": "బుజమ్బురా"
              },
              "Cairo": {
                "exemplarCity": "కైరో"
              },
              "Casablanca": {
                "exemplarCity": "కాసాబ్లాంకా"
              },
              "Ceuta": {
                "exemplarCity": "స్యూటా"
              },
              "Conakry": {
                "exemplarCity": "కోనాక్రీ"
              },
              "Dakar": {
                "exemplarCity": "డకార్"
              },
              "Dar_es_Salaam": {
                "exemplarCity": "దార్ ఎ సలామ్"
              },
              "Djibouti": {
                "exemplarCity": "డిజ్బౌటి"
              },
              "Douala": {
                "exemplarCity": "డౌలా"
              },
              "El_Aaiun": {
                "exemplarCity": "ఎల్ ఎయున్"
              },
              "Freetown": {
                "exemplarCity": "ఫ్రీటౌన్"
              },
              "Gaborone": {
                "exemplarCity": "గబోరోన్"
              },
              "Harare": {
                "exemplarCity": "హరారే"
              },
              "Johannesburg": {
                "exemplarCity": "జొహెన్స్‌బర్గ్"
              },
              "Juba": {
                "exemplarCity": "జుబా"
              },
              "Kampala": {
                "exemplarCity": "కంపాలా"
              },
              "Khartoum": {
                "exemplarCity": "ఖార్టోమ్"
              },
              "Kigali": {
                "exemplarCity": "కీగలి"
              },
              "Kinshasa": {
                "exemplarCity": "కిన్షాసా"
              },
              "Lagos": {
                "exemplarCity": "లాగోస్"
              },
              "Libreville": {
                "exemplarCity": "లెబర్విల్లే"
              },
              "Lome": {
                "exemplarCity": "లోమ్"
              },
              "Luanda": {
                "exemplarCity": "లువాండా"
              },
              "Lubumbashi": {
                "exemplarCity": "లుబంబాషి"
              },
              "Lusaka": {
                "exemplarCity": "లుసాకా"
              },
              "Malabo": {
                "exemplarCity": "మలాబో"
              },
              "Maputo": {
                "exemplarCity": "మాపుటో"
              },
              "Maseru": {
                "exemplarCity": "మసేరు"
              },
              "Mbabane": {
                "exemplarCity": "బాబెన్"
              },
              "Mogadishu": {
                "exemplarCity": "మోగాదిషు"
              },
              "Monrovia": {
                "exemplarCity": "మోన్రోవియా"
              },
              "Nairobi": {
                "exemplarCity": "నైరోబీ"
              },
              "Ndjamena": {
                "exemplarCity": "డ్జామెనా"
              },
              "Niamey": {
                "exemplarCity": "నియామే"
              },
              "Nouakchott": {
                "exemplarCity": "న్వాక్షోట్"
              },
              "Ouagadougou": {
                "exemplarCity": "ఔగాడౌగోవ్"
              },
              "Porto-Novo": {
                "exemplarCity": "పోర్టో-నోవో"
              },
              "Sao_Tome": {
                "exemplarCity": "సావో టోమ్"
              },
              "Tripoli": {
                "exemplarCity": "ట్రిపోలి"
              },
              "Tunis": {
                "exemplarCity": "ట్యునిస్"
              },
              "Windhoek": {
                "exemplarCity": "విండ్హోక్"
              }
            },
            "Asia": {
              "Aden": {
                "exemplarCity": "ఎడెన్"
              },
              "Almaty": {
                "exemplarCity": "ఆల్మాటి"
              },
              "Amman": {
                "exemplarCity": "అమ్మన్"
              },
              "Anadyr": {
                "exemplarCity": "అనడైర్"
              },
              "Aqtau": {
                "exemplarCity": "అక్టావ్"
              },
              "Aqtobe": {
                "exemplarCity": "అక్టోబ్"
              },
              "Ashgabat": {
                "exemplarCity": "యాష్గాబాట్"
              },
              "Baghdad": {
                "exemplarCity": "బాగ్దాద్"
              },
              "Bahrain": {
                "exemplarCity": "బహ్రెయిన్"
              },
              "Baku": {
                "exemplarCity": "బాకు"
              },
              "Bangkok": {
                "exemplarCity": "బ్యాంకాక్"
              },
              "Beirut": {
                "exemplarCity": "బీరట్"
              },
              "Bishkek": {
                "exemplarCity": "బిష్కెక్"
              },
              "Brunei": {
                "exemplarCity": "బ్రూనై"
              },
              "Calcutta": {
                "exemplarCity": "కోల్‌కతా"
              },
              "Chita": {
                "exemplarCity": "Chita"
              },
              "Choibalsan": {
                "exemplarCity": "చోయిబాల్సన్"
              },
              "Chongqing": {
                "exemplarCity": "చోంగో‌క్వింగ్"
              },
              "Colombo": {
                "exemplarCity": "కొలంబో"
              },
              "Damascus": {
                "exemplarCity": "డమాస్కస్"
              },
              "Dhaka": {
                "exemplarCity": "ఢాకా"
              },
              "Dili": {
                "exemplarCity": "డిలి"
              },
              "Dubai": {
                "exemplarCity": "దుబాయి"
              },
              "Dushanbe": {
                "exemplarCity": "డుషన్బీ"
              },
              "Gaza": {
                "exemplarCity": "గాజా"
              },
              "Harbin": {
                "exemplarCity": "హర్బిన్"
              },
              "Hebron": {
                "exemplarCity": "హెబ్రాన్"
              },
              "Hong_Kong": {
                "exemplarCity": "హాంకాంగ్"
              },
              "Hovd": {
                "exemplarCity": "హోవడ్"
              },
              "Irkutsk": {
                "exemplarCity": "ఇర్కుట్స్క్"
              },
              "Jakarta": {
                "exemplarCity": "జకార్తా"
              },
              "Jayapura": {
                "exemplarCity": "జయపుర"
              },
              "Jerusalem": {
                "exemplarCity": "జరూసలేం"
              },
              "Kabul": {
                "exemplarCity": "కాబుల్"
              },
              "Kamchatka": {
                "exemplarCity": "కమ్‌చత్కా"
              },
              "Karachi": {
                "exemplarCity": "కరాచీ"
              },
              "Kashgar": {
                "exemplarCity": "కాష్‌గర్"
              },
              "Katmandu": {
                "exemplarCity": "ఖాట్మండు"
              },
              "Khandyga": {
                "exemplarCity": "కంద్యాగ"
              },
              "Krasnoyarsk": {
                "exemplarCity": "క్రసనోయార్స్క్"
              },
              "Kuala_Lumpur": {
                "exemplarCity": "కౌలాలంపూర్"
              },
              "Kuching": {
                "exemplarCity": "కుచింగ్"
              },
              "Kuwait": {
                "exemplarCity": "కువైట్"
              },
              "Macau": {
                "exemplarCity": "మకావ్"
              },
              "Magadan": {
                "exemplarCity": "మగడాన్"
              },
              "Makassar": {
                "exemplarCity": "మకాస్సర్"
              },
              "Manila": {
                "exemplarCity": "మనీలా"
              },
              "Muscat": {
                "exemplarCity": "మస్కట్"
              },
              "Nicosia": {
                "exemplarCity": "నికోసియా"
              },
              "Novokuznetsk": {
                "exemplarCity": "నొవొకుజ్‌నెట్‌స్క్"
              },
              "Novosibirsk": {
                "exemplarCity": "నవోసిబిర్స్క్"
              },
              "Omsk": {
                "exemplarCity": "ఓమ్స్క్"
              },
              "Oral": {
                "exemplarCity": "ఓరల్"
              },
              "Phnom_Penh": {
                "exemplarCity": "నోమ్‌పెన్హ్"
              },
              "Pontianak": {
                "exemplarCity": "పొన్టియనాక్"
              },
              "Pyongyang": {
                "exemplarCity": "ప్యోంగాంగ్"
              },
              "Qatar": {
                "exemplarCity": "ఖతార్"
              },
              "Qyzylorda": {
                "exemplarCity": "క్విజిలోర్డా"
              },
              "Rangoon": {
                "exemplarCity": "రంగూన్"
              },
              "Riyadh": {
                "exemplarCity": "రియాధ్"
              },
              "Saigon": {
                "exemplarCity": "హో చి మిన్హ్ నగరం"
              },
              "Sakhalin": {
                "exemplarCity": "సఖాలిన్"
              },
              "Samarkand": {
                "exemplarCity": "సమర్కాండ్"
              },
              "Seoul": {
                "exemplarCity": "సియోల్"
              },
              "Shanghai": {
                "exemplarCity": "షాంఘై"
              },
              "Singapore": {
                "exemplarCity": "సింగపూర్"
              },
              "Srednekolymsk": {
                "exemplarCity": "Srednekolymsk"
              },
              "Taipei": {
                "exemplarCity": "తైపీ"
              },
              "Tashkent": {
                "exemplarCity": "తాష్కెంట్"
              },
              "Tbilisi": {
                "exemplarCity": "టిబిలిసి"
              },
              "Tehran": {
                "exemplarCity": "టెహ్రాన్"
              },
              "Thimphu": {
                "exemplarCity": "థింఫు"
              },
              "Tokyo": {
                "exemplarCity": "టోక్యో"
              },
              "Ulaanbaatar": {
                "exemplarCity": "ఉలాన్బాటర్"
              },
              "Urumqi": {
                "exemplarCity": "ఉరుమ్‌కీ"
              },
              "Ust-Nera": {
                "exemplarCity": "అస్ట్-నెరా"
              },
              "Vientiane": {
                "exemplarCity": "వియన్టైన్"
              },
              "Vladivostok": {
                "exemplarCity": "వ్లాడివోస్టోక్"
              },
              "Yakutsk": {
                "exemplarCity": "యకుట్స్క్"
              },
              "Yekaterinburg": {
                "exemplarCity": "యెకటెరింగ్‌బర్గ్"
              },
              "Yerevan": {
                "exemplarCity": "యెరెవన్"
              }
            },
            "Indian": {
              "Antananarivo": {
                "exemplarCity": "అంటానానారివో"
              },
              "Chagos": {
                "exemplarCity": "చాగోస్"
              },
              "Christmas": {
                "exemplarCity": "క్రిస్మస్"
              },
              "Cocos": {
                "exemplarCity": "కోకాస్"
              },
              "Comoro": {
                "exemplarCity": "కొమోరో"
              },
              "Kerguelen": {
                "exemplarCity": "కెర్గ్యూలెన్"
              },
              "Mahe": {
                "exemplarCity": "మాహె"
              },
              "Maldives": {
                "exemplarCity": "మాల్దీవులు"
              },
              "Mauritius": {
                "exemplarCity": "మారిషస్"
              },
              "Mayotte": {
                "exemplarCity": "మయోట్టి"
              },
              "Reunion": {
                "exemplarCity": "రీయూనియన్"
              }
            },
            "Australia": {
              "Adelaide": {
                "exemplarCity": "అడెలైడ్"
              },
              "Brisbane": {
                "exemplarCity": "బ్రిస్‌బెయిన్"
              },
              "Broken_Hill": {
                "exemplarCity": "బ్రోకెన్ హిల్"
              },
              "Currie": {
                "exemplarCity": "కుర్రియే"
              },
              "Darwin": {
                "exemplarCity": "డార్విన్"
              },
              "Eucla": {
                "exemplarCity": "యుక్లా"
              },
              "Hobart": {
                "exemplarCity": "హోబర్ట్"
              },
              "Lindeman": {
                "exemplarCity": "లిండెమాన్"
              },
              "Lord_Howe": {
                "exemplarCity": "లార్డ్ హౌ"
              },
              "Melbourne": {
                "exemplarCity": "మెల్బోర్న్"
              },
              "Perth": {
                "exemplarCity": "పెర్త్"
              },
              "Sydney": {
                "exemplarCity": "సిడ్నీ"
              }
            },
            "Pacific": {
              "Apia": {
                "exemplarCity": "ఏపియా"
              },
              "Auckland": {
                "exemplarCity": "ఆక్లాండ్"
              },
              "Chatham": {
                "exemplarCity": "ఛతం"
              },
              "Easter": {
                "exemplarCity": "ఈస్టర్"
              },
              "Efate": {
                "exemplarCity": "ఇఫేట్"
              },
              "Enderbury": {
                "exemplarCity": "ఎండర్బెరీ"
              },
              "Fakaofo": {
                "exemplarCity": "ఫాకావ్ఫో"
              },
              "Fiji": {
                "exemplarCity": "ఫీజీ"
              },
              "Funafuti": {
                "exemplarCity": "ఫునాఫుటి"
              },
              "Galapagos": {
                "exemplarCity": "గాలాపాగోస్"
              },
              "Gambier": {
                "exemplarCity": "గాంబియేర్"
              },
              "Guadalcanal": {
                "exemplarCity": "గ్వాడల్కెనాల్"
              },
              "Guam": {
                "exemplarCity": "గ్వామ్"
              },
              "Honolulu": {
                "exemplarCity": "హోనోలులు"
              },
              "Johnston": {
                "exemplarCity": "జాన్సటన్"
              },
              "Kiritimati": {
                "exemplarCity": "కిరీటిమాటి"
              },
              "Kosrae": {
                "exemplarCity": "కోస్రే"
              },
              "Kwajalein": {
                "exemplarCity": "క్వాజాలైన్"
              },
              "Majuro": {
                "exemplarCity": "మజురో"
              },
              "Marquesas": {
                "exemplarCity": "మార్క్వేసాస్"
              },
              "Midway": {
                "exemplarCity": "మిడ్వే"
              },
              "Nauru": {
                "exemplarCity": "నౌరు"
              },
              "Niue": {
                "exemplarCity": "నియూ"
              },
              "Norfolk": {
                "exemplarCity": "నోర్ఫోక్"
              },
              "Noumea": {
                "exemplarCity": "నౌమియా"
              },
              "Pago_Pago": {
                "exemplarCity": "పాగో పాగో"
              },
              "Palau": {
                "exemplarCity": "పాలావ్"
              },
              "Pitcairn": {
                "exemplarCity": "పిట్కెయిర్న్"
              },
              "Ponape": {
                "exemplarCity": "పోన్‌పై"
              },
              "Port_Moresby": {
                "exemplarCity": "పోర్ట్ మోరెస్బే"
              },
              "Rarotonga": {
                "exemplarCity": "రరోటోంగా"
              },
              "Saipan": {
                "exemplarCity": "సాయ్పాన్"
              },
              "Tahiti": {
                "exemplarCity": "తహితి"
              },
              "Tarawa": {
                "exemplarCity": "టరావా"
              },
              "Tongatapu": {
                "exemplarCity": "టోంగాటాపు"
              },
              "Truk": {
                "exemplarCity": "చుక్"
              },
              "Wake": {
                "exemplarCity": "వేక్"
              },
              "Wallis": {
                "exemplarCity": "వాల్లిస్"
              }
            },
            "Arctic": {
              "Longyearbyen": {
                "exemplarCity": "లాంగ్‌యియర్‌బైయన్"
              }
            },
            "Antarctica": {
              "Casey": {
                "exemplarCity": "కేసీ"
              },
              "Davis": {
                "exemplarCity": "డెవిస్"
              },
              "DumontDUrville": {
                "exemplarCity": "డ్యుమాంట్ డ్యుర్విల్లీ"
              },
              "Macquarie": {
                "exemplarCity": "మకారీ"
              },
              "Mawson": {
                "exemplarCity": "మాసన్"
              },
              "McMurdo": {
                "exemplarCity": "మెక్ముర్డో"
              },
              "Palmer": {
                "exemplarCity": "పాల్మర్"
              },
              "Rothera": {
                "exemplarCity": "రొతేరా"
              },
              "Syowa": {
                "exemplarCity": "స్యోవా"
              },
              "Troll": {
                "exemplarCity": "ట్రోల్"
              },
              "Vostok": {
                "exemplarCity": "వోస్టోక్"
              }
            },
            "Etc": {
              "GMT": {
                "exemplarCity": "GMT"
              },
              "GMT1": {
                "exemplarCity": "GMT+1"
              },
              "GMT10": {
                "exemplarCity": "GMT+10"
              },
              "GMT11": {
                "exemplarCity": "GMT+11"
              },
              "GMT12": {
                "exemplarCity": "GMT+12"
              },
              "GMT2": {
                "exemplarCity": "GMT+2"
              },
              "GMT3": {
                "exemplarCity": "GMT+3"
              },
              "GMT4": {
                "exemplarCity": "GMT+4"
              },
              "GMT5": {
                "exemplarCity": "GMT+5"
              },
              "GMT6": {
                "exemplarCity": "GMT+6"
              },
              "GMT7": {
                "exemplarCity": "GMT+7"
              },
              "GMT8": {
                "exemplarCity": "GMT+8"
              },
              "GMT9": {
                "exemplarCity": "GMT+9"
              },
              "GMT-1": {
                "exemplarCity": "GMT-1"
              },
              "GMT-10": {
                "exemplarCity": "GMT-10"
              },
              "GMT-11": {
                "exemplarCity": "GMT-11"
              },
              "GMT-12": {
                "exemplarCity": "GMT-12"
              },
              "GMT-13": {
                "exemplarCity": "GMT-13"
              },
              "GMT-14": {
                "exemplarCity": "GMT-14"
              },
              "GMT-2": {
                "exemplarCity": "GMT-2"
              },
              "GMT-3": {
                "exemplarCity": "GMT-3"
              },
              "GMT-4": {
                "exemplarCity": "GMT-4"
              },
              "GMT-5": {
                "exemplarCity": "GMT-5"
              },
              "GMT-6": {
                "exemplarCity": "GMT-6"
              },
              "GMT-7": {
                "exemplarCity": "GMT-7"
              },
              "GMT-8": {
                "exemplarCity": "GMT-8"
              },
              "GMT-9": {
                "exemplarCity": "GMT-9"
              },
              "Unknown": {
                "exemplarCity": "తెలియని నగరం"
              }
            }
          },
          "metazone": {
            "Acre": {
              "long": {
                "generic": "ఏకర్ సమయం",
                "standard": "ఏకర్ ప్రామాణిక సమయం",
                "daylight": "ఏకర్ వేసవి సమయం"
              }
            },
            "Afghanistan": {
              "long": {
                "standard": "ఆఫ్ఘనిస్థాన్ సమయం"
              }
            },
            "Africa_Central": {
              "long": {
                "standard": "సెంట్రల్ ఆఫ్రికా సమయం"
              }
            },
            "Africa_Eastern": {
              "long": {
                "standard": "తూర్పు ఆఫ్రికా సమయం"
              }
            },
            "Africa_Southern": {
              "long": {
                "standard": "దక్షిణ ఆఫ్రికా ప్రామాణిక సమయం"
              }
            },
            "Africa_Western": {
              "long": {
                "generic": "పశ్చిమ ఆఫ్రికా సమయం",
                "standard": "పశ్చిమ ఆఫ్రికా ప్రామాణిక సమయం",
                "daylight": "పశ్చిమ ఆఫ్రికా వేసవి సమయం"
              }
            },
            "Alaska": {
              "long": {
                "generic": "అలాస్కా సమయం",
                "standard": "అలాస్కా ప్రామాణిక సమయం",
                "daylight": "అలాస్కా పగటి సమయం"
              }
            },
            "Almaty": {
              "long": {
                "generic": "అల్మాటి సమయం",
                "standard": "అల్మాటి ప్రామాణిక సమయం",
                "daylight": "అల్మాటి వేసవి సమయం"
              }
            },
            "Amazon": {
              "long": {
                "generic": "అమెజాన్ సమయం",
                "standard": "అమెజాన్ ప్రామాణిక సమయం",
                "daylight": "అమెజాన్ వేసవి సమయం"
              }
            },
            "America_Central": {
              "long": {
                "generic": "మధ్యమ సమయం",
                "standard": "మధ్యమ ప్రామాణిక సమయం",
                "daylight": "మధ్యమ పగటి సమయం"
              }
            },
            "America_Eastern": {
              "long": {
                "generic": "తూర్పు సమయం",
                "standard": "తూర్పు ప్రామాణిక సమయం",
                "daylight": "తూర్పు పగటి సమయం"
              }
            },
            "America_Mountain": {
              "long": {
                "generic": "మౌంటేన్ సమయం",
                "standard": "మౌంటేన్ ప్రామాణిక సమయం",
                "daylight": "మౌంటేన్ పగటి సమయం"
              }
            },
            "America_Pacific": {
              "long": {
                "generic": "పసిఫిక్ సమయం",
                "standard": "పసిఫిక్ ప్రామాణిక సమయం",
                "daylight": "పసిఫిక్ పగటి సమయం"
              }
            },
            "Anadyr": {
              "long": {
                "generic": "అనడైర్ సమయం",
                "standard": "అనాన్డ్రి ప్రామాణిక సమయం",
                "daylight": "అనాన్డ్రి వేసవి సమయం"
              }
            },
            "Apia": {
              "long": {
                "generic": "ఏపియా సమయం",
                "standard": "ఏపియా ప్రామాణిక సమయం",
                "daylight": "ఏపియా పగటి సమయం"
              }
            },
            "Aqtau": {
              "long": {
                "generic": "అక్వాటు సమయం",
                "standard": "అక్వాటు ప్రామాణిక సమయం",
                "daylight": "అక్వాటు వేసవి సమయం"
              }
            },
            "Aqtobe": {
              "long": {
                "generic": "అక్టోబె సమయం",
                "standard": "అక్టోబె ప్రామాణిక సమయం",
                "daylight": "అక్టోబె వేసవి సమయం"
              }
            },
            "Arabian": {
              "long": {
                "generic": "అరేబియన్ సమయం",
                "standard": "అరేబియన్ ప్రామాణిక సమయం",
                "daylight": "అరేబియన్ పగటి వెలుతురు సమయం"
              }
            },
            "Argentina": {
              "long": {
                "generic": "అర్జెంటీనా సమయం",
                "standard": "అర్జెంటీనా ప్రామాణిక సమయం",
                "daylight": "ఆర్జెంటీనా వేసవి సమయం"
              }
            },
            "Argentina_Western": {
              "long": {
                "generic": "పశ్చిమ అర్జెంటీనా సమయం",
                "standard": "పశ్చిమ అర్జెంటీనా ప్రామాణిక సమయం",
                "daylight": "పశ్చిమ అర్జెంటీనా వేసవి సమయం"
              }
            },
            "Armenia": {
              "long": {
                "generic": "ఆర్మేనియా సమయం",
                "standard": "ఆర్మేనియా ప్రామాణిక సమయం",
                "daylight": "ఆర్మేనియా వేసవి సమయం"
              }
            },
            "Atlantic": {
              "long": {
                "generic": "అట్లాంటిక్ సమయం",
                "standard": "అట్లాంటిక్ ప్రామాణిక సమయం",
                "daylight": "అట్లాంటిక్ పగటి సమయం"
              }
            },
            "Australia_Central": {
              "long": {
                "generic": "ఆస్ట్రేలియా మధ్యమ సమయం",
                "standard": "ఆస్ట్రేలియా మధ్యమ ప్రామాణిక సమయం",
                "daylight": "ఆస్ట్రేలియా మధ్యమ పగటి సమయం"
              }
            },
            "Australia_CentralWestern": {
              "long": {
                "generic": "మధ్యమ ఆస్ట్రేలియా పశ్చిమ సమయం",
                "standard": "మధ్యమ ఆస్ట్రేలియా పశ్చిమ ప్రామాణిక సమయం",
                "daylight": "మధ్యమ ఆస్ట్రేలియా పశ్చిమ పగటి సమయం"
              }
            },
            "Australia_Eastern": {
              "long": {
                "generic": "తూర్పు ఆస్ట్రేలియా సమయం",
                "standard": "తూర్పు ఆస్ట్రేలియా ప్రామాణిక సమయం",
                "daylight": "తూర్పు ఆస్ట్రేలియా పగటి సమయం"
              }
            },
            "Australia_Western": {
              "long": {
                "generic": "పశ్చిమ ఆస్ట్రేలియా సమయం",
                "standard": "పశ్చిమ ఆస్ట్రేలియా ప్రామాణిక సమయం",
                "daylight": "పశ్చిమ ఆస్ట్రేలియా పగటి సమయం"
              }
            },
            "Azerbaijan": {
              "long": {
                "generic": "అజర్బైజాన్ సమయం",
                "standard": "అజర్బైజాన్ ప్రామాణిక సమయం",
                "daylight": "అజర్బైజాన్ వేసవి సమయం"
              }
            },
            "Azores": {
              "long": {
                "generic": "అజోర్స్ సమయం",
                "standard": "అజోర్స్ ప్రామాణిక సమయం",
                "daylight": "అజోర్స్ వేసవి సమయం"
              }
            },
            "Bangladesh": {
              "long": {
                "generic": "బంగ్లాదేశ్ సమయం",
                "standard": "బంగ్లాదేశ్ ప్రామాణిక సమయం",
                "daylight": "బంగ్లాదేశ్ వేసవి సమయం"
              }
            },
            "Bhutan": {
              "long": {
                "standard": "భూటాన్ సమయం"
              }
            },
            "Bolivia": {
              "long": {
                "standard": "బొలీవియా సమయం"
              }
            },
            "Brasilia": {
              "long": {
                "generic": "బ్రెజిలియా సమయం",
                "standard": "బ్రెజిలియా ప్రామాణిక సమయం",
                "daylight": "బ్రెజిలియా వేసవి సమయం"
              }
            },
            "Brunei": {
              "long": {
                "standard": "బ్రూనే దరుసలామ్ సమయం"
              }
            },
            "Cape_Verde": {
              "long": {
                "generic": "కేప్ వెర్డె సమయం",
                "standard": "కేప్ వెర్డె ప్రామాణిక సమయం",
                "daylight": "కేప్ వెర్డె వేసవి సమయం"
              }
            },
            "Chamorro": {
              "long": {
                "standard": "చామర్రో సమయం"
              }
            },
            "Chatham": {
              "long": {
                "generic": "చాథమ్ సమయం",
                "standard": "చాథమ్ ప్రామాణిక సమయం",
                "daylight": "చాథమ్ పగటి వెలుతురు సమయం"
              }
            },
            "Chile": {
              "long": {
                "generic": "చిలీ సమయం",
                "standard": "చిలీ ప్రామాణిక సమయం",
                "daylight": "చిలీ వేసవి సమయం"
              }
            },
            "China": {
              "long": {
                "generic": "చైనా సమయం",
                "standard": "చైనా ప్రామాణిక సమయం",
                "daylight": "చైనా పగటి వెలుతురు సమయం"
              }
            },
            "Choibalsan": {
              "long": {
                "generic": "చోయిబల్సాన్ సమయం",
                "standard": "చోయిబల్సాన్ ప్రామాణిక సమయం",
                "daylight": "చోయిబల్సాన్ వేసవి సమయం"
              }
            },
            "Christmas": {
              "long": {
                "standard": "క్రిస్మస్ దీవి సమయం"
              }
            },
            "Cocos": {
              "long": {
                "standard": "కాకోస్ దీవుల సమయం"
              }
            },
            "Colombia": {
              "long": {
                "generic": "కొలంబియా సమయం",
                "standard": "కొలంబియా ప్రామాణిక సమయం",
                "daylight": "కొలంబియా వేసవి సమయం"
              }
            },
            "Cook": {
              "long": {
                "generic": "కుక్ దీవుల సమయం",
                "standard": "కుక్ దీవుల ప్రామాణిక సమయం",
                "daylight": "కుక్ దీవుల అర్థ వేసవి సమయం"
              }
            },
            "Cuba": {
              "long": {
                "generic": "క్యూబా సమయం",
                "standard": "క్యూబా ప్రామాణిక సమయం",
                "daylight": "క్యూబా పగటి సమయం"
              }
            },
            "Davis": {
              "long": {
                "standard": "డేవిస్ సమయం"
              }
            },
            "DumontDUrville": {
              "long": {
                "standard": "డ్యూమాంట్-డి’ఉర్విల్లే సమయం"
              }
            },
            "East_Timor": {
              "long": {
                "standard": "తూర్పు తైమూర్ సమయం"
              }
            },
            "Easter": {
              "long": {
                "generic": "ఈస్టర్ దీవి సమయం",
                "standard": "ఈస్టర్ దీవి ప్రామాణిక సమయం",
                "daylight": "ఈస్టర్ దీవి వేసవి సమయం"
              }
            },
            "Ecuador": {
              "long": {
                "standard": "ఈక్వడార్ సమయం"
              }
            },
            "Europe_Central": {
              "long": {
                "generic": "సెంట్రల్ యూరోపియన్ సమయం",
                "standard": "సెంట్రల్ యూరోపియన్ ప్రామాణిక సమయం",
                "daylight": "సెంట్రల్ యూరోపియన్ వేసవి సమయం"
              }
            },
            "Europe_Eastern": {
              "long": {
                "generic": "తూర్పు యూరోపియన్ సమయం",
                "standard": "తూర్పు యూరోపియన్ ప్రామాణిక సమయం",
                "daylight": "తూర్పు యూరోపియన్ వేసవి సమయం"
              }
            },
            "Europe_Further_Eastern": {
              "long": {
                "standard": "సుదూర-తూర్పు యూరోపియన్ సమయం"
              }
            },
            "Europe_Western": {
              "long": {
                "generic": "పశ్చిమ యూరోపియన్ సమయం",
                "standard": "పశ్చిమ యూరోపియన్ ప్రామాణిక సమయం",
                "daylight": "పశ్చిమ యూరోపియన్ వేసవి సమయం"
              }
            },
            "Falkland": {
              "long": {
                "generic": "ఫాక్‌ల్యాండ్ దీవుల సమయం",
                "standard": "ఫాక్‌ల్యాండ్ దీవుల ప్రామాణిక సమయం",
                "daylight": "ఫాక్‌ల్యాండ్ దీవుల వేసవి సమయం"
              }
            },
            "Fiji": {
              "long": {
                "generic": "ఫిజీ సమయం",
                "standard": "ఫిజీ ప్రామాణిక సమయం",
                "daylight": "ఫిజీ వేసవి సమయం"
              }
            },
            "French_Guiana": {
              "long": {
                "standard": "ఫ్రెంచ్ గయానా సమయం"
              }
            },
            "French_Southern": {
              "long": {
                "standard": "ఫ్రెంచ్ దక్షిణ మరియు అంటార్కిటిక్ సమయం"
              }
            },
            "GMT": {
              "long": {
                "standard": "గ్రీన్‌విచ్ సగటు సమయం"
              }
            },
            "Galapagos": {
              "long": {
                "standard": "గాలాపాగోస్ సమయం"
              }
            },
            "Gambier": {
              "long": {
                "standard": "గాంబియర్ సమయం"
              }
            },
            "Georgia": {
              "long": {
                "generic": "జార్జియా సమయం",
                "standard": "జార్జియా ప్రామాణిక సమయం",
                "daylight": "జార్జియా వేసవి సమయం"
              }
            },
            "Gilbert_Islands": {
              "long": {
                "standard": "గిల్బర్ట్ దీవుల సమయం"
              }
            },
            "Greenland_Eastern": {
              "long": {
                "generic": "తూర్పు గ్రీన్‌ల్యాండ్ సమయం",
                "standard": "తూర్పు గ్రీన్‌ల్యాండ్ ప్రామాణిక సమయం",
                "daylight": "తూర్పు గ్రీన్‌ల్యాండ్ వేసవి సమయం"
              }
            },
            "Greenland_Western": {
              "long": {
                "generic": "పశ్చిమ గ్రీన్‌ల్యాండ్ సమయం",
                "standard": "పశ్చిమ గ్రీన్‌ల్యాండ్ ప్రామాణిక సమయం",
                "daylight": "పశ్చిమ గ్రీన్‌ల్యాండ్ వేసవి సమయం"
              }
            },
            "Guam": {
              "long": {
                "standard": "గ్వామ్ ప్రామాణిక సమయం"
              }
            },
            "Gulf": {
              "long": {
                "standard": "గల్ఫ్ ప్రామాణిక సమయం"
              }
            },
            "Guyana": {
              "long": {
                "standard": "గయానా సమయం"
              }
            },
            "Hawaii_Aleutian": {
              "long": {
                "generic": "హవాయ్-అల్యూషియన్ సమయం",
                "standard": "హవాయ్-అల్యూషియన్ ప్రామాణిక సమయం",
                "daylight": "హవాయ్-అల్యూషియన్ పగటి వెలుతురు సమయం"
              }
            },
            "Hong_Kong": {
              "long": {
                "generic": "హాంకాంగ్ సమయం",
                "standard": "హాంకాంగ్ ప్రామాణిక సమయం",
                "daylight": "హాంకాంగ్ వేసవి సమయం"
              }
            },
            "Hovd": {
              "long": {
                "generic": "హోవ్డ్ సమయం",
                "standard": "హోవ్డ్ ప్రామాణిక సమయం",
                "daylight": "హోవ్డ్ వేసవి సమయం"
              }
            },
            "India": {
              "long": {
                "standard": "భారతదేశ సమయం"
              },
              "short": {
                "standard": "IST"
              }
            },
            "Indian_Ocean": {
              "long": {
                "standard": "హిందూ మహా సముద్ర సమయం"
              }
            },
            "Indochina": {
              "long": {
                "standard": "ఇండోచైనా సమయం"
              }
            },
            "Indonesia_Central": {
              "long": {
                "standard": "సెంట్రల్ ఇండోనేషియా సమయం"
              }
            },
            "Indonesia_Eastern": {
              "long": {
                "standard": "తూర్పు ఇండోనేషియా సమయం"
              }
            },
            "Indonesia_Western": {
              "long": {
                "standard": "పశ్చిమ ఇండోనేషియా సమయం"
              }
            },
            "Iran": {
              "long": {
                "generic": "ఇరాన్ సమయం",
                "standard": "ఇరాన్ ప్రామాణిక సమయం",
                "daylight": "ఇరాన్ పగటి వెలుతురు సమయం"
              }
            },
            "Irkutsk": {
              "long": {
                "generic": "ఇరక్వుట్స్క్ సమయం",
                "standard": "ఇరక్వుట్స్క్ ప్రామాణిక సమయం",
                "daylight": "ఇరక్వుట్స్క్ వేసవి సమయం"
              }
            },
            "Israel": {
              "long": {
                "generic": "ఇజ్రాయిల్ సమయం",
                "standard": "ఇజ్రాయిల్ ప్రామాణిక సమయం",
                "daylight": "ఇజ్రాయిల్ పగటి వెలుతురు సమయం"
              }
            },
            "Japan": {
              "long": {
                "generic": "జపాన్ సమయం",
                "standard": "జపాన్ ప్రామాణిక సమయం",
                "daylight": "జపాన్ పగటి వెలుతురు సమయం"
              }
            },
            "Kamchatka": {
              "long": {
                "generic": "పెట్రోపావ్లోవ్స్క్-కామ్ఛాట్స్కి సమయం",
                "standard": "పెట్రోపావ్లోవ్స్క్-కామ్ఛాట్స్కి ప్రామాణిక సమయం",
                "daylight": "పెట్రోపావ్లోవ్స్క్-కామ్ఛాట్స్కి వేసవి సమయం"
              }
            },
            "Kazakhstan_Eastern": {
              "long": {
                "standard": "తూర్పు కజకి‌స్తాన్ సమయం"
              }
            },
            "Kazakhstan_Western": {
              "long": {
                "standard": "పశ్చిమ కజకిస్తాన్ సమయం"
              }
            },
            "Korea": {
              "long": {
                "generic": "కొరియన్ సమయం",
                "standard": "కొరియన్ ప్రామాణిక సమయం",
                "daylight": "కొరియన్ పగటి వెలుతురు సమయం"
              }
            },
            "Kosrae": {
              "long": {
                "standard": "కోస్రాయి సమయం"
              }
            },
            "Krasnoyarsk": {
              "long": {
                "generic": "క్రాస్నోయార్స్క్ సమయం",
                "standard": "క్రాస్నోయార్స్క్ ప్రామాణిక సమయం",
                "daylight": "క్రాస్నోయార్స్క్ వేసవి సమయం"
              }
            },
            "Kyrgystan": {
              "long": {
                "standard": "కిర్గిస్థాన్ సమయం"
              }
            },
            "Lanka": {
              "long": {
                "standard": "లంకా సమయం"
              }
            },
            "Line_Islands": {
              "long": {
                "standard": "లైన్ దీవుల సమయం"
              }
            },
            "Lord_Howe": {
              "long": {
                "generic": "లార్డ్ హోవ్ సమయం",
                "standard": "లార్డ్ హోవ్ ప్రామాణిక సమయం",
                "daylight": "లార్డ్ హోవ్ పగటి సమయం"
              }
            },
            "Macau": {
              "long": {
                "generic": "మకావ్ సమయం",
                "standard": "మకావ్ ప్రామాణిక సమయం",
                "daylight": "మకావ్ వేసవి సమయం"
              }
            },
            "Macquarie": {
              "long": {
                "standard": "మాక్క్వారీ దీవి సమయం"
              }
            },
            "Magadan": {
              "long": {
                "generic": "మగడాన్ సమయం",
                "standard": "మగడాన్ ప్రామాణిక సమయం",
                "daylight": "మగడాన్ వేసవి సమయం"
              }
            },
            "Malaysia": {
              "long": {
                "standard": "మలేషియా సమయం"
              }
            },
            "Maldives": {
              "long": {
                "standard": "మాల్దీవుల సమయం"
              }
            },
            "Marquesas": {
              "long": {
                "standard": "మార్క్వేసాస్ సమయం"
              }
            },
            "Marshall_Islands": {
              "long": {
                "standard": "మార్షల్ దీవుల సమయం"
              }
            },
            "Mauritius": {
              "long": {
                "generic": "మారిషస్ సమయం",
                "standard": "మారిషస్ ప్రామాణిక సమయం",
                "daylight": "మారిషస్ వేసవి సమయం"
              }
            },
            "Mawson": {
              "long": {
                "standard": "మావ్సన్ సమయం"
              }
            },
            "Mexico_Northwest": {
              "long": {
                "generic": "వాయవ్య మెక్సికో సమయం",
                "standard": "వాయవ్య మెక్సికో ప్రామాణిక సమయం",
                "daylight": "వాయవ్య మెక్సికో పగటి సమయం"
              }
            },
            "Mexico_Pacific": {
              "long": {
                "generic": "మెక్సికన్ పసిఫిక్ సమయం",
                "standard": "మెక్సికన్ పసిఫిక్ ప్రామాణిక సమయం",
                "daylight": "మెక్సికన్ పసిఫిక్ పగటి సమయం"
              }
            },
            "Mongolia": {
              "long": {
                "generic": "ఉలన్ బతోర్ సమయం",
                "standard": "ఉలన్ బతోర్ ప్రామాణిక సమయం",
                "daylight": "ఉలన్ బతోర్ వేసవి సమయం"
              }
            },
            "Moscow": {
              "long": {
                "generic": "మాస్కో సమయం",
                "standard": "మాస్కో ప్రామాణిక సమయం",
                "daylight": "మాస్కో వేసవి సమయం"
              }
            },
            "Myanmar": {
              "long": {
                "standard": "మయన్మార్ సమయం"
              }
            },
            "Nauru": {
              "long": {
                "standard": "నౌరు సమయం"
              }
            },
            "Nepal": {
              "long": {
                "standard": "నేపాల్ సమయం"
              }
            },
            "New_Caledonia": {
              "long": {
                "generic": "న్యూ కాలెడోనియా సమయం",
                "standard": "న్యూ కాలెడోనియా ప్రామాణిక సమయం",
                "daylight": "న్యూ కాలెడోనియా వేసవి సమయం"
              }
            },
            "New_Zealand": {
              "long": {
                "generic": "న్యూజిల్యాండ్ సమయం",
                "standard": "న్యూజిల్యాండ్ ప్రామాణిక సమయం",
                "daylight": "న్యూజిల్యాండ్ పగటి వెలుతురు సమయం"
              }
            },
            "Newfoundland": {
              "long": {
                "generic": "న్యూఫౌండ్ ల్యాండ్ సమయం",
                "standard": "న్యూఫౌండ్ ల్యాండ్ ప్రామాణిక సమయం",
                "daylight": "న్యూఫౌండ్ ల్యాండ్ పగటి సమయం"
              }
            },
            "Niue": {
              "long": {
                "standard": "నియూ సమయం"
              }
            },
            "Norfolk": {
              "long": {
                "standard": "నార్ఫోక్ దీవి సమయం"
              }
            },
            "Noronha": {
              "long": {
                "generic": "ఫెర్నాండో డి నొరోన్హా సమయం",
                "standard": "ఫెర్నాండో డి నొరోన్హా ప్రామాణిక సమయం",
                "daylight": "ఫెర్నాండో డి నొరోన్హా వేసవి సమయం"
              }
            },
            "North_Mariana": {
              "long": {
                "standard": "ఉత్తర మారియానా దీవుల సమయం"
              }
            },
            "Novosibirsk": {
              "long": {
                "generic": "నోవోసిబిర్స్క్ సమయం",
                "standard": "నోవోసిబిర్క్స్ ప్రామాణిక సమయం",
                "daylight": "నోవోసిబిర్స్క్ వేసవి సమయం"
              }
            },
            "Omsk": {
              "long": {
                "generic": "ఓమ్స్క్ సమయం",
                "standard": "ఓమ్స్క్ ప్రామాణిక సమయం",
                "daylight": "ఓమ్స్క్ వేసవి సమయం"
              }
            },
            "Pakistan": {
              "long": {
                "generic": "పాకిస్థాన్ సమయం",
                "standard": "పాకిస్తాన్ ప్రామాణిక సమయం",
                "daylight": "పాకిస్థాన్ వేసవి సమయం"
              }
            },
            "Palau": {
              "long": {
                "standard": "పాలావ్ సమయం"
              }
            },
            "Papua_New_Guinea": {
              "long": {
                "standard": "పాపువా న్యూ గినియా సమయం"
              }
            },
            "Paraguay": {
              "long": {
                "generic": "పరాగ్వే సమయం",
                "standard": "పరాగ్వే ప్రామాణిక సమయం",
                "daylight": "పరాగ్వే వేసవి సమయం"
              }
            },
            "Peru": {
              "long": {
                "generic": "పెరూ సమయం",
                "standard": "పెరూ ప్రామాణిక సమయం",
                "daylight": "పెరూ వేసవి సమయం"
              }
            },
            "Philippines": {
              "long": {
                "generic": "ఫిలిప్పైన్ సమయం",
                "standard": "ఫిలిప్పైన్ ప్రామాణిక సమయం",
                "daylight": "ఫిలిప్పైన్ వేసవి సమయం"
              }
            },
            "Phoenix_Islands": {
              "long": {
                "standard": "ఫినిక్స్ దీవుల సమయం"
              }
            },
            "Pierre_Miquelon": {
              "long": {
                "generic": "సెయింట్ పియెర్ మరియు మిక్వెలాన్ సమయం",
                "standard": "సెయింట్ పియెర్ మరియు మిక్వెలాన్ ప్రామాణిక సమయం",
                "daylight": "సెయింట్ పియర్ మరియు మిక్వెలాన్ పగటి సమయం"
              }
            },
            "Pitcairn": {
              "long": {
                "standard": "పిట్కైరన్ సమయం"
              }
            },
            "Ponape": {
              "long": {
                "standard": "పొనేప్ సమయం"
              }
            },
            "Qyzylorda": {
              "long": {
                "generic": "కిజిలోర్డా సమయం",
                "standard": "కిజిలోర్డా ప్రామాణిక సమయం",
                "daylight": "కిజిలోర్డా వేసవి సమయం"
              }
            },
            "Reunion": {
              "long": {
                "standard": "రీయూనియన్ సమయం"
              }
            },
            "Rothera": {
              "long": {
                "standard": "రొతేరా సమయం"
              }
            },
            "Sakhalin": {
              "long": {
                "generic": "సఖాలిన్ సమయం",
                "standard": "సఖాలిన్ ప్రామాణిక సమయం",
                "daylight": "సఖాలిన్ వేసవి సమయం"
              }
            },
            "Samara": {
              "long": {
                "generic": "సమారా సమయం",
                "standard": "సమారా ప్రామాణిక సమయం",
                "daylight": "సమారా వేసవి సమయం"
              }
            },
            "Samoa": {
              "long": {
                "generic": "సమోవా సమయం",
                "standard": "సమోవా ప్రామాణిక సమయం",
                "daylight": "సమోవా వేసవి సమయం"
              }
            },
            "Seychelles": {
              "long": {
                "standard": "సీషెల్స్ సమయం"
              }
            },
            "Singapore": {
              "long": {
                "standard": "సింగపూర్ ప్రామాణిక సమయం"
              }
            },
            "Solomon": {
              "long": {
                "standard": "సొలొమన్ దీవుల సమయం"
              }
            },
            "South_Georgia": {
              "long": {
                "standard": "దక్షిణ జార్జియా సమయం"
              }
            },
            "Suriname": {
              "long": {
                "standard": "సూరినామ్ సమయం"
              }
            },
            "Syowa": {
              "long": {
                "standard": "స్యోవా సమయం"
              }
            },
            "Tahiti": {
              "long": {
                "standard": "తహితి సమయం"
              }
            },
            "Taipei": {
              "long": {
                "generic": "తైపీ సమయం",
                "standard": "తైపీ ప్రామాణిక సమయం",
                "daylight": "తైపీ పగటి వెలుతరు సమయం"
              }
            },
            "Tajikistan": {
              "long": {
                "standard": "తజికిస్తాన్ సమయం"
              }
            },
            "Tokelau": {
              "long": {
                "standard": "టోకెలావ్ సమయం"
              }
            },
            "Tonga": {
              "long": {
                "generic": "టాంగా సమయం",
                "standard": "టాంగా ప్రామాణిక సమయం",
                "daylight": "టాంగా వేసవి సమయం"
              }
            },
            "Truk": {
              "long": {
                "standard": "చక్ సమయం"
              }
            },
            "Turkmenistan": {
              "long": {
                "generic": "తుర్క్మెనిస్థాన్ సమయం",
                "standard": "తుర్క్మెనిస్థాన్ ప్రామాణిక సమయం",
                "daylight": "తుర్క్మెనిస్థాన్ వేసవి సమయం"
              }
            },
            "Tuvalu": {
              "long": {
                "standard": "తువాలు సమయం"
              }
            },
            "Uruguay": {
              "long": {
                "generic": "ఉరుగ్వే సమయం",
                "standard": "ఉరుగ్వే ప్రామాణిక సమయం",
                "daylight": "ఉరుగ్వే వేసవి సమయం"
              }
            },
            "Uzbekistan": {
              "long": {
                "generic": "ఉజ్బెకిస్తాన్ సమయం",
                "standard": "ఉజ్బెకిస్తాన్ ప్రామాణిక సమయం",
                "daylight": "ఉజ్బెకిస్తాన్ వేసవి సమయం"
              }
            },
            "Vanuatu": {
              "long": {
                "generic": "వనౌటు సమయం",
                "standard": "వనౌటు ప్రామాణిక సమయం",
                "daylight": "వనౌటు వేసవి సమయం"
              }
            },
            "Venezuela": {
              "long": {
                "standard": "వెనిజులా సమయం"
              }
            },
            "Vladivostok": {
              "long": {
                "generic": "వ్లాడివోస్టోక్ సమయం",
                "standard": "వ్లాడివోస్టోక్ ప్రామాణిక సమయం",
                "daylight": "వ్లాడివోస్టోక్ వేసవి సమయం"
              }
            },
            "Volgograd": {
              "long": {
                "generic": "వోల్గోగ్రాడ్ సమయం",
                "standard": "వోల్గోగ్రాడ్ ప్రామాణిక సమయం",
                "daylight": "వోల్గోగ్రాడ్ వేసవి సమయం"
              }
            },
            "Vostok": {
              "long": {
                "standard": "వోస్టోక్ సమయం"
              }
            },
            "Wake": {
              "long": {
                "standard": "వేక్ దీవి సమయం"
              }
            },
            "Wallis": {
              "long": {
                "standard": "వాలీస్ మరియు ఫుటునా సమయం"
              }
            },
            "Yakutsk": {
              "long": {
                "generic": "యాకుట్స్క్ సమయం",
                "standard": "యాకుట్స్క్ ప్రామాణిక సమయం",
                "daylight": "యాకుట్స్క్ వేసవి సమయం"
              }
            },
            "Yekaterinburg": {
              "long": {
                "generic": "ఏకాటెరిన్బర్గ్ సమయం",
                "standard": "ఏకాటెరిన్బర్గ్ ప్రామాణిక సమయం",
                "daylight": "ఏకాటెరిన్బర్గ్ వేసవి సమయం"
              }
            }
          }
        }
      }
    }
  }
}
