{
  "main": {
    "es-PR": {
      "identity": {
        "version": {
          "_cldrVersion": "26",
          "_number": "$Revision: 10819 $"
        },
        "generation": {
          "_date": "$Date: 2014-08-14 22:53:08 -0500 (Thu, 14 Aug 2014) $"
        },
        "language": "es",
        "territory": "419"
      },
      "dates": {
        "calendars": {
          "islamic-umalqura": {
            "months": {
              "format": {
                "abbreviated": {
                  "1": "Muh.",
                  "2": "Saf.",
                  "3": "Rab. I",
                  "4": "Rab. II",
                  "5": "Jum. I",
                  "6": "Jum. II",
                  "7": "Raj.",
                  "8": "Sha.",
                  "9": "Ram.",
                  "10": "Shaw.",
                  "11": "Dhuʻl-Q.",
                  "12": "Dhuʻl-H."
                },
                "narrow": {
                  "1": "1",
                  "2": "2",
                  "3": "3",
                  "4": "4",
                  "5": "5",
                  "6": "6",
                  "7": "7",
                  "8": "8",
                  "9": "9",
                  "10": "10",
                  "11": "11",
                  "12": "12"
                },
                "wide": {
                  "1": "Muharram",
                  "2": "Safar",
                  "3": "Rabiʻ I",
                  "4": "Rabiʻ II",
                  "5": "Jumada I",
                  "6": "Jumada II",
                  "7": "Rajab",
                  "8": "Shaʻban",
                  "9": "Ramadan",
                  "10": "Shawwal",
                  "11": "Dhuʻl-Qiʻdah",
                  "12": "Dhuʻl-Hijjah"
                }
              },
              "stand-alone": {
                "abbreviated": {
                  "1": "Muh.",
                  "2": "Saf.",
                  "3": "Rab. I",
                  "4": "Rab. II",
                  "5": "Jum. I",
                  "6": "Jum. II",
                  "7": "Raj.",
                  "8": "Sha.",
                  "9": "Ram.",
                  "10": "Shaw.",
                  "11": "Dhuʻl-Q.",
                  "12": "Dhuʻl-H."
                },
                "narrow": {
                  "1": "1",
                  "2": "2",
                  "3": "3",
                  "4": "4",
                  "5": "5",
                  "6": "6",
                  "7": "7",
                  "8": "8",
                  "9": "9",
                  "10": "10",
                  "11": "11",
                  "12": "12"
                },
                "wide": {
                  "1": "Muharram",
                  "2": "Safar",
                  "3": "Rabiʻ I",
                  "4": "Rabiʻ II",
                  "5": "Jumada I",
                  "6": "Jumada II",
                  "7": "Rajab",
                  "8": "Shaʻban",
                  "9": "Ramadan",
                  "10": "Shawwal",
                  "11": "Dhuʻl-Qiʻdah",
                  "12": "Dhuʻl-Hijjah"
                }
              }
            },
            "days": {
              "format": {
                "abbreviated": {
                  "sun": "dom.",
                  "mon": "lun.",
                  "tue": "mar.",
                  "wed": "mié.",
                  "thu": "jue.",
                  "fri": "vie.",
                  "sat": "sáb."
                },
                "narrow": {
                  "sun": "d",
                  "mon": "l",
                  "tue": "m",
                  "wed": "m",
                  "thu": "j",
                  "fri": "v",
                  "sat": "s"
                },
                "short": {
                  "sun": "dom.",
                  "mon": "lun.",
                  "tue": "mar.",
                  "wed": "mié.",
                  "thu": "jue.",
                  "fri": "vie.",
                  "sat": "sáb."
                },
                "wide": {
                  "sun": "domingo",
                  "mon": "lunes",
                  "tue": "martes",
                  "wed": "miércoles",
                  "thu": "jueves",
                  "fri": "viernes",
                  "sat": "sábado"
                }
              },
              "stand-alone": {
                "abbreviated": {
                  "sun": "Dom.",
                  "mon": "Lun.",
                  "tue": "Mar.",
                  "wed": "Mié.",
                  "thu": "Jue.",
                  "fri": "Vie.",
                  "sat": "Sáb."
                },
                "narrow": {
                  "sun": "D",
                  "mon": "L",
                  "tue": "M",
                  "wed": "M",
                  "thu": "J",
                  "fri": "V",
                  "sat": "S"
                },
                "short": {
                  "sun": "Dom.",
                  "mon": "Lun.",
                  "tue": "Mar.",
                  "wed": "Mié.",
                  "thu": "Jue.",
                  "fri": "Vie.",
                  "sat": "Sáb."
                },
                "wide": {
                  "sun": "Domingo",
                  "mon": "Lunes",
                  "tue": "Martes",
                  "wed": "Miércoles",
                  "thu": "Jueves",
                  "fri": "Viernes",
                  "sat": "Sábado"
                }
              }
            },
            "quarters": {
              "format": {
                "abbreviated": {
                  "1": "1.er trim.",
                  "2": "2.º trim.",
                  "3": "3.er trim.",
                  "4": "4.º trim."
                },
                "narrow": {
                  "1": "1",
                  "2": "2",
                  "3": "3",
                  "4": "4"
                },
                "wide": {
                  "1": "1.er trimestre",
                  "2": "2.º trimestre",
                  "3": "3.er trimestre",
                  "4": "4.º trimestre"
                }
              },
              "stand-alone": {
                "abbreviated": {
                  "1": "1.er trim.",
                  "2": "2.º trim.",
                  "3": "3.er trim.",
                  "4": "4.º trim."
                },
                "narrow": {
                  "1": "1",
                  "2": "2",
                  "3": "3",
                  "4": "4"
                },
                "wide": {
                  "1": "1.er trimestre",
                  "2": "2.º trimestre",
                  "3": "3.er trimestre",
                  "4": "4.º trimestre"
                }
              }
            },
            "dayPeriods": {
              "format": {
                "abbreviated": {
                  "am": "a. m.",
                  "noon": "mediodía",
                  "pm": "p. m."
                },
                "narrow": {
                  "am": "a. m.",
                  "noon": "m.",
                  "pm": "p. m."
                },
                "wide": {
                  "am": "a. m.",
                  "noon": "mediodía",
                  "pm": "p. m."
                }
              },
              "stand-alone": {
                "abbreviated": {
                  "am": "a. m.",
                  "noon": "mediodía",
                  "pm": "p. m."
                },
                "narrow": {
                  "am": "a. m.",
                  "noon": "m.",
                  "pm": "p. m."
                },
                "wide": {
                  "am": "a. m.",
                  "noon": "mediodía",
                  "pm": "p. m."
                }
              }
            },
            "eras": {
              "eraNames": {
                "0": "AH"
              },
              "eraAbbr": {
                "0": "AH"
              },
              "eraNarrow": {
                "0": "AH"
              }
            },
            "dateFormats": {
              "full": "EEEE, d 'de' MMMM 'de' y G",
              "long": "d 'de' MMMM 'de' y G",
              "medium": "MM/dd/y G",
              "short": "MM/dd/yy GGGGG"
            },
            "timeFormats": {
              "full": "h:mm:ss a zzzz",
              "long": "h:mm:ss a z",
              "medium": "h:mm:ss a",
              "short": "h:mm a"
            },
            "dateTimeFormats": {
              "full": "{1}, {0}",
              "long": "{1}, {0}",
              "medium": "{1} {0}",
              "short": "{1} {0}",
              "availableFormats": {
                "E": "ccc",
                "EHm": "E HH:mm",
                "EHms": "E HH:mm:ss",
                "Ed": "E d",
                "Ehm": "E h:mm a",
                "Ehms": "E h:mm:ss a",
                "Gy": "y G",
                "GyMMM": "MMM 'de' y G",
                "GyMMMEd": "E, d 'de' MMMM 'de' y G",
                "GyMMMd": "d 'de' MMM 'de' y G",
                "H": "HH",
                "Hm": "HH:mm",
                "Hms": "HH:mm:ss",
                "M": "L",
                "MEd": "E, MM/dd",
                "MMM": "LLL",
                "MMMEd": "E, d 'de' MMM",
                "MMMMd": "d 'de' MMMM",
                "MMMd": "d 'de' MMM",
                "MMMdd": "dd-MMM",
                "Md": "MM/dd",
                "d": "d",
                "h": "hh a",
                "hm": "hh:mm a",
                "hms": "hh:mm:ss a",
                "ms": "mm:ss",
                "y": "y G",
                "yMEd": "E d/M/y G",
                "yyyy": "y G",
                "yyyyM": "MM/y G",
                "yyyyMEd": "E MM/dd/y G",
                "yyyyMMM": "MMM 'de' y G",
                "yyyyMMMEd": "E, d 'de' MMMM 'de' y G",
                "yyyyMMMM": "MMMM 'de' y G",
                "yyyyMMMd": "d 'de' MMM 'de' y G",
                "yyyyMd": "MM/dd/y G",
                "yyyyQQQ": "QQQ y G",
                "yyyyQQQQ": "QQQQ 'de' y G"
              },
              "appendItems": {
                "Day": "{0} ({2}: {1})",
                "Day-Of-Week": "{0} {1}",
                "Era": "{1} {0}",
                "Hour": "{0} ({2}: {1})",
                "Minute": "{0} ({2}: {1})",
                "Month": "{0} ({2}: {1})",
                "Quarter": "{0} ({2}: {1})",
                "Second": "{0} ({2}: {1})",
                "Timezone": "{0} {1}",
                "Week": "{0} ({2}: {1})",
                "Year": "{1} {0}"
              },
              "intervalFormats": {
                "intervalFormatFallback": "{0} a el {1}",
                "H": {
                  "H": "HH-HH"
                },
                "Hm": {
                  "H": "HH:mm-HH:mm",
                  "m": "HH:mm-HH:mm"
                },
                "Hmv": {
                  "H": "HH:mm-HH:mm v",
                  "m": "HH:mm-HH:mm v"
                },
                "Hv": {
                  "H": "HH-HH v"
                },
                "M": {
                  "M": "M-M"
                },
                "MEd": {
                  "M": "E MM/dd - E MM/dd",
                  "d": "E MM/dd - E MM/dd"
                },
                "MMM": {
                  "M": "MMM-MMM"
                },
                "MMMEd": {
                  "M": "E d 'de' MMM 'al' E d 'de' MMM",
                  "d": "E d 'al' E d 'de' MMM"
                },
                "MMMd": {
                  "M": "d 'de' MMM 'al' d 'de' MMM",
                  "d": "d-d 'de' MMM"
                },
                "Md": {
                  "M": "MM/dd - MM/dd",
                  "d": "MM/dd - MM/dd"
                },
                "d": {
                  "d": "d-d"
                },
                "h": {
                  "a": "h a – h a",
                  "h": "h-h a"
                },
                "hm": {
                  "a": "h:mm a – h:mm a",
                  "h": "h:mm-h:mm a",
                  "m": "h:mm-h:mm a"
                },
                "hmv": {
                  "a": "h:mm a – h:mm a v",
                  "h": "h:mm-h:mm a v",
                  "m": "h:mm-h:mm a v"
                },
                "hv": {
                  "a": "h a – h a v",
                  "h": "h-h a v"
                },
                "y": {
                  "y": "y-y G"
                },
                "yM": {
                  "M": "MM/y - MM/y G",
                  "y": "MM/y - MM/y G"
                },
                "yMEd": {
                  "M": "E MM/dd/y - E MM/dd/y G",
                  "d": "E MM/dd/y - E MM/dd/y G",
                  "y": "E MM/dd/y - E MM/dd/y G"
                },
                "yMMM": {
                  "M": "MMM-MMM 'de' y G",
                  "y": "MMM 'de' y 'a' MMM 'de' y G"
                },
                "yMMMEd": {
                  "M": "E d 'de' MMM 'al' E d 'de' MMM 'de' y G",
                  "d": "E d 'al' E d 'de' MMM 'de' y G",
                  "y": "E d 'de' MMM 'de' y 'al' E d 'de' MMM 'de' y G"
                },
                "yMMMM": {
                  "M": "MMMM–MMMM 'de' y G",
                  "y": "MMMM 'de' y–MMMM 'de' y G"
                },
                "yMMMd": {
                  "M": "d 'de' MMM 'al' d 'de' MMM 'de' y G",
                  "d": "d-d 'de' MMM 'de' y G",
                  "y": "d 'de' MMM 'de' y 'al' d 'de' MMM 'de' y G"
                },
                "yMd": {
                  "M": "MM/dd/y - MM/dd/y G",
                  "d": "MM/dd/y - MM/dd/y G",
                  "y": "MM/dd/y - MM/dd/y G"
                }
              }
            }
          }
        }
      }
    }
  }
}
