{
  "main": {
    "lv-LV": {
      "identity": {
        "version": {
          "_cldrVersion": "26",
          "_number": "$Revision: 10669 $"
        },
        "generation": {
          "_date": "$Date: 2014-07-23 16:10:33 -0500 (Wed, 23 Jul 2014) $"
        },
        "language": "lv",
        "territory": "LV"
      },
      "dates": {
        "calendars": {
          "gregorian": {
            "months": {
              "format": {
                "abbreviated": {
                  "1": "janv.",
                  "2": "febr.",
                  "3": "marts",
                  "4": "apr.",
                  "5": "maijs",
                  "6": "jūn.",
                  "7": "jūl.",
                  "8": "aug.",
                  "9": "sept.",
                  "10": "okt.",
                  "11": "nov.",
                  "12": "dec."
                },
                "narrow": {
                  "1": "J",
                  "2": "F",
                  "3": "M",
                  "4": "A",
                  "5": "M",
                  "6": "J",
                  "7": "J",
                  "8": "A",
                  "9": "S",
                  "10": "O",
                  "11": "N",
                  "12": "D"
                },
                "wide": {
                  "1": "janvāris",
                  "2": "februāris",
                  "3": "marts",
                  "4": "aprīlis",
                  "5": "maijs",
                  "6": "jūnijs",
                  "7": "jūlijs",
                  "8": "augusts",
                  "9": "septembris",
                  "10": "oktobris",
                  "11": "novembris",
                  "12": "decembris"
                }
              },
              "stand-alone": {
                "abbreviated": {
                  "1": "Janv.",
                  "2": "Febr.",
                  "3": "Marts",
                  "4": "Apr.",
                  "5": "Maijs",
                  "6": "Jūn.",
                  "7": "Jūl.",
                  "8": "Aug.",
                  "9": "Sept.",
                  "10": "Okt.",
                  "11": "Nov.",
                  "12": "Dec."
                },
                "narrow": {
                  "1": "J",
                  "2": "F",
                  "3": "M",
                  "4": "A",
                  "5": "M",
                  "6": "J",
                  "7": "J",
                  "8": "A",
                  "9": "S",
                  "10": "O",
                  "11": "N",
                  "12": "D"
                },
                "wide": {
                  "1": "Janvāris",
                  "2": "Februāris",
                  "3": "Marts",
                  "4": "Aprīlis",
                  "5": "Maijs",
                  "6": "Jūnijs",
                  "7": "Jūlijs",
                  "8": "Augusts",
                  "9": "Septembris",
                  "10": "Oktobris",
                  "11": "Novembris",
                  "12": "Decembris"
                }
              }
            },
            "days": {
              "format": {
                "abbreviated": {
                  "sun": "Sv",
                  "mon": "Pr",
                  "tue": "Ot",
                  "wed": "Tr",
                  "thu": "Ce",
                  "fri": "Pk",
                  "sat": "Se"
                },
                "narrow": {
                  "sun": "S",
                  "mon": "P",
                  "tue": "O",
                  "wed": "T",
                  "thu": "C",
                  "fri": "P",
                  "sat": "S"
                },
                "short": {
                  "sun": "Sv",
                  "mon": "Pr",
                  "tue": "Ot",
                  "wed": "Tr",
                  "thu": "Ce",
                  "fri": "Pk",
                  "sat": "Se"
                },
                "wide": {
                  "sun": "svētdiena",
                  "mon": "pirmdiena",
                  "tue": "otrdiena",
                  "wed": "trešdiena",
                  "thu": "ceturtdiena",
                  "fri": "piektdiena",
                  "sat": "sestdiena"
                }
              },
              "stand-alone": {
                "abbreviated": {
                  "sun": "Sv",
                  "mon": "Pr",
                  "tue": "Ot",
                  "wed": "Tr",
                  "thu": "Ce",
                  "fri": "Pk",
                  "sat": "Se"
                },
                "narrow": {
                  "sun": "S",
                  "mon": "P",
                  "tue": "O",
                  "wed": "T",
                  "thu": "C",
                  "fri": "P",
                  "sat": "S"
                },
                "short": {
                  "sun": "Sv",
                  "mon": "Pr",
                  "tue": "Ot",
                  "wed": "Tr",
                  "thu": "Ce",
                  "fri": "Pk",
                  "sat": "Se"
                },
                "wide": {
                  "sun": "Svētdiena",
                  "mon": "Pirmdiena",
                  "tue": "Otrdiena",
                  "wed": "Trešdiena",
                  "thu": "Ceturtdiena",
                  "fri": "Piektdiena",
                  "sat": "Sestdiena"
                }
              }
            },
            "quarters": {
              "format": {
                "abbreviated": {
                  "1": "1. cet.",
                  "2": "2. cet.",
                  "3": "3. cet.",
                  "4": "4. cet."
                },
                "narrow": {
                  "1": "1.",
                  "2": "2.",
                  "3": "3.",
                  "4": "4."
                },
                "wide": {
                  "1": "1. ceturksnis",
                  "2": "2. ceturksnis",
                  "3": "3. ceturksnis",
                  "4": "4. ceturksnis"
                }
              },
              "stand-alone": {
                "abbreviated": {
                  "1": "1. cet.",
                  "2": "2. cet.",
                  "3": "3. cet.",
                  "4": "4. cet."
                },
                "narrow": {
                  "1": "1.",
                  "2": "2.",
                  "3": "3.",
                  "4": "4."
                },
                "wide": {
                  "1": "1. ceturksnis",
                  "2": "2. ceturksnis",
                  "3": "3. ceturksnis",
                  "4": "4. ceturksnis"
                }
              }
            },
            "dayPeriods": {
              "format": {
                "abbreviated": {
                  "am": "priekšpusdienā",
                  "noon": "pusdienlaikā",
                  "pm": "pēcpusdienā"
                },
                "narrow": {
                  "am": "priekšp.",
                  "noon": "pusd.",
                  "pm": "pēcp."
                },
                "wide": {
                  "am": "priekšpusdienā",
                  "noon": "pusdienlaikā",
                  "pm": "pēcpusdienā"
                }
              },
              "stand-alone": {
                "abbreviated": {
                  "am": "priekšpusdienā",
                  "noon": "pusdienlaikā",
                  "pm": "pēcpusdienā"
                },
                "narrow": {
                  "am": "priekšp.",
                  "noon": "pusd.",
                  "pm": "pēcp."
                },
                "wide": {
                  "am": "priekšpusdienā",
                  "noon": "pusdienlaikā",
                  "pm": "pēcpusdienā"
                }
              }
            },
            "eras": {
              "eraNames": {
                "0": "pirms mūsu ēras",
                "0-alt-variant": "BCE",
                "1": "mūsu ērā",
                "1-alt-variant": "CE"
              },
              "eraAbbr": {
                "0": "p.m.ē.",
                "0-alt-variant": "BCE",
                "1": "m.ē.",
                "1-alt-variant": "CE"
              },
              "eraNarrow": {
                "0": "p.m.ē.",
                "0-alt-variant": "pmē",
                "1": "m.ē.",
                "1-alt-variant": "mē"
              }
            },
            "dateFormats": {
              "full": "EEEE, y. 'gada' d. MMMM",
              "long": "y. 'gada' d. MMMM",
              "medium": "y. 'gada' d. MMM",
              "short": "dd.MM.yy"
            },
            "timeFormats": {
              "full": "HH:mm:ss zzzz",
              "long": "HH:mm:ss z",
              "medium": "HH:mm:ss",
              "short": "HH:mm"
            },
            "dateTimeFormats": {
              "full": "{1} {0}",
              "long": "{1} {0}",
              "medium": "{1} {0}",
              "short": "{1} {0}",
              "availableFormats": {
                "E": "ccc",
                "EHm": "E, HH:mm",
                "EHms": "E, HH:mm:ss",
                "Ed": "E, d.",
                "Ehm": "E, h:mm a",
                "Ehms": "E, h:mm:ss a",
                "Gy": "G y. 'g'.",
                "GyMMM": "G y. 'g'. MMM",
                "GyMMMEd": "E, G y. 'g'. d. MMM",
                "GyMMMd": "G y. 'g'. d. MMM",
                "H": "HH",
                "Hm": "HH:mm",
                "Hms": "HH:mm:ss",
                "M": "L",
                "MEd": "E, dd.MM.",
                "MMM": "LLL",
                "MMMEd": "E, d. MMM",
                "MMMMEd": "E, d. MMMM",
                "MMMMd": "d. MMMM",
                "MMMd": "d. MMM",
                "Md": "dd.MM.",
                "d": "d",
                "h": "h a",
                "hm": "h:mm a",
                "hms": "h:mm:ss a",
                "mmss": "mm:ss",
                "ms": "mm:ss",
                "y": "y. 'g'.",
                "yM": "MM.y.",
                "yMEd": "E, d.M.y.",
                "yMMM": "y. 'g'. MMM",
                "yMMMEd": "E, y. 'g'. d. MMM",
                "yMMMM": "y. 'g'. MMMM",
                "yMMMd": "y. 'g'. d. MMM",
                "yMd": "d.M.y.",
                "yQQQ": "y. 'g'. QQQ",
                "yQQQQ": "y. 'g'. QQQQ"
              },
              "appendItems": {
                "Day": "{0} ({2}: {1})",
                "Day-Of-Week": "{0} {1}",
                "Era": "{1} {0}",
                "Hour": "{0} ({2}: {1})",
                "Minute": "{0} ({2}: {1})",
                "Month": "{0} ({2}: {1})",
                "Quarter": "{0} ({2}: {1})",
                "Second": "{0} ({2}: {1})",
                "Timezone": "{0} {1}",
                "Week": "{0} ({2}: {1})",
                "Year": "{1} {0}"
              },
              "intervalFormats": {
                "intervalFormatFallback": "{0} - {1}",
                "H": {
                  "H": "HH–HH"
                },
                "Hm": {
                  "H": "HH:mm–HH:mm",
                  "m": "HH:mm–HH:mm"
                },
                "Hmv": {
                  "H": "HH:mm–HH:mm v",
                  "m": "HH:mm–HH:mm v"
                },
                "Hv": {
                  "H": "HH–HH v"
                },
                "M": {
                  "M": "MM.–MM."
                },
                "MEd": {
                  "M": "E, dd.MM – E, dd.MM",
                  "d": "E, dd.MM – E, dd.MM"
                },
                "MMM": {
                  "M": "LLL–LLL"
                },
                "MMMEd": {
                  "M": "E, d. MMM – E, d. MMM",
                  "d": "E, d. MMM – E, d. MMM"
                },
                "MMMd": {
                  "M": "d. MMM – d. MMM",
                  "d": "d.–d. MMM"
                },
                "Md": {
                  "M": "dd.MM–dd.MM",
                  "d": "dd.MM.–dd.MM."
                },
                "d": {
                  "d": "d.–d."
                },
                "h": {
                  "a": "h a – h a",
                  "h": "h–h a"
                },
                "hm": {
                  "a": "h:mm a – h:mm a",
                  "h": "h:mm–h:mm a",
                  "m": "h:mm–h:mm a"
                },
                "hmv": {
                  "a": "h:mm a – h:mm a v",
                  "h": "h:mm–h:mm a v",
                  "m": "h:mm–h:mm a, v"
                },
                "hv": {
                  "a": "h a – h a v",
                  "h": "h–h a v"
                },
                "y": {
                  "y": "y.–y."
                },
                "yM": {
                  "M": "MM.y.–MM.y.",
                  "y": "MM.y.–MM.y."
                },
                "yMEd": {
                  "M": "E, dd.MM.y. – E, dd.MM.y.",
                  "d": "E, dd.MM.y. – E, dd.MM.y.",
                  "y": "E, dd.MM.y. – E, dd.MM.y."
                },
                "yMMM": {
                  "M": "y. 'gada' MMM–MMM",
                  "y": "y. 'gada' MMM – y. 'gada' MMM"
                },
                "yMMMEd": {
                  "M": "E, y. 'gada' d. MMM – E, y. 'gada' d. MMM",
                  "d": "E, y. 'gada' d. MMM – E, y. 'gada' d. MMM",
                  "y": "E, y. 'gada' d. MMM – E, y. 'gada' d. MMM"
                },
                "yMMMM": {
                  "M": "y. 'gada' MMMM–MMMM",
                  "y": "y. 'gada' MMMM – y. 'gada' MMMM"
                },
                "yMMMd": {
                  "M": "y. 'gada' d. MMM – d. MMM",
                  "d": "y. 'gada' d.–d. MMM",
                  "y": "y. 'gada' d. MMM – y. 'gada' d. MMM"
                },
                "yMd": {
                  "M": "dd.MM.y.–dd.MM.y.",
                  "d": "dd.MM.y.–dd.MM.y.",
                  "y": "dd.MM.y.–dd.MM.y."
                }
              }
            }
          }
        }
      }
    }
  }
}
