{
  "main": {
    "lv-LV": {
      "identity": {
        "version": {
          "_cldrVersion": "26",
          "_number": "$Revision: 10669 $"
        },
        "generation": {
          "_date": "$Date: 2014-07-23 16:10:33 -0500 (Wed, 23 Jul 2014) $"
        },
        "language": "lv",
        "territory": "LV"
      },
      "dates": {
        "calendars": {
          "islamic-tbla": {
            "months": {
              "format": {
                "abbreviated": {
                  "1": "Muh.",
                  "2": "Saf.",
                  "3": "Rab. I",
                  "4": "Rab. II",
                  "5": "Jum. I",
                  "6": "Jum. II",
                  "7": "Raj.",
                  "8": "Sha.",
                  "9": "Ram.",
                  "10": "Shaw.",
                  "11": "Dhuʻl-Q.",
                  "12": "Dhuʻl-H."
                },
                "narrow": {
                  "1": "1",
                  "2": "2",
                  "3": "3",
                  "4": "4",
                  "5": "5",
                  "6": "6",
                  "7": "7",
                  "8": "8",
                  "9": "9",
                  "10": "10",
                  "11": "11",
                  "12": "12"
                },
                "wide": {
                  "1": "muharams",
                  "2": "safars",
                  "3": "1. rabī",
                  "4": "2. rabī",
                  "5": "1. džumādā",
                  "6": "2. džumādā",
                  "7": "radžabs",
                  "8": "šabans",
                  "9": "ramadāns",
                  "10": "šauvals",
                  "11": "du al-kidā",
                  "12": "du al-hidžā"
                }
              },
              "stand-alone": {
                "abbreviated": {
                  "1": "Muh.",
                  "2": "Saf.",
                  "3": "Rab. I",
                  "4": "Rab. II",
                  "5": "Jum. I",
                  "6": "Jum. II",
                  "7": "Raj.",
                  "8": "Sha.",
                  "9": "Ram.",
                  "10": "Shaw.",
                  "11": "Dhuʻl-Q.",
                  "12": "Dhuʻl-H."
                },
                "narrow": {
                  "1": "1",
                  "2": "2",
                  "3": "3",
                  "4": "4",
                  "5": "5",
                  "6": "6",
                  "7": "7",
                  "8": "8",
                  "9": "9",
                  "10": "10",
                  "11": "11",
                  "12": "12"
                },
                "wide": {
                  "1": "muharams",
                  "2": "safars",
                  "3": "1. rabī",
                  "4": "2. rabī",
                  "5": "1. džumādā",
                  "6": "2. džumādā",
                  "7": "radžabs",
                  "8": "šabans",
                  "9": "ramadāns",
                  "10": "šauvals",
                  "11": "du al-kidā",
                  "12": "du al-hidžā"
                }
              }
            },
            "days": {
              "format": {
                "abbreviated": {
                  "sun": "Sv",
                  "mon": "Pr",
                  "tue": "Ot",
                  "wed": "Tr",
                  "thu": "Ce",
                  "fri": "Pk",
                  "sat": "Se"
                },
                "narrow": {
                  "sun": "S",
                  "mon": "P",
                  "tue": "O",
                  "wed": "T",
                  "thu": "C",
                  "fri": "P",
                  "sat": "S"
                },
                "short": {
                  "sun": "Sv",
                  "mon": "Pr",
                  "tue": "Ot",
                  "wed": "Tr",
                  "thu": "Ce",
                  "fri": "Pk",
                  "sat": "Se"
                },
                "wide": {
                  "sun": "svētdiena",
                  "mon": "pirmdiena",
                  "tue": "otrdiena",
                  "wed": "trešdiena",
                  "thu": "ceturtdiena",
                  "fri": "piektdiena",
                  "sat": "sestdiena"
                }
              },
              "stand-alone": {
                "abbreviated": {
                  "sun": "Sv",
                  "mon": "Pr",
                  "tue": "Ot",
                  "wed": "Tr",
                  "thu": "Ce",
                  "fri": "Pk",
                  "sat": "Se"
                },
                "narrow": {
                  "sun": "S",
                  "mon": "P",
                  "tue": "O",
                  "wed": "T",
                  "thu": "C",
                  "fri": "P",
                  "sat": "S"
                },
                "short": {
                  "sun": "Sv",
                  "mon": "Pr",
                  "tue": "Ot",
                  "wed": "Tr",
                  "thu": "Ce",
                  "fri": "Pk",
                  "sat": "Se"
                },
                "wide": {
                  "sun": "Svētdiena",
                  "mon": "Pirmdiena",
                  "tue": "Otrdiena",
                  "wed": "Trešdiena",
                  "thu": "Ceturtdiena",
                  "fri": "Piektdiena",
                  "sat": "Sestdiena"
                }
              }
            },
            "quarters": {
              "format": {
                "abbreviated": {
                  "1": "1. cet.",
                  "2": "2. cet.",
                  "3": "3. cet.",
                  "4": "4. cet."
                },
                "narrow": {
                  "1": "1.",
                  "2": "2.",
                  "3": "3.",
                  "4": "4."
                },
                "wide": {
                  "1": "1. ceturksnis",
                  "2": "2. ceturksnis",
                  "3": "3. ceturksnis",
                  "4": "4. ceturksnis"
                }
              },
              "stand-alone": {
                "abbreviated": {
                  "1": "1. cet.",
                  "2": "2. cet.",
                  "3": "3. cet.",
                  "4": "4. cet."
                },
                "narrow": {
                  "1": "1.",
                  "2": "2.",
                  "3": "3.",
                  "4": "4."
                },
                "wide": {
                  "1": "1. ceturksnis",
                  "2": "2. ceturksnis",
                  "3": "3. ceturksnis",
                  "4": "4. ceturksnis"
                }
              }
            },
            "dayPeriods": {
              "format": {
                "abbreviated": {
                  "am": "priekšpusdienā",
                  "noon": "pusdienlaikā",
                  "pm": "pēcpusdienā"
                },
                "narrow": {
                  "am": "priekšp.",
                  "noon": "pusd.",
                  "pm": "pēcp."
                },
                "wide": {
                  "am": "priekšpusdienā",
                  "noon": "pusdienlaikā",
                  "pm": "pēcpusdienā"
                }
              },
              "stand-alone": {
                "abbreviated": {
                  "am": "priekšpusdienā",
                  "noon": "pusdienlaikā",
                  "pm": "pēcpusdienā"
                },
                "narrow": {
                  "am": "priekšp.",
                  "noon": "pusd.",
                  "pm": "pēcp."
                },
                "wide": {
                  "am": "priekšpusdienā",
                  "noon": "pusdienlaikā",
                  "pm": "pēcpusdienā"
                }
              }
            },
            "eras": {
              "eraNames": {
                "0": "AH"
              },
              "eraAbbr": {
                "0": "AH"
              },
              "eraNarrow": {
                "0": "AH"
              }
            },
            "dateFormats": {
              "full": "EEEE, y. 'gada' d. MMMM G",
              "long": "y. 'gada' d. MMMM G",
              "medium": "y. 'gada' d. MMM G",
              "short": "dd.MM.y GGGGG"
            },
            "timeFormats": {
              "full": "HH:mm:ss zzzz",
              "long": "HH:mm:ss z",
              "medium": "HH:mm:ss",
              "short": "HH:mm"
            },
            "dateTimeFormats": {
              "full": "{1} 'plkst.' {0}",
              "long": "{1} 'plkst.' {0}",
              "medium": "{1}, {0}",
              "short": "{1}, {0}",
              "availableFormats": {
                "E": "ccc",
                "EHm": "E HH:mm",
                "EHms": "E HH:mm:ss",
                "Ed": "E, d.",
                "Ehm": "E h:mm a",
                "Ehms": "E h:mm:ss a",
                "Gy": "y. 'g'. G",
                "GyMMM": "y. 'g'. MMM G",
                "GyMMMEd": "E, y. 'g'. d. MMM G",
                "GyMMMd": "y. 'g'. d. MMM G",
                "H": "HH",
                "Hm": "HH:mm",
                "Hms": "HH:mm:ss",
                "M": "L",
                "MEd": "E, dd.MM.",
                "MMM": "LLL",
                "MMMEd": "E, d. MMM",
                "MMMMEd": "E, d. MMMM",
                "MMMMd": "d. MMMM",
                "MMMd": "d. MMM",
                "Md": "dd.MM.",
                "d": "d",
                "h": "h a",
                "hm": "h:mm a",
                "hms": "h:mm:ss a",
                "ms": "mm:ss",
                "y": "y. 'g'. G",
                "yyyy": "y. 'g'. G",
                "yyyyM": "MM.y. G",
                "yyyyMEd": "E, d.M.y. G",
                "yyyyMMM": "y. 'g'. MMM G",
                "yyyyMMMEd": "E, y. 'g'. d. MMM G",
                "yyyyMMMM": "y. 'g'. MMMM G",
                "yyyyMMMd": "y. 'g'. d. MMM G",
                "yyyyMd": "d.MM.y. G",
                "yyyyQQQ": "QQQ y G",
                "yyyyQQQQ": "y. 'gada' QQQQ G"
              },
              "appendItems": {
                "Day": "{0} ({2}: {1})",
                "Day-Of-Week": "{0} {1}",
                "Era": "{1} {0}",
                "Hour": "{0} ({2}: {1})",
                "Minute": "{0} ({2}: {1})",
                "Month": "{0} ({2}: {1})",
                "Quarter": "{0} ({2}: {1})",
                "Second": "{0} ({2}: {1})",
                "Timezone": "{0} {1}",
                "Week": "{0} ({2}: {1})",
                "Year": "{1} {0}"
              },
              "intervalFormats": {
                "intervalFormatFallback": "{0}–{1}",
                "H": {
                  "H": "HH–HH"
                },
                "Hm": {
                  "H": "HH:mm–HH:mm",
                  "m": "HH:mm–HH:mm"
                },
                "Hmv": {
                  "H": "HH:mm–HH:mm v",
                  "m": "HH:mm–HH:mm v"
                },
                "Hv": {
                  "H": "HH–HH v"
                },
                "M": {
                  "M": "MM–MM"
                },
                "MEd": {
                  "M": "E, dd.MM–E, dd.MM",
                  "d": "E, dd.MM–E, dd.MM"
                },
                "MMM": {
                  "M": "MMM–MMM"
                },
                "MMMEd": {
                  "M": "E, d. MMM–E, d. MMM",
                  "d": "E, d. MMM–E, d. MMM"
                },
                "MMMd": {
                  "M": "d. MMM–d. MMM",
                  "d": "d.–d. MMM"
                },
                "Md": {
                  "M": "dd.MM–dd.MM",
                  "d": "dd.MM.–dd.MM."
                },
                "d": {
                  "d": "d–d"
                },
                "h": {
                  "a": "h a – h a",
                  "h": "h–h a"
                },
                "hm": {
                  "a": "h:mm a – h:mm a",
                  "h": "h:mm–h:mm a",
                  "m": "h:mm–h:mm a"
                },
                "hmv": {
                  "a": "h:mm a – h:mm a v",
                  "h": "h:mm–h:mm a v",
                  "m": "h:mm–h:mm a v"
                },
                "hv": {
                  "a": "h a – h a v",
                  "h": "h–h a v"
                },
                "y": {
                  "y": "y.–y. G"
                },
                "yM": {
                  "M": "MM.y.–MM.y. GGGGG",
                  "y": "MM.y.–MM.y. GGGGG"
                },
                "yMEd": {
                  "M": "E, dd.MM.y.–E, dd.MM.y. GGGGG",
                  "d": "E, dd.MM.y.–E, dd.MM.y. GGGGG",
                  "y": "E, dd.MM.y.–E, dd.MM.y. GGGGG"
                },
                "yMMM": {
                  "M": "y. 'gada' MMM–MMM G",
                  "y": "y. 'gada' MMM–y. 'gada' MMM G"
                },
                "yMMMEd": {
                  "M": "E, y. 'gada' d. MMM–E, y. 'gada' d. MMM G",
                  "d": "E, y. 'gada' d. MMM–E, y. 'gada' d. MMM G",
                  "y": "E, y. 'gada' d. MMM–E, y. 'gada' d. MMM G"
                },
                "yMMMM": {
                  "M": "y. 'gada' MMMM–MMMM G",
                  "y": "y. 'gada' MMMM–y. 'gada' MMMM G"
                },
                "yMMMd": {
                  "M": "y. 'gada' d. MMM–d. MMM G",
                  "d": "y. 'gada' d.–d. MMM G",
                  "y": "y. 'gada' d. MMM–y. 'gada' d. MMM G"
                },
                "yMd": {
                  "M": "dd.MM.y.–dd.MM.y. GGGGG",
                  "d": "dd.MM.y.–dd.MM.y. GGGGG",
                  "y": "dd.MM.y.–dd.MM.y. GGGGG"
                }
              }
            }
          }
        }
      }
    }
  }
}
