{
  "main": {
    "ar-DZ": {
      "identity": {
        "version": {
          "_cldrVersion": "26",
          "_number": "$Revision: 10819 $"
        },
        "generation": {
          "_date": "$Date: 2014-08-14 22:53:08 -0500 (Thu, 14 Aug 2014) $"
        },
        "language": "ar",
        "territory": "DZ"
      },
      "listPatterns": {
        "listPattern-type-standard": {
          "start": "{0}، {1}",
          "middle": "{0}، {1}",
          "end": "{0}، و {1}",
          "2": "{0} و {1}"
        },
        "listPattern-type-unit": {
          "start": "{0}، {1}",
          "middle": "{0}، {1}",
          "end": "{0}، و {1}",
          "2": "{0} و {1}"
        },
        "listPattern-type-unit-narrow": {
          "start": "{0}، {1}",
          "middle": "{0}، {1}",
          "end": "{0}، و {1}",
          "2": "{0} و {1}"
        },
        "listPattern-type-unit-short": {
          "start": "{0}، {1}",
          "middle": "{0}، {1}",
          "end": "{0}، و {1}",
          "2": "{0} و {1}"
        }
      }
    }
  }
}
