{
  "main": {
    "gu-IN": {
      "identity": {
        "version": {
          "_cldrVersion": "26",
          "_number": "$Revision: 10669 $"
        },
        "generation": {
          "_date": "$Date: 2014-07-23 16:10:33 -0500 (Wed, 23 Jul 2014) $"
        },
        "language": "gu",
        "territory": "IN"
      },
      "dates": {
        "calendars": {
          "ethiopic-amete-alem": {
            "months": {
              "format": {
                "abbreviated": {
                  "1": "Meskerem",
                  "2": "Tekemt",
                  "3": "Hedar",
                  "4": "Tahsas",
                  "5": "Ter",
                  "6": "Yekatit",
                  "7": "Megabit",
                  "8": "Miazia",
                  "9": "Genbot",
                  "10": "Sene",
                  "11": "Hamle",
                  "12": "Nehasse",
                  "13": "Pagumen"
                },
                "narrow": {
                  "1": "1",
                  "2": "2",
                  "3": "3",
                  "4": "4",
                  "5": "5",
                  "6": "6",
                  "7": "7",
                  "8": "8",
                  "9": "9",
                  "10": "10",
                  "11": "11",
                  "12": "12",
                  "13": "13"
                },
                "wide": {
                  "1": "Meskerem",
                  "2": "Tekemt",
                  "3": "Hedar",
                  "4": "Tahsas",
                  "5": "Ter",
                  "6": "Yekatit",
                  "7": "Megabit",
                  "8": "Miazia",
                  "9": "Genbot",
                  "10": "Sene",
                  "11": "Hamle",
                  "12": "Nehasse",
                  "13": "Pagumen"
                }
              },
              "stand-alone": {
                "abbreviated": {
                  "1": "Meskerem",
                  "2": "Tekemt",
                  "3": "Hedar",
                  "4": "Tahsas",
                  "5": "Ter",
                  "6": "Yekatit",
                  "7": "Megabit",
                  "8": "Miazia",
                  "9": "Genbot",
                  "10": "Sene",
                  "11": "Hamle",
                  "12": "Nehasse",
                  "13": "Pagumen"
                },
                "narrow": {
                  "1": "1",
                  "2": "2",
                  "3": "3",
                  "4": "4",
                  "5": "5",
                  "6": "6",
                  "7": "7",
                  "8": "8",
                  "9": "9",
                  "10": "10",
                  "11": "11",
                  "12": "12",
                  "13": "13"
                },
                "wide": {
                  "1": "Meskerem",
                  "2": "Tekemt",
                  "3": "Hedar",
                  "4": "Tahsas",
                  "5": "Ter",
                  "6": "Yekatit",
                  "7": "Megabit",
                  "8": "Miazia",
                  "9": "Genbot",
                  "10": "Sene",
                  "11": "Hamle",
                  "12": "Nehasse",
                  "13": "Pagumen"
                }
              }
            },
            "days": {
              "format": {
                "abbreviated": {
                  "sun": "રવિ",
                  "mon": "સોમ",
                  "tue": "મંગળ",
                  "wed": "બુધ",
                  "thu": "ગુરુ",
                  "fri": "શુક્ર",
                  "sat": "શનિ"
                },
                "narrow": {
                  "sun": "ર",
                  "mon": "સો",
                  "tue": "મં",
                  "wed": "બુ",
                  "thu": "ગુ",
                  "fri": "શુ",
                  "sat": "શ"
                },
                "short": {
                  "sun": "ર",
                  "mon": "સો",
                  "tue": "મં",
                  "wed": "બુ",
                  "thu": "ગુ",
                  "fri": "શુ",
                  "sat": "શ"
                },
                "wide": {
                  "sun": "રવિવાર",
                  "mon": "સોમવાર",
                  "tue": "મંગળવાર",
                  "wed": "બુધવાર",
                  "thu": "ગુરુવાર",
                  "fri": "શુક્રવાર",
                  "sat": "શનિવાર"
                }
              },
              "stand-alone": {
                "abbreviated": {
                  "sun": "રવિ",
                  "mon": "સોમ",
                  "tue": "મંગળ",
                  "wed": "બુધ",
                  "thu": "ગુરુ",
                  "fri": "શુક્ર",
                  "sat": "શનિ"
                },
                "narrow": {
                  "sun": "ર",
                  "mon": "સો",
                  "tue": "મં",
                  "wed": "બુ",
                  "thu": "ગુ",
                  "fri": "શુ",
                  "sat": "શ"
                },
                "short": {
                  "sun": "ર",
                  "mon": "સો",
                  "tue": "મં",
                  "wed": "બુ",
                  "thu": "ગુ",
                  "fri": "શુ",
                  "sat": "શ"
                },
                "wide": {
                  "sun": "રવિવાર",
                  "mon": "સોમવાર",
                  "tue": "મંગળવાર",
                  "wed": "બુધવાર",
                  "thu": "ગુરુવાર",
                  "fri": "શુક્રવાર",
                  "sat": "શનિવાર"
                }
              }
            },
            "quarters": {
              "format": {
                "abbreviated": {
                  "1": "Q1",
                  "2": "Q2",
                  "3": "Q3",
                  "4": "Q4"
                },
                "narrow": {
                  "1": "1",
                  "2": "2",
                  "3": "3",
                  "4": "4"
                },
                "wide": {
                  "1": "પહેલો ત્રિમાસ",
                  "2": "બીજો ત્રિમાસ",
                  "3": "ત્રીજો ત્રિમાસ",
                  "4": "ચોથો ત્રિમાસ"
                }
              },
              "stand-alone": {
                "abbreviated": {
                  "1": "Q1",
                  "2": "Q2",
                  "3": "Q3",
                  "4": "Q4"
                },
                "narrow": {
                  "1": "1",
                  "2": "2",
                  "3": "3",
                  "4": "4"
                },
                "wide": {
                  "1": "પહેલો ત્રિમાસ",
                  "2": "બીજો ત્રિમાસ",
                  "3": "ત્રીજો ત્રિમાસ",
                  "4": "ચોથો ત્રિમાસ"
                }
              }
            },
            "dayPeriods": {
              "format": {
                "abbreviated": {
                  "am": "AM",
                  "noon": "મધ્યાહ્ન",
                  "pm": "PM"
                },
                "narrow": {
                  "am": "AM",
                  "noon": "મધ્યાહ્ન",
                  "pm": "PM"
                },
                "wide": {
                  "am": "AM",
                  "noon": "મધ્યાહ્ન",
                  "pm": "PM"
                }
              },
              "stand-alone": {
                "abbreviated": {
                  "am": "AM",
                  "noon": "મધ્યાહ્ન",
                  "pm": "PM"
                },
                "narrow": {
                  "am": "AM",
                  "noon": "મધ્યાહ્ન",
                  "pm": "PM"
                },
                "wide": {
                  "am": "AM",
                  "noon": "મધ્યાહ્ન",
                  "pm": "PM"
                }
              }
            },
            "eras": {
              "eraNames": {
                "0": "ERA0"
              },
              "eraAbbr": {
                "0": "ERA0"
              },
              "eraNarrow": {
                "0": "ERA0"
              }
            },
            "dateFormats": {
              "full": "EEEE, d MMMM, G y",
              "long": "d MMMM, G y",
              "medium": "d MMM, G y",
              "short": "d-MM- GGGGG y"
            },
            "timeFormats": {
              "full": "hh:mm:ss a zzzz",
              "long": "hh:mm:ss a z",
              "medium": "hh:mm:ss a",
              "short": "hh:mm a"
            },
            "dateTimeFormats": {
              "full": "{1} {0}",
              "long": "{1} {0}",
              "medium": "{1} {0}",
              "short": "{1} {0}",
              "availableFormats": {
                "E": "ccc",
                "EHm": "E HH:mm",
                "EHms": "E HH:mm:ss",
                "Ed": "E d",
                "Ehm": "E h:mm a",
                "Ehms": "E h:mm:ss a",
                "Gy": "G y",
                "GyMMM": "MMM G y",
                "GyMMMEd": "E, d MMM, G y",
                "GyMMMd": "d, MMM G y",
                "H": "HH",
                "Hm": "HH:mm",
                "Hms": "HH:mm:ss",
                "M": "L",
                "MEd": "E, d/M",
                "MMM": "LLL",
                "MMMEd": "E, d MMM",
                "MMMMd": "d MMMM",
                "MMMd": "d MMM",
                "MMdd": "dd-MM",
                "Md": "d/M",
                "d": "d",
                "h": "h a",
                "hm": "hh:mm a",
                "hms": "hh:mm:ss a",
                "ms": "mm:ss",
                "y": "G y",
                "yyyy": "G y",
                "yyyyM": "M/G y",
                "yyyyMEd": "E, d/M/G y",
                "yyyyMM": "MM-y G",
                "yyyyMMM": "MMM G y",
                "yyyyMMMEd": "E, d MMM, G y",
                "yyyyMMMM": "MMMM G y",
                "yyyyMMMd": "d MMM, G y",
                "yyyyMd": "d/M/G y",
                "yyyyQQQ": "QQQ G y",
                "yyyyQQQQ": "QQQQ G y"
              },
              "appendItems": {
                "Day": "{0} ({2}: {1})",
                "Day-Of-Week": "{0} {1}",
                "Era": "{1} {0}",
                "Hour": "{0} ({2}: {1})",
                "Minute": "{0} ({2}: {1})",
                "Month": "{0} ({2}: {1})",
                "Quarter": "{0} ({2}: {1})",
                "Second": "{0} ({2}: {1})",
                "Timezone": "{0} {1}",
                "Week": "{0} ({2}: {1})",
                "Year": "{1} {0}"
              },
              "intervalFormats": {
                "intervalFormatFallback": "{0} – {1}",
                "H": {
                  "H": "HH–HH"
                },
                "Hm": {
                  "H": "HH:mm–HH:mm",
                  "m": "HH:mm–HH:mm"
                },
                "Hmv": {
                  "H": "HH:mm–HH:mm v",
                  "m": "HH:mm–HH:mm v"
                },
                "Hv": {
                  "H": "HH–HH v"
                },
                "M": {
                  "M": "M–M"
                },
                "MEd": {
                  "M": "E,d/M-E,d/M",
                  "d": "E, d/M-E, d/M"
                },
                "MMM": {
                  "M": "MMM–MMM"
                },
                "MMMEd": {
                  "M": "E, d MMM – E, d MMM",
                  "d": "E, d MMM-E, d MMM"
                },
                "MMMd": {
                  "M": "d MMM – d MMM",
                  "d": "d–d MMM"
                },
                "Md": {
                  "M": "d/M – d/M",
                  "d": "d/M – d/M"
                },
                "d": {
                  "d": "d–d"
                },
                "h": {
                  "a": "h a – h a",
                  "h": "h–h a"
                },
                "hm": {
                  "a": "h:mm a – h:mm a",
                  "h": "h:mm–h:mm a",
                  "m": "h:mm–h:mm a"
                },
                "hmv": {
                  "a": "h:mm a – h:mm a v",
                  "h": "h:mm–h:mm a v",
                  "m": "h:mm–h:mm a v"
                },
                "hv": {
                  "a": "h a – h a v",
                  "h": "h–h a v"
                },
                "y": {
                  "y": "G y–y"
                },
                "yM": {
                  "M": "M/y – M/y",
                  "y": "M/y – M/y"
                },
                "yMEd": {
                  "M": "E,d/M/y- E,d/M/y",
                  "d": "E,d/M/y- E,d/M/y",
                  "y": "E,d/M/y-E,d/M/y"
                },
                "yMMM": {
                  "M": "MMM–MMM y",
                  "y": "MMM y – MMM y"
                },
                "yMMMEd": {
                  "M": "E,d MMM-E,d MMM G y",
                  "d": "E, d MMM-E, d MMM G y",
                  "y": "E, d MMM y-E, d MMM G y"
                },
                "yMMMM": {
                  "M": "MMMM–MMMM G y",
                  "y": "MMMM y – MMMM y"
                },
                "yMMMd": {
                  "M": "d MMM-d MMM y",
                  "d": "d-d MMM,y",
                  "y": "d MMM,y-d MMM,y"
                },
                "yMd": {
                  "M": "d/M/y-d/M/y",
                  "d": "d/M/y-d/M/y",
                  "y": "d/M/y-d/M/y"
                }
              }
            }
          }
        }
      }
    }
  }
}
