{
  "main": {
    "gu-IN": {
      "identity": {
        "version": {
          "_cldrVersion": "26",
          "_number": "$Revision: 10669 $"
        },
        "generation": {
          "_date": "$Date: 2014-07-23 16:10:33 -0500 (Wed, 23 Jul 2014) $"
        },
        "language": "gu",
        "territory": "IN"
      },
      "localeDisplayNames": {
        "transformNames": {
          "BGN": "BGN",
          "Numeric": "સંખ્યા",
          "Tone": "ધ્વની",
          "UNGEGN": "UNGEGN",
          "x-Accents": "સ્વરાઘાતો",
          "x-Fullwidth": "પૂર્ણપહોળાઇ",
          "x-Halfwidth": "અર્ધપહોળાઈ",
          "x-Jamo": "જેમો",
          "x-Pinyin": "પીનયીન",
          "x-Publishing": "પ્રકાશન"
        }
      }
    }
  }
}
