{
  "main": {
    "ks-Arab-IN": {
      "identity": {
        "version": {
          "_cldrVersion": "26",
          "_number": "$Revision: 10669 $"
        },
        "generation": {
          "_date": "$Date: 2014-07-23 16:10:33 -0500 (Wed, 23 Jul 2014) $"
        },
        "language": "ks",
        "script": "Arab",
        "territory": "IN"
      },
      "dates": {
        "calendars": {
          "ethiopic-amete-alem": {
            "months": {
              "format": {
                "abbreviated": {
                  "1": "Meskerem",
                  "2": "Tekemt",
                  "3": "Hedar",
                  "4": "Tahsas",
                  "5": "Ter",
                  "6": "Yekatit",
                  "7": "Megabit",
                  "8": "Miazia",
                  "9": "Genbot",
                  "10": "Sene",
                  "11": "Hamle",
                  "12": "Nehasse",
                  "13": "Pagumen"
                },
                "narrow": {
                  "1": "1",
                  "2": "2",
                  "3": "3",
                  "4": "4",
                  "5": "5",
                  "6": "6",
                  "7": "7",
                  "8": "8",
                  "9": "9",
                  "10": "10",
                  "11": "11",
                  "12": "12",
                  "13": "13"
                },
                "wide": {
                  "1": "Meskerem",
                  "2": "Tekemt",
                  "3": "Hedar",
                  "4": "Tahsas",
                  "5": "Ter",
                  "6": "Yekatit",
                  "7": "Megabit",
                  "8": "Miazia",
                  "9": "Genbot",
                  "10": "Sene",
                  "11": "Hamle",
                  "12": "Nehasse",
                  "13": "Pagumen"
                }
              },
              "stand-alone": {
                "abbreviated": {
                  "1": "Meskerem",
                  "2": "Tekemt",
                  "3": "Hedar",
                  "4": "Tahsas",
                  "5": "Ter",
                  "6": "Yekatit",
                  "7": "Megabit",
                  "8": "Miazia",
                  "9": "Genbot",
                  "10": "Sene",
                  "11": "Hamle",
                  "12": "Nehasse",
                  "13": "Pagumen"
                },
                "narrow": {
                  "1": "1",
                  "2": "2",
                  "3": "3",
                  "4": "4",
                  "5": "5",
                  "6": "6",
                  "7": "7",
                  "8": "8",
                  "9": "9",
                  "10": "10",
                  "11": "11",
                  "12": "12",
                  "13": "13"
                },
                "wide": {
                  "1": "Meskerem",
                  "2": "Tekemt",
                  "3": "Hedar",
                  "4": "Tahsas",
                  "5": "Ter",
                  "6": "Yekatit",
                  "7": "Megabit",
                  "8": "Miazia",
                  "9": "Genbot",
                  "10": "Sene",
                  "11": "Hamle",
                  "12": "Nehasse",
                  "13": "Pagumen"
                }
              }
            },
            "days": {
              "format": {
                "abbreviated": {
                  "sun": "آتھوار",
                  "mon": "ژٔنٛدٕروار",
                  "tue": "بوٚموار",
                  "wed": "بودوار",
                  "thu": "برٛٮ۪سوار",
                  "fri": "جُمہ",
                  "sat": "بٹوار"
                },
                "narrow": {
                  "sun": "ا",
                  "mon": "ژ",
                  "tue": "ب",
                  "wed": "ب",
                  "thu": "ب",
                  "fri": "ج",
                  "sat": "ب"
                },
                "short": {
                  "sun": "آتھوار",
                  "mon": "ژٔنٛدٕروار",
                  "tue": "بوٚموار",
                  "wed": "بودوار",
                  "thu": "برٛٮ۪سوار",
                  "fri": "جُمہ",
                  "sat": "بٹوار"
                },
                "wide": {
                  "sun": "اَتھوار",
                  "mon": "ژٔنٛدرٕروار",
                  "tue": "بوٚموار",
                  "wed": "بودوار",
                  "thu": "برٛٮ۪سوار",
                  "fri": "جُمہ",
                  "sat": "بٹوار"
                }
              },
              "stand-alone": {
                "abbreviated": {
                  "sun": "آتھوار",
                  "mon": "ژٔنٛدٕروار",
                  "tue": "بوٚموار",
                  "wed": "بودوار",
                  "thu": "برٛٮ۪سوار",
                  "fri": "جُمہ",
                  "sat": "بٹوار"
                },
                "narrow": {
                  "sun": "ا",
                  "mon": "ژ",
                  "tue": "ب",
                  "wed": "ب",
                  "thu": "ب",
                  "fri": "ج",
                  "sat": "ب"
                },
                "short": {
                  "sun": "آتھوار",
                  "mon": "ژٔنٛدٕروار",
                  "tue": "بوٚموار",
                  "wed": "بودوار",
                  "thu": "برٛٮ۪سوار",
                  "fri": "جُمہ",
                  "sat": "بٹوار"
                },
                "wide": {
                  "sun": "اَتھوار",
                  "mon": "ژٔنٛدرٕروار",
                  "tue": "بوٚموار",
                  "wed": "بودوار",
                  "thu": "برٛٮ۪سوار",
                  "fri": "جُمہ",
                  "sat": "بٹوار"
                }
              }
            },
            "quarters": {
              "format": {
                "abbreviated": {
                  "1": "ژۄباگ",
                  "2": "دوٚیِم ژۄباگ",
                  "3": "ترٛیِم ژۄباگ",
                  "4": "ژوٗرِم ژۄباگ"
                },
                "narrow": {
                  "1": "1",
                  "2": "2",
                  "3": "3",
                  "4": "4"
                },
                "wide": {
                  "1": "گۄڑنیُک ژۄباگ",
                  "2": "دوٚیِم ژۄباگ",
                  "3": "ترٛیِم ژۄباگ",
                  "4": "ژوٗرِم ژۄباگ"
                }
              },
              "stand-alone": {
                "abbreviated": {
                  "1": "ژۄباگ",
                  "2": "دوٚیِم ژۄباگ",
                  "3": "ترٛیِم ژۄباگ",
                  "4": "ژوٗرِم ژۄباگ"
                },
                "narrow": {
                  "1": "1",
                  "2": "2",
                  "3": "3",
                  "4": "4"
                },
                "wide": {
                  "1": "گۄڑنیُک ژۄباگ",
                  "2": "دوٚیِم ژۄباگ",
                  "3": "ترٛیِم ژۄباگ",
                  "4": "ژوٗرِم ژۄباگ"
                }
              }
            },
            "dayPeriods": {
              "format": {
                "abbreviated": {
                  "am": "AM",
                  "noon": "noon",
                  "pm": "PM"
                },
                "narrow": {
                  "am": "a",
                  "noon": "n",
                  "pm": "p"
                },
                "wide": {
                  "am": "AM",
                  "noon": "noon",
                  "pm": "PM"
                }
              },
              "stand-alone": {
                "abbreviated": {
                  "am": "AM",
                  "noon": "noon",
                  "pm": "PM"
                },
                "narrow": {
                  "am": "a",
                  "noon": "n",
                  "pm": "p"
                },
                "wide": {
                  "am": "AM",
                  "noon": "noon",
                  "pm": "PM"
                }
              }
            },
            "eras": {
              "eraNames": {
                "0": "ERA0"
              },
              "eraAbbr": {
                "0": "ERA0"
              },
              "eraNarrow": {
                "0": "ERA0"
              }
            },
            "dateFormats": {
              "full": "EEEE, MMMM d, Gy",
              "long": "MMMM d, Gy",
              "medium": "MMM d, Gy",
              "short": "M/d/Gy"
            },
            "timeFormats": {
              "full": "h:mm:ss a zzzz",
              "long": "h:mm:ss a z",
              "medium": "h:mm:ss a",
              "short": "h:mm a"
            },
            "dateTimeFormats": {
              "full": "{1} {0}",
              "long": "{1} {0}",
              "medium": "{1} {0}",
              "short": "{1} {0}",
              "availableFormats": {
                "E": "ccc",
                "EHm": "E HH:mm",
                "EHms": "E HH:mm:ss",
                "Ed": "d, E",
                "Ehm": "E h:mm a",
                "Ehms": "E h:mm:ss a",
                "GGGGyMMMMEEEEdd": "EEEE,dd MMMM GGGGy",
                "Gy": "Gy",
                "GyMMM": "MMM Gy",
                "GyMMMEd": "EEE, MMM d, Gy",
                "GyMMMd": "MMM d, Gy",
                "H": "HH",
                "Hm": "HH:mm",
                "Hms": "HH:mm:ss",
                "M": "L",
                "MEd": "E, M/d",
                "MMM": "LLL",
                "MMMEd": "E, MMM d",
                "MMMMEd": "E, MMMM d",
                "MMMMd": "MMMM d",
                "MMMd": "d-MMM",
                "Md": "M/d",
                "d": "d",
                "h": "h a",
                "hm": "h:mm a",
                "hms": "h:mm:ss a",
                "ms": "mm:ss",
                "y": "Gy",
                "yyyy": "Gy",
                "yyyyM": "M/Gy",
                "yyyyMEd": "EEE, M/d/Gy",
                "yyyyMMM": "MMM Gy",
                "yyyyMMMEd": "EEE, MMM d, Gy",
                "yyyyMMMM": "MMMM Gy",
                "yyyyMMMd": "MMM d, Gy",
                "yyyyMd": "GGGGG y-MM-dd",
                "yyyyQQQ": "QQQ Gy",
                "yyyyQQQQ": "QQQQ Gy"
              },
              "appendItems": {
                "Day": "{0} ({2}: {1})",
                "Day-Of-Week": "{0} {1}",
                "Era": "{1} {0}",
                "Hour": "{0} ({2}: {1})",
                "Minute": "{0} ({2}: {1})",
                "Month": "{0} ({2}: {1})",
                "Quarter": "{0} ({2}: {1})",
                "Second": "{0} ({2}: {1})",
                "Timezone": "{0} {1}",
                "Week": "{0} ({2}: {1})",
                "Year": "{1} {0}"
              },
              "intervalFormats": {
                "intervalFormatFallback": "{0} – {1}",
                "H": {
                  "H": "HH–HH"
                },
                "Hm": {
                  "H": "HH:mm–HH:mm",
                  "m": "HH:mm–HH:mm"
                },
                "Hmv": {
                  "H": "HH:mm–HH:mm v",
                  "m": "HH:mm–HH:mm v"
                },
                "Hv": {
                  "H": "HH–HH v"
                },
                "M": {
                  "M": "MM–MM"
                },
                "MEd": {
                  "M": "MM-dd, E – MM-dd, E",
                  "d": "MM-dd, E – MM-dd, E"
                },
                "MMM": {
                  "M": "LLL–LLL"
                },
                "MMMEd": {
                  "M": "MMM d, E – MMM d, E",
                  "d": "MMM d, E – MMM d, E"
                },
                "MMMd": {
                  "M": "MMM d – MMM d",
                  "d": "MMM d–d"
                },
                "Md": {
                  "M": "MM-dd – MM-dd",
                  "d": "MM-dd – MM-dd"
                },
                "d": {
                  "d": "d–d"
                },
                "h": {
                  "a": "h a – h a",
                  "h": "h–h a"
                },
                "hm": {
                  "a": "h:mm a – h:mm a",
                  "h": "h:mm–h:mm a",
                  "m": "h:mm–h:mm a"
                },
                "hmv": {
                  "a": "h:mm a – h:mm a v",
                  "h": "h:mm–h:mm a v",
                  "m": "h:mm–h:mm a v"
                },
                "hv": {
                  "a": "h a – h a v",
                  "h": "h–h a v"
                },
                "y": {
                  "y": "G y–y"
                },
                "yM": {
                  "M": "GGGGG y-MM – y-MM",
                  "y": "GGGGG y-MM – y-MM"
                },
                "yMEd": {
                  "M": "GGGGG y-MM-dd, E – y-MM-dd, E",
                  "d": "GGGGG y-MM-dd, E – y-MM-dd, E",
                  "y": "GGGGG y-MM-dd, E – y-MM-dd, E"
                },
                "yMMM": {
                  "M": "G y MMM–MMM",
                  "y": "G y MMM – y MMM"
                },
                "yMMMEd": {
                  "M": "G y MMM d, E – MMM d, E",
                  "d": "G y MMM d, E – MMM d, E",
                  "y": "G y MMM d, E – y MMM d, E"
                },
                "yMMMM": {
                  "M": "G y MMMM–MMMM",
                  "y": "G y MMMM – y MMMM"
                },
                "yMMMd": {
                  "M": "G y MMM d – MMM d",
                  "d": "G y MMM d–d",
                  "y": "G y MMM d – y MMM d"
                },
                "yMd": {
                  "M": "GGGGG y-MM-dd – y-MM-dd",
                  "d": "GGGGG y-MM-dd – y-MM-dd",
                  "y": "GGGGG y-MM-dd – y-MM-dd"
                }
              }
            }
          }
        }
      }
    }
  }
}
