{
  "main": {
    "vai": {
      "identity": {
        "version": {
          "_cldrVersion": "26",
          "_number": "$Revision: 10669 $"
        },
        "generation": {
          "_date": "$Date: 2014-07-23 16:10:33 -0500 (Wed, 23 Jul 2014) $"
        },
        "language": "root"
      },
      "localeDisplayNames": {
        "territories": {
          "001": "001",
          "002": "002",
          "003": "003",
          "005": "005",
          "009": "009",
          "011": "011",
          "013": "013",
          "014": "014",
          "015": "015",
          "017": "017",
          "018": "018",
          "019": "019",
          "021": "021",
          "029": "029",
          "030": "030",
          "034": "034",
          "035": "035",
          "039": "039",
          "053": "053",
          "054": "054",
          "057": "057",
          "061": "061",
          "142": "142",
          "143": "143",
          "145": "145",
          "150": "150",
          "151": "151",
          "154": "154",
          "155": "155",
          "419": "419",
          "AC": "AC",
          "AD": "ꕉꖆꕟ",
          "AE": "ꖳꕯꔤꗳ ꕉꕟꔬ ꗡꕆꔓꔻ",
          "AF": "ꕉꔱꕭꔕꔻꕚꘋ",
          "AG": "ꕉꘋꔳꖶꕎ ꗪ ꕑꖜꕜ",
          "AI": "ꕉꕄꕞ",
          "AL": "ꕉꔷꕑꕇꕩ",
          "AM": "ꕉꕆꕯ",
          "AN": "ꘉꕜ ꖨꕮꕊ ꕉꘋꔳꔷ",
          "AO": "ꕉꖐꕞ",
          "AQ": "AQ",
          "AR": "ꕉꘀꘋꔳꕯ",
          "AS": "ꕶꕱ ꕢꕹꕎ",
          "AT": "ꖺꔻꖤꕎ",
          "AU": "ꖺꖬꖤꔃꔷꕩ",
          "AW": "ꕉꖩꕑ",
          "AX": "AX",
          "AZ": "ꕉꕤꕑꔤꕧꘋ",
          "BA": "ꕷꔻꕇꕰ ꗪ ꗥꕤꖑꔲꕯ",
          "BB": "ꕑꔆꖁꔻ",
          "BD": "ꕑꕅꕞꗵꔼ",
          "BE": "ꗩꕀꗚꘋ",
          "BF": "ꕷꕃꕯ ꕘꖇ",
          "BG": "ꗂꔠꔸꕩ",
          "BH": "ꕑꗸꘋ",
          "BI": "ꖜꖩꔺ",
          "BJ": "ꗩꕇꘋ",
          "BL": "BL",
          "BM": "ꗩꖷꕜ",
          "BN": "ꖜꖩꘉꔧ",
          "BO": "ꕷꔷꔲꕩ",
          "BQ": "BQ",
          "BR": "ꖜꕟꔘꔀ",
          "BS": "ꕑꕌꕮꔻ",
          "BT": "ꖜꕚꘋ",
          "BV": "BV",
          "BW": "ꕷꖬꕎꕯ",
          "BY": "ꗩꕞꖩꔻ",
          "BZ": "ꔆꔷꔘ",
          "CA": "ꕪꕯꕜ",
          "CC": "CC",
          "CD": "ꖏꖐ ꗵꗞꖴꕟꔎ ꕸꖃꔀ",
          "CD-alt-variant": "CD",
          "CF": "ꕉꔱꔸꕪ ꗳ ꗳ ꕸꖃꔀ",
          "CG": "ꖏꖐ",
          "CG-alt-variant": "CG",
          "CH": "ꖬꔃꕤ ꖨꕮꕊ",
          "CI": "ꖏꔳ ꕾꕎ",
          "CI-alt-variant": "CI",
          "CK": "ꖏꕃ ꔳꘋꗣ",
          "CL": "ꔚꔷ",
          "CM": "ꕪꔈꖩꘋ",
          "CN": "ꕦꔤꕯ",
          "CO": "ꗛꗏꔭꕩ",
          "CP": "CP",
          "CR": "ꖏꔻꕚ ꔸꕪ",
          "CU": "ꕃꖳꕑ",
          "CV": "ꔞꔪ ꗲꔵ ꔳꘋꗣ",
          "CW": "CW",
          "CX": "CX",
          "CY": "ꕢꗡꖛꗐꔻ",
          "CZ": "ꗿꕃ ꕸꖃꔀ",
          "DE": "ꕧꕮꔧ",
          "DG": "DG",
          "DJ": "ꕀꖜꔳ",
          "DK": "ꕜꕇꕮꕃ",
          "DM": "ꖁꕆꕇꕪ",
          "DO": "ꖁꕆꕇꕪꘋ ꕸꕱꔀ",
          "DZ": "ꕉꔷꔠꔸꕩ",
          "EA": "EA",
          "EC": "ꗡꖴꔃꗍ",
          "EE": "ꗡꔻꕿꕇꕰ",
          "EG": "ꕆꔖꕞ",
          "EH": "EH",
          "ER": "ꔀꔸꔳꕟ",
          "ES": "ꕐꘊꔧ",
          "ET": "ꔤꔳꖎꔪꕩ",
          "EU": "EU",
          "FI": "ꔱꘋ ꖨꕮꕊ",
          "FJ": "ꔱꔤꕀ",
          "FK": "ꕘꔷꕃ ꖨꕮ ꔳꘋꗣ",
          "FK-alt-variant": "FK",
          "FM": "ꕆꖏꕇꔻꕩ",
          "FO": "FO",
          "FR": "ꖢꕟꘋꔻ",
          "GA": "ꕭꕷꘋ",
          "GB": "ꖕꕯꔤꗳ",
          "GB-alt-short": "GB",
          "GD": "ꖶꕟꕯꕜ",
          "GE": "ꗘꖺꕀꕩ",
          "GF": "ꗱꘋꔻ ꖶꕎꕯ",
          "GG": "GG",
          "GH": "ꕭꕌꕯ",
          "GI": "ꕀꖜꕟꕚ",
          "GL": "ꕧꕓ ꖴꕎ ꖨꕮꕊ",
          "GM": "ꕭꔭꕩ",
          "GN": "ꕅꔤꕇ",
          "GP": "ꖶꕎꔐꖨꔅ",
          "GQ": "ꖦꕰꕊ ꗳ ꕅꔤꕇ",
          "GR": "ꗥꗷꘋ",
          "GS": "GS",
          "GT": "ꖶꕎꔎꕮꕞ",
          "GU": "ꖶꕎꕆ",
          "GW": "ꕅꔤꕇ ꔫꕢꕴ",
          "GY": "ꖶꕩꕯ",
          "HK": "HK",
          "HK-alt-short": "HK",
          "HM": "HM",
          "HN": "ꖽꖫꕟ",
          "HR": "ꖏꔓꔻꕩ",
          "HT": "ꕌꔤꔳ",
          "HU": "ꖽꘋꕭꔓ",
          "IC": "IC",
          "ID": "ꔤꖆꕇꔻꕩ",
          "IE": "ꕉꔓ ꖨꕮꕊ",
          "IL": "ꕑꕇꔻꕞꔤꕞ",
          "IM": "IM",
          "IN": "ꔤꔺꕩ",
          "IO": "ꔛꔟꔻ ꔤꔺꕩ ꗛꔤꘂ ꕗꕴꔀ ꕮ",
          "IQ": "ꔤꕟꕃ",
          "IR": "ꔤꕟꘋ",
          "IS": "ꕉꔤꔻ ꖨꕮꕊ",
          "IT": "ꔤꕚꔷ",
          "JE": "JE",
          "JM": "ꕧꕮꔧꕪ",
          "JO": "ꗘꖺꗵꘋ",
          "JP": "ꔛꗨꗢ",
          "KE": "ꔞꕰ",
          "KG": "ꕃꕅꔻꕚꘋ",
          "KH": "ꕪꕹꔵꕩ",
          "KI": "ꕃꔸꕑꔳ",
          "KM": "ꖏꕹꖄꔻ",
          "KN": "ꔻꘋ ꕃꔳꔻ ꗪ ꔕꔲꔻ",
          "KP": "ꖏꔸꕩ ꗛꔤ ꕪꘋꗒ",
          "KR": "ꖏꔸꕩ ꗛꔤ ꔒꘋꗣ ꗏ",
          "KW": "ꖴꔃꔳ",
          "KY": "ꔞꔀꕮꘋ ꔳꘋꗣ",
          "KZ": "ꕪꕤꔻꕚꘋ",
          "LA": "ꕞꕴꔻ",
          "LB": "ꔒꕑꗟꘋ",
          "LC": "ꔻꘋ ꖨꔻꕩ",
          "LI": "ꔷꗿꘋꔻꗳꘋ",
          "LK": "ꖬꔸ ꕞꘋꕪ",
          "LR": "ꕞꔤꔫꕩ",
          "LS": "ꔷꖇꕿ",
          "LT": "ꔷꖤꔃꕇꕰ",
          "LU": "ꗏꔻꘋꗂꖺ",
          "LV": "ꕞꔳꔲꕩ",
          "LY": "ꔒꔫꕩ",
          "MA": "ꗞꕟꖏ",
          "MC": "ꗞꕯꖏ",
          "MD": "ꖒꔷꖁꕙ",
          "ME": "ME",
          "MF": "MF",
          "MG": "ꕮꕜꕭꔻꕪ",
          "MH": "ꕮꕊꕣ ꔳꘋꗣ",
          "MK": "ꕮꔖꖁꕇꕰ",
          "MK-alt-variant": "MK",
          "ML": "ꕮꔷ",
          "MM": "ꕆꕩꘋꕮ",
          "MN": "ꗞꖐꔷꕩ",
          "MO": "MO",
          "MO-alt-short": "MO",
          "MP": "ꗛꔤ ꕪꘋꗒ ꕮꔸꕩꕯ ꔳꘋꗣ",
          "MQ": "ꕮꔳꕇꕃ",
          "MR": "ꗞꔓꔎꕇꕰ",
          "MS": "ꗞꘋꔖꕟꔳ",
          "MT": "ꕮꕊꕚ",
          "MU": "ꗞꔓꗔ",
          "MV": "ꕮꔷꕜꔍ",
          "MW": "ꕮꕞꕌꔨ",
          "MX": "ꘈꔻꖏ",
          "MY": "ꕮꔒꔻꕩ",
          "MZ": "ꕹꕤꔭꕃ",
          "NA": "ꕯꕆꔫꕩ",
          "NC": "ꕪꔷꖁꕇꕰ ꕯꕮꕊ",
          "NE": "ꕯꔤꕧ",
          "NF": "ꗟꖺꗉ ꔳꘋꗣ",
          "NG": "ꕯꔤꕀꔸꕩ",
          "NI": "ꕇꕪꕟꖶꕎ",
          "NL": "ꘉꕜ ꖨꕮꕊ",
          "NO": "ꗟꖺꔃ",
          "NP": "ꕇꕐꔷ",
          "NR": "ꖆꖩ",
          "NU": "ꖸꔃꔤ",
          "NZ": "ꔽꔤ ꖨꕮ ꕯꕮꕊ",
          "OM": "ꕱꕮꘋ",
          "PA": "ꕐꕯꕮ",
          "PE": "ꗨꗡꖩ",
          "PF": "ꗱꘋꔻ ꕶꔷꕇꔻꕩ",
          "PG": "ꕐꖛꕎ ꕅꔤꕇ ꕯꕮꕊ",
          "PH": "ꔱꔒꔪꘋ",
          "PK": "ꕐꕃꔻꕚꘋ",
          "PL": "ꕶꗷꘋ",
          "PM": "ꔻꘋ ꔪꘂ ꗪ ꕆꔞꗏꘋ",
          "PN": "ꔪꔳꕪꕆ",
          "PR": "ꔪꖳꕿ ꔸꖏ",
          "PS": "ꕐꔒꔻꔳꕯ ꔎꔒ ꕀꔤ ꗛꔤ ꕞ ꗱ ꗪ ꕭꕌꕤ",
          "PS-alt-short": "PS",
          "PT": "ꕶꕿꕃꔤ ꕸꖃꔀ",
          "PW": "ꕐꖃ",
          "PY": "ꕐꕟꗝꔀ",
          "QA": "ꕪꕚꕌ",
          "QO": "QO",
          "RE": "ꔓꗠꖻ",
          "RO": "ꖄꕆꕇꕰ",
          "RS": "RS",
          "RU": "ꗐꖺꔻꕩ",
          "RW": "ꕟꖙꕡ",
          "SA": "ꕞꕌꖝ ꕸꖃꔀ",
          "SB": "ꖬꕞꔤꕮꕊꕯ ꔳꘋꗣ",
          "SC": "ꔖꗼꔷ",
          "SD": "ꖬꗵꘋ",
          "SE": "ꖬꔨꗵꘋ",
          "SG": "ꔻꕬꕶꕱ",
          "SH": "ꔻꘋ ꗥꔷꕯ",
          "SI": "ꔻꖃꔍꕇꕰ",
          "SJ": "SJ",
          "SK": "ꔻꖃꕙꕃꕩ",
          "SL": "ꔋꕩ ꕒꕌꖺ ꕸꖃꔀ",
          "SM": "ꕮꔸꖆ ꕢꘋ",
          "SN": "ꔻꕇꕭꕌ",
          "SO": "ꖇꕮꔷꕩ",
          "SR": "ꖬꔸꕯꔈ",
          "SS": "SS",
          "ST": "ꕢꕴ ꕿꔈ ꗪ ꕉ ꕮꔧ ꕗꕴꔀ",
          "SV": "ꗡꗷ ꕢꔍꗍꖺ",
          "SX": "SX",
          "SY": "ꔻꕩꘋ",
          "SZ": "ꖬꕎꔽ ꖨꕮꕊ",
          "TA": "TA",
          "TC": "ꗋꖺꕃꔻ ꗪ ꕪꔤꖏꔻ ꔳꘋꗣ",
          "TD": "ꕦꔵ",
          "TF": "TF",
          "TG": "ꕿꖑ",
          "TH": "ꕚꔤ ꖨꕮꕊ",
          "TJ": "ꕚꕀꕃꔻꕚꘋ",
          "TK": "ꕿꔞꖃ",
          "TL": "ꔎꔒ ꗃ ꔳꗞꖻ",
          "TL-alt-variant": "TL",
          "TM": "ꗋꖺꕃꕮꕇꔻꕚꘋ",
          "TN": "ꖤꕇꔻꕩ",
          "TO": "ꗋꕬ",
          "TR": "ꗋꖺꕃ",
          "TT": "ꖤꔸꔕꕜ ꗪ ꕿꔆꖑ",
          "TV": "ꕚꖣꖨ",
          "TW": "ꕚꔤꕎꘋ",
          "TZ": "ꕚꘋꕤꕇꕰ",
          "UA": "ꖳꖴꔓꘋ",
          "UG": "ꖳꕭꕡ",
          "UM": "UM",
          "US": "ꕶꕱ",
          "US-alt-short": "US",
          "UY": "ꖳꔓꗝꔀ",
          "UZ": "ꖳꗩꕃꔻꕚꘋ",
          "VA": "VA",
          "VC": "ꔻꘋ ꔲꘋꔻꘋ ꗪ ꖶꔓꕯꔵꘋ ꖸ",
          "VE": "ꕙꔳꕪꘋ ꕸꖃꔀ",
          "VG": "ꔛꔟꔻ ꗩꗡ ꗏ ꖷꖬ ꔳꘋꗣ",
          "VI": "ꕶꕱ ꗩꗡ ꗏ ꖷꖬ ꔳꘋꗣ",
          "VN": "ꗲꕇꖮꔃꕞ",
          "VU": "ꕙꖸꕎꖤ",
          "WF": "ꕎꔷꔻ ꗪ ꖢꖤꕯ",
          "WS": "ꕢꕹꖙꕉ",
          "XK": "XK",
          "YE": "ꔝꘈꘋ",
          "YT": "ꕮꗚꔎ",
          "ZA": "ꕉꔱꔸꕪ ꗛꔤ ꔒꘋꗣ ꗏ ꕸꖃꔀ",
          "ZM": "ꕤꔭꕩ",
          "ZW": "ꔽꕓꖜꔃ",
          "ZZ": "ZZ"
        }
      }
    }
  }
}
