{
  "main": {
    "nl-BQ": {
      "identity": {
        "version": {
          "_cldrVersion": "26",
          "_number": "$Revision: 10669 $"
        },
        "generation": {
          "_date": "$Date: 2014-07-23 16:10:33 -0500 (Wed, 23 Jul 2014) $"
        },
        "language": "nl",
        "territory": "BQ"
      },
      "characters": {
        "exemplarCharacters": "[a á ä b c d e é ë f g h i í ï {ij} {íj\u0301} j k l m n o ó ö p q r s t u ú ü v w x y z]",
        "auxiliary": "[à â å ã æ ç è ê î ñ ô ø œ ù û ÿ]",
        "punctuation": "[\\- ‐ – — , ; \\: ! ? . … ' ‘ ’ \" “ ” ( ) \\[ \\] § @ * / \\& # † ‡ ′ ″]",
        "index": "[A B C D E F G H I J K L M N O P Q R S T U V W X Y Z]",
        "ellipsis": {
          "initial": "…{0}",
          "medial": "{0}…{1}",
          "final": "{0}…",
          "word-initial": "… {0}",
          "word-medial": "{0} … {1}",
          "word-final": "{0} …"
        },
        "moreInformation": "?"
      }
    }
  }
}
