{
  "main": {
    "nl-BQ": {
      "identity": {
        "version": {
          "_cldrVersion": "26",
          "_number": "$Revision: 10669 $"
        },
        "generation": {
          "_date": "$Date: 2014-07-23 16:10:33 -0500 (Wed, 23 Jul 2014) $"
        },
        "language": "nl",
        "territory": "BQ"
      },
      "localeDisplayNames": {
        "localeDisplayPattern": {
          "localePattern": "{0} ({1})",
          "localeSeparator": "{0}, {1}",
          "localeKeyTypePattern": "{0}: {1}"
        },
        "keys": {
          "calendar": "kalender",
          "colAlternate": "Sorteren van symbolen negeren",
          "colBackwards": "Omgekeerd sorteren op accenten",
          "colCaseFirst": "Indelen op hoofdletters/kleine letters",
          "colCaseLevel": "Hoofdlettergevoelig sorteren",
          "colHiraganaQuaternary": "Kana sorteren",
          "colNormalization": "Genormaliseerd sorteren",
          "colNumeric": "Numeriek sorteren",
          "colStrength": "Sorteervoorrang",
          "collation": "sorteervolgorde",
          "currency": "valuta",
          "numbers": "cijfers",
          "timezone": "Tijdzone",
          "va": "Landvariant",
          "variableTop": "Sorteren als symbolen",
          "x": "Privégebruik"
        },
        "types": {
          "numbers": {
            "arab": "Arabisch-Indische cijfers",
            "arabext": "uitgebreide Arabisch-Indische cijfers",
            "armn": "Armeense cijfers",
            "armnlow": "kleine Armeense cijfers",
            "bali": "Balinese cijfers",
            "beng": "Bengaalse cijfers"
          },
          "collation": {
            "big5han": "Traditioneel-Chinese sorteervolgorde - Big5"
          },
          "numbers": {
            "brah": "Brahmi cijfers"
          },
          "calendar": {
            "buddhist": "Boeddhistische kalender"
          },
          "numbers": {
            "cakm": "Chakma cijfers",
            "cham": "Cham cijfers"
          },
          "calendar": {
            "chinese": "Chinese kalender",
            "coptic": "Koptische kalender",
            "dangi": "Dangi-kalender"
          },
          "numbers": {
            "deva": "Devanagari cijfers"
          },
          "collation": {
            "dictionary": "Woordenboeksorteervolgorde",
            "ducet": "standaard Unicode-sorteervolgorde",
            "eor": "Europese sorteerregels"
          },
          "numbers": {
            "ethi": "Ethiopische cijfers"
          },
          "calendar": {
            "ethiopic": "Ethiopische kalender",
            "ethiopic-amete-alem": "Ethiopische Amete Alem-kalender"
          },
          "numbers": {
            "finance": "Financiële cijfers",
            "fullwide": "cijfers met volledige breedte"
          },
          "collation": {
            "gb2312han": "Vereenvoudigd-Chinese sorteervolgorde - GB2312"
          },
          "numbers": {
            "geor": "Georgische cijfers"
          },
          "calendar": {
            "gregorian": "Gregoriaanse kalender"
          },
          "numbers": {
            "grek": "Griekse cijfers",
            "greklow": "kleine Griekse cijfers",
            "gujr": "Gujarati cijfers",
            "guru": "Gurmukhi cijfers",
            "hanidec": "Chinese decimale getallen",
            "hans": "vereenvoudigd Chinese cijfers",
            "hansfin": "vereenvoudigd Chinese financiële cijfers",
            "hant": "traditioneel Chinese cijfers",
            "hantfin": "traditioneel Chinese financiële cijfers",
            "hebr": "Hebreeuwse cijfers"
          },
          "calendar": {
            "hebrew": "Hebreeuwse kalender"
          },
          "colStrength": {
            "identical": "Alles sorteren"
          },
          "calendar": {
            "indian": "Indiase nationale kalender",
            "islamic": "Islamitische kalender",
            "islamic-civil": "Islamitische kalender (cyclisch)",
            "islamic-rgsa": "Islamitische kalender (Saudi–Arabië)",
            "islamic-tbla": "Islamitische kalender (epoche)",
            "islamic-umalqura": "Islamitische kalender (Umm al-Qura)",
            "iso8601": "ISO-8601-kalender",
            "japanese": "Japanse kalender"
          },
          "numbers": {
            "java": "Javaanse cijfers",
            "jpan": "Japanse cijfers",
            "jpanfin": "Japanse financiële cijfers",
            "kali": "Kayah Li cijfers",
            "khmr": "Khmer cijfers",
            "knda": "Kannada cijfers",
            "lana": "Tai Tham Hora cijfers",
            "lanatham": "Tai Tham Tham cijfers",
            "laoo": "Laotiaanse cijfers",
            "latn": "Westerse cijfers",
            "lepc": "Lepcha cijfers",
            "limb": "Limbu cijfers"
          },
          "colCaseFirst": {
            "lower": "Eerst sorteren op kleine letters"
          },
          "numbers": {
            "mlym": "Malayalam cijfers",
            "mong": "Mongoolse cijfers",
            "mtei": "Meetei Mayek cijfers",
            "mymr": "Myanmarese cijfers",
            "mymrshan": "Myanmarese Shan cijfers",
            "native": "Binnenlandse cijfers",
            "nkoo": "N’Ko cijfers"
          },
          "colBackwards": {
            "no": "Normaal sorteren op accenten"
          },
          "colCaseFirst": {
            "no": "Sorteervolgorde algemeen hoofdlettergebruik"
          },
          "colCaseLevel": {
            "no": "Niet hoofdlettergevoelig sorteren"
          },
          "colHiraganaQuaternary": {
            "no": "Kana afzonderlijk sorteren"
          },
          "colNormalization": {
            "no": "Zonder normalisatie sorteren"
          },
          "colNumeric": {
            "no": "Cijfers afzonderlijk sorteren"
          },
          "colAlternate": {
            "non-ignorable": "Symbolen sorteren"
          },
          "numbers": {
            "olck": "Ol Chiki cijfers",
            "orya": "Odia cijfers",
            "osma": "Osmanya cijfers"
          },
          "calendar": {
            "persian": "Perzische kalender"
          },
          "collation": {
            "phonebook": "Telefoonboeksorteervolgorde",
            "phonetic": "Fonetische sorteervolgorde",
            "pinyin": "Pinyinvolgorde"
          },
          "colStrength": {
            "primary": "Alleen sorteren op letters",
            "quaternary": "Sorteren op accenten/hoofdlettergebruik/breedte/Kana"
          },
          "collation": {
            "reformed": "Herziene sorteervolgorde"
          },
          "calendar": {
            "roc": "Kalender van de Chinese Republiek"
          },
          "numbers": {
            "roman": "Romeinse cijfers",
            "romanlow": "kleine Romeinse cijfers",
            "saur": "Saurashtra cijfers"
          },
          "collation": {
            "search": "algemeen zoeken",
            "searchjl": "Zoeken op eerste Hangul-medeklinker"
          },
          "colStrength": {
            "secondary": "Sorteren op accenten"
          },
          "colAlternate": {
            "shifted": "Sorteren zonder symbolen"
          },
          "numbers": {
            "shrd": "Sharada cijfers",
            "sora": "Sora Sompeng cijfers"
          },
          "collation": {
            "standard": "standaard sorteervolgorde",
            "stroke": "Streeksorteervolgorde"
          },
          "numbers": {
            "sund": "Sundanese cijfers",
            "takr": "Takri cijfers",
            "talu": "nieuwe Tai Lue cijfers",
            "taml": "traditionele Tamil cijfers",
            "tamldec": "Tamil cijfers",
            "telu": "Telugu cijfers"
          },
          "colStrength": {
            "tertiary": "Sorteren op accenten/hoofdlettergebruik/breedte"
          },
          "numbers": {
            "thai": "Thaise cijfers",
            "tibt": "Tibetaanse cijfers"
          },
          "collation": {
            "traditional": "Traditionele sorteervolgorde"
          },
          "numbers": {
            "traditional": "Traditionele cijfers"
          },
          "collation": {
            "unihan": "Sorteervolgorde radicalen/strepen"
          },
          "colCaseFirst": {
            "upper": "Eerst sorteren op hoofdletters"
          },
          "numbers": {
            "vaii": "Vai-cijfers"
          },
          "colBackwards": {
            "yes": "Omgekeerd sorteren op accenten"
          },
          "colCaseLevel": {
            "yes": "Hoofdlettergevoelig sorteren"
          },
          "colHiraganaQuaternary": {
            "yes": "Kana anders sorteren"
          },
          "colNormalization": {
            "yes": "Unicode genormaliseerd sorteren"
          },
          "colNumeric": {
            "yes": "Cijfers numeriek sorteren"
          },
          "collation": {
            "zhuyin": "Zhuyinvolgorde"
          }
        },
        "codePatterns": {
          "language": "Taal: {0}",
          "script": "Schrift: {0}",
          "territory": "Regio: {0}"
        }
      }
    }
  }
}
