{
  "main": {
    "hy": {
      "identity": {
        "version": {
          "_cldrVersion": "26",
          "_number": "$Revision: 10809 $"
        },
        "generation": {
          "_date": "$Date: 2014-08-14 15:10:07 -0500 (Thu, 14 Aug 2014) $"
        },
        "language": "hy"
      },
      "dates": {
        "calendars": {
          "gregorian": {
            "months": {
              "format": {
                "abbreviated": {
                  "1": "հնվ",
                  "2": "փտվ",
                  "3": "մրտ",
                  "4": "ապր",
                  "5": "մյս",
                  "6": "հնս",
                  "7": "հլս",
                  "8": "օգս",
                  "9": "սեպ",
                  "10": "հոկ",
                  "11": "նոյ",
                  "12": "դեկ"
                },
                "narrow": {
                  "1": "Հ",
                  "2": "Փ",
                  "3": "Մ",
                  "4": "Ա",
                  "5": "Մ",
                  "6": "Հ",
                  "7": "Հ",
                  "8": "Օ",
                  "9": "Ս",
                  "10": "Հ",
                  "11": "Ն",
                  "12": "Դ"
                },
                "wide": {
                  "1": "հունվարի",
                  "2": "փետրվարի",
                  "3": "մարտի",
                  "4": "ապրիլի",
                  "5": "մայիսի",
                  "6": "հունիսի",
                  "7": "հուլիսի",
                  "8": "օգոստոսի",
                  "9": "սեպտեմբերի",
                  "10": "հոկտեմբերի",
                  "11": "նոյեմբերի",
                  "12": "դեկտեմբերի"
                }
              },
              "stand-alone": {
                "abbreviated": {
                  "1": "հնվ",
                  "2": "փտվ",
                  "3": "մրտ",
                  "4": "ապր",
                  "5": "մյս",
                  "6": "հնս",
                  "7": "հլս",
                  "8": "օգս",
                  "9": "սեպ",
                  "10": "հոկ",
                  "11": "նոյ",
                  "12": "դեկ"
                },
                "narrow": {
                  "1": "Հ",
                  "2": "Փ",
                  "3": "Մ",
                  "4": "Ա",
                  "5": "Մ",
                  "6": "Հ",
                  "7": "Հ",
                  "8": "Օ",
                  "9": "Ս",
                  "10": "Հ",
                  "11": "Ն",
                  "12": "Դ"
                },
                "wide": {
                  "1": "հունվար",
                  "2": "փետրվար",
                  "3": "մարտ",
                  "4": "ապրիլ",
                  "5": "մայիս",
                  "6": "հունիս",
                  "7": "հուլիս",
                  "8": "օգոստոս",
                  "9": "սեպտեմբեր",
                  "10": "հոկտեմբեր",
                  "11": "նոյեմբեր",
                  "12": "դեկտեմբեր"
                }
              }
            },
            "days": {
              "format": {
                "abbreviated": {
                  "sun": "կիր",
                  "mon": "երկ",
                  "tue": "երք",
                  "wed": "չրք",
                  "thu": "հնգ",
                  "fri": "ուր",
                  "sat": "շբթ"
                },
                "narrow": {
                  "sun": "Կ",
                  "mon": "Ե",
                  "tue": "Ե",
                  "wed": "Չ",
                  "thu": "Հ",
                  "fri": "Ու",
                  "sat": "Շ"
                },
                "short": {
                  "sun": "կիր",
                  "mon": "երկ",
                  "tue": "երք",
                  "wed": "չրք",
                  "thu": "հնգ",
                  "fri": "ուր",
                  "sat": "շբթ"
                },
                "wide": {
                  "sun": "կիրակի",
                  "mon": "երկուշաբթի",
                  "tue": "երեքշաբթի",
                  "wed": "չորեքշաբթի",
                  "thu": "հինգշաբթի",
                  "fri": "ուրբաթ",
                  "sat": "շաբաթ"
                }
              },
              "stand-alone": {
                "abbreviated": {
                  "sun": "կիր",
                  "mon": "երկ",
                  "tue": "երք",
                  "wed": "չրք",
                  "thu": "հնգ",
                  "fri": "ուր",
                  "sat": "շբթ"
                },
                "narrow": {
                  "sun": "Կ",
                  "mon": "Ե",
                  "tue": "Ե",
                  "wed": "Չ",
                  "thu": "Հ",
                  "fri": "Ու",
                  "sat": "Շ"
                },
                "short": {
                  "sun": "կիր",
                  "mon": "երկ",
                  "tue": "երք",
                  "wed": "չրք",
                  "thu": "հնգ",
                  "fri": "ուր",
                  "sat": "շբթ"
                },
                "wide": {
                  "sun": "կիրակի",
                  "mon": "երկուշաբթի",
                  "tue": "երեքշաբթի",
                  "wed": "չորեքշաբթի",
                  "thu": "հինգշաբթի",
                  "fri": "ուրբաթ",
                  "sat": "շաբաթ"
                }
              }
            },
            "quarters": {
              "format": {
                "abbreviated": {
                  "1": "1-ին եռմս.",
                  "2": "2-րդ եռմս.",
                  "3": "3-րդ եռմս.",
                  "4": "4-րդ եռմս."
                },
                "narrow": {
                  "1": "1",
                  "2": "2",
                  "3": "3",
                  "4": "4"
                },
                "wide": {
                  "1": "1-ին եռամսյակ",
                  "2": "2-րդ եռամսյակ",
                  "3": "3-րդ եռամսյակ",
                  "4": "4-րդ եռամսյակ"
                }
              },
              "stand-alone": {
                "abbreviated": {
                  "1": "1-ին եռմս.",
                  "2": "2-րդ եռմս.",
                  "3": "3-րդ եռմս.",
                  "4": "4-րդ եռմս."
                },
                "narrow": {
                  "1": "1",
                  "2": "2",
                  "3": "3",
                  "4": "4"
                },
                "wide": {
                  "1": "1-ին եռամսյակ",
                  "2": "2-րդ եռամսյակ",
                  "3": "3-րդ եռամսյակ",
                  "4": "4-րդ եռամսյակ"
                }
              }
            },
            "dayPeriods": {
              "format": {
                "abbreviated": {
                  "am": "կեսօրից առաջ",
                  "noon": "կեսօրին",
                  "pm": "կեսօրից հետո"
                },
                "narrow": {
                  "am": "կա",
                  "noon": "կ",
                  "pm": "կհ"
                },
                "wide": {
                  "am": "կեսօրից առաջ",
                  "noon": "կեսօրին",
                  "pm": "կեսօրից հետո"
                }
              },
              "stand-alone": {
                "abbreviated": {
                  "am": "կեսօրից առաջ",
                  "noon": "կեսօրին",
                  "pm": "կեսօրից հետո"
                },
                "narrow": {
                  "am": "կա",
                  "noon": "կ",
                  "pm": "կհ"
                },
                "wide": {
                  "am": "կեսօրից առաջ",
                  "noon": "կեսօրին",
                  "pm": "կեսօրից հետո"
                }
              }
            },
            "eras": {
              "eraNames": {
                "0": "մ.թ.ա.",
                "0-alt-variant": "մեր թվարկությունից առաջ",
                "1": "մ.թ.",
                "1-alt-variant": "մեր թվարկության"
              },
              "eraAbbr": {
                "0": "մ.թ.ա.",
                "0-alt-variant": "մ.թ.ա",
                "1": "մ.թ.",
                "1-alt-variant": "CE"
              },
              "eraNarrow": {
                "0": "մ.թ.ա.",
                "0-alt-variant": "մ.թ.ա",
                "1": "մ.թ.",
                "1-alt-variant": "CE"
              }
            },
            "dateFormats": {
              "full": "yթ. MMMM d, EEEE",
              "long": "dd MMMM, yթ.",
              "medium": "dd MMM, yթ.",
              "short": "dd.MM.yy"
            },
            "timeFormats": {
              "full": "H:mm:ss, zzzz",
              "long": "H:mm:ss, z",
              "medium": "H:mm:ss",
              "short": "H:mm"
            },
            "dateTimeFormats": {
              "full": "{1}, {0}",
              "long": "{1}, {0}",
              "medium": "{1}, {0}",
              "short": "{1}, {0}",
              "availableFormats": {
                "E": "ccc",
                "EHm": "E, HH:mm",
                "EHms": "E, HH:mm:ss",
                "Ed": "d, ccc",
                "Ehm": "E, h:mm a",
                "Ehms": "E, h:mm:ss a",
                "Gy": "G yթ.",
                "GyMMM": "G yթ. LLL",
                "GyMMMEd": "G yթ. MMM d, E",
                "GyMMMd": "d MMM, yթ.,",
                "H": "H",
                "Hm": "H:mm",
                "Hms": "H:mm:ss",
                "M": "L",
                "MEd": "dd.MM, E",
                "MMM": "LLL",
                "MMMEd": "d MMM, E",
                "MMMd": "d MMM",
                "Md": "dd.MM",
                "d": "d",
                "h": "h a",
                "hm": "h:mm a",
                "hms": "h:mm:ss a",
                "ms": "mm:ss",
                "y": "y",
                "yM": "MM.y",
                "yMEd": "d.MM.yթ., E",
                "yMMM": "yթ. LLL",
                "yMMMEd": "yթ. MMM d, E",
                "yMMMd": "d MMM, yթ.",
                "yMd": "dd.MM.y",
                "yQQQ": "y թ, QQQ",
                "yQQQQ": "y թ, QQQQ"
              },
              "appendItems": {
                "Day": "{0} ({2}: {1})",
                "Day-Of-Week": "{0} {1}",
                "Era": "{1} {0}",
                "Hour": "{0} ({2}: {1})",
                "Minute": "{0} ({2}: {1})",
                "Month": "{0} ({2}: {1})",
                "Quarter": "{0} ({2}: {1})",
                "Second": "{0} ({2}: {1})",
                "Timezone": "{0}, {1}",
                "Week": "{0} ({2}: {1})",
                "Year": "{1} {0}"
              },
              "intervalFormats": {
                "intervalFormatFallback": "{0} – {1}",
                "H": {
                  "H": "H-H"
                },
                "Hm": {
                  "H": "H:mm-H:mm",
                  "m": "H:mm-H:mm"
                },
                "Hmv": {
                  "H": "H:mm-H:mm, v",
                  "m": "H:mm-H:mm, v"
                },
                "Hv": {
                  "H": "H-H, v"
                },
                "M": {
                  "M": "M-M"
                },
                "MEd": {
                  "M": "E, dd.MM - E, dd.MM",
                  "d": "E, dd.MM - E, dd.MM"
                },
                "MMM": {
                  "M": "MMM-MMM"
                },
                "MMMEd": {
                  "M": "E, MMM dd - E, MMM dd",
                  "d": "E, MMM dd - E, MMM dd"
                },
                "MMMd": {
                  "M": "MMM dd - MMM dd",
                  "d": "MMM dd-dd"
                },
                "Md": {
                  "M": "dd.MM - dd.MM",
                  "d": "dd.MM - dd.MM"
                },
                "d": {
                  "d": "d-d"
                },
                "h": {
                  "a": "h a – h a",
                  "h": "h-h a"
                },
                "hm": {
                  "a": "h:mm a – h:mm a",
                  "h": "h:mm-h:mm a",
                  "m": "h:mm-h:mm a"
                },
                "hmv": {
                  "a": "h:mm a – h:mm a, v",
                  "h": "h:mm-h:mm a, v",
                  "m": "h:mm-h:mm a, v"
                },
                "hv": {
                  "a": "h a – h a, v",
                  "h": "h-h a, v"
                },
                "y": {
                  "y": "y-y"
                },
                "yM": {
                  "M": "MM.y - MM.y",
                  "y": "MM.y - MM.y"
                },
                "yMEd": {
                  "M": "ccc, dd.MM.y - ccc, dd.MM.y",
                  "d": "ccc, dd.MM.y - ccc, dd.MM.y",
                  "y": "ccc, dd.MM.y - ccc, dd.MM.y"
                },
                "yMMM": {
                  "M": "MMM-MMM yթ.",
                  "y": "MMM y - MMM yթ."
                },
                "yMMMEd": {
                  "M": "E, d MMM - E, d MMM, yթ.",
                  "d": "E, d MMM - E, d MMM, yթ.",
                  "y": "E, d MMM, y - E, d MMM, yթ."
                },
                "yMMMM": {
                  "M": "yթ. MMM – MMM",
                  "y": "MMM y - MMM yթ."
                },
                "yMMMd": {
                  "M": "dd MMM - dd MMM, yթ.",
                  "d": "dd-dd MMM, yթ.",
                  "y": "dd MMM, y - dd MMM, yթ."
                },
                "yMd": {
                  "M": "dd.MM.y - dd.MM.y",
                  "d": "dd.MM.y - dd.MM.y",
                  "y": "dd.MM.y - dd.MM.y"
                }
              }
            }
          }
        }
      }
    }
  }
}
