{
  "main": {
    "hy": {
      "identity": {
        "version": {
          "_cldrVersion": "26",
          "_number": "$Revision: 10809 $"
        },
        "generation": {
          "_date": "$Date: 2014-08-14 15:10:07 -0500 (Thu, 14 Aug 2014) $"
        },
        "language": "hy"
      },
      "dates": {
        "calendars": {
          "islamic-tbla": {
            "months": {
              "format": {
                "abbreviated": {
                  "1": "Muh.",
                  "2": "Saf.",
                  "3": "Rab. I",
                  "4": "Rab. II",
                  "5": "Jum. I",
                  "6": "Jum. II",
                  "7": "Raj.",
                  "8": "Sha.",
                  "9": "Ram.",
                  "10": "Shaw.",
                  "11": "Dhuʻl-Q.",
                  "12": "Dhuʻl-H."
                },
                "narrow": {
                  "1": "1",
                  "2": "2",
                  "3": "3",
                  "4": "4",
                  "5": "5",
                  "6": "6",
                  "7": "7",
                  "8": "8",
                  "9": "9",
                  "10": "10",
                  "11": "11",
                  "12": "12"
                },
                "wide": {
                  "1": "Muharram",
                  "2": "Safar",
                  "3": "Rabiʻ I",
                  "4": "Rabiʻ II",
                  "5": "Jumada I",
                  "6": "Jumada II",
                  "7": "Rajab",
                  "8": "Shaʻban",
                  "9": "Ramadan",
                  "10": "Shawwal",
                  "11": "Dhuʻl-Qiʻdah",
                  "12": "Dhuʻl-Hijjah"
                }
              },
              "stand-alone": {
                "abbreviated": {
                  "1": "Muh.",
                  "2": "Saf.",
                  "3": "Rab. I",
                  "4": "Rab. II",
                  "5": "Jum. I",
                  "6": "Jum. II",
                  "7": "Raj.",
                  "8": "Sha.",
                  "9": "Ram.",
                  "10": "Shaw.",
                  "11": "Dhuʻl-Q.",
                  "12": "Dhuʻl-H."
                },
                "narrow": {
                  "1": "1",
                  "2": "2",
                  "3": "3",
                  "4": "4",
                  "5": "5",
                  "6": "6",
                  "7": "7",
                  "8": "8",
                  "9": "9",
                  "10": "10",
                  "11": "11",
                  "12": "12"
                },
                "wide": {
                  "1": "Muharram",
                  "2": "Safar",
                  "3": "Rabiʻ I",
                  "4": "Rabiʻ II",
                  "5": "Jumada I",
                  "6": "Jumada II",
                  "7": "Rajab",
                  "8": "Shaʻban",
                  "9": "Ramadan",
                  "10": "Shawwal",
                  "11": "Dhuʻl-Qiʻdah",
                  "12": "Dhuʻl-Hijjah"
                }
              }
            },
            "days": {
              "format": {
                "abbreviated": {
                  "sun": "կիր",
                  "mon": "երկ",
                  "tue": "երք",
                  "wed": "չրք",
                  "thu": "հնգ",
                  "fri": "ուր",
                  "sat": "շբթ"
                },
                "narrow": {
                  "sun": "Կ",
                  "mon": "Ե",
                  "tue": "Ե",
                  "wed": "Չ",
                  "thu": "Հ",
                  "fri": "Ու",
                  "sat": "Շ"
                },
                "short": {
                  "sun": "կիր",
                  "mon": "երկ",
                  "tue": "երք",
                  "wed": "չրք",
                  "thu": "հնգ",
                  "fri": "ուր",
                  "sat": "շբթ"
                },
                "wide": {
                  "sun": "կիրակի",
                  "mon": "երկուշաբթի",
                  "tue": "երեքշաբթի",
                  "wed": "չորեքշաբթի",
                  "thu": "հինգշաբթի",
                  "fri": "ուրբաթ",
                  "sat": "շաբաթ"
                }
              },
              "stand-alone": {
                "abbreviated": {
                  "sun": "կիր",
                  "mon": "երկ",
                  "tue": "երք",
                  "wed": "չրք",
                  "thu": "հնգ",
                  "fri": "ուր",
                  "sat": "շբթ"
                },
                "narrow": {
                  "sun": "Կ",
                  "mon": "Ե",
                  "tue": "Ե",
                  "wed": "Չ",
                  "thu": "Հ",
                  "fri": "Ու",
                  "sat": "Շ"
                },
                "short": {
                  "sun": "կիր",
                  "mon": "երկ",
                  "tue": "երք",
                  "wed": "չրք",
                  "thu": "հնգ",
                  "fri": "ուր",
                  "sat": "շբթ"
                },
                "wide": {
                  "sun": "կիրակի",
                  "mon": "երկուշաբթի",
                  "tue": "երեքշաբթի",
                  "wed": "չորեքշաբթի",
                  "thu": "հինգշաբթի",
                  "fri": "ուրբաթ",
                  "sat": "շաբաթ"
                }
              }
            },
            "quarters": {
              "format": {
                "abbreviated": {
                  "1": "1-ին եռմս.",
                  "2": "2-րդ եռմս.",
                  "3": "3-րդ եռմս.",
                  "4": "4-րդ եռմս."
                },
                "narrow": {
                  "1": "1",
                  "2": "2",
                  "3": "3",
                  "4": "4"
                },
                "wide": {
                  "1": "1-ին եռամսյակ",
                  "2": "2-րդ եռամսյակ",
                  "3": "3-րդ եռամսյակ",
                  "4": "4-րդ եռամսյակ"
                }
              },
              "stand-alone": {
                "abbreviated": {
                  "1": "1-ին եռմս.",
                  "2": "2-րդ եռմս.",
                  "3": "3-րդ եռմս.",
                  "4": "4-րդ եռմս."
                },
                "narrow": {
                  "1": "1",
                  "2": "2",
                  "3": "3",
                  "4": "4"
                },
                "wide": {
                  "1": "1-ին եռամսյակ",
                  "2": "2-րդ եռամսյակ",
                  "3": "3-րդ եռամսյակ",
                  "4": "4-րդ եռամսյակ"
                }
              }
            },
            "dayPeriods": {
              "format": {
                "abbreviated": {
                  "am": "կեսօրից առաջ",
                  "noon": "կեսօրին",
                  "pm": "կեսօրից հետո"
                },
                "narrow": {
                  "am": "կա",
                  "noon": "կ",
                  "pm": "կհ"
                },
                "wide": {
                  "am": "կեսօրից առաջ",
                  "noon": "կեսօրին",
                  "pm": "կեսօրից հետո"
                }
              },
              "stand-alone": {
                "abbreviated": {
                  "am": "կեսօրից առաջ",
                  "noon": "կեսօրին",
                  "pm": "կեսօրից հետո"
                },
                "narrow": {
                  "am": "կա",
                  "noon": "կ",
                  "pm": "կհ"
                },
                "wide": {
                  "am": "կեսօրից առաջ",
                  "noon": "կեսօրին",
                  "pm": "կեսօրից հետո"
                }
              }
            },
            "eras": {
              "eraNames": {
                "0": "AH"
              },
              "eraAbbr": {
                "0": "AH"
              },
              "eraNarrow": {
                "0": "AH"
              }
            },
            "dateFormats": {
              "full": "d MMMM, y թ. G, EEEE",
              "long": "dd MMMM, y թ. G",
              "medium": "dd MMM, y թ. G",
              "short": "dd.MM.y GGGGG"
            },
            "timeFormats": {
              "full": "H:mm:ss, zzzz",
              "long": "H:mm:ss, z",
              "medium": "H:mm:ss",
              "short": "H:mm"
            },
            "dateTimeFormats": {
              "full": "{1}, {0}",
              "long": "{1}, {0}",
              "medium": "{1}, {0}",
              "short": "{1}, {0}",
              "availableFormats": {
                "E": "ccc",
                "EHm": "E HH:mm",
                "EHms": "E HH:mm:ss",
                "Ed": "d, ccc",
                "Ehm": "E h:mm a",
                "Ehms": "E h:mm:ss a",
                "Gy": "G yթ.",
                "GyMMM": "G yթ. LLL",
                "GyMMMEd": "G yթ. MMM d, E",
                "GyMMMd": "G yթ. MMM d",
                "H": "H",
                "Hm": "H:mm",
                "Hms": "H:mm:ss",
                "M": "L",
                "MEd": "dd.MM, E",
                "MMM": "LLL",
                "MMMEd": "d MMM, E",
                "MMMd": "d MMM",
                "Md": "dd.MM",
                "d": "d",
                "h": "h a",
                "hm": "h:mm a",
                "hms": "h:mm:ss a",
                "ms": "mm:ss",
                "y": "y, G",
                "yyyy": "y, G",
                "yyyyM": "G yթ. MM",
                "yyyyMEd": "d.MM.y թ., G, E",
                "yyyyMMM": "G y թ. LLL",
                "yyyyMMMEd": "d MMM, y թ. G, E",
                "yyyyMMMd": "d MMM, y թ., G",
                "yyyyMd": "d.M.yթ., G",
                "yyyyQQQ": "G y թ, QQQ",
                "yyyyQQQQ": "G y թ, QQQQ"
              },
              "appendItems": {
                "Day": "{0} ({2}: {1})",
                "Day-Of-Week": "{0} {1}",
                "Era": "{1} {0}",
                "Hour": "{0} ({2}: {1})",
                "Minute": "{0} ({2}: {1})",
                "Month": "{0} ({2}: {1})",
                "Quarter": "{0} ({2}: {1})",
                "Second": "{0} ({2}: {1})",
                "Timezone": "{0} {1}",
                "Week": "{0} ({2}: {1})",
                "Year": "{1} {0}"
              },
              "intervalFormats": {
                "intervalFormatFallback": "{0} - {1}",
                "H": {
                  "H": "H-H"
                },
                "Hm": {
                  "H": "H:mm-H:mm",
                  "m": "H:mm-H:mm"
                },
                "Hmv": {
                  "H": "H:mm-H:mm v",
                  "m": "H:mm-H:mm v"
                },
                "Hv": {
                  "H": "H-H v"
                },
                "M": {
                  "M": "M-M"
                },
                "MEd": {
                  "M": "E, dd.MM - E, dd.MM",
                  "d": "E, dd.MM - E, dd.MM"
                },
                "MMM": {
                  "M": "MMM-MMM"
                },
                "MMMEd": {
                  "M": "E, MMM dd - E, MMM dd",
                  "d": "E, MMM dd - E, MMM dd"
                },
                "MMMd": {
                  "M": "MMM dd - MMM dd",
                  "d": "MMM dd-dd"
                },
                "Md": {
                  "M": "dd.MM - dd.MM",
                  "d": "dd.MM - dd.MM"
                },
                "d": {
                  "d": "d-d"
                },
                "h": {
                  "a": "h a – h a",
                  "h": "h-h a"
                },
                "hm": {
                  "a": "h:mm a – h:mm a",
                  "h": "h:mm-h:mm a",
                  "m": "h:mm-h:mm a"
                },
                "hmv": {
                  "a": "h:mm a – h:mm a v",
                  "h": "h:mm-h:mm a v",
                  "m": "h:mm-h:mm a v"
                },
                "hv": {
                  "a": "h a – h a v",
                  "h": "h-h a v"
                },
                "y": {
                  "y": "y-y G"
                },
                "yM": {
                  "M": "MM.y - MM.y G",
                  "y": "MM.y - MM.y G"
                },
                "yMEd": {
                  "M": "ccc, dd.MM.y - ccc, dd.MM.y G",
                  "d": "ccc, dd.MM.y - ccc, dd.MM.y G",
                  "y": "ccc, dd.MM.y - ccc, dd.MM.y G"
                },
                "yMMM": {
                  "M": "MMM-MMM y թ. G",
                  "y": "MMM y - MMM y թ. G"
                },
                "yMMMEd": {
                  "M": "E, d MMM - E, d MMM, y թ. G",
                  "d": "E, d MMM - E, d MMM, y թ. G",
                  "y": "E, d MMM, y - E, d MMM, y թ. G"
                },
                "yMMMM": {
                  "M": "G y թ. MMM – MMM",
                  "y": "MMM y - MMM y թ G"
                },
                "yMMMd": {
                  "M": "dd MMM - dd MMM, y թ. G",
                  "d": "dd-dd MMM, y թ. G",
                  "y": "dd MMM, y - dd MMM, y թ. G"
                },
                "yMd": {
                  "M": "dd.MM.y - dd.MM.y G",
                  "d": "dd.MM.y - dd.MM.y G",
                  "y": "dd.MM.y - dd.MM.y G"
                }
              }
            }
          }
        }
      }
    }
  }
}
