{
  "main": {
    "so-SO": {
      "identity": {
        "version": {
          "_cldrVersion": "26",
          "_number": "$Revision: 10669 $"
        },
        "generation": {
          "_date": "$Date: 2014-07-23 16:10:33 -0500 (Wed, 23 Jul 2014) $"
        },
        "language": "root",
        "territory": "SO"
      },
      "dates": {
        "calendars": {
          "gregorian": {
            "months": {
              "format": {
                "abbreviated": {
                  "1": "Kob",
                  "2": "Lab",
                  "3": "Sad",
                  "4": "Afr",
                  "5": "Sha",
                  "6": "Lix",
                  "7": "Tod",
                  "8": "Sid",
                  "9": "Sag",
                  "10": "Tob",
                  "11": "KIT",
                  "12": "LIT"
                },
                "narrow": {
                  "1": "K",
                  "2": "L",
                  "3": "S",
                  "4": "A",
                  "5": "S",
                  "6": "L",
                  "7": "T",
                  "8": "S",
                  "9": "S",
                  "10": "T",
                  "11": "K",
                  "12": "L"
                },
                "wide": {
                  "1": "Bisha Koobaad",
                  "2": "Bisha Labaad",
                  "3": "Bisha Saddexaad",
                  "4": "Bisha Afraad",
                  "5": "Bisha Shanaad",
                  "6": "Bisha Lixaad",
                  "7": "Bisha Todobaad",
                  "8": "Bisha Sideedaad",
                  "9": "Bisha Sagaalaad",
                  "10": "Bisha Tobnaad",
                  "11": "Bisha Kow iyo Tobnaad",
                  "12": "Bisha Laba iyo Tobnaad"
                }
              },
              "stand-alone": {
                "abbreviated": {
                  "1": "Kob",
                  "2": "Lab",
                  "3": "Sad",
                  "4": "Afr",
                  "5": "Sha",
                  "6": "Lix",
                  "7": "Tod",
                  "8": "Sid",
                  "9": "Sag",
                  "10": "Tob",
                  "11": "KIT",
                  "12": "LIT"
                },
                "narrow": {
                  "1": "K",
                  "2": "L",
                  "3": "S",
                  "4": "A",
                  "5": "S",
                  "6": "L",
                  "7": "T",
                  "8": "S",
                  "9": "S",
                  "10": "T",
                  "11": "K",
                  "12": "L"
                },
                "wide": {
                  "1": "Bisha Koobaad",
                  "2": "Bisha Labaad",
                  "3": "Bisha Saddexaad",
                  "4": "Bisha Afraad",
                  "5": "Bisha Shanaad",
                  "6": "Bisha Lixaad",
                  "7": "Bisha Todobaad",
                  "8": "Bisha Sideedaad",
                  "9": "Bisha Sagaalaad",
                  "10": "Bisha Tobnaad",
                  "11": "Bisha Kow iyo Tobnaad",
                  "12": "Bisha Laba iyo Tobnaad"
                }
              }
            },
            "days": {
              "format": {
                "abbreviated": {
                  "sun": "Axd",
                  "mon": "Isn",
                  "tue": "Tal",
                  "wed": "Arb",
                  "thu": "Kha",
                  "fri": "Jim",
                  "sat": "Sab"
                },
                "narrow": {
                  "sun": "A",
                  "mon": "I",
                  "tue": "T",
                  "wed": "A",
                  "thu": "K",
                  "fri": "J",
                  "sat": "S"
                },
                "short": {
                  "sun": "Axd",
                  "mon": "Isn",
                  "tue": "Tal",
                  "wed": "Arb",
                  "thu": "Kha",
                  "fri": "Jim",
                  "sat": "Sab"
                },
                "wide": {
                  "sun": "Axad",
                  "mon": "Isniin",
                  "tue": "Talaado",
                  "wed": "Arbaco",
                  "thu": "Khamiis",
                  "fri": "Jimco",
                  "sat": "Sabti"
                }
              },
              "stand-alone": {
                "abbreviated": {
                  "sun": "Axd",
                  "mon": "Isn",
                  "tue": "Tal",
                  "wed": "Arb",
                  "thu": "Kha",
                  "fri": "Jim",
                  "sat": "Sab"
                },
                "narrow": {
                  "sun": "A",
                  "mon": "I",
                  "tue": "T",
                  "wed": "A",
                  "thu": "K",
                  "fri": "J",
                  "sat": "S"
                },
                "short": {
                  "sun": "Axd",
                  "mon": "Isn",
                  "tue": "Tal",
                  "wed": "Arb",
                  "thu": "Kha",
                  "fri": "Jim",
                  "sat": "Sab"
                },
                "wide": {
                  "sun": "Axad",
                  "mon": "Isniin",
                  "tue": "Talaado",
                  "wed": "Arbaco",
                  "thu": "Khamiis",
                  "fri": "Jimco",
                  "sat": "Sabti"
                }
              }
            },
            "quarters": {
              "format": {
                "abbreviated": {
                  "1": "R1",
                  "2": "R2",
                  "3": "R3",
                  "4": "R4"
                },
                "narrow": {
                  "1": "1",
                  "2": "2",
                  "3": "3",
                  "4": "4"
                },
                "wide": {
                  "1": "Rubaca 1aad",
                  "2": "Rubaca 2aad",
                  "3": "Rubaca 3aad",
                  "4": "Rubaca 4aad"
                }
              },
              "stand-alone": {
                "abbreviated": {
                  "1": "R1",
                  "2": "R2",
                  "3": "R3",
                  "4": "R4"
                },
                "narrow": {
                  "1": "1",
                  "2": "2",
                  "3": "3",
                  "4": "4"
                },
                "wide": {
                  "1": "Rubaca 1aad",
                  "2": "Rubaca 2aad",
                  "3": "Rubaca 3aad",
                  "4": "Rubaca 4aad"
                }
              }
            },
            "dayPeriods": {
              "format": {
                "abbreviated": {
                  "am": "sn.",
                  "noon": "noon",
                  "pm": "gn."
                },
                "narrow": {
                  "am": "a",
                  "noon": "n",
                  "pm": "p"
                },
                "wide": {
                  "am": "sn.",
                  "noon": "noon",
                  "pm": "gn."
                }
              },
              "stand-alone": {
                "abbreviated": {
                  "am": "sn.",
                  "noon": "noon",
                  "pm": "gn."
                },
                "narrow": {
                  "am": "a",
                  "noon": "n",
                  "pm": "p"
                },
                "wide": {
                  "am": "sn.",
                  "noon": "noon",
                  "pm": "gn."
                }
              }
            },
            "eras": {
              "eraNames": {
                "0": "Ciise ka hor (CS)",
                "0-alt-variant": "BCE",
                "1": "Ciise ka dib (CS)",
                "1-alt-variant": "CE"
              },
              "eraAbbr": {
                "0": "CK",
                "0-alt-variant": "BCE",
                "1": "CD",
                "1-alt-variant": "CE"
              },
              "eraNarrow": {
                "0": "CK",
                "0-alt-variant": "BCE",
                "1": "CD",
                "1-alt-variant": "CE"
              }
            },
            "dateFormats": {
              "full": "EEEE, MMMM dd, y",
              "long": "dd MMMM y",
              "medium": "dd-MMM-y",
              "short": "dd/MM/yy"
            },
            "timeFormats": {
              "full": "h:mm:ss a zzzz",
              "long": "h:mm:ss a z",
              "medium": "h:mm:ss a",
              "short": "h:mm a"
            },
            "dateTimeFormats": {
              "full": "{1} {0}",
              "long": "{1} {0}",
              "medium": "{1} {0}",
              "short": "{1} {0}",
              "availableFormats": {
                "E": "ccc",
                "EHm": "E HH:mm",
                "EHms": "E HH:mm:ss",
                "Ed": "d, E",
                "Ehm": "E h:mm a",
                "Ehms": "E h:mm:ss a",
                "Gy": "G y",
                "GyMMM": "G y MMM",
                "GyMMMEd": "G y MMM d, E",
                "GyMMMd": "G y MMM d",
                "H": "HH",
                "Hm": "HH:mm",
                "Hms": "HH:mm:ss",
                "M": "L",
                "MEd": "E, M/d",
                "MMM": "LLL",
                "MMMEd": "E, MMM d",
                "MMMMEd": "E, MMMM d",
                "MMMMd": "MMMM d",
                "MMMd": "MMM d",
                "Md": "M/d",
                "d": "d",
                "h": "h a",
                "hm": "h:mm a",
                "hms": "h:mm:ss a",
                "ms": "mm:ss",
                "y": "y",
                "yM": "M/y",
                "yMEd": "E, M/d/y",
                "yMMM": "MMM y",
                "yMMMEd": "E, MMM d, y",
                "yMMMM": "MMMM y",
                "yMMMd": "y MMM d",
                "yMd": "y-MM-dd",
                "yQQQ": "QQQ y",
                "yQQQQ": "QQQQ y"
              },
              "appendItems": {
                "Day": "{0} ({2}: {1})",
                "Day-Of-Week": "{0} {1}",
                "Era": "{1} {0}",
                "Hour": "{0} ({2}: {1})",
                "Minute": "{0} ({2}: {1})",
                "Month": "{0} ({2}: {1})",
                "Quarter": "{0} ({2}: {1})",
                "Second": "{0} ({2}: {1})",
                "Timezone": "{0} {1}",
                "Week": "{0} ({2}: {1})",
                "Year": "{1} {0}"
              },
              "intervalFormats": {
                "intervalFormatFallback": "{0} - {1}",
                "H": {
                  "H": "HH–HH"
                },
                "Hm": {
                  "H": "HH:mm–HH:mm",
                  "m": "HH:mm–HH:mm"
                },
                "Hmv": {
                  "H": "HH:mm–HH:mm v",
                  "m": "HH:mm–HH:mm v"
                },
                "Hv": {
                  "H": "HH–HH v"
                },
                "M": {
                  "M": "M-M"
                },
                "MEd": {
                  "M": "E, dd/MM - E, dd/MM",
                  "d": "E, dd/MM - E, dd/MM"
                },
                "MMM": {
                  "M": "MMM-MMM"
                },
                "MMMEd": {
                  "M": "E, dd MMM - E, dd MMM",
                  "d": "E, dd - E, dd MMM"
                },
                "MMMd": {
                  "M": "dd MMM - dd MMM",
                  "d": "dd-dd MMM"
                },
                "Md": {
                  "M": "dd/MM - dd/MM",
                  "d": "dd/MM - dd/MM"
                },
                "d": {
                  "d": "d-d"
                },
                "h": {
                  "a": "h a - h a",
                  "h": "h-h a"
                },
                "hm": {
                  "a": "h:mm a - h:mm a",
                  "h": "h:mm-h:mm a",
                  "m": "h:mm-h:mm a"
                },
                "hmv": {
                  "a": "h:mm a - h:mm a v",
                  "h": "h:mm-h:mm a v",
                  "m": "h:mm-h:mm a v"
                },
                "hv": {
                  "a": "h a - h a v",
                  "h": "h-h a v"
                },
                "y": {
                  "y": "y-y"
                },
                "yM": {
                  "M": "MM/y - MM/y",
                  "y": "MM/y - MM/y"
                },
                "yMEd": {
                  "M": "E, dd/MM/y - E, dd/MM/y",
                  "d": "E, dd/MM/y - E, dd/MM/y",
                  "y": "E, dd/MM/y - E, dd/MM/y"
                },
                "yMMM": {
                  "M": "MMM-MMM y",
                  "y": "MMM y - MMM y"
                },
                "yMMMEd": {
                  "M": "E, MMM dd - E, MMM dd, y",
                  "d": "E, MMM dd - E, MMM dd, y",
                  "y": "E, MMM dd, y - E, MMM dd, y"
                },
                "yMMMM": {
                  "M": "y MMMM–MMMM",
                  "y": "y MMMM – y MMMM"
                },
                "yMMMd": {
                  "M": "dd MMM - dd MMM y",
                  "d": "dd-dd MMM y",
                  "y": "dd MMM y - dd MMM y"
                },
                "yMd": {
                  "M": "dd/MM/y - dd/MM/y",
                  "d": "dd/MM/y - dd/MM/y",
                  "y": "dd/MM/y - dd/MM/y"
                }
              }
            }
          }
        }
      }
    }
  }
}
