{
  "main": {
    "ca-ES-VALENCIA": {
      "identity": {
        "version": {
          "_cldrVersion": "26",
          "_number": "$Revision: 10741 $"
        },
        "generation": {
          "_date": "$Date: 2014-08-07 13:24:47 -0500 (Thu, 07 Aug 2014) $"
        },
        "language": "ca",
        "territory": "ES",
        "variant": "VALENCIA"
      },
      "dates": {
        "calendars": {
          "buddhist": {
            "months": {
              "format": {
                "abbreviated": {
                  "1": "gen.",
                  "2": "febr.",
                  "3": "març",
                  "4": "abr.",
                  "5": "maig",
                  "6": "juny",
                  "7": "jul.",
                  "8": "ag.",
                  "9": "set.",
                  "10": "oct.",
                  "11": "nov.",
                  "12": "des."
                },
                "narrow": {
                  "1": "GN",
                  "2": "FB",
                  "3": "MÇ",
                  "4": "AB",
                  "5": "MG",
                  "6": "JN",
                  "7": "JL",
                  "8": "AG",
                  "9": "ST",
                  "10": "OC",
                  "11": "NV",
                  "12": "DS"
                },
                "wide": {
                  "1": "gener",
                  "2": "febrer",
                  "3": "març",
                  "4": "abril",
                  "5": "maig",
                  "6": "juny",
                  "7": "juliol",
                  "8": "agost",
                  "9": "setembre",
                  "10": "octubre",
                  "11": "novembre",
                  "12": "desembre"
                }
              },
              "stand-alone": {
                "abbreviated": {
                  "1": "gen.",
                  "2": "febr.",
                  "3": "març",
                  "4": "abr.",
                  "5": "maig",
                  "6": "juny",
                  "7": "jul.",
                  "8": "ag.",
                  "9": "set.",
                  "10": "oct.",
                  "11": "nov.",
                  "12": "des."
                },
                "narrow": {
                  "1": "GN",
                  "2": "FB",
                  "3": "MÇ",
                  "4": "AB",
                  "5": "MG",
                  "6": "JN",
                  "7": "JL",
                  "8": "AG",
                  "9": "ST",
                  "10": "OC",
                  "11": "NV",
                  "12": "DS"
                },
                "wide": {
                  "1": "gener",
                  "2": "febrer",
                  "3": "març",
                  "4": "abril",
                  "5": "maig",
                  "6": "juny",
                  "7": "juliol",
                  "8": "agost",
                  "9": "setembre",
                  "10": "octubre",
                  "11": "novembre",
                  "12": "desembre"
                }
              }
            },
            "days": {
              "format": {
                "abbreviated": {
                  "sun": "dg.",
                  "mon": "dl.",
                  "tue": "dt.",
                  "wed": "dc.",
                  "thu": "dj.",
                  "fri": "dv.",
                  "sat": "ds."
                },
                "narrow": {
                  "sun": "dg",
                  "mon": "dl",
                  "tue": "dt",
                  "wed": "dc",
                  "thu": "dj",
                  "fri": "dv",
                  "sat": "ds"
                },
                "short": {
                  "sun": "dg.",
                  "mon": "dl.",
                  "tue": "dt.",
                  "wed": "dc.",
                  "thu": "dj.",
                  "fri": "dv.",
                  "sat": "ds."
                },
                "wide": {
                  "sun": "diumenge",
                  "mon": "dilluns",
                  "tue": "dimarts",
                  "wed": "dimecres",
                  "thu": "dijous",
                  "fri": "divendres",
                  "sat": "dissabte"
                }
              },
              "stand-alone": {
                "abbreviated": {
                  "sun": "dg.",
                  "mon": "dl.",
                  "tue": "dt.",
                  "wed": "dc.",
                  "thu": "dj.",
                  "fri": "dv.",
                  "sat": "ds."
                },
                "narrow": {
                  "sun": "dg",
                  "mon": "dl",
                  "tue": "dt",
                  "wed": "dc",
                  "thu": "dj",
                  "fri": "dv",
                  "sat": "ds"
                },
                "short": {
                  "sun": "dg.",
                  "mon": "dl.",
                  "tue": "dt.",
                  "wed": "dc.",
                  "thu": "dj.",
                  "fri": "dv.",
                  "sat": "ds."
                },
                "wide": {
                  "sun": "diumenge",
                  "mon": "dilluns",
                  "tue": "dimarts",
                  "wed": "dimecres",
                  "thu": "dijous",
                  "fri": "divendres",
                  "sat": "dissabte"
                }
              }
            },
            "quarters": {
              "format": {
                "abbreviated": {
                  "1": "1T",
                  "2": "2T",
                  "3": "3T",
                  "4": "4T"
                },
                "narrow": {
                  "1": "1",
                  "2": "2",
                  "3": "3",
                  "4": "4"
                },
                "wide": {
                  "1": "1r trimestre",
                  "2": "2n trimestre",
                  "3": "3r trimestre",
                  "4": "4t trimestre"
                }
              },
              "stand-alone": {
                "abbreviated": {
                  "1": "1T",
                  "2": "2T",
                  "3": "3T",
                  "4": "4T"
                },
                "narrow": {
                  "1": "1",
                  "2": "2",
                  "3": "3",
                  "4": "4"
                },
                "wide": {
                  "1": "1r trimestre",
                  "2": "2n trimestre",
                  "3": "3r trimestre",
                  "4": "4t trimestre"
                }
              }
            },
            "dayPeriods": {
              "format": {
                "abbreviated": {
                  "am": "a. m.",
                  "noon": "migdia",
                  "pm": "p. m."
                },
                "narrow": {
                  "am": "a.m.",
                  "noon": "md",
                  "pm": "p.m."
                },
                "wide": {
                  "am": "a. m.",
                  "noon": "migdia",
                  "pm": "p. m."
                }
              },
              "stand-alone": {
                "abbreviated": {
                  "am": "a. m.",
                  "noon": "migdia",
                  "pm": "p. m."
                },
                "narrow": {
                  "am": "a.m.",
                  "noon": "md",
                  "pm": "p.m."
                },
                "wide": {
                  "am": "a. m.",
                  "noon": "migdia",
                  "pm": "p. m."
                }
              }
            },
            "eras": {
              "eraNames": {
                "0": "eB"
              },
              "eraAbbr": {
                "0": "eB"
              },
              "eraNarrow": {
                "0": "eB"
              }
            },
            "dateFormats": {
              "full": "EEEE, dd MMMM y G",
              "long": "d MMMM y G",
              "medium": "d MMM y G",
              "short": "dd/MM/y GGGGG"
            },
            "timeFormats": {
              "full": "H:mm:ss zzzz",
              "long": "H:mm:ss z",
              "medium": "H:mm:ss",
              "short": "H:mm"
            },
            "dateTimeFormats": {
              "full": "{1}, {0}",
              "long": "{1}, {0}",
              "medium": "{1}, {0}",
              "short": "{1}, {0}",
              "availableFormats": {
                "E": "ccc",
                "EHm": "E HH:mm",
                "EHms": "E HH:mm:ss",
                "Ed": "E d",
                "Ehm": "E h:mm a",
                "Ehms": "E h:mm:ss a",
                "Gy": "y G",
                "GyMMM": "LLL y G",
                "GyMMMEd": "E, d MMM, y G",
                "GyMMMM": "LLLL 'de' y G",
                "GyMMMd": "d MMM y G",
                "H": "H",
                "Hm": "H:mm",
                "Hms": "H:mm:ss",
                "M": "L",
                "MEd": "E, d/M",
                "MMM": "LLL",
                "MMMEd": "E d MMM",
                "MMMMEd": "E d MMMM",
                "MMMMd": "d MMMM",
                "MMMd": "d MMM",
                "Md": "d/M",
                "d": "d",
                "h": "h a",
                "hm": "h:mm a",
                "hms": "h:mm:ss a",
                "ms": "mm:ss",
                "y": "y G",
                "yyyy": "y G",
                "yyyyM": "M/y G",
                "yyyyMEd": "E, d.M.y G",
                "yyyyMMM": "LLL y G",
                "yyyyMMMEd": "E, d MMM, y G",
                "yyyyMMMM": "LLLL 'de' y G",
                "yyyyMMMd": "d MMM y G",
                "yyyyMd": "d/M/y G",
                "yyyyQQQ": "QQQ y G",
                "yyyyQQQQ": "QQQQ y G"
              },
              "appendItems": {
                "Day": "{0} ({2}: {1})",
                "Day-Of-Week": "{0} {1}",
                "Era": "{1} {0}",
                "Hour": "{0} ({2}: {1})",
                "Minute": "{0} ({2}: {1})",
                "Month": "{0} ({2}: {1})",
                "Quarter": "{0} ({2}: {1})",
                "Second": "{0} ({2}: {1})",
                "Timezone": "{0} {1}",
                "Week": "{0} ({2}: {1})",
                "Year": "{1} {0}"
              },
              "intervalFormats": {
                "intervalFormatFallback": "{0} - {1}",
                "H": {
                  "H": "H-H"
                },
                "Hm": {
                  "H": "HH:mm-HH:mm",
                  "m": "HH:mm-HH:mm"
                },
                "Hmv": {
                  "H": "HH:mm-HH:mm v",
                  "m": "HH:mm-HH:mm v"
                },
                "Hv": {
                  "H": "H-H v"
                },
                "M": {
                  "M": "M-M"
                },
                "MEd": {
                  "M": "E dd/MM - E dd/MM",
                  "d": "E dd/MM - E dd/MM"
                },
                "MMM": {
                  "M": "MMM-MMM"
                },
                "MMMEd": {
                  "M": "E d MMM - E d MMM",
                  "d": "E d - E d MMM"
                },
                "MMMd": {
                  "M": "d MMM - d MMM",
                  "d": "d-d MMM"
                },
                "Md": {
                  "M": "dd/MM - dd/MM",
                  "d": "dd/MM - dd/MM"
                },
                "d": {
                  "d": "d-d"
                },
                "h": {
                  "a": "h a - h a",
                  "h": "h-h a"
                },
                "hm": {
                  "a": "h:mm a -h:mm a",
                  "h": "h:mm-h:mm a",
                  "m": "h:mm-h:mm a"
                },
                "hmv": {
                  "a": "h:mm a - h:mm a v",
                  "h": "h:mm-h:mm a v",
                  "m": "h:mm-h:mm a v"
                },
                "hv": {
                  "a": "h a - h a v",
                  "h": "h-h a v"
                },
                "y": {
                  "y": "y-y G"
                },
                "yM": {
                  "M": "MM/y - MM/y GGGG",
                  "y": "MM/y - MM/y GGGG"
                },
                "yMEd": {
                  "M": "E dd/MM/y - E dd/MM/y GGGG",
                  "d": "E dd/MM/y - E dd/MM/y GGGG",
                  "y": "E dd/MM/y - E dd/MM/y GGGG"
                },
                "yMMM": {
                  "M": "MMM-MMM 'de' y G",
                  "y": "MMM 'de' y - MMM 'de' y G"
                },
                "yMMMEd": {
                  "M": "E d MMM - E d MMM 'de' y G",
                  "d": "E d MMM - E d MMM 'de' y G",
                  "y": "E d MMM 'de' y - E d MMM 'de' y G"
                },
                "yMMMM": {
                  "M": "MMMM-MMMM 'de' y G",
                  "y": "MMMM 'de' y - MMMM 'de' y G"
                },
                "yMMMd": {
                  "M": "d MMM - d MMM 'de' y G",
                  "d": "d-d MMM 'de' y G",
                  "y": "d MMM 'de' y - d MMM 'de' y G"
                },
                "yMd": {
                  "M": "dd/MM/y - dd/MM/y GGGG",
                  "d": "dd/MM/y - dd/MM/y GGGG",
                  "y": "dd/MM/y - dd/MM/y GGGG"
                }
              }
            }
          }
        }
      }
    }
  }
}
