{
  "main": {
    "ca-ES-VALENCIA": {
      "identity": {
        "version": {
          "_cldrVersion": "26",
          "_number": "$Revision: 10741 $"
        },
        "generation": {
          "_date": "$Date: 2014-08-07 13:24:47 -0500 (Thu, 07 Aug 2014) $"
        },
        "language": "ca",
        "territory": "ES",
        "variant": "VALENCIA"
      },
      "localeDisplayNames": {
        "measurementSystemNames": {
          "US": "imperial",
          "metric": "mètric",
          "UK": "anglosaxó"
        }
      }
    }
  }
}
