{
  "main": {
    "fy-NL": {
      "identity": {
        "version": {
          "_cldrVersion": "26",
          "_number": "$Revision: 10669 $"
        },
        "generation": {
          "_date": "$Date: 2014-07-23 16:10:33 -0500 (Wed, 23 Jul 2014) $"
        },
        "language": "fy",
        "territory": "NL"
      },
      "localeDisplayNames": {
        "localeDisplayPattern": {
          "localePattern": "{0} ({1})",
          "localeSeparator": "{0}, {1}",
          "localeKeyTypePattern": "{0}: {1}"
        },
        "keys": {
          "calendar": "Kalender",
          "colAlternate": "sortearje van symbolen negeren",
          "colBackwards": "Omgekeerd sortearje op accenten",
          "colCaseFirst": "Yndiele op haad/lytse letters",
          "colCaseLevel": "Haadlettergefoelich sortearje",
          "colHiraganaQuaternary": "Kana sortearje",
          "colNormalization": "Genormaliseerd sortearje",
          "colNumeric": "Numeriek sortearje",
          "colStrength": "Sorteervoorrang",
          "collation": "Sortearfolgorde",
          "currency": "Valuta",
          "numbers": "Sifers",
          "timezone": "Tijdzone",
          "va": "Landvariant",
          "variableTop": "sortearje als symbolen",
          "x": "Privégebruik"
        },
        "types": {
          "numbers": {
            "arab": "Arabysk-Indyske sifers",
            "arabext": "Utwreide Arabysk-Indyske sifers",
            "armn": "Armeense sifers",
            "armnlow": "Kleine Armeense sifers",
            "bali": "Balinese sifers",
            "beng": "Bengaalse sifers"
          },
          "collation": {
            "big5han": "Tradisjonele-Sineeske soartear oarder - Big5"
          },
          "numbers": {
            "brah": "brah"
          },
          "calendar": {
            "buddhist": "Boeddhistyske kalinder"
          },
          "numbers": {
            "cakm": "cakm",
            "cham": "cham"
          },
          "calendar": {
            "chinese": "Sineeske kalinder",
            "coptic": "Koptyske kalinder",
            "dangi": "dangi"
          },
          "numbers": {
            "deva": "Devanagari sifers"
          },
          "collation": {
            "dictionary": "Wurdboeksortearfolgorde",
            "ducet": "Standert Unikoade-sortearfolgorde",
            "eor": "eor"
          },
          "numbers": {
            "ethi": "Ethiopyske sifers"
          },
          "calendar": {
            "ethiopic": "Ethiopyske kalinder",
            "ethiopic-amete-alem": "Ethiopyske Amete Alem-kalinder"
          },
          "numbers": {
            "finance": "Finansjele sifers",
            "fullwide": "sifers met volledige breedte"
          },
          "collation": {
            "gb2312han": "Ferienfâldigde-Sineeske sortearfolgorde - GB2312"
          },
          "numbers": {
            "geor": "Georgyske sifers"
          },
          "calendar": {
            "gregorian": "Gregoriaanske kalinder"
          },
          "numbers": {
            "grek": "Griekse sifers",
            "greklow": "Kleine Griekse sifers",
            "gujr": "Gujarati sifers",
            "guru": "Gurmukhi sifers",
            "hanidec": "Sineeske desimale tallen",
            "hans": "Ferienfâldigde Sineeske sifers",
            "hansfin": "Ferienfâldigde Sineeske finansjele sifers",
            "hant": "Traditjonele Sineeske sifers",
            "hantfin": "Traditjonele Sineeske finansjele sifers",
            "hebr": "Hebreeuwse sifers"
          },
          "calendar": {
            "hebrew": "Hebreeuwse kalinder"
          },
          "colStrength": {
            "identical": "Alles sortearje"
          },
          "calendar": {
            "indian": "Indiase natjonale kalinder",
            "islamic": "Islamityske kalinder",
            "islamic-civil": "Islamityske kalinder (cyclysk)",
            "islamic-rgsa": "islamic-rgsa",
            "islamic-tbla": "islamic-tbla",
            "islamic-umalqura": "islamic-umalqura",
            "iso8601": "iso8601",
            "japanese": "Japanske kalinder"
          },
          "numbers": {
            "java": "Javaanske sifers",
            "jpan": "Japanske sifers",
            "jpanfin": "Japanske finansjele sifers",
            "kali": "kali",
            "khmr": "Khmer sifers",
            "knda": "Kannada sifers",
            "lana": "lana",
            "lanatham": "lanatham",
            "laoo": "Laotiaanske sifers",
            "latn": "Westerse sifers",
            "lepc": "lepc",
            "limb": "limb"
          },
          "colCaseFirst": {
            "lower": "Eerst sortearje op kleine letters"
          },
          "numbers": {
            "mlym": "Malayalam sifers",
            "mong": "Mongoolse sifers",
            "mtei": "mtei",
            "mymr": "Myanmarese sifers",
            "mymrshan": "mymrshan",
            "native": "Binnenlânse sifers",
            "nkoo": "nkoo"
          },
          "colBackwards": {
            "no": "Normaal sortearje neffens accenten"
          },
          "colCaseFirst": {
            "no": "Sortearfolgorde algemien haadletterbrûkme"
          },
          "colCaseLevel": {
            "no": "Net haadlettergefoelich sortearje"
          },
          "colHiraganaQuaternary": {
            "no": "Kana apart sortearje"
          },
          "colNormalization": {
            "no": "Sûnder normalisaasje sortearje"
          },
          "colNumeric": {
            "no": "Sifers apart sortearje"
          },
          "colAlternate": {
            "non-ignorable": "Symbolen sortearje"
          },
          "numbers": {
            "olck": "olck",
            "orya": "Oriya sifers",
            "osma": "osma"
          },
          "calendar": {
            "persian": "Perzyske kalinder"
          },
          "collation": {
            "phonebook": "Telefoanboeksortearfolgorde",
            "phonetic": "Fonetyske sortearfolgorde",
            "pinyin": "Pinyinvolgorde"
          },
          "colStrength": {
            "primary": "Allime sortearje neffens letters",
            "quaternary": "sortearje neffens aksinten/haadletterbrûkme/breedte/Kana"
          },
          "collation": {
            "reformed": "Hersjoen sortearfolgorde"
          },
          "calendar": {
            "roc": "Kalinder fan de Sineeske Republyk"
          },
          "numbers": {
            "roman": "Romeinske sifers",
            "romanlow": "Lytse Romeinske sifers",
            "saur": "saur"
          },
          "collation": {
            "search": "Algemien sykje",
            "searchjl": "Sykje op earste Hangul-medeklinker"
          },
          "colStrength": {
            "secondary": "Sortearje op accenten"
          },
          "colAlternate": {
            "shifted": "Sortearje zonder symbolen"
          },
          "numbers": {
            "shrd": "shrd",
            "sora": "sora"
          },
          "collation": {
            "standard": "standert sortearfolgorde",
            "stroke": "Streeksortearfolgorde"
          },
          "numbers": {
            "sund": "sund",
            "takr": "takr",
            "talu": "talu",
            "taml": "Tradisjonele Tamil sifers",
            "tamldec": "Tamil sifers",
            "telu": "Telugu sifers"
          },
          "colStrength": {
            "tertiary": "sortearje neffens aksinten/haadletterbrûkme/breedte"
          },
          "numbers": {
            "thai": "Thaise sifers",
            "tibt": "Tibetaanske sifers"
          },
          "collation": {
            "traditional": "Tradisjonele sortearfolgorde"
          },
          "numbers": {
            "traditional": "Tradisjonele sifers"
          },
          "collation": {
            "unihan": "Sortearfolgorde radicalen/strepen"
          },
          "colCaseFirst": {
            "upper": "Eerst sortearje op haadletters"
          },
          "numbers": {
            "vaii": "Vai-sifers"
          },
          "colBackwards": {
            "yes": "Omgekeerd sortearje op accenten"
          },
          "colCaseLevel": {
            "yes": "Hoofdlettergevoelig sortearje"
          },
          "colHiraganaQuaternary": {
            "yes": "Kana oars sortearje"
          },
          "colNormalization": {
            "yes": "Unicode genormaliseerd sortearje"
          },
          "colNumeric": {
            "yes": "Sifers numeryk sortearje"
          },
          "collation": {
            "zhuyin": "zhuyin"
          }
        },
        "codePatterns": {
          "language": "Taal: {0}",
          "script": "Skrift: {0}",
          "territory": "Regio: {0}"
        }
      }
    }
  }
}
