{
  "main": {
    "fy-NL": {
      "identity": {
        "version": {
          "_cldrVersion": "26",
          "_number": "$Revision: 10669 $"
        },
        "generation": {
          "_date": "$Date: 2014-07-23 16:10:33 -0500 (Wed, 23 Jul 2014) $"
        },
        "language": "fy",
        "territory": "NL"
      },
      "localeDisplayNames": {
        "transformNames": {
          "BGN": "BGN",
          "Numeric": "Numeriek",
          "Tone": "Toon",
          "UNGEGN": "UNGEGN",
          "x-Accents": "Accenten",
          "x-Fullwidth": "Volledige breedte",
          "x-Halfwidth": "Halve breedte",
          "x-Jamo": "Jamo",
          "x-Pinyin": "Pinyin",
          "x-Publishing": "Publicatie"
        }
      }
    }
  }
}
