{
  "main": {
    "cy-GB": {
      "identity": {
        "version": {
          "_cldrVersion": "26",
          "_number": "$Revision: 10669 $"
        },
        "generation": {
          "_date": "$Date: 2014-07-23 16:10:33 -0500 (Wed, 23 Jul 2014) $"
        },
        "language": "cy",
        "territory": "GB"
      },
      "dates": {
        "calendars": {
          "ethiopic": {
            "months": {
              "format": {
                "abbreviated": {
                  "1": "Meskerem",
                  "2": "Tekemt",
                  "3": "Hedar",
                  "4": "Tahsas",
                  "5": "Ter",
                  "6": "Yekatit",
                  "7": "Megabit",
                  "8": "Miazia",
                  "9": "Genbot",
                  "10": "Sene",
                  "11": "Hamle",
                  "12": "Nehasse",
                  "13": "Pagumen"
                },
                "narrow": {
                  "1": "1",
                  "2": "2",
                  "3": "3",
                  "4": "4",
                  "5": "5",
                  "6": "6",
                  "7": "7",
                  "8": "8",
                  "9": "9",
                  "10": "10",
                  "11": "11",
                  "12": "12",
                  "13": "13"
                },
                "wide": {
                  "1": "Meskerem",
                  "2": "Tekemt",
                  "3": "Hedar",
                  "4": "Tahsas",
                  "5": "Ter",
                  "6": "Yekatit",
                  "7": "Megabit",
                  "8": "Miazia",
                  "9": "Genbot",
                  "10": "Sene",
                  "11": "Hamle",
                  "12": "Nehasse",
                  "13": "Pagumen"
                }
              },
              "stand-alone": {
                "abbreviated": {
                  "1": "Meskerem",
                  "2": "Tekemt",
                  "3": "Hedar",
                  "4": "Tahsas",
                  "5": "Ter",
                  "6": "Yekatit",
                  "7": "Megabit",
                  "8": "Miazia",
                  "9": "Genbot",
                  "10": "Sene",
                  "11": "Hamle",
                  "12": "Nehasse",
                  "13": "Pagumen"
                },
                "narrow": {
                  "1": "1",
                  "2": "2",
                  "3": "3",
                  "4": "4",
                  "5": "5",
                  "6": "6",
                  "7": "7",
                  "8": "8",
                  "9": "9",
                  "10": "10",
                  "11": "11",
                  "12": "12",
                  "13": "13"
                },
                "wide": {
                  "1": "Meskerem",
                  "2": "Tekemt",
                  "3": "Hedar",
                  "4": "Tahsas",
                  "5": "Ter",
                  "6": "Yekatit",
                  "7": "Megabit",
                  "8": "Miazia",
                  "9": "Genbot",
                  "10": "Sene",
                  "11": "Hamle",
                  "12": "Nehasse",
                  "13": "Pagumen"
                }
              }
            },
            "days": {
              "format": {
                "abbreviated": {
                  "sun": "Sul",
                  "mon": "Llun",
                  "tue": "Maw",
                  "wed": "Mer",
                  "thu": "Iau",
                  "fri": "Gwen",
                  "sat": "Sad"
                },
                "narrow": {
                  "sun": "S",
                  "mon": "Ll",
                  "tue": "M",
                  "wed": "M",
                  "thu": "I",
                  "fri": "G",
                  "sat": "S"
                },
                "short": {
                  "sun": "Su",
                  "mon": "Ll",
                  "tue": "Ma",
                  "wed": "Me",
                  "thu": "Ia",
                  "fri": "Gw",
                  "sat": "Sa"
                },
                "wide": {
                  "sun": "Dydd Sul",
                  "mon": "Dydd Llun",
                  "tue": "Dydd Mawrth",
                  "wed": "Dydd Mercher",
                  "thu": "Dydd Iau",
                  "fri": "Dydd Gwener",
                  "sat": "Dydd Sadwrn"
                }
              },
              "stand-alone": {
                "abbreviated": {
                  "sun": "Sul",
                  "mon": "Llun",
                  "tue": "Maw",
                  "wed": "Mer",
                  "thu": "Iau",
                  "fri": "Gwe",
                  "sat": "Sad"
                },
                "narrow": {
                  "sun": "S",
                  "mon": "Ll",
                  "tue": "M",
                  "wed": "M",
                  "thu": "I",
                  "fri": "G",
                  "sat": "S"
                },
                "short": {
                  "sun": "Su",
                  "mon": "Ll",
                  "tue": "Ma",
                  "wed": "Me",
                  "thu": "Ia",
                  "fri": "Gw",
                  "sat": "Sa"
                },
                "wide": {
                  "sun": "Dydd Sul",
                  "mon": "Dydd Llun",
                  "tue": "Dydd Mawrth",
                  "wed": "Dydd Mercher",
                  "thu": "Dydd Iau",
                  "fri": "Dydd Gwener",
                  "sat": "Dydd Sadwrn"
                }
              }
            },
            "quarters": {
              "format": {
                "abbreviated": {
                  "1": "Ch1",
                  "2": "Ch2",
                  "3": "Ch3",
                  "4": "Ch4"
                },
                "narrow": {
                  "1": "1",
                  "2": "2",
                  "3": "3",
                  "4": "4"
                },
                "wide": {
                  "1": "Chwarter 1af",
                  "2": "2il chwarter",
                  "3": "3ydd chwarter",
                  "4": "4ydd chwarter"
                }
              },
              "stand-alone": {
                "abbreviated": {
                  "1": "Ch1",
                  "2": "Ch2",
                  "3": "Ch3",
                  "4": "Ch4"
                },
                "narrow": {
                  "1": "1",
                  "2": "2",
                  "3": "3",
                  "4": "4"
                },
                "wide": {
                  "1": "chwarter 1af",
                  "2": "2il chwarter",
                  "3": "3ydd chwarter",
                  "4": "4ydd chwarter"
                }
              }
            },
            "dayPeriods": {
              "format": {
                "abbreviated": {
                  "am": "AM",
                  "noon": "hanner dydd",
                  "pm": "PM"
                },
                "narrow": {
                  "am": "AM",
                  "noon": "n",
                  "pm": "PM"
                },
                "wide": {
                  "am": "AM",
                  "noon": "hanner dydd",
                  "pm": "PM"
                }
              },
              "stand-alone": {
                "abbreviated": {
                  "am": "AM",
                  "noon": "hanner dydd",
                  "pm": "PM"
                },
                "narrow": {
                  "am": "AM",
                  "noon": "n",
                  "pm": "PM"
                },
                "wide": {
                  "am": "AM",
                  "noon": "hanner dydd",
                  "pm": "PM"
                }
              }
            },
            "eras": {
              "eraNames": {
                "0": "ERA0",
                "1": "ERA1"
              },
              "eraAbbr": {
                "0": "ERA0",
                "1": "ERA1"
              },
              "eraNarrow": {
                "0": "ERA0",
                "1": "ERA1"
              }
            },
            "dateFormats": {
              "full": "EEEE, d MMMM y G",
              "long": "d MMMM y G",
              "medium": "d MMM y G",
              "short": "dd/MM/y GGGGG"
            },
            "timeFormats": {
              "full": "HH:mm:ss zzzz",
              "long": "HH:mm:ss z",
              "medium": "HH:mm:ss",
              "short": "HH:mm"
            },
            "dateTimeFormats": {
              "full": "{1} {0}",
              "long": "{1} {0}",
              "medium": "{1} {0}",
              "short": "{1} {0}",
              "availableFormats": {
                "E": "ccc",
                "EHm": "E HH:mm",
                "EHms": "E HH:mm:ss",
                "Ed": "E, d",
                "Ehm": "E h:mm a",
                "Ehms": "E h:mm:ss a",
                "Gy": "y G",
                "GyMMM": "MMM y G",
                "GyMMMEd": "E, d MMM y G",
                "GyMMMd": "d MMM y G",
                "H": "HH",
                "Hm": "HH:mm",
                "Hms": "HH:mm:ss",
                "M": "L",
                "MEd": "E, d/M",
                "MMM": "LLL",
                "MMMEd": "E, d MMM",
                "MMMd": "d MMM",
                "Md": "d/M",
                "d": "d",
                "h": "h a",
                "hm": "h:mm a",
                "hms": "h:mm:ss a",
                "ms": "mm:ss",
                "y": "y",
                "yyyy": "y G",
                "yyyyM": "M/y G",
                "yyyyMEd": "E, d/M/y G",
                "yyyyMMM": "MMM y G",
                "yyyyMMMEd": "E, d MMM y G",
                "yyyyMMMd": "d MMM y G",
                "yyyyMd": "d/M/y G",
                "yyyyQ": "Q y G",
                "yyyyQQQ": "QQQ y G",
                "yyyyQQQQ": "QQQQ y G"
              },
              "appendItems": {
                "Day": "{0} ({2}: {1})",
                "Day-Of-Week": "{0} {1}",
                "Era": "{1} {0}",
                "Hour": "{0} ({2}: {1})",
                "Minute": "{0} ({2}: {1})",
                "Month": "{0} ({2}: {1})",
                "Quarter": "{0} ({2}: {1})",
                "Second": "{0} ({2}: {1})",
                "Timezone": "{0} {1}",
                "Week": "{0} ({2}: {1})",
                "Year": "{1} {0}"
              },
              "intervalFormats": {
                "intervalFormatFallback": "{0} – {1}",
                "H": {
                  "H": "HH–HH"
                },
                "Hm": {
                  "H": "HH:mm–HH:mm",
                  "m": "HH:mm–HH:mm"
                },
                "Hmv": {
                  "H": "HH:mm–HH:mm v",
                  "m": "HH:mm–HH:mm v"
                },
                "Hv": {
                  "H": "HH–HH v"
                },
                "M": {
                  "M": "M - M"
                },
                "MEd": {
                  "M": "E, d/M – E, d/M",
                  "d": "E, d/M – E, d/M"
                },
                "MMM": {
                  "M": "MMM-MMM"
                },
                "MMMEd": {
                  "M": "E, d MMM – E, d MMM",
                  "d": "E, d MMM – E, d MMM"
                },
                "MMMM": {
                  "M": "LLLL-LLLL"
                },
                "MMMd": {
                  "M": "d MMM – d MMM",
                  "d": "d–d MMM"
                },
                "Md": {
                  "M": "d/M – d/M",
                  "d": "d/M – d/M"
                },
                "d": {
                  "d": "d - d"
                },
                "h": {
                  "a": "h a – h a",
                  "h": "h–h a"
                },
                "hm": {
                  "a": "h:mm a – h:mm a",
                  "h": "h:mm–h:mm a",
                  "m": "h:mm–h:mm a"
                },
                "hmv": {
                  "a": "h:mm a – h:mm a v",
                  "h": "h:mm–h:mm a v",
                  "m": "h:mm–h:mm a v"
                },
                "hv": {
                  "a": "h a – h a v",
                  "h": "h–h a v"
                },
                "y": {
                  "y": "y-y G"
                },
                "yM": {
                  "M": "M/y – M/y GGGGG",
                  "y": "M/y – M/y GGGGG"
                },
                "yMEd": {
                  "M": "E, d/M/y - E, d/M/y GGGGG",
                  "d": "E, d/M/y - E, d/M/y GGGGG",
                  "y": "E, d/M/y - E, d/M/y GGGGG"
                },
                "yMMM": {
                  "M": "MMM - MMM y G",
                  "y": "MMM y - MMM y G"
                },
                "yMMMEd": {
                  "M": "E, d MMM - E, d MMM y G",
                  "d": "E, d MMM - E, d MMM y G",
                  "y": "E, d MMM, y - E, d MMM y G"
                },
                "yMMMM": {
                  "M": "MMMM–MMMM y G",
                  "y": "MMMM y – MMMM y G"
                },
                "yMMMd": {
                  "M": "d MMM - d MMM y G",
                  "d": "d-d MMM y G",
                  "y": "d MMM y - d MMM y G"
                },
                "yMd": {
                  "M": "d/M/y - d/M/y GGGGG",
                  "d": "d/M/y - d/M/y GGGGG",
                  "y": "d/M/y - d/M/y GGGGG"
                }
              }
            }
          }
        }
      }
    }
  }
}
