{
  "main": {
    "sg": {
      "identity": {
        "version": {
          "_cldrVersion": "26",
          "_number": "$Revision: 10669 $"
        },
        "generation": {
          "_date": "$Date: 2014-07-23 16:10:33 -0500 (Wed, 23 Jul 2014) $"
        },
        "language": "root"
      },
      "dates": {
        "calendars": {
          "roc": {
            "months": {
              "format": {
                "abbreviated": {
                  "1": "Nye",
                  "2": "Ful",
                  "3": "Mbä",
                  "4": "Ngu",
                  "5": "Bêl",
                  "6": "Fön",
                  "7": "Len",
                  "8": "Kük",
                  "9": "Mvu",
                  "10": "Ngb",
                  "11": "Nab",
                  "12": "Kak"
                },
                "narrow": {
                  "1": "N",
                  "2": "F",
                  "3": "M",
                  "4": "N",
                  "5": "B",
                  "6": "F",
                  "7": "L",
                  "8": "K",
                  "9": "M",
                  "10": "N",
                  "11": "N",
                  "12": "K"
                },
                "wide": {
                  "1": "Nyenye",
                  "2": "Fulundïgi",
                  "3": "Mbängü",
                  "4": "Ngubùe",
                  "5": "Bêläwü",
                  "6": "Föndo",
                  "7": "Lengua",
                  "8": "Kükürü",
                  "9": "Mvuka",
                  "10": "Ngberere",
                  "11": "Nabändüru",
                  "12": "Kakauka"
                }
              },
              "stand-alone": {
                "abbreviated": {
                  "1": "Nye",
                  "2": "Ful",
                  "3": "Mbä",
                  "4": "Ngu",
                  "5": "Bêl",
                  "6": "Fön",
                  "7": "Len",
                  "8": "Kük",
                  "9": "Mvu",
                  "10": "Ngb",
                  "11": "Nab",
                  "12": "Kak"
                },
                "narrow": {
                  "1": "N",
                  "2": "F",
                  "3": "M",
                  "4": "N",
                  "5": "B",
                  "6": "F",
                  "7": "L",
                  "8": "K",
                  "9": "M",
                  "10": "N",
                  "11": "N",
                  "12": "K"
                },
                "wide": {
                  "1": "Nyenye",
                  "2": "Fulundïgi",
                  "3": "Mbängü",
                  "4": "Ngubùe",
                  "5": "Bêläwü",
                  "6": "Föndo",
                  "7": "Lengua",
                  "8": "Kükürü",
                  "9": "Mvuka",
                  "10": "Ngberere",
                  "11": "Nabändüru",
                  "12": "Kakauka"
                }
              }
            },
            "days": {
              "format": {
                "abbreviated": {
                  "sun": "Bk1",
                  "mon": "Bk2",
                  "tue": "Bk3",
                  "wed": "Bk4",
                  "thu": "Bk5",
                  "fri": "Lâp",
                  "sat": "Lây"
                },
                "narrow": {
                  "sun": "K",
                  "mon": "S",
                  "tue": "T",
                  "wed": "S",
                  "thu": "K",
                  "fri": "P",
                  "sat": "Y"
                },
                "short": {
                  "sun": "Bk1",
                  "mon": "Bk2",
                  "tue": "Bk3",
                  "wed": "Bk4",
                  "thu": "Bk5",
                  "fri": "Lâp",
                  "sat": "Lây"
                },
                "wide": {
                  "sun": "Bikua-ôko",
                  "mon": "Bïkua-ûse",
                  "tue": "Bïkua-ptâ",
                  "wed": "Bïkua-usïö",
                  "thu": "Bïkua-okü",
                  "fri": "Lâpôsö",
                  "sat": "Lâyenga"
                }
              },
              "stand-alone": {
                "abbreviated": {
                  "sun": "Bk1",
                  "mon": "Bk2",
                  "tue": "Bk3",
                  "wed": "Bk4",
                  "thu": "Bk5",
                  "fri": "Lâp",
                  "sat": "Lây"
                },
                "narrow": {
                  "sun": "K",
                  "mon": "S",
                  "tue": "T",
                  "wed": "S",
                  "thu": "K",
                  "fri": "P",
                  "sat": "Y"
                },
                "short": {
                  "sun": "Bk1",
                  "mon": "Bk2",
                  "tue": "Bk3",
                  "wed": "Bk4",
                  "thu": "Bk5",
                  "fri": "Lâp",
                  "sat": "Lây"
                },
                "wide": {
                  "sun": "Bikua-ôko",
                  "mon": "Bïkua-ûse",
                  "tue": "Bïkua-ptâ",
                  "wed": "Bïkua-usïö",
                  "thu": "Bïkua-okü",
                  "fri": "Lâpôsö",
                  "sat": "Lâyenga"
                }
              }
            },
            "quarters": {
              "format": {
                "abbreviated": {
                  "1": "F4-1",
                  "2": "F4-2",
                  "3": "F4-3",
                  "4": "F4-4"
                },
                "narrow": {
                  "1": "1",
                  "2": "2",
                  "3": "3",
                  "4": "4"
                },
                "wide": {
                  "1": "Fângbisïö ôko",
                  "2": "Fângbisïö ûse",
                  "3": "Fângbisïö otâ",
                  "4": "Fângbisïö usïö"
                }
              },
              "stand-alone": {
                "abbreviated": {
                  "1": "F4-1",
                  "2": "F4-2",
                  "3": "F4-3",
                  "4": "F4-4"
                },
                "narrow": {
                  "1": "1",
                  "2": "2",
                  "3": "3",
                  "4": "4"
                },
                "wide": {
                  "1": "Fângbisïö ôko",
                  "2": "Fângbisïö ûse",
                  "3": "Fângbisïö otâ",
                  "4": "Fângbisïö usïö"
                }
              }
            },
            "dayPeriods": {
              "format": {
                "abbreviated": {
                  "am": "ND",
                  "noon": "noon",
                  "pm": "LK"
                },
                "narrow": {
                  "am": "a",
                  "noon": "n",
                  "pm": "p"
                },
                "wide": {
                  "am": "ND",
                  "noon": "noon",
                  "pm": "LK"
                }
              },
              "stand-alone": {
                "abbreviated": {
                  "am": "ND",
                  "noon": "noon",
                  "pm": "LK"
                },
                "narrow": {
                  "am": "a",
                  "noon": "n",
                  "pm": "p"
                },
                "wide": {
                  "am": "ND",
                  "noon": "noon",
                  "pm": "LK"
                }
              }
            },
            "eras": {
              "eraNames": {
                "0": "Before R.O.C.",
                "1": "R.O.C."
              },
              "eraAbbr": {
                "0": "Before R.O.C.",
                "1": "R.O.C."
              },
              "eraNarrow": {
                "0": "Before R.O.C.",
                "1": "R.O.C."
              }
            },
            "dateFormats": {
              "full": "EEEE d MMMM y G",
              "long": "d MMMM y G",
              "medium": "d MMM, y G",
              "short": "d/M/y GGGGG"
            },
            "timeFormats": {
              "full": "HH:mm:ss zzzz",
              "long": "HH:mm:ss z",
              "medium": "HH:mm:ss",
              "short": "HH:mm"
            },
            "dateTimeFormats": {
              "full": "{1} {0}",
              "long": "{1} {0}",
              "medium": "{1} {0}",
              "short": "{1} {0}",
              "availableFormats": {
                "E": "ccc",
                "EHm": "E HH:mm",
                "EHms": "E HH:mm:ss",
                "Ed": "d, E",
                "Ehm": "E h:mm a",
                "Ehms": "E h:mm:ss a",
                "Gy": "G y",
                "GyMMM": "G y MMM",
                "GyMMMEd": "G y MMM d, E",
                "GyMMMd": "G y MMM d",
                "H": "HH",
                "Hm": "HH:mm",
                "Hms": "HH:mm:ss",
                "M": "M",
                "MEd": "MM-dd, E",
                "MMM": "MMM",
                "MMMEd": "E d MMM",
                "MMMMEd": "E d MMMM",
                "MMMMd": "d MMMM",
                "MMMd": "d MMM",
                "MMd": "d/MM",
                "MMdd": "dd/MM",
                "Md": "d/M",
                "d": "d",
                "h": "h a",
                "hm": "h:mm a",
                "hms": "h:mm:ss a",
                "ms": "m:ss",
                "y": "y",
                "yM": "M/y",
                "yMEd": "E d/M/y",
                "yMMM": "MMM y",
                "yMMMEd": "E d MMM y",
                "yMMMM": "MMMM y",
                "yQQQ": "QQQ y",
                "yQQQQ": "QQQQ y",
                "yyyy": "G y",
                "yyyyM": "GGGGG y-MM",
                "yyyyMEd": "GGGGG y-MM-dd, E",
                "yyyyMMM": "G y MMM",
                "yyyyMMMEd": "G y MMM d, E",
                "yyyyMMMd": "G y MMM d",
                "yyyyMd": "GGGGG y-MM-dd",
                "yyyyQQQ": "G y QQQ",
                "yyyyQQQQ": "G y QQQQ"
              },
              "appendItems": {
                "Day": "{0} ({2}: {1})",
                "Day-Of-Week": "{0} {1}",
                "Era": "{1} {0}",
                "Hour": "{0} ({2}: {1})",
                "Minute": "{0} ({2}: {1})",
                "Month": "{0} ({2}: {1})",
                "Quarter": "{0} ({2}: {1})",
                "Second": "{0} ({2}: {1})",
                "Timezone": "{0} {1}",
                "Week": "{0} ({2}: {1})",
                "Year": "{1} {0}"
              },
              "intervalFormats": {
                "intervalFormatFallback": "{0} – {1}",
                "H": {
                  "H": "HH–HH"
                },
                "Hm": {
                  "H": "HH:mm–HH:mm",
                  "m": "HH:mm–HH:mm"
                },
                "Hmv": {
                  "H": "HH:mm–HH:mm v",
                  "m": "HH:mm–HH:mm v"
                },
                "Hv": {
                  "H": "HH–HH v"
                },
                "M": {
                  "M": "MM–MM"
                },
                "MEd": {
                  "M": "MM-dd, E – MM-dd, E",
                  "d": "MM-dd, E – MM-dd, E"
                },
                "MMM": {
                  "M": "LLL–LLL"
                },
                "MMMEd": {
                  "M": "MMM d, E – MMM d, E",
                  "d": "MMM d, E – MMM d, E"
                },
                "MMMd": {
                  "M": "MMM d – MMM d",
                  "d": "MMM d–d"
                },
                "Md": {
                  "M": "MM-dd – MM-dd",
                  "d": "MM-dd – MM-dd"
                },
                "d": {
                  "d": "d–d"
                },
                "h": {
                  "a": "h a – h a",
                  "h": "h–h a"
                },
                "hm": {
                  "a": "h:mm a – h:mm a",
                  "h": "h:mm–h:mm a",
                  "m": "h:mm–h:mm a"
                },
                "hmv": {
                  "a": "h:mm a – h:mm a v",
                  "h": "h:mm–h:mm a v",
                  "m": "h:mm–h:mm a v"
                },
                "hv": {
                  "a": "h a – h a v",
                  "h": "h–h a v"
                },
                "y": {
                  "y": "G y–y"
                },
                "yM": {
                  "M": "GGGGG y-MM – y-MM",
                  "y": "GGGGG y-MM – y-MM"
                },
                "yMEd": {
                  "M": "GGGGG y-MM-dd, E – y-MM-dd, E",
                  "d": "GGGGG y-MM-dd, E – y-MM-dd, E",
                  "y": "GGGGG y-MM-dd, E – y-MM-dd, E"
                },
                "yMMM": {
                  "M": "G y MMM–MMM",
                  "y": "G y MMM – y MMM"
                },
                "yMMMEd": {
                  "M": "G y MMM d, E – MMM d, E",
                  "d": "G y MMM d, E – MMM d, E",
                  "y": "G y MMM d, E – y MMM d, E"
                },
                "yMMMM": {
                  "M": "G y MMMM–MMMM",
                  "y": "G y MMMM – y MMMM"
                },
                "yMMMd": {
                  "M": "G y MMM d – MMM d",
                  "d": "G y MMM d–d",
                  "y": "G y MMM d – y MMM d"
                },
                "yMd": {
                  "M": "GGGGG y-MM-dd – y-MM-dd",
                  "d": "GGGGG y-MM-dd – y-MM-dd",
                  "y": "GGGGG y-MM-dd – y-MM-dd"
                }
              }
            }
          }
        }
      }
    }
  }
}
