{
  "main": {
    "gsw-LI": {
      "identity": {
        "version": {
          "_cldrVersion": "26",
          "_number": "$Revision: 10669 $"
        },
        "generation": {
          "_date": "$Date: 2014-07-23 16:10:33 -0500 (Wed, 23 Jul 2014) $"
        },
        "language": "gsw",
        "territory": "LI"
      },
      "localeDisplayNames": {
        "languages": {
          "aa": "Afar",
          "ab": "Abchasisch",
          "ace": "Aceh",
          "ach": "Acholi",
          "ada": "Adangme",
          "ady": "Adygai",
          "ae": "Avestisch",
          "aeb": "aeb",
          "af": "Afrikaans",
          "afh": "Afrihili",
          "agq": "agq",
          "ain": "Ainu",
          "ak": "Akan",
          "akk": "Akkadisch",
          "akz": "akz",
          "ale": "Aleutisch",
          "aln": "aln",
          "alt": "Süüd-Altaisch",
          "am": "Amharisch",
          "an": "Aragonesisch",
          "ang": "Altänglisch",
          "anp": "Angika",
          "ar": "Arabisch",
          "ar-001": "ar_001",
          "arc": "Aramääisch",
          "arn": "Araukanisch",
          "aro": "aro",
          "arp": "Arapaho",
          "arq": "arq",
          "arw": "Arawak",
          "ary": "ary",
          "arz": "arz",
          "as": "Assamesisch",
          "asa": "Asu (Tanzania)",
          "ase": "ase",
          "ast": "Aschturianisch",
          "av": "Awarisch",
          "avk": "avk",
          "awa": "Awadhi",
          "ay": "Aymara",
          "az": "Aserbaidschanisch",
          "az-alt-short": "az",
          "azb": "azb",
          "ba": "Baschkirisch",
          "bal": "Belutschisch",
          "ban": "Balinesisch",
          "bar": "bar",
          "bas": "Basaa",
          "bax": "bax",
          "bbc": "bbc",
          "bbj": "bbj",
          "be": "Wiissrussisch",
          "bej": "Bedauye",
          "bem": "Bemba",
          "bew": "bew",
          "bez": "Bena (Tanzania)",
          "bfd": "bfd",
          "bfq": "bfq",
          "bg": "Bulgaarisch",
          "bho": "Bhodschpuri",
          "bi": "Bislama",
          "bik": "Bikolisch",
          "bin": "Bini",
          "bjn": "bjn",
          "bkm": "bkm",
          "bla": "Blackfoot-Schpraach",
          "bm": "Bambara",
          "bn": "Bengalisch",
          "bo": "Tibeetisch",
          "bpy": "bpy",
          "bqi": "bqi",
          "br": "Brötoonisch",
          "bra": "Braj-Bhakha",
          "brh": "brh",
          "brx": "brx",
          "bs": "Bosnisch",
          "bss": "bss",
          "bua": "Burjatisch",
          "bug": "Bugineesisch",
          "bum": "bum",
          "byn": "Blin",
          "byv": "byv",
          "ca": "Katalaanisch",
          "cad": "Caddo",
          "car": "Kariibisch",
          "cay": "cay",
          "cch": "Atsam",
          "ce": "Tschetscheenisch",
          "ceb": "Cebuano",
          "cgg": "cgg",
          "ch": "Chamorro",
          "chb": "Tschibtscha",
          "chg": "Tschagataisch",
          "chk": "Trukesisch",
          "chm": "Tscheremissisch",
          "chn": "Chinook",
          "cho": "Choctaw",
          "chp": "Chipewyan",
          "chr": "Cherokee",
          "chy": "Cheyenne",
          "ckb": "ckb",
          "co": "Korsisch",
          "cop": "Koptisch",
          "cps": "cps",
          "cr": "Cree",
          "crh": "Krimtatarisch",
          "cs": "Tschechisch",
          "csb": "Kaschubisch",
          "cu": "Chileslawisch",
          "cv": "Tschuwaschisch",
          "cy": "Walisisch",
          "da": "Tänisch",
          "dak": "Takota",
          "dar": "Targiinisch",
          "dav": "dav",
          "de": "Tüütsch",
          "de-AT": "Öschtriichischs Tüütsch",
          "de-CH": "Schwiizer Hochtüütsch",
          "del": "Delaware-Schpraach",
          "den": "Slavey",
          "dgr": "Togrib",
          "din": "Tinka",
          "dje": "dje",
          "doi": "Togri",
          "dsb": "Nidersorbisch",
          "dtp": "dtp",
          "dua": "Tuala",
          "dum": "Mittelniderländisch",
          "dv": "Malediivisch",
          "dyo": "dyo",
          "dyu": "Tiula",
          "dz": "Dschongkha",
          "dzg": "dzg",
          "ebu": "ebu",
          "ee": "Ewe",
          "efi": "Efikisch",
          "egl": "egl",
          "egy": "Altägyptisch",
          "eka": "Ekajuk",
          "el": "Griechisch",
          "elx": "Elamisch",
          "en": "Änglisch",
          "en-AU": "Auschtralischs Änglisch",
          "en-CA": "Kanadischs Änglisch",
          "en-GB": "Britischs Änglisch",
          "en-GB-alt-short": "en_GB",
          "en-US": "Amerikanischs Änglisch",
          "en-US-alt-short": "en_US",
          "enm": "Mittelänglisch",
          "eo": "Eschperanto",
          "es": "Schpanisch",
          "es-419": "Latiinamerikanischs Schpanisch",
          "es-ES": "Ibeerischs Schpanisch",
          "es-MX": "es_MX",
          "esu": "esu",
          "et": "Eestnisch",
          "eu": "Baskisch",
          "ewo": "Ewondo",
          "ext": "ext",
          "fa": "Persisch",
          "fan": "Pangwe-Schpraach",
          "fat": "Fanti-Schpraach",
          "ff": "Ful",
          "fi": "Finnisch",
          "fil": "Filipino",
          "fit": "fit",
          "fj": "Fidschianisch",
          "fo": "Färöisch",
          "fon": "Fon",
          "fr": "Französisch",
          "fr-CA": "Kanadischs Französisch",
          "fr-CH": "Schwiizer Französisch",
          "frc": "frc",
          "frm": "Mittelfranzösisch",
          "fro": "Altfranzösisch",
          "frp": "frp",
          "frr": "Nordfriesisch",
          "frs": "Oschtfriesisch",
          "fur": "Friulisch",
          "fy": "Friesisch",
          "ga": "Iirisch",
          "gaa": "Ga",
          "gag": "gag",
          "gan": "gan",
          "gay": "Gayo",
          "gba": "Gbaya",
          "gbz": "gbz",
          "gd": "Schottisch-Gäälisch",
          "gez": "Geez",
          "gil": "Gilbertesisch",
          "gl": "Galizisch",
          "glk": "glk",
          "gmh": "Mittelhochtüütsch",
          "gn": "Guarani",
          "goh": "Althochtüütsch",
          "gom": "gom",
          "gon": "Gondi",
          "gor": "Mongondou",
          "got": "Gotisch",
          "grb": "Grebo",
          "grc": "Altgriechisch",
          "gsw": "Schwiizertüütsch",
          "gu": "Gujarati",
          "guc": "guc",
          "gur": "gur",
          "guz": "guz",
          "gv": "Manx-Gäälisch",
          "gwi": "Kutchinisch",
          "ha": "Haussa",
          "hai": "Haida",
          "hak": "hak",
          "haw": "Hawaiianisch",
          "he": "Hebräisch",
          "hi": "Hindi",
          "hif": "hif",
          "hil": "Hiligaynonisch",
          "hit": "Hethitisch",
          "hmn": "Miao",
          "ho": "Hiri-Motu",
          "hr": "Kroazisch",
          "hsb": "Obersorbisch",
          "hsn": "hsn",
          "ht": "Haitisch",
          "hu": "Ungarisch",
          "hup": "Hupa",
          "hy": "Armenisch",
          "hz": "Herero",
          "ia": "Interlingua",
          "iba": "Ibanisch",
          "ibb": "ibb",
          "id": "Indonesisch",
          "ie": "Interlingue",
          "ig": "Igbo",
          "ii": "Sezuanischs Yi",
          "ik": "Inupiak",
          "ilo": "Ilokano",
          "inh": "Inguschisch",
          "io": "Ido",
          "is": "Iisländisch",
          "it": "Italiänisch",
          "iu": "Inukitut",
          "izh": "izh",
          "ja": "Japanisch",
          "jam": "jam",
          "jbo": "Lojbanisch",
          "jgo": "jgo",
          "jmc": "jmc",
          "jpr": "Jüüdisch-Persisch",
          "jrb": "Jüüdisch-Arabisch",
          "jut": "jut",
          "jv": "Javanisch",
          "ka": "Georgisch",
          "kaa": "Karakalpakisch",
          "kab": "Kabylisch",
          "kac": "Kachin-Schpraach",
          "kaj": "Jju",
          "kam": "Kamba",
          "kaw": "Kawi",
          "kbd": "Kabardinisch",
          "kbl": "kbl",
          "kcg": "Tyap",
          "kde": "kde",
          "kea": "Kabuverdianu",
          "ken": "ken",
          "kfo": "Koro",
          "kg": "Kongolesisch",
          "kgp": "kgp",
          "kha": "Khasisch",
          "kho": "Sakisch",
          "khq": "khq",
          "khw": "khw",
          "ki": "Kikuyu-Schpraach",
          "kiu": "kiu",
          "kj": "Kwanyama",
          "kk": "Kasachisch",
          "kkj": "kkj",
          "kl": "Gröönländisch",
          "kln": "kln",
          "km": "Kambodschanisch",
          "kmb": "Kimbundu-Schpraach",
          "kn": "Kannada",
          "ko": "Koreaanisch",
          "koi": "koi",
          "kok": "Konkani",
          "kos": "Kosraeanisch",
          "kpe": "Kpelle-Schpraach",
          "kr": "Kanuri-Schpraach",
          "krc": "Karatschaiisch-Balkarisch",
          "kri": "kri",
          "krj": "krj",
          "krl": "Karelisch",
          "kru": "Oraon-Schpraach",
          "ks": "Kaschmirisch",
          "ksb": "ksb",
          "ksf": "ksf",
          "ksh": "ksh",
          "ku": "Kurdisch",
          "kum": "Kumükisch",
          "kut": "Kutenai-Schpraach",
          "kv": "Komi-Schpraach",
          "kw": "Kornisch",
          "ky": "Kirgiisisch",
          "la": "Latiin",
          "lad": "Ladino",
          "lag": "lag",
          "lah": "Lahndanisch",
          "lam": "Lambanisch",
          "lb": "Luxemburgisch",
          "lez": "Lesgisch",
          "lfn": "lfn",
          "lg": "Ganda-Schpraach",
          "li": "Limburgisch",
          "lij": "lij",
          "liv": "liv",
          "lkt": "lkt",
          "lmo": "lmo",
          "ln": "Lingala",
          "lo": "Laozisch",
          "lol": "Mongo",
          "loz": "Rotse-Schpraach",
          "lt": "Litauisch",
          "ltg": "ltg",
          "lu": "Luba",
          "lua": "Luba-Lulua",
          "lui": "Luiseno-Schpraach",
          "lun": "Lunda-Schpraach",
          "luo": "Luo-Schpraach",
          "lus": "Lushai-Schpraach",
          "luy": "Olulujia",
          "lv": "Lettisch",
          "lzh": "lzh",
          "lzz": "lzz",
          "mad": "Maduresisch",
          "maf": "maf",
          "mag": "Khotta",
          "mai": "Maithili",
          "mak": "Makassarisch",
          "man": "Manding-Schpraach",
          "mas": "Massai-Schpraach",
          "mde": "mde",
          "mdf": "Mokschamordwinisch",
          "mdr": "Mandaresisch",
          "men": "Mende-Schpraach",
          "mer": "mer",
          "mfe": "mfe",
          "mg": "Madagassisch",
          "mga": "Mittelirisch",
          "mgh": "mgh",
          "mgo": "mgo",
          "mh": "Marschallesisch",
          "mi": "Maori",
          "mic": "Micmac-Schpraach",
          "min": "Minangkabau-Schpraach",
          "mk": "Mazedonisch",
          "ml": "Malayalam",
          "mn": "Mongolisch",
          "mnc": "Mandschurisch",
          "mni": "Meithei-Schpraach",
          "moh": "Mohawk-Schpraach",
          "mos": "Mossi-Schpraach",
          "mr": "Marathi",
          "mrj": "mrj",
          "ms": "Malaiisch",
          "mt": "Maltesisch",
          "mua": "mua",
          "mul": "Mehrschpraachig",
          "mus": "Muskogee-Schpraach",
          "mwl": "Mirandesisch",
          "mwr": "Marwarisch",
          "mwv": "mwv",
          "my": "Birmanisch",
          "mye": "mye",
          "myv": "Erzya",
          "mzn": "mzn",
          "na": "Nauruisch",
          "nan": "nan",
          "nap": "Neapolitanisch",
          "naq": "naq",
          "nb": "Norwegisch Bokmål",
          "nd": "Nord-Ndebele-Schpraach",
          "nds": "Nidertüütsch",
          "ne": "Nepalesisch",
          "new": "Newarisch",
          "ng": "Ndonga",
          "nia": "Nias-Schpraach",
          "niu": "Niue-Schpraach",
          "njo": "njo",
          "nl": "Niderländisch",
          "nl-BE": "Fläämisch",
          "nmg": "nmg",
          "nn": "Norwegisch Nynorsk",
          "nnh": "nnh",
          "no": "Norwegisch",
          "nog": "Nogaisch",
          "non": "Altnordisch",
          "nov": "nov",
          "nqo": "N’Ko",
          "nr": "Süüd-Ndebele-Schpraach",
          "nso": "Nord-Sotho-Schpraach",
          "nus": "nus",
          "nv": "Navajo-Schpraach",
          "nwc": "Alt-Newari",
          "ny": "Chewa-Schpraach",
          "nym": "Nyamwezi-Schpraach",
          "nyn": "Nyankole",
          "nyo": "Nyoro",
          "nzi": "Nzima",
          "oc": "Okzitanisch",
          "oj": "Ojibwa-Schpraach",
          "om": "Oromo",
          "or": "Orija",
          "os": "Ossezisch",
          "osa": "Osage-Schpraach",
          "ota": "Osmanisch",
          "pa": "Pandschabisch",
          "pag": "Pangasinanisch",
          "pal": "Mittelpersisch",
          "pam": "Pampanggan-Schpraach",
          "pap": "Papiamento",
          "pau": "Palau",
          "pcd": "pcd",
          "pdc": "pdc",
          "pdt": "pdt",
          "peo": "Altpersisch",
          "pfl": "pfl",
          "phn": "Phönikisch",
          "pi": "Pali",
          "pl": "Polnisch",
          "pms": "pms",
          "pnt": "pnt",
          "pon": "Ponapeanisch",
          "prg": "prg",
          "pro": "Altprovenzalisch",
          "ps": "Paschtu",
          "pt": "Portugiisisch",
          "pt-BR": "Brasilianischs Portugiisisch",
          "pt-PT": "Iberischs Portugiisisch",
          "qu": "Quechua",
          "quc": "quc",
          "qug": "qug",
          "raj": "Rajasthani",
          "rap": "Oschterinsel-Schpraach",
          "rar": "Rarotonganisch",
          "rgn": "rgn",
          "rif": "rif",
          "rm": "Rätoromanisch",
          "rn": "Rundi-Schpraach",
          "ro": "Rumänisch",
          "ro-MD": "Moldawisch",
          "rof": "rof",
          "rom": "Zigüünerschpraach",
          "root": "Root",
          "rtm": "rtm",
          "ru": "Russisch",
          "rue": "rue",
          "rug": "rug",
          "rup": "Aromunisch",
          "rw": "Ruandisch",
          "rwk": "rwk",
          "sa": "Sanschkrit",
          "sad": "Sandawe-Schpraach",
          "sah": "Jakutisch",
          "sam": "Samaritanisch",
          "saq": "saq",
          "sas": "Sasak",
          "sat": "Santali",
          "saz": "saz",
          "sba": "sba",
          "sbp": "sbp",
          "sc": "Sardisch",
          "scn": "Sizilianisch",
          "sco": "Schottisch",
          "sd": "Sindhi",
          "sdc": "sdc",
          "se": "Nord-Samisch",
          "see": "see",
          "seh": "seh",
          "sei": "sei",
          "sel": "Selkupisch",
          "ses": "ses",
          "sg": "Sango",
          "sga": "Altirisch",
          "sgs": "sgs",
          "sh": "Serbo-Kroatisch",
          "shi": "shi",
          "shn": "Schan-Schpraach",
          "shu": "shu",
          "si": "Singhalesisch",
          "sid": "Sidamo",
          "sk": "Slowakisch",
          "sl": "Slowenisch",
          "sli": "sli",
          "sly": "sly",
          "sm": "Samoanisch",
          "sma": "Süüd-Samisch",
          "smj": "Lule-Samisch",
          "smn": "Inari-Samisch",
          "sms": "Skolt-Samisch",
          "sn": "Schhona",
          "snk": "Soninke-Schpraach",
          "so": "Somali",
          "sog": "Sogdisch",
          "sq": "Albanisch",
          "sr": "Serbisch",
          "srn": "Srananisch",
          "srr": "Serer-Schpraach",
          "ss": "Swazi",
          "ssy": "ssy",
          "st": "Süüd-Sotho-Schpraach",
          "stq": "stq",
          "su": "Sundanesisch",
          "suk": "Sukuma-Schpraach",
          "sus": "Susu",
          "sux": "Sumerisch",
          "sv": "Schwedisch",
          "sw": "Suaheli",
          "swb": "Shimaorisch",
          "swc": "swc",
          "syc": "Altsyrisch",
          "syr": "Syrisch",
          "szl": "szl",
          "ta": "Tamilisch",
          "tcy": "tcy",
          "te": "Telugu",
          "tem": "Temne",
          "teo": "teo",
          "ter": "Tereno-Schpraach",
          "tet": "Tetum-Schpraach",
          "tg": "Tadschikisch",
          "th": "Thailändisch",
          "ti": "Tigrinja",
          "tig": "Tigre",
          "tiv": "Tiv-Schpraach",
          "tk": "Turkmenisch",
          "tkl": "Tokelauanisch",
          "tkr": "tkr",
          "tl": "Tagalog",
          "tlh": "Klingonisch",
          "tli": "Tlingit-Schpraach",
          "tly": "tly",
          "tmh": "Tamaseq",
          "tn": "Tswana-Schpraach",
          "to": "Tongaisch",
          "tog": "Tsonga-Schpraach",
          "tpi": "Neumelanesisch",
          "tr": "Türkisch",
          "tru": "tru",
          "trv": "trv",
          "ts": "Tsonga",
          "tsd": "tsd",
          "tsi": "Tsimshian-Schpraach",
          "tt": "Tatarisch",
          "ttt": "ttt",
          "tum": "Tumbuka-Schpraach",
          "tvl": "Elliceanisch",
          "tw": "Twi",
          "twq": "twq",
          "ty": "Tahitisch",
          "tyv": "Tuwinisch",
          "tzm": "tzm",
          "udm": "Udmurtisch",
          "ug": "Uigurisch",
          "uga": "Ugaritisch",
          "uk": "Ukrainisch",
          "umb": "Mbundu-Schpraach",
          "und": "Unbeschtimmti Schpraach",
          "ur": "Urdu",
          "uz": "Usbekisch",
          "vai": "Vai-Schpraach",
          "ve": "Venda-Schpraach",
          "vec": "vec",
          "vep": "vep",
          "vi": "Vietnamesisch",
          "vls": "vls",
          "vmf": "vmf",
          "vo": "Volapük",
          "vot": "Wotisch",
          "vro": "vro",
          "vun": "vun",
          "wa": "Wallonisch",
          "wae": "wae",
          "wal": "Walamo-Schpraach",
          "war": "Waray",
          "was": "Washo-Schpraach",
          "wo": "Wolof",
          "wuu": "wuu",
          "xal": "Kalmückisch",
          "xh": "Xhosa",
          "xmf": "xmf",
          "xog": "xog",
          "yao": "Yao-Schpraach",
          "yap": "Yapesisch",
          "yav": "yav",
          "ybb": "ybb",
          "yi": "Jiddisch",
          "yo": "Yoruba",
          "yrl": "yrl",
          "yue": "Kantonesisch",
          "za": "Zhuang",
          "zap": "Zapotekisch",
          "zbl": "Bliss-Symbool",
          "zea": "zea",
          "zen": "Zenaga",
          "zgh": "zgh",
          "zh": "Chineesisch",
          "zh-Hans": "Veräifachts Chineesisch",
          "zh-Hant": "Tradizionells Chineesisch",
          "zu": "Zulu",
          "zun": "Zuni-Schpraach",
          "zxx": "Kän schpraachliche Inhalt",
          "zza": "Zaza"
        }
      }
    }
  }
}
