{
  "main": {
    "es-PH": {
      "identity": {
        "version": {
          "_cldrVersion": "26",
          "_number": "$Revision: 10669 $"
        },
        "generation": {
          "_date": "$Date: 2014-07-23 16:10:33 -0500 (Wed, 23 Jul 2014) $"
        },
        "language": "es",
        "territory": "PH"
      },
      "units": {
        "long": {
          "per": {
            "compoundUnitPattern": "{0} por {1}"
          },
          "acceleration-g-force": {
            "displayName": "fuerza G",
            "unitPattern-count-one": "{0} unidad de fuerza gravitacional",
            "unitPattern-count-other": "{0} unidades de fuerza gravitacional"
          },
          "acceleration-meter-per-second-squared": {
            "displayName": "metros por segundo al cuadrado",
            "unitPattern-count-one": "{0} metro por segundo al cuadrado",
            "unitPattern-count-other": "{0} metros por segundo al cuadrado"
          },
          "angle-arc-minute": {
            "displayName": "minutos de arco",
            "unitPattern-count-one": "{0} minuto de arco",
            "unitPattern-count-other": "{0} minutos de arco"
          },
          "angle-arc-second": {
            "displayName": "segundos de arco",
            "unitPattern-count-one": "{0} segundo de arco",
            "unitPattern-count-other": "{0} segundos de arco"
          },
          "angle-degree": {
            "displayName": "grados",
            "unitPattern-count-one": "{0} grado",
            "unitPattern-count-other": "{0} grados"
          },
          "angle-radian": {
            "displayName": "radianes",
            "unitPattern-count-one": "{0} radián",
            "unitPattern-count-other": "{0} radianes"
          },
          "area-acre": {
            "displayName": "acres",
            "unitPattern-count-one": "{0} acre",
            "unitPattern-count-other": "{0} acres"
          },
          "area-hectare": {
            "displayName": "hectáreas",
            "unitPattern-count-one": "{0} hectárea",
            "unitPattern-count-other": "{0} hectáreas"
          },
          "area-square-centimeter": {
            "displayName": "centímetros cuadrados",
            "unitPattern-count-one": "{0} centímetro cuadrado",
            "unitPattern-count-other": "{0} centímetros cuadrados"
          },
          "area-square-foot": {
            "displayName": "pies cuadrados",
            "unitPattern-count-one": "{0} pie cuadrado",
            "unitPattern-count-other": "{0} pies cuadrados"
          },
          "area-square-inch": {
            "displayName": "pulgadas cuadradas",
            "unitPattern-count-one": "{0} pulgada cuadrada",
            "unitPattern-count-other": "{0} pulgadas cuadradas"
          },
          "area-square-kilometer": {
            "displayName": "kilómetros cuadrados",
            "unitPattern-count-one": "{0} kilómetro cuadrado",
            "unitPattern-count-other": "{0} kilómetros cuadrados"
          },
          "area-square-meter": {
            "displayName": "metros cuadrados",
            "unitPattern-count-one": "{0} metro cuadrado",
            "unitPattern-count-other": "{0} metros cuadrados"
          },
          "area-square-mile": {
            "displayName": "millas cuadradas",
            "unitPattern-count-one": "{0} milla cuadrada",
            "unitPattern-count-other": "{0} millas cuadradas"
          },
          "area-square-yard": {
            "displayName": "yardas cuadradas",
            "unitPattern-count-one": "{0} yarda cuadrada",
            "unitPattern-count-other": "{0} yardas cuadradas"
          },
          "consumption-liter-per-kilometer": {
            "displayName": "litros por kilómetro",
            "unitPattern-count-one": "{0} litro por kilómetro",
            "unitPattern-count-other": "{0} litros por kilómetro"
          },
          "consumption-mile-per-gallon": {
            "displayName": "millas por galón",
            "unitPattern-count-one": "{0} milla por galón",
            "unitPattern-count-other": "{0} millas por galón"
          },
          "digital-bit": {
            "displayName": "bits",
            "unitPattern-count-one": "{0} bit",
            "unitPattern-count-other": "{0} bits"
          },
          "digital-byte": {
            "displayName": "bytes",
            "unitPattern-count-one": "{0} byte",
            "unitPattern-count-other": "{0} bytes"
          },
          "digital-gigabit": {
            "displayName": "gigabits",
            "unitPattern-count-one": "{0} gigabit",
            "unitPattern-count-other": "{0} gigabits"
          },
          "digital-gigabyte": {
            "displayName": "gigabytes",
            "unitPattern-count-one": "{0} gigabyte",
            "unitPattern-count-other": "{0} gigabytes"
          },
          "digital-kilobit": {
            "displayName": "kilobits",
            "unitPattern-count-one": "{0} kilobit",
            "unitPattern-count-other": "{0} kilobits"
          },
          "digital-kilobyte": {
            "displayName": "kilobytes",
            "unitPattern-count-one": "{0} kilobyte",
            "unitPattern-count-other": "{0} kilobytes"
          },
          "digital-megabit": {
            "displayName": "megabits",
            "unitPattern-count-one": "{0} megabit",
            "unitPattern-count-other": "{0} megabits"
          },
          "digital-megabyte": {
            "displayName": "megabytes",
            "unitPattern-count-one": "{0} megabyte",
            "unitPattern-count-other": "{0} megabytes"
          },
          "digital-terabit": {
            "displayName": "terabits",
            "unitPattern-count-one": "{0} terabit",
            "unitPattern-count-other": "{0} terabits"
          },
          "digital-terabyte": {
            "displayName": "terabytes",
            "unitPattern-count-one": "{0} terabyte",
            "unitPattern-count-other": "{0} terabytes"
          },
          "duration-day": {
            "displayName": "días",
            "unitPattern-count-one": "{0} día",
            "unitPattern-count-other": "{0} días"
          },
          "duration-hour": {
            "displayName": "horas",
            "unitPattern-count-one": "{0} hora",
            "unitPattern-count-other": "{0} horas",
            "perUnitPattern": "{0} por hora"
          },
          "duration-microsecond": {
            "displayName": "microsegundos",
            "unitPattern-count-one": "{0} microsegundo",
            "unitPattern-count-other": "{0} microsegundos"
          },
          "duration-millisecond": {
            "displayName": "milisegundos",
            "unitPattern-count-one": "{0} milisegundo",
            "unitPattern-count-other": "{0} milisegundos"
          },
          "duration-minute": {
            "displayName": "minutos",
            "unitPattern-count-one": "{0} minuto",
            "unitPattern-count-other": "{0} minutos"
          },
          "duration-month": {
            "displayName": "meses",
            "unitPattern-count-one": "{0} mes",
            "unitPattern-count-other": "{0} meses"
          },
          "duration-nanosecond": {
            "displayName": "nanosegundos",
            "unitPattern-count-one": "{0} nanosegundo",
            "unitPattern-count-other": "{0} nanosegundos"
          },
          "duration-second": {
            "displayName": "segundos",
            "unitPattern-count-one": "{0} segundo",
            "unitPattern-count-other": "{0} segundos",
            "perUnitPattern": "{0} por segundo"
          },
          "duration-week": {
            "displayName": "semanas",
            "unitPattern-count-one": "{0} semana",
            "unitPattern-count-other": "{0} semanas"
          },
          "duration-year": {
            "displayName": "años",
            "unitPattern-count-one": "{0} año",
            "unitPattern-count-other": "{0} años"
          },
          "electric-ampere": {
            "displayName": "amperios",
            "unitPattern-count-one": "{0} amperio",
            "unitPattern-count-other": "{0} amperios"
          },
          "electric-milliampere": {
            "displayName": "miliamperios",
            "unitPattern-count-one": "{0} miliamperio",
            "unitPattern-count-other": "{0} miliamperios"
          },
          "electric-ohm": {
            "displayName": "ohmios",
            "unitPattern-count-one": "{0} ohmio",
            "unitPattern-count-other": "{0} ohmios"
          },
          "electric-volt": {
            "displayName": "voltios",
            "unitPattern-count-one": "{0} voltio",
            "unitPattern-count-other": "{0} voltios"
          },
          "energy-calorie": {
            "displayName": "calorías",
            "unitPattern-count-one": "{0} caloría",
            "unitPattern-count-other": "{0} calorías"
          },
          "energy-foodcalorie": {
            "displayName": "calorías",
            "unitPattern-count-one": "{0} caloría",
            "unitPattern-count-other": "{0} calorías"
          },
          "energy-joule": {
            "displayName": "julios",
            "unitPattern-count-one": "{0} julio",
            "unitPattern-count-other": "{0} julios"
          },
          "energy-kilocalorie": {
            "displayName": "kilocalorías",
            "unitPattern-count-one": "{0} kilocaloría",
            "unitPattern-count-other": "{0} kilocalorías"
          },
          "energy-kilojoule": {
            "displayName": "kilojulios",
            "unitPattern-count-one": "{0} kilojulio",
            "unitPattern-count-other": "{0} kilojulios"
          },
          "energy-kilowatt-hour": {
            "displayName": "kilovatios hora",
            "unitPattern-count-one": "{0} kilovatio hora",
            "unitPattern-count-other": "{0} kilovatios hora"
          },
          "frequency-gigahertz": {
            "displayName": "gigahercios",
            "unitPattern-count-one": "{0} gigahercio",
            "unitPattern-count-other": "{0} gigahercios"
          },
          "frequency-hertz": {
            "displayName": "hercios",
            "unitPattern-count-one": "{0} hercio",
            "unitPattern-count-other": "{0} hercios"
          },
          "frequency-kilohertz": {
            "displayName": "kilohercios",
            "unitPattern-count-one": "{0} kilohercio",
            "unitPattern-count-other": "{0} kilohercios"
          },
          "frequency-megahertz": {
            "displayName": "megahercios",
            "unitPattern-count-one": "{0} megahercio",
            "unitPattern-count-other": "{0} megahercios"
          },
          "length-astronomical-unit": {
            "displayName": "unidades astronómicas",
            "unitPattern-count-one": "{0} unidad astronómica",
            "unitPattern-count-other": "{0} unidades astronómicas"
          },
          "length-centimeter": {
            "displayName": "centímetros",
            "unitPattern-count-one": "{0} centímetro",
            "unitPattern-count-other": "{0} centímetros"
          },
          "length-decimeter": {
            "displayName": "decímetros",
            "unitPattern-count-one": "{0} decímetro",
            "unitPattern-count-other": "{0} decímetros"
          },
          "length-fathom": {
            "displayName": "fm",
            "unitPattern-count-other": "{0} fm"
          },
          "length-foot": {
            "displayName": "pies",
            "unitPattern-count-one": "{0} pie",
            "unitPattern-count-other": "{0} pies"
          },
          "length-furlong": {
            "displayName": "fur",
            "unitPattern-count-other": "{0} fur"
          },
          "length-inch": {
            "displayName": "pulgadas",
            "unitPattern-count-one": "{0} pulgada",
            "unitPattern-count-other": "{0} pulgadas"
          },
          "length-kilometer": {
            "displayName": "kilómetros",
            "unitPattern-count-one": "{0} kilómetro",
            "unitPattern-count-other": "{0} kilómetros"
          },
          "length-light-year": {
            "displayName": "años luz",
            "unitPattern-count-one": "{0} año luz",
            "unitPattern-count-other": "{0} años luz"
          },
          "length-meter": {
            "displayName": "metros",
            "unitPattern-count-one": "{0} metro",
            "unitPattern-count-other": "{0} metros"
          },
          "length-micrometer": {
            "displayName": "micrómetros",
            "unitPattern-count-one": "{0} micrómetro",
            "unitPattern-count-other": "{0} micrómetros"
          },
          "length-mile": {
            "displayName": "millas",
            "unitPattern-count-one": "{0} milla",
            "unitPattern-count-other": "{0} millas"
          },
          "length-millimeter": {
            "displayName": "milímetros",
            "unitPattern-count-one": "{0} milímetro",
            "unitPattern-count-other": "{0} milímetros"
          },
          "length-nanometer": {
            "displayName": "nanómetros",
            "unitPattern-count-one": "{0} nanómetro",
            "unitPattern-count-other": "{0} nanómetros"
          },
          "length-nautical-mile": {
            "displayName": "millas náuticas",
            "unitPattern-count-one": "{0} milla náutica",
            "unitPattern-count-other": "{0} millas náuticas"
          },
          "length-parsec": {
            "displayName": "parsecs",
            "unitPattern-count-one": "{0} parsec",
            "unitPattern-count-other": "{0} parsecs"
          },
          "length-picometer": {
            "displayName": "picómetros",
            "unitPattern-count-one": "{0} picómetro",
            "unitPattern-count-other": "{0} picómetros"
          },
          "length-yard": {
            "displayName": "yardas",
            "unitPattern-count-one": "{0} yarda",
            "unitPattern-count-other": "{0} yardas"
          },
          "light-lux": {
            "displayName": "luxes",
            "unitPattern-count-one": "{0} lux",
            "unitPattern-count-other": "{0} luxes"
          },
          "mass-carat": {
            "displayName": "quilates",
            "unitPattern-count-one": "{0} quilate",
            "unitPattern-count-other": "{0} quilates"
          },
          "mass-gram": {
            "displayName": "gramos",
            "unitPattern-count-one": "{0} gramo",
            "unitPattern-count-other": "{0} gramos"
          },
          "mass-kilogram": {
            "displayName": "kilogramos",
            "unitPattern-count-one": "{0} kilogramo",
            "unitPattern-count-other": "{0} kilogramos"
          },
          "mass-metric-ton": {
            "displayName": "toneladas métricas",
            "unitPattern-count-one": "{0} tonelada métrica",
            "unitPattern-count-other": "{0} toneladas métricas"
          },
          "mass-microgram": {
            "displayName": "microgramos",
            "unitPattern-count-one": "{0} microgramo",
            "unitPattern-count-other": "{0} microgramos"
          },
          "mass-milligram": {
            "displayName": "miligramos",
            "unitPattern-count-one": "{0} miligramo",
            "unitPattern-count-other": "{0} miligramos"
          },
          "mass-ounce": {
            "displayName": "onzas",
            "unitPattern-count-one": "{0} onza",
            "unitPattern-count-other": "{0} onzas"
          },
          "mass-ounce-troy": {
            "displayName": "onzas troy",
            "unitPattern-count-one": "{0} onza troy",
            "unitPattern-count-other": "{0} onzas troy"
          },
          "mass-pound": {
            "displayName": "libras",
            "unitPattern-count-one": "{0} libra",
            "unitPattern-count-other": "{0} libras"
          },
          "mass-stone": {
            "displayName": "st",
            "unitPattern-count-other": "{0} st"
          },
          "mass-ton": {
            "displayName": "toneladas",
            "unitPattern-count-one": "{0} tonelada",
            "unitPattern-count-other": "{0} toneladas"
          },
          "power-gigawatt": {
            "displayName": "gigavatios",
            "unitPattern-count-one": "{0} gigavatio",
            "unitPattern-count-other": "{0} gigavatios"
          },
          "power-horsepower": {
            "displayName": "caballos de vapor",
            "unitPattern-count-one": "{0} caballo de vapor",
            "unitPattern-count-other": "{0} caballos de vapor"
          },
          "power-kilowatt": {
            "displayName": "kilovatios",
            "unitPattern-count-one": "{0} kilovatio",
            "unitPattern-count-other": "{0} kilovatios"
          },
          "power-megawatt": {
            "displayName": "megavatios",
            "unitPattern-count-one": "{0} megavatio",
            "unitPattern-count-other": "{0} megavatios"
          },
          "power-milliwatt": {
            "displayName": "milivatios",
            "unitPattern-count-one": "{0} milivatio",
            "unitPattern-count-other": "{0} milivatios"
          },
          "power-watt": {
            "displayName": "vatios",
            "unitPattern-count-one": "{0} vatio",
            "unitPattern-count-other": "{0} vatios"
          },
          "pressure-hectopascal": {
            "displayName": "hectopascales",
            "unitPattern-count-one": "{0} hectopascal",
            "unitPattern-count-other": "{0} hectopascales"
          },
          "pressure-inch-hg": {
            "displayName": "pulgadas de mercurio",
            "unitPattern-count-one": "{0} pulgada de mercurio",
            "unitPattern-count-other": "{0} pulgadas de mercurio"
          },
          "pressure-millibar": {
            "displayName": "milibares",
            "unitPattern-count-one": "{0} milibar",
            "unitPattern-count-other": "{0} milibares"
          },
          "pressure-millimeter-of-mercury": {
            "displayName": "milímetros de mercurio",
            "unitPattern-count-one": "{0} milímetro de mercurio",
            "unitPattern-count-other": "{0} milímetros de mercurio"
          },
          "pressure-pound-per-square-inch": {
            "displayName": "libras por pulgada cuadrada",
            "unitPattern-count-one": "{0} libra por pulgada cuadrada",
            "unitPattern-count-other": "{0} libras por pulgada cuadrada"
          },
          "proportion-karat": {
            "displayName": "quilates",
            "unitPattern-count-one": "{0} quilate",
            "unitPattern-count-other": "{0} quilates"
          },
          "speed-kilometer-per-hour": {
            "displayName": "kilómetros por hora",
            "unitPattern-count-one": "{0} kilómetro por hora",
            "unitPattern-count-other": "{0} kilómetros por hora"
          },
          "speed-meter-per-second": {
            "displayName": "metros por segundo",
            "unitPattern-count-one": "{0} metro por segundo",
            "unitPattern-count-other": "{0} metros por segundo"
          },
          "speed-mile-per-hour": {
            "displayName": "millas por hora",
            "unitPattern-count-one": "{0} milla por hora",
            "unitPattern-count-other": "{0} millas por hora"
          },
          "temperature-celsius": {
            "displayName": "grados Celsius",
            "unitPattern-count-one": "{0} grado Celsius",
            "unitPattern-count-other": "{0} grados Celsius"
          },
          "temperature-fahrenheit": {
            "displayName": "grados Fahrenheit",
            "unitPattern-count-one": "{0} grado Fahrenheit",
            "unitPattern-count-other": "{0} grados Fahrenheit"
          },
          "temperature-kelvin": {
            "displayName": "kelvin",
            "unitPattern-count-one": "{0} kelvin",
            "unitPattern-count-other": "{0} kelvin"
          },
          "volume-acre-foot": {
            "displayName": "acres pies",
            "unitPattern-count-one": "{0} acre pie",
            "unitPattern-count-other": "{0} acres pies"
          },
          "volume-bushel": {
            "displayName": "bu",
            "unitPattern-count-other": "{0} bu"
          },
          "volume-centiliter": {
            "displayName": "centilitros",
            "unitPattern-count-one": "{0} centilitro",
            "unitPattern-count-other": "{0} centilitros"
          },
          "volume-cubic-centimeter": {
            "displayName": "centímetros cúbicos",
            "unitPattern-count-one": "{0} centímetro cúbico",
            "unitPattern-count-other": "{0} centímetros cúbicos"
          },
          "volume-cubic-foot": {
            "displayName": "pies cúbicos",
            "unitPattern-count-one": "{0} pie cúbico",
            "unitPattern-count-other": "{0} pies cúbicos"
          },
          "volume-cubic-inch": {
            "displayName": "pulgadas cúbicas",
            "unitPattern-count-one": "{0} pulgada cúbica",
            "unitPattern-count-other": "{0} pulgadas cúbicas"
          },
          "volume-cubic-kilometer": {
            "displayName": "kilómetros cúbicos",
            "unitPattern-count-one": "{0} kilómetro cúbico",
            "unitPattern-count-other": "{0} kilómetros cúbicos"
          },
          "volume-cubic-meter": {
            "displayName": "metros cúbicos",
            "unitPattern-count-one": "{0} metro cúbico",
            "unitPattern-count-other": "{0} metros cúbicos"
          },
          "volume-cubic-mile": {
            "displayName": "millas cúbicas",
            "unitPattern-count-one": "{0} milla cúbica",
            "unitPattern-count-other": "{0} millas cúbicas"
          },
          "volume-cubic-yard": {
            "displayName": "yardas cúbicas",
            "unitPattern-count-one": "{0} yarda cúbica",
            "unitPattern-count-other": "{0} yardas cúbicas"
          },
          "volume-cup": {
            "displayName": "tazas",
            "unitPattern-count-one": "{0} taza",
            "unitPattern-count-other": "{0} tazas"
          },
          "volume-deciliter": {
            "displayName": "decilitros",
            "unitPattern-count-one": "{0} decilitro",
            "unitPattern-count-other": "{0} decilitros"
          },
          "volume-fluid-ounce": {
            "displayName": "onzas fluidas",
            "unitPattern-count-one": "{0} onza fluida",
            "unitPattern-count-other": "{0} onzas fluidas"
          },
          "volume-gallon": {
            "displayName": "galones",
            "unitPattern-count-one": "{0} galón",
            "unitPattern-count-other": "{0} galones"
          },
          "volume-hectoliter": {
            "displayName": "hectolitros",
            "unitPattern-count-one": "{0} hectolitro",
            "unitPattern-count-other": "{0} hectolitros"
          },
          "volume-liter": {
            "displayName": "litros",
            "unitPattern-count-one": "{0} litro",
            "unitPattern-count-other": "{0} litros"
          },
          "volume-megaliter": {
            "displayName": "megalitros",
            "unitPattern-count-one": "{0} megalitro",
            "unitPattern-count-other": "{0} megalitros"
          },
          "volume-milliliter": {
            "displayName": "mililitros",
            "unitPattern-count-one": "{0} mililitro",
            "unitPattern-count-other": "{0} mililitros"
          },
          "volume-pint": {
            "displayName": "pintas",
            "unitPattern-count-one": "{0} pinta",
            "unitPattern-count-other": "{0} pintas"
          },
          "volume-quart": {
            "displayName": "cuartos",
            "unitPattern-count-one": "{0} cuarto",
            "unitPattern-count-other": "{0} cuartos"
          },
          "volume-tablespoon": {
            "displayName": "cucharadas",
            "unitPattern-count-one": "{0} cucharada",
            "unitPattern-count-other": "{0} cucharadas"
          },
          "volume-teaspoon": {
            "displayName": "cucharaditas",
            "unitPattern-count-one": "{0} cucharadita",
            "unitPattern-count-other": "{0} cucharaditas"
          }
        },
        "short": {
          "per": {
            "compoundUnitPattern": "{0}/{1}"
          },
          "acceleration-g-force": {
            "displayName": "Fg",
            "unitPattern-count-one": "{0} Fg",
            "unitPattern-count-other": "{0} Fg"
          },
          "acceleration-meter-per-second-squared": {
            "displayName": "m/s²",
            "unitPattern-count-one": "{0} m/s²",
            "unitPattern-count-other": "{0} m/s²"
          },
          "angle-arc-minute": {
            "displayName": "arcmin",
            "unitPattern-count-one": "{0} arcmin",
            "unitPattern-count-other": "{0} arcmin"
          },
          "angle-arc-second": {
            "displayName": "arcsec",
            "unitPattern-count-one": "{0} arcsec",
            "unitPattern-count-other": "{0} arcsec"
          },
          "angle-degree": {
            "displayName": "grad.",
            "unitPattern-count-one": "{0}°",
            "unitPattern-count-other": "{0}°"
          },
          "angle-radian": {
            "displayName": "rad",
            "unitPattern-count-one": "{0} rad",
            "unitPattern-count-other": "{0} rad"
          },
          "area-acre": {
            "displayName": "ac",
            "unitPattern-count-one": "{0} ac",
            "unitPattern-count-other": "{0} ac"
          },
          "area-hectare": {
            "displayName": "ha",
            "unitPattern-count-one": "{0} ha",
            "unitPattern-count-other": "{0} ha"
          },
          "area-square-centimeter": {
            "displayName": "cm²",
            "unitPattern-count-one": "{0} cm²",
            "unitPattern-count-other": "{0} cm²"
          },
          "area-square-foot": {
            "displayName": "ft²",
            "unitPattern-count-one": "{0} ft²",
            "unitPattern-count-other": "{0} ft²"
          },
          "area-square-inch": {
            "displayName": "in²",
            "unitPattern-count-one": "{0} in²",
            "unitPattern-count-other": "{0} in²"
          },
          "area-square-kilometer": {
            "displayName": "km²",
            "unitPattern-count-one": "{0} km²",
            "unitPattern-count-other": "{0} km²"
          },
          "area-square-meter": {
            "displayName": "m²",
            "unitPattern-count-one": "{0} m²",
            "unitPattern-count-other": "{0} m²"
          },
          "area-square-mile": {
            "displayName": "mi²",
            "unitPattern-count-one": "{0} mi²",
            "unitPattern-count-other": "{0} mi²"
          },
          "area-square-yard": {
            "displayName": "yd²",
            "unitPattern-count-one": "{0} yd²",
            "unitPattern-count-other": "{0} yd²"
          },
          "consumption-liter-per-kilometer": {
            "displayName": "l/km",
            "unitPattern-count-one": "{0} l/km",
            "unitPattern-count-other": "{0} l/km"
          },
          "consumption-mile-per-gallon": {
            "displayName": "mi/gal",
            "unitPattern-count-one": "{0} mi/gal",
            "unitPattern-count-other": "{0} mi/gal"
          },
          "digital-bit": {
            "displayName": "b",
            "unitPattern-count-one": "{0} b",
            "unitPattern-count-other": "{0} b"
          },
          "digital-byte": {
            "displayName": "B",
            "unitPattern-count-one": "{0} B",
            "unitPattern-count-other": "{0} B"
          },
          "digital-gigabit": {
            "displayName": "Gb",
            "unitPattern-count-one": "{0} Gb",
            "unitPattern-count-other": "{0} Gb"
          },
          "digital-gigabyte": {
            "displayName": "GB",
            "unitPattern-count-one": "{0} GB",
            "unitPattern-count-other": "{0} GB"
          },
          "digital-kilobit": {
            "displayName": "kb",
            "unitPattern-count-one": "{0} kb",
            "unitPattern-count-other": "{0} kb"
          },
          "digital-kilobyte": {
            "displayName": "kB",
            "unitPattern-count-one": "{0} kB",
            "unitPattern-count-other": "{0} kB"
          },
          "digital-megabit": {
            "displayName": "Mb",
            "unitPattern-count-one": "{0} Mb",
            "unitPattern-count-other": "{0} Mb"
          },
          "digital-megabyte": {
            "displayName": "MB",
            "unitPattern-count-one": "{0} MB",
            "unitPattern-count-other": "{0} MB"
          },
          "digital-terabit": {
            "displayName": "Tb",
            "unitPattern-count-one": "{0} Tb",
            "unitPattern-count-other": "{0} Tb"
          },
          "digital-terabyte": {
            "displayName": "TB",
            "unitPattern-count-one": "{0} TB",
            "unitPattern-count-other": "{0} TB"
          },
          "duration-day": {
            "displayName": "d",
            "unitPattern-count-one": "{0} d",
            "unitPattern-count-other": "{0} d"
          },
          "duration-hour": {
            "displayName": "horas",
            "unitPattern-count-one": "{0} h",
            "unitPattern-count-other": "{0} h",
            "perUnitPattern": "{0}/h"
          },
          "duration-microsecond": {
            "displayName": "μs",
            "unitPattern-count-one": "{0} μs",
            "unitPattern-count-other": "{0} μs"
          },
          "duration-millisecond": {
            "displayName": "ms",
            "unitPattern-count-one": "{0} ms",
            "unitPattern-count-other": "{0} ms"
          },
          "duration-minute": {
            "displayName": "min",
            "unitPattern-count-one": "{0} min",
            "unitPattern-count-other": "{0} min"
          },
          "duration-month": {
            "displayName": "m",
            "unitPattern-count-one": "{0} m",
            "unitPattern-count-other": "{0} m"
          },
          "duration-nanosecond": {
            "displayName": "ns",
            "unitPattern-count-one": "{0} ns",
            "unitPattern-count-other": "{0} ns"
          },
          "duration-second": {
            "displayName": "s",
            "unitPattern-count-one": "{0} s",
            "unitPattern-count-other": "{0} s",
            "perUnitPattern": "{0}/s"
          },
          "duration-week": {
            "displayName": "sem",
            "unitPattern-count-one": "{0} sem",
            "unitPattern-count-other": "{0} sem"
          },
          "duration-year": {
            "displayName": "a",
            "unitPattern-count-one": "{0} a",
            "unitPattern-count-other": "{0} a"
          },
          "electric-ampere": {
            "displayName": "A",
            "unitPattern-count-one": "{0} A",
            "unitPattern-count-other": "{0} A"
          },
          "electric-milliampere": {
            "displayName": "mA",
            "unitPattern-count-one": "{0} mA",
            "unitPattern-count-other": "{0} mA"
          },
          "electric-ohm": {
            "displayName": "Ω",
            "unitPattern-count-one": "{0} Ω",
            "unitPattern-count-other": "{0} Ω"
          },
          "electric-volt": {
            "displayName": "voltios",
            "unitPattern-count-one": "{0} V",
            "unitPattern-count-other": "{0} V"
          },
          "energy-calorie": {
            "displayName": "cal",
            "unitPattern-count-one": "{0} cal",
            "unitPattern-count-other": "{0} cal"
          },
          "energy-foodcalorie": {
            "displayName": "cal",
            "unitPattern-count-one": "{0} cal",
            "unitPattern-count-other": "{0} cal"
          },
          "energy-joule": {
            "displayName": "J",
            "unitPattern-count-one": "{0} J",
            "unitPattern-count-other": "{0} J"
          },
          "energy-kilocalorie": {
            "displayName": "kcal",
            "unitPattern-count-one": "{0} kcal",
            "unitPattern-count-other": "{0} kcal"
          },
          "energy-kilojoule": {
            "displayName": "kJ",
            "unitPattern-count-one": "{0} kJ",
            "unitPattern-count-other": "{0} kJ"
          },
          "energy-kilowatt-hour": {
            "displayName": "kWh",
            "unitPattern-count-one": "{0} kWh",
            "unitPattern-count-other": "{0} kWh"
          },
          "frequency-gigahertz": {
            "displayName": "GHz",
            "unitPattern-count-one": "{0} GHz",
            "unitPattern-count-other": "{0} GHz"
          },
          "frequency-hertz": {
            "displayName": "Hz",
            "unitPattern-count-one": "{0} Hz",
            "unitPattern-count-other": "{0} Hz"
          },
          "frequency-kilohertz": {
            "displayName": "kHz",
            "unitPattern-count-one": "{0} kHz",
            "unitPattern-count-other": "{0} kHz"
          },
          "frequency-megahertz": {
            "displayName": "MHz",
            "unitPattern-count-one": "{0} MHz",
            "unitPattern-count-other": "{0} MHz"
          },
          "length-astronomical-unit": {
            "displayName": "au",
            "unitPattern-count-one": "{0} au",
            "unitPattern-count-other": "{0} au"
          },
          "length-centimeter": {
            "displayName": "cm",
            "unitPattern-count-one": "{0} cm",
            "unitPattern-count-other": "{0} cm"
          },
          "length-decimeter": {
            "displayName": "dm",
            "unitPattern-count-one": "{0} dm",
            "unitPattern-count-other": "{0} dm"
          },
          "length-fathom": {
            "displayName": "fm",
            "unitPattern-count-other": "{0} fm"
          },
          "length-foot": {
            "displayName": "ft",
            "unitPattern-count-one": "{0} ft",
            "unitPattern-count-other": "{0} ft"
          },
          "length-furlong": {
            "displayName": "fur",
            "unitPattern-count-other": "{0} fur"
          },
          "length-inch": {
            "displayName": "in",
            "unitPattern-count-one": "{0} in",
            "unitPattern-count-other": "{0} in"
          },
          "length-kilometer": {
            "displayName": "km",
            "unitPattern-count-one": "{0} km",
            "unitPattern-count-other": "{0} km"
          },
          "length-light-year": {
            "displayName": "a·l",
            "unitPattern-count-one": "{0} a. l.",
            "unitPattern-count-other": "{0} a. l."
          },
          "length-meter": {
            "displayName": "m",
            "unitPattern-count-one": "{0} m",
            "unitPattern-count-other": "{0} m"
          },
          "length-micrometer": {
            "displayName": "µm",
            "unitPattern-count-one": "{0} µm",
            "unitPattern-count-other": "{0} µm"
          },
          "length-mile": {
            "displayName": "mi",
            "unitPattern-count-one": "{0} mi",
            "unitPattern-count-other": "{0} mi"
          },
          "length-millimeter": {
            "displayName": "mm",
            "unitPattern-count-one": "{0} mm",
            "unitPattern-count-other": "{0} mm"
          },
          "length-nanometer": {
            "displayName": "nm",
            "unitPattern-count-one": "{0} nm",
            "unitPattern-count-other": "{0} nm"
          },
          "length-nautical-mile": {
            "displayName": "M",
            "unitPattern-count-one": "{0} M",
            "unitPattern-count-other": "{0} M"
          },
          "length-parsec": {
            "displayName": "pc",
            "unitPattern-count-one": "{0} pc",
            "unitPattern-count-other": "{0} pc"
          },
          "length-picometer": {
            "displayName": "pm",
            "unitPattern-count-one": "{0} pm",
            "unitPattern-count-other": "{0} pm"
          },
          "length-yard": {
            "displayName": "yd",
            "unitPattern-count-one": "{0} yd",
            "unitPattern-count-other": "{0} yd"
          },
          "light-lux": {
            "displayName": "lx",
            "unitPattern-count-one": "{0} lx",
            "unitPattern-count-other": "{0} lx"
          },
          "mass-carat": {
            "displayName": "c",
            "unitPattern-count-one": "{0} c",
            "unitPattern-count-other": "{0} c"
          },
          "mass-gram": {
            "displayName": "g",
            "unitPattern-count-one": "{0} g",
            "unitPattern-count-other": "{0} g"
          },
          "mass-kilogram": {
            "displayName": "kg",
            "unitPattern-count-one": "{0} kg",
            "unitPattern-count-other": "{0} kg"
          },
          "mass-metric-ton": {
            "displayName": "t",
            "unitPattern-count-one": "{0} t",
            "unitPattern-count-other": "{0} t"
          },
          "mass-microgram": {
            "displayName": "µg",
            "unitPattern-count-one": "{0} µg",
            "unitPattern-count-other": "{0} µg"
          },
          "mass-milligram": {
            "displayName": "mg",
            "unitPattern-count-one": "{0} mg",
            "unitPattern-count-other": "{0} mg"
          },
          "mass-ounce": {
            "displayName": "oz",
            "unitPattern-count-one": "{0} oz",
            "unitPattern-count-other": "{0} oz"
          },
          "mass-ounce-troy": {
            "displayName": "oz tr",
            "unitPattern-count-one": "{0} oz tr",
            "unitPattern-count-other": "{0} oz tr"
          },
          "mass-pound": {
            "displayName": "lb",
            "unitPattern-count-one": "{0} lb",
            "unitPattern-count-other": "{0} lb"
          },
          "mass-stone": {
            "displayName": "st",
            "unitPattern-count-other": "{0} st"
          },
          "mass-ton": {
            "displayName": "ton",
            "unitPattern-count-one": "{0} ton",
            "unitPattern-count-other": "{0} ton"
          },
          "power-gigawatt": {
            "displayName": "GW",
            "unitPattern-count-one": "{0} GW",
            "unitPattern-count-other": "{0} GW"
          },
          "power-horsepower": {
            "displayName": "CV",
            "unitPattern-count-one": "{0} CV",
            "unitPattern-count-other": "{0} CV"
          },
          "power-kilowatt": {
            "displayName": "kW",
            "unitPattern-count-one": "{0} kW",
            "unitPattern-count-other": "{0} kW"
          },
          "power-megawatt": {
            "displayName": "MW",
            "unitPattern-count-one": "{0} MW",
            "unitPattern-count-other": "{0} MW"
          },
          "power-milliwatt": {
            "displayName": "mW",
            "unitPattern-count-one": "{0} mW",
            "unitPattern-count-other": "{0} mW"
          },
          "power-watt": {
            "displayName": "vatios",
            "unitPattern-count-one": "{0} W",
            "unitPattern-count-other": "{0} W"
          },
          "pressure-hectopascal": {
            "displayName": "hPa",
            "unitPattern-count-one": "{0} hPa",
            "unitPattern-count-other": "{0} hPa"
          },
          "pressure-inch-hg": {
            "displayName": "inHg",
            "unitPattern-count-one": "{0} inHg",
            "unitPattern-count-other": "{0} inHg"
          },
          "pressure-millibar": {
            "displayName": "mbar",
            "unitPattern-count-one": "{0} mbar",
            "unitPattern-count-other": "{0} mbar"
          },
          "pressure-millimeter-of-mercury": {
            "displayName": "mmHg",
            "unitPattern-count-one": "{0} mmHg",
            "unitPattern-count-other": "{0} mmHg"
          },
          "pressure-pound-per-square-inch": {
            "displayName": "psi",
            "unitPattern-count-one": "{0} psi",
            "unitPattern-count-other": "{0} psi"
          },
          "proportion-karat": {
            "displayName": "c",
            "unitPattern-count-one": "{0} c",
            "unitPattern-count-other": "{0} c"
          },
          "speed-kilometer-per-hour": {
            "displayName": "km/h",
            "unitPattern-count-one": "{0} km/h",
            "unitPattern-count-other": "{0} km/h"
          },
          "speed-meter-per-second": {
            "displayName": "m/s",
            "unitPattern-count-one": "{0} m/s",
            "unitPattern-count-other": "{0} m/s"
          },
          "speed-mile-per-hour": {
            "displayName": "mi/h",
            "unitPattern-count-one": "{0} mi/h",
            "unitPattern-count-other": "{0} mi/h"
          },
          "temperature-celsius": {
            "displayName": "°C",
            "unitPattern-count-one": "{0} °C",
            "unitPattern-count-other": "{0} °C"
          },
          "temperature-fahrenheit": {
            "displayName": "°F",
            "unitPattern-count-one": "{0} °F",
            "unitPattern-count-other": "{0} °F"
          },
          "temperature-kelvin": {
            "displayName": "K",
            "unitPattern-count-one": "{0} K",
            "unitPattern-count-other": "{0} K"
          },
          "volume-acre-foot": {
            "displayName": "ac ft",
            "unitPattern-count-one": "{0} ac ft",
            "unitPattern-count-other": "{0} ac ft"
          },
          "volume-bushel": {
            "displayName": "bu",
            "unitPattern-count-other": "{0} bu"
          },
          "volume-centiliter": {
            "displayName": "cl",
            "unitPattern-count-one": "{0} cl",
            "unitPattern-count-other": "{0} cl"
          },
          "volume-cubic-centimeter": {
            "displayName": "cm³",
            "unitPattern-count-one": "{0} cm³",
            "unitPattern-count-other": "{0} cm³"
          },
          "volume-cubic-foot": {
            "displayName": "ft³",
            "unitPattern-count-one": "{0} ft³",
            "unitPattern-count-other": "{0} ft³"
          },
          "volume-cubic-inch": {
            "displayName": "in³",
            "unitPattern-count-one": "{0} in³",
            "unitPattern-count-other": "{0} in³"
          },
          "volume-cubic-kilometer": {
            "displayName": "km³",
            "unitPattern-count-one": "{0} km³",
            "unitPattern-count-other": "{0} km³"
          },
          "volume-cubic-meter": {
            "displayName": "m³",
            "unitPattern-count-one": "{0} m³",
            "unitPattern-count-other": "{0} m³"
          },
          "volume-cubic-mile": {
            "displayName": "mi³",
            "unitPattern-count-one": "{0} mi³",
            "unitPattern-count-other": "{0} mi³"
          },
          "volume-cubic-yard": {
            "displayName": "yd³",
            "unitPattern-count-one": "{0} yd³",
            "unitPattern-count-other": "{0} yd³"
          },
          "volume-cup": {
            "displayName": "tza.",
            "unitPattern-count-one": "{0} tza.",
            "unitPattern-count-other": "{0} tza."
          },
          "volume-deciliter": {
            "displayName": "dl",
            "unitPattern-count-one": "{0} dl",
            "unitPattern-count-other": "{0} dl"
          },
          "volume-fluid-ounce": {
            "displayName": "fl oz",
            "unitPattern-count-one": "{0} fl oz",
            "unitPattern-count-other": "{0} fl oz"
          },
          "volume-gallon": {
            "displayName": "gal",
            "unitPattern-count-one": "{0} gal",
            "unitPattern-count-other": "{0} gal"
          },
          "volume-hectoliter": {
            "displayName": "hl",
            "unitPattern-count-one": "{0} hl",
            "unitPattern-count-other": "{0} hl"
          },
          "volume-liter": {
            "displayName": "l",
            "unitPattern-count-one": "{0} l",
            "unitPattern-count-other": "{0} l"
          },
          "volume-megaliter": {
            "displayName": "Ml",
            "unitPattern-count-one": "{0} Ml",
            "unitPattern-count-other": "{0} Ml"
          },
          "volume-milliliter": {
            "displayName": "ml",
            "unitPattern-count-one": "{0} ml",
            "unitPattern-count-other": "{0} ml"
          },
          "volume-pint": {
            "displayName": "pt",
            "unitPattern-count-one": "{0} pt",
            "unitPattern-count-other": "{0} pt"
          },
          "volume-quart": {
            "displayName": "qt",
            "unitPattern-count-one": "{0} qt",
            "unitPattern-count-other": "{0} qt"
          },
          "volume-tablespoon": {
            "displayName": "cd.",
            "unitPattern-count-one": "{0} cd.",
            "unitPattern-count-other": "{0} cda."
          },
          "volume-teaspoon": {
            "displayName": "cdta.",
            "unitPattern-count-one": "{0} cdta.",
            "unitPattern-count-other": "{0} cdta."
          }
        },
        "narrow": {
          "per": {
            "compoundUnitPattern": "{0}/{1}"
          },
          "acceleration-g-force": {
            "displayName": "Fg",
            "unitPattern-count-one": "{0} G",
            "unitPattern-count-other": "{0} G"
          },
          "acceleration-meter-per-second-squared": {
            "displayName": "m/s²",
            "unitPattern-count-one": "{0} m/s²",
            "unitPattern-count-other": "{0} m/s²"
          },
          "angle-arc-minute": {
            "displayName": "arcmin",
            "unitPattern-count-one": "{0}'",
            "unitPattern-count-other": "{0}'"
          },
          "angle-arc-second": {
            "displayName": "arcsec",
            "unitPattern-count-one": "{0}\"",
            "unitPattern-count-other": "{0}\""
          },
          "angle-degree": {
            "displayName": "grad.",
            "unitPattern-count-one": "{0}°",
            "unitPattern-count-other": "{0}°"
          },
          "angle-radian": {
            "displayName": "rad",
            "unitPattern-count-one": "{0} rad",
            "unitPattern-count-other": "{0} rad"
          },
          "area-acre": {
            "displayName": "ac",
            "unitPattern-count-one": "{0} ac",
            "unitPattern-count-other": "{0} ac"
          },
          "area-hectare": {
            "displayName": "ha",
            "unitPattern-count-one": "{0} ha",
            "unitPattern-count-other": "{0} ha"
          },
          "area-square-centimeter": {
            "displayName": "cm²",
            "unitPattern-count-one": "{0} cm²",
            "unitPattern-count-other": "{0} cm²"
          },
          "area-square-foot": {
            "displayName": "ft²",
            "unitPattern-count-one": "{0} ft²",
            "unitPattern-count-other": "{0} ft²"
          },
          "area-square-inch": {
            "displayName": "in²",
            "unitPattern-count-one": "{0} in²",
            "unitPattern-count-other": "{0} in²"
          },
          "area-square-kilometer": {
            "displayName": "km²",
            "unitPattern-count-one": "{0} km²",
            "unitPattern-count-other": "{0} km²"
          },
          "area-square-meter": {
            "displayName": "m²",
            "unitPattern-count-one": "{0} m²",
            "unitPattern-count-other": "{0} m²"
          },
          "area-square-mile": {
            "displayName": "mi²",
            "unitPattern-count-one": "{0} mi²",
            "unitPattern-count-other": "{0} mi²"
          },
          "area-square-yard": {
            "displayName": "yd²",
            "unitPattern-count-one": "{0} yd²",
            "unitPattern-count-other": "{0} yd²"
          },
          "consumption-liter-per-kilometer": {
            "displayName": "l/km",
            "unitPattern-count-one": "{0} l/km",
            "unitPattern-count-other": "{0} l/km"
          },
          "consumption-mile-per-gallon": {
            "displayName": "mi/gal",
            "unitPattern-count-one": "{0} mi/gal",
            "unitPattern-count-other": "{0} mi/gal"
          },
          "digital-bit": {
            "displayName": "b",
            "unitPattern-count-one": "{0} b",
            "unitPattern-count-other": "{0} b"
          },
          "digital-byte": {
            "displayName": "B",
            "unitPattern-count-one": "{0} B",
            "unitPattern-count-other": "{0} B"
          },
          "digital-gigabit": {
            "displayName": "Gb",
            "unitPattern-count-one": "{0} Gb",
            "unitPattern-count-other": "{0} Gb"
          },
          "digital-gigabyte": {
            "displayName": "GB",
            "unitPattern-count-one": "{0} GB",
            "unitPattern-count-other": "{0} GB"
          },
          "digital-kilobit": {
            "displayName": "kb",
            "unitPattern-count-one": "{0} kb",
            "unitPattern-count-other": "{0} kb"
          },
          "digital-kilobyte": {
            "displayName": "kB",
            "unitPattern-count-one": "{0} kB",
            "unitPattern-count-other": "{0} kB"
          },
          "digital-megabit": {
            "displayName": "Mb",
            "unitPattern-count-one": "{0} Mb",
            "unitPattern-count-other": "{0} Mb"
          },
          "digital-megabyte": {
            "displayName": "MB",
            "unitPattern-count-one": "{0} MB",
            "unitPattern-count-other": "{0} MB"
          },
          "digital-terabit": {
            "displayName": "Tb",
            "unitPattern-count-one": "{0} Tb",
            "unitPattern-count-other": "{0} Tb"
          },
          "digital-terabyte": {
            "displayName": "TB",
            "unitPattern-count-one": "{0} TB",
            "unitPattern-count-other": "{0} TB"
          },
          "duration-day": {
            "displayName": "d",
            "unitPattern-count-one": "{0} d",
            "unitPattern-count-other": "{0} d"
          },
          "duration-hour": {
            "displayName": "h",
            "unitPattern-count-one": "{0} h",
            "unitPattern-count-other": "{0} h",
            "perUnitPattern": "{0}/h"
          },
          "duration-microsecond": {
            "displayName": "μs",
            "unitPattern-count-one": "{0} μs",
            "unitPattern-count-other": "{0} μs"
          },
          "duration-millisecond": {
            "displayName": "ms",
            "unitPattern-count-one": "{0} ms",
            "unitPattern-count-other": "{0} ms"
          },
          "duration-minute": {
            "displayName": "min",
            "unitPattern-count-one": "{0} min",
            "unitPattern-count-other": "{0} min"
          },
          "duration-month": {
            "displayName": "m",
            "unitPattern-count-one": "{0} m",
            "unitPattern-count-other": "{0} m"
          },
          "duration-nanosecond": {
            "displayName": "ns",
            "unitPattern-count-one": "{0} ns",
            "unitPattern-count-other": "{0} ns"
          },
          "duration-second": {
            "displayName": "s",
            "unitPattern-count-one": "{0} s",
            "unitPattern-count-other": "{0} s",
            "perUnitPattern": "{0}/s"
          },
          "duration-week": {
            "displayName": "sem",
            "unitPattern-count-one": "{0} sem",
            "unitPattern-count-other": "{0} sem"
          },
          "duration-year": {
            "displayName": "a",
            "unitPattern-count-one": "{0} a",
            "unitPattern-count-other": "{0} a"
          },
          "electric-ampere": {
            "displayName": "A",
            "unitPattern-count-one": "{0} A",
            "unitPattern-count-other": "{0} A"
          },
          "electric-milliampere": {
            "displayName": "mA",
            "unitPattern-count-one": "{0} mA",
            "unitPattern-count-other": "{0} mA"
          },
          "electric-ohm": {
            "displayName": "Ω",
            "unitPattern-count-one": "{0} Ω",
            "unitPattern-count-other": "{0} Ω"
          },
          "electric-volt": {
            "displayName": "voltios",
            "unitPattern-count-one": "{0} V",
            "unitPattern-count-other": "{0} V"
          },
          "energy-calorie": {
            "displayName": "cal",
            "unitPattern-count-one": "{0} cal",
            "unitPattern-count-other": "{0} cal"
          },
          "energy-foodcalorie": {
            "displayName": "cal",
            "unitPattern-count-one": "{0} cal",
            "unitPattern-count-other": "{0} cal"
          },
          "energy-joule": {
            "displayName": "J",
            "unitPattern-count-one": "{0} J",
            "unitPattern-count-other": "{0} J"
          },
          "energy-kilocalorie": {
            "displayName": "kcal",
            "unitPattern-count-one": "{0} kcal",
            "unitPattern-count-other": "{0} kcal"
          },
          "energy-kilojoule": {
            "displayName": "kJ",
            "unitPattern-count-one": "{0} kJ",
            "unitPattern-count-other": "{0} kJ"
          },
          "energy-kilowatt-hour": {
            "displayName": "kWh",
            "unitPattern-count-one": "{0} kWh",
            "unitPattern-count-other": "{0} kWh"
          },
          "frequency-gigahertz": {
            "displayName": "GHz",
            "unitPattern-count-one": "{0} GHz",
            "unitPattern-count-other": "{0} GHz"
          },
          "frequency-hertz": {
            "displayName": "Hz",
            "unitPattern-count-one": "{0} Hz",
            "unitPattern-count-other": "{0} Hz"
          },
          "frequency-kilohertz": {
            "displayName": "kHz",
            "unitPattern-count-one": "{0} kHz",
            "unitPattern-count-other": "{0} kHz"
          },
          "frequency-megahertz": {
            "displayName": "MHz",
            "unitPattern-count-one": "{0} MHz",
            "unitPattern-count-other": "{0} MHz"
          },
          "length-astronomical-unit": {
            "displayName": "au",
            "unitPattern-count-one": "{0} au",
            "unitPattern-count-other": "{0} au"
          },
          "length-centimeter": {
            "displayName": "cm",
            "unitPattern-count-one": "{0} cm",
            "unitPattern-count-other": "{0} cm"
          },
          "length-decimeter": {
            "displayName": "dm",
            "unitPattern-count-one": "{0} dm",
            "unitPattern-count-other": "{0} dm"
          },
          "length-fathom": {
            "displayName": "fm",
            "unitPattern-count-other": "{0} fm"
          },
          "length-foot": {
            "displayName": "ft",
            "unitPattern-count-one": "{0} ft",
            "unitPattern-count-other": "{0} ft"
          },
          "length-furlong": {
            "displayName": "fur",
            "unitPattern-count-other": "{0} fur"
          },
          "length-inch": {
            "displayName": "in",
            "unitPattern-count-one": "{0} in",
            "unitPattern-count-other": "{0} in"
          },
          "length-kilometer": {
            "displayName": "km",
            "unitPattern-count-one": "{0} km",
            "unitPattern-count-other": "{0} km"
          },
          "length-light-year": {
            "displayName": "a·l",
            "unitPattern-count-one": "{0} a. l.",
            "unitPattern-count-other": "{0} a. l."
          },
          "length-meter": {
            "displayName": "m",
            "unitPattern-count-one": "{0} m",
            "unitPattern-count-other": "{0} m"
          },
          "length-micrometer": {
            "displayName": "µm",
            "unitPattern-count-one": "{0} µm",
            "unitPattern-count-other": "{0} µm"
          },
          "length-mile": {
            "displayName": "mi",
            "unitPattern-count-one": "{0} mi",
            "unitPattern-count-other": "{0} mi"
          },
          "length-millimeter": {
            "displayName": "mm",
            "unitPattern-count-one": "{0} mm",
            "unitPattern-count-other": "{0} mm"
          },
          "length-nanometer": {
            "displayName": "nm",
            "unitPattern-count-one": "{0} nm",
            "unitPattern-count-other": "{0} nm"
          },
          "length-nautical-mile": {
            "displayName": "M",
            "unitPattern-count-one": "{0} M",
            "unitPattern-count-other": "{0} M"
          },
          "length-parsec": {
            "displayName": "pc",
            "unitPattern-count-one": "{0} pc",
            "unitPattern-count-other": "{0} pc"
          },
          "length-picometer": {
            "displayName": "pm",
            "unitPattern-count-one": "{0} pm",
            "unitPattern-count-other": "{0} pm"
          },
          "length-yard": {
            "displayName": "yd",
            "unitPattern-count-one": "{0} yd",
            "unitPattern-count-other": "{0} yd"
          },
          "light-lux": {
            "displayName": "lx",
            "unitPattern-count-one": "{0} lx",
            "unitPattern-count-other": "{0} lx"
          },
          "mass-carat": {
            "displayName": "c",
            "unitPattern-count-one": "{0} c",
            "unitPattern-count-other": "{0} c"
          },
          "mass-gram": {
            "displayName": "g",
            "unitPattern-count-one": "{0} g",
            "unitPattern-count-other": "{0} g"
          },
          "mass-kilogram": {
            "displayName": "kg",
            "unitPattern-count-one": "{0} kg",
            "unitPattern-count-other": "{0} kg"
          },
          "mass-metric-ton": {
            "displayName": "t",
            "unitPattern-count-one": "{0} t",
            "unitPattern-count-other": "{0} t"
          },
          "mass-microgram": {
            "displayName": "µg",
            "unitPattern-count-one": "{0} µg",
            "unitPattern-count-other": "{0} µg"
          },
          "mass-milligram": {
            "displayName": "mg",
            "unitPattern-count-one": "{0} mg",
            "unitPattern-count-other": "{0} mg"
          },
          "mass-ounce": {
            "displayName": "oz",
            "unitPattern-count-one": "{0} oz",
            "unitPattern-count-other": "{0} oz"
          },
          "mass-ounce-troy": {
            "displayName": "oz tr",
            "unitPattern-count-one": "{0} oz tr",
            "unitPattern-count-other": "{0} oz tr"
          },
          "mass-pound": {
            "displayName": "lb",
            "unitPattern-count-one": "{0} lb",
            "unitPattern-count-other": "{0} lb"
          },
          "mass-stone": {
            "displayName": "st",
            "unitPattern-count-other": "{0} st"
          },
          "mass-ton": {
            "displayName": "ton",
            "unitPattern-count-one": "{0} ton",
            "unitPattern-count-other": "{0} ton"
          },
          "power-gigawatt": {
            "displayName": "GW",
            "unitPattern-count-one": "{0} GW",
            "unitPattern-count-other": "{0} GW"
          },
          "power-horsepower": {
            "displayName": "CV",
            "unitPattern-count-one": "{0} hp",
            "unitPattern-count-other": "{0} hp"
          },
          "power-kilowatt": {
            "displayName": "kW",
            "unitPattern-count-one": "{0} kW",
            "unitPattern-count-other": "{0} kW"
          },
          "power-megawatt": {
            "displayName": "MW",
            "unitPattern-count-one": "{0} MW",
            "unitPattern-count-other": "{0} MW"
          },
          "power-milliwatt": {
            "displayName": "mW",
            "unitPattern-count-one": "{0} mW",
            "unitPattern-count-other": "{0} mW"
          },
          "power-watt": {
            "displayName": "vatios",
            "unitPattern-count-one": "{0} W",
            "unitPattern-count-other": "{0} W"
          },
          "pressure-hectopascal": {
            "displayName": "hPa",
            "unitPattern-count-one": "{0} hPa",
            "unitPattern-count-other": "{0} hPa"
          },
          "pressure-inch-hg": {
            "displayName": "inHg",
            "unitPattern-count-one": "{0} inHg",
            "unitPattern-count-other": "{0} inHg"
          },
          "pressure-millibar": {
            "displayName": "mbar",
            "unitPattern-count-one": "{0} mbar",
            "unitPattern-count-other": "{0} mbar"
          },
          "pressure-millimeter-of-mercury": {
            "displayName": "mmHg",
            "unitPattern-count-one": "{0} mmHg",
            "unitPattern-count-other": "{0} mmHg"
          },
          "pressure-pound-per-square-inch": {
            "displayName": "psi",
            "unitPattern-count-one": "{0} psi",
            "unitPattern-count-other": "{0} psi"
          },
          "proportion-karat": {
            "displayName": "c",
            "unitPattern-count-one": "{0} c",
            "unitPattern-count-other": "{0} c"
          },
          "speed-kilometer-per-hour": {
            "displayName": "km/h",
            "unitPattern-count-one": "{0} km/h",
            "unitPattern-count-other": "{0} km/h"
          },
          "speed-meter-per-second": {
            "displayName": "m/s",
            "unitPattern-count-one": "{0} m/s",
            "unitPattern-count-other": "{0} m/s"
          },
          "speed-mile-per-hour": {
            "displayName": "mi/h",
            "unitPattern-count-one": "{0} mi/h",
            "unitPattern-count-other": "{0} mi/h"
          },
          "temperature-celsius": {
            "displayName": "°C",
            "unitPattern-count-one": "{0} °C",
            "unitPattern-count-other": "{0} °C"
          },
          "temperature-fahrenheit": {
            "displayName": "°F",
            "unitPattern-count-one": "{0} °F",
            "unitPattern-count-other": "{0} °F"
          },
          "temperature-kelvin": {
            "displayName": "K",
            "unitPattern-count-one": "{0} K",
            "unitPattern-count-other": "{0} K"
          },
          "volume-acre-foot": {
            "displayName": "ac ft",
            "unitPattern-count-one": "{0} ac ft",
            "unitPattern-count-other": "{0} ac ft"
          },
          "volume-bushel": {
            "displayName": "bu",
            "unitPattern-count-other": "{0} bu"
          },
          "volume-centiliter": {
            "displayName": "cl",
            "unitPattern-count-one": "{0} cl",
            "unitPattern-count-other": "{0} cl"
          },
          "volume-cubic-centimeter": {
            "displayName": "cm³",
            "unitPattern-count-one": "{0} cm³",
            "unitPattern-count-other": "{0} cm³"
          },
          "volume-cubic-foot": {
            "displayName": "ft³",
            "unitPattern-count-one": "{0} ft³",
            "unitPattern-count-other": "{0} ft³"
          },
          "volume-cubic-inch": {
            "displayName": "in³",
            "unitPattern-count-one": "{0} in³",
            "unitPattern-count-other": "{0} in³"
          },
          "volume-cubic-kilometer": {
            "displayName": "km³",
            "unitPattern-count-one": "{0} km³",
            "unitPattern-count-other": "{0} km³"
          },
          "volume-cubic-meter": {
            "displayName": "m³",
            "unitPattern-count-one": "{0} m³",
            "unitPattern-count-other": "{0} m³"
          },
          "volume-cubic-mile": {
            "displayName": "mi³",
            "unitPattern-count-one": "{0} mi³",
            "unitPattern-count-other": "{0} mi³"
          },
          "volume-cubic-yard": {
            "displayName": "yd³",
            "unitPattern-count-one": "{0} yd³",
            "unitPattern-count-other": "{0} yd³"
          },
          "volume-cup": {
            "displayName": "tza.",
            "unitPattern-count-one": "{0} tza.",
            "unitPattern-count-other": "{0} tza."
          },
          "volume-deciliter": {
            "displayName": "dl",
            "unitPattern-count-one": "{0} dl",
            "unitPattern-count-other": "{0} dl"
          },
          "volume-fluid-ounce": {
            "displayName": "fl oz",
            "unitPattern-count-one": "{0} fl oz",
            "unitPattern-count-other": "{0} fl oz"
          },
          "volume-gallon": {
            "displayName": "gal",
            "unitPattern-count-one": "{0} gal",
            "unitPattern-count-other": "{0} gal"
          },
          "volume-hectoliter": {
            "displayName": "hl",
            "unitPattern-count-one": "{0} hl",
            "unitPattern-count-other": "{0} hl"
          },
          "volume-liter": {
            "displayName": "l",
            "unitPattern-count-one": "{0} l",
            "unitPattern-count-other": "{0} l"
          },
          "volume-megaliter": {
            "displayName": "Ml",
            "unitPattern-count-one": "{0} Ml",
            "unitPattern-count-other": "{0} Ml"
          },
          "volume-milliliter": {
            "displayName": "ml",
            "unitPattern-count-one": "{0} ml",
            "unitPattern-count-other": "{0} ml"
          },
          "volume-pint": {
            "displayName": "pt",
            "unitPattern-count-one": "{0} pt",
            "unitPattern-count-other": "{0} pt"
          },
          "volume-quart": {
            "displayName": "qt",
            "unitPattern-count-one": "{0} qt",
            "unitPattern-count-other": "{0} qt"
          },
          "volume-tablespoon": {
            "displayName": "cd.",
            "unitPattern-count-one": "{0} cda.",
            "unitPattern-count-other": "{0} cda."
          },
          "volume-teaspoon": {
            "displayName": "cdta.",
            "unitPattern-count-one": "{0} cdta.",
            "unitPattern-count-other": "{0} cdta."
          }
        },
        "durationUnit-type-hm": {
          "durationUnitPattern": "h:mm"
        },
        "durationUnit-type-hms": {
          "durationUnitPattern": "h:mm:ss"
        },
        "durationUnit-type-ms": {
          "durationUnitPattern": "m:ss"
        }
      }
    }
  }
}
