{
  "main": {
    "dz-BT": {
      "identity": {
        "version": {
          "_cldrVersion": "26",
          "_number": "$Revision: 10669 $"
        },
        "generation": {
          "_date": "$Date: 2014-07-23 16:10:33 -0500 (Wed, 23 Jul 2014) $"
        },
        "language": "dz",
        "territory": "BT"
      },
      "localeDisplayNames": {
        "measurementSystemNames": {
          "US": "ཨ་མི་རི་ཀཱན་ བརྩི་ལུགས",
          "metric": "མེ་ཊྲིཀ་བརྩི་ལུགས",
          "UK": "བྲི་ཊིཤ་ བརྩི་ལུགས"
        }
      }
    }
  }
}
