{
  "main": {
    "ga": {
      "identity": {
        "version": {
          "_cldrVersion": "26",
          "_number": "$Revision: 10809 $"
        },
        "generation": {
          "_date": "$Date: 2014-08-14 15:10:07 -0500 (Thu, 14 Aug 2014) $"
        },
        "language": "ga"
      },
      "dates": {
        "calendars": {
          "islamic": {
            "months": {
              "format": {
                "abbreviated": {
                  "1": "Muh.",
                  "2": "Saf.",
                  "3": "Rab. I",
                  "4": "Rab. II",
                  "5": "Jum. I",
                  "6": "Jum. II",
                  "7": "Raj.",
                  "8": "Sha.",
                  "9": "Ram.",
                  "10": "Shaw.",
                  "11": "Dhuʻl-Q.",
                  "12": "Dhuʻl-H."
                },
                "narrow": {
                  "1": "1",
                  "2": "2",
                  "3": "3",
                  "4": "4",
                  "5": "5",
                  "6": "6",
                  "7": "7",
                  "8": "8",
                  "9": "9",
                  "10": "10",
                  "11": "11",
                  "12": "12"
                },
                "wide": {
                  "1": "Muharram",
                  "2": "Safar",
                  "3": "Rabiʻ I",
                  "4": "Rabiʻ II",
                  "5": "Jumada I",
                  "6": "Jumada II",
                  "7": "Rajab",
                  "8": "Shaʻban",
                  "9": "Ramadan",
                  "10": "Shawwal",
                  "11": "Dhuʻl-Qiʻdah",
                  "12": "Dhuʻl-Hijjah"
                }
              },
              "stand-alone": {
                "abbreviated": {
                  "1": "Muh.",
                  "2": "Saf.",
                  "3": "Rab. I",
                  "4": "Rab. II",
                  "5": "Jum. I",
                  "6": "Jum. II",
                  "7": "Raj.",
                  "8": "Sha.",
                  "9": "Ram.",
                  "10": "Shaw.",
                  "11": "Dhuʻl-Q.",
                  "12": "Dhuʻl-H."
                },
                "narrow": {
                  "1": "1",
                  "2": "2",
                  "3": "3",
                  "4": "4",
                  "5": "5",
                  "6": "6",
                  "7": "7",
                  "8": "8",
                  "9": "9",
                  "10": "10",
                  "11": "11",
                  "12": "12"
                },
                "wide": {
                  "1": "Muharram",
                  "2": "Safar",
                  "3": "Rabiʻ I",
                  "4": "Rabiʻ II",
                  "5": "Jumada I",
                  "6": "Jumada II",
                  "7": "Rajab",
                  "8": "Shaʻban",
                  "9": "Ramadan",
                  "10": "Shawwal",
                  "11": "Dhuʻl-Qiʻdah",
                  "12": "Dhuʻl-Hijjah"
                }
              }
            },
            "days": {
              "format": {
                "abbreviated": {
                  "sun": "Domh",
                  "mon": "Luan",
                  "tue": "Máirt",
                  "wed": "Céad",
                  "thu": "Déar",
                  "fri": "Aoine",
                  "sat": "Sath"
                },
                "narrow": {
                  "sun": "D",
                  "mon": "L",
                  "tue": "M",
                  "wed": "C",
                  "thu": "D",
                  "fri": "A",
                  "sat": "S"
                },
                "short": {
                  "sun": "Do",
                  "mon": "Lu",
                  "tue": "Má",
                  "wed": "Cé",
                  "thu": "Dé",
                  "fri": "Ao",
                  "sat": "Sa"
                },
                "wide": {
                  "sun": "Dé Domhnaigh",
                  "mon": "Dé Luain",
                  "tue": "Dé Máirt",
                  "wed": "Dé Céadaoin",
                  "thu": "Déardaoin",
                  "fri": "Dé hAoine",
                  "sat": "Dé Sathairn"
                }
              },
              "stand-alone": {
                "abbreviated": {
                  "sun": "Domh",
                  "mon": "Luan",
                  "tue": "Máirt",
                  "wed": "Céad",
                  "thu": "Déar",
                  "fri": "Aoine",
                  "sat": "Sath"
                },
                "narrow": {
                  "sun": "D",
                  "mon": "L",
                  "tue": "M",
                  "wed": "C",
                  "thu": "D",
                  "fri": "A",
                  "sat": "S"
                },
                "short": {
                  "sun": "Do",
                  "mon": "Lu",
                  "tue": "Má",
                  "wed": "Cé",
                  "thu": "Dé",
                  "fri": "Ao",
                  "sat": "Sa"
                },
                "wide": {
                  "sun": "Dé Domhnaigh",
                  "mon": "Dé Luain",
                  "tue": "Dé Máirt",
                  "wed": "Dé Céadaoin",
                  "thu": "Déardaoin",
                  "fri": "Dé hAoine",
                  "sat": "Dé Sathairn"
                }
              }
            },
            "quarters": {
              "format": {
                "abbreviated": {
                  "1": "R1",
                  "2": "R2",
                  "3": "R3",
                  "4": "R4"
                },
                "narrow": {
                  "1": "1",
                  "2": "2",
                  "3": "3",
                  "4": "4"
                },
                "wide": {
                  "1": "1ú ráithe",
                  "2": "2ú ráithe",
                  "3": "3ú ráithe",
                  "4": "4ú ráithe"
                }
              },
              "stand-alone": {
                "abbreviated": {
                  "1": "R1",
                  "2": "R2",
                  "3": "R3",
                  "4": "R4"
                },
                "narrow": {
                  "1": "1",
                  "2": "2",
                  "3": "3",
                  "4": "4"
                },
                "wide": {
                  "1": "1ú ráithe",
                  "2": "2ú ráithe",
                  "3": "3ú ráithe",
                  "4": "4ú ráithe"
                }
              }
            },
            "dayPeriods": {
              "format": {
                "abbreviated": {
                  "am": "a.m.",
                  "noon": "meán lae",
                  "pm": "p.m."
                },
                "narrow": {
                  "am": "a",
                  "noon": "ml",
                  "pm": "p"
                },
                "wide": {
                  "am": "a.m.",
                  "noon": "meán lae",
                  "pm": "p.m."
                }
              },
              "stand-alone": {
                "abbreviated": {
                  "am": "a.m.",
                  "noon": "meán lae",
                  "pm": "p.m."
                },
                "narrow": {
                  "am": "a",
                  "noon": "ml",
                  "pm": "p"
                },
                "wide": {
                  "am": "a.m.",
                  "noon": "meán lae",
                  "pm": "p.m."
                }
              }
            },
            "eras": {
              "eraNames": {
                "0": "AH"
              },
              "eraAbbr": {
                "0": "AH"
              },
              "eraNarrow": {
                "0": "AH"
              }
            },
            "dateFormats": {
              "full": "EEEE d MMMM y G",
              "long": "d MMMM y G",
              "medium": "d MMM y G",
              "short": "dd/MM/y GGGGG"
            },
            "timeFormats": {
              "full": "HH:mm:ss zzzz",
              "long": "HH:mm:ss z",
              "medium": "HH:mm:ss",
              "short": "HH:mm"
            },
            "dateTimeFormats": {
              "full": "{1} {0}",
              "long": "{1} {0}",
              "medium": "{1} {0}",
              "short": "{1} {0}",
              "availableFormats": {
                "E": "ccc",
                "EHm": "E HH:mm",
                "EHms": "E HH:mm:ss",
                "Ed": "E d",
                "Ehm": "E h:mm a",
                "Ehms": "E h:mm:ss a",
                "Gy": "y G",
                "GyMMM": "MMM y G",
                "GyMMMEd": "E d MMM y G",
                "GyMMMd": "d MMM y G",
                "H": "HH",
                "Hm": "HH:mm",
                "Hms": "HH:mm:ss",
                "M": "LL",
                "MEd": "E dd/MM",
                "MMM": "LLL",
                "MMMEd": "E d MMM",
                "MMMd": "d MMM",
                "Md": "dd/MM",
                "d": "d",
                "h": "h a",
                "hm": "h:mm a",
                "hms": "h:mm:ss a",
                "ms": "mm:ss",
                "y": "y G",
                "yyyy": "y G",
                "yyyyM": "MM/y GGGGG",
                "yyyyMEd": "E dd/MM/y GGGGG",
                "yyyyMMM": "MMM y G",
                "yyyyMMMEd": "E d MMM y G",
                "yyyyMMMd": "d MMM y G",
                "yyyyMd": "dd/MM/y GGGGG",
                "yyyyQQQ": "QQQ y G",
                "yyyyQQQQ": "QQQQ y G"
              },
              "appendItems": {
                "Day": "{0} ({2}: {1})",
                "Day-Of-Week": "{0} {1}",
                "Era": "{1} {0}",
                "Hour": "{0} ({2}: {1})",
                "Minute": "{0} ({2}: {1})",
                "Month": "{0} ({2}: {1})",
                "Quarter": "{0} ({2}: {1})",
                "Second": "{0} ({2}: {1})",
                "Timezone": "{0} {1}",
                "Week": "{0} ({2}: {1})",
                "Year": "{1} {0}"
              },
              "intervalFormats": {
                "intervalFormatFallback": "{0} – {1}",
                "H": {
                  "H": "HH–HH"
                },
                "Hm": {
                  "H": "HH:mm–HH:mm",
                  "m": "HH:mm–HH:mm"
                },
                "Hmv": {
                  "H": "HH:mm–HH:mm v",
                  "m": "HH:mm–HH:mm v"
                },
                "Hv": {
                  "H": "HH–HH v"
                },
                "M": {
                  "M": "MM – MM"
                },
                "MEd": {
                  "M": "E dd/MM – E dd/MM",
                  "d": "E dd/MM – E dd/MM"
                },
                "MMM": {
                  "M": "MMM – MMM"
                },
                "MMMEd": {
                  "M": "E d MMM – E d MMM",
                  "d": "E d MMM – E d MMM"
                },
                "MMMd": {
                  "M": "d MMM – d MMM",
                  "d": "d – d MMM"
                },
                "Md": {
                  "M": "dd/MM – dd/MM",
                  "d": "dd/MM – dd/MM"
                },
                "d": {
                  "d": "d – d"
                },
                "h": {
                  "a": "h a – h a",
                  "h": "h–h a"
                },
                "hm": {
                  "a": "h:mm a – h:mm a",
                  "h": "h:mm–h:mm a",
                  "m": "h:mm–h:mm a"
                },
                "hmv": {
                  "a": "h:mm a – h:mm a v",
                  "h": "h:mm–h:mm a v",
                  "m": "h:mm–h:mm a v"
                },
                "hv": {
                  "a": "h a – h a v",
                  "h": "h–h a v"
                },
                "y": {
                  "y": "y – y G"
                },
                "yM": {
                  "M": "MM/y – MM/y GGGGG",
                  "y": "MM/y – MM/y GGGGG"
                },
                "yMEd": {
                  "M": "E dd/MM/y – E dd/MM/y GGGGG",
                  "d": "E dd/MM/y – E dd/MM/y GGGGG",
                  "y": "E dd/MM/y – E dd/MM/y GGGGG"
                },
                "yMMM": {
                  "M": "MMM – MMM y G",
                  "y": "MMM y – MMM y G"
                },
                "yMMMEd": {
                  "M": "E d MMM – E d MMM y G",
                  "d": "E d MMM – E d MMM y G",
                  "y": "E d MMM y – E d MMM y G"
                },
                "yMMMM": {
                  "M": "MMMM – MMMM y G",
                  "y": "MMMM y – MMMM y G"
                },
                "yMMMd": {
                  "M": "d MMM – d MMM y G",
                  "d": "d – d MMM y G",
                  "y": "d MMM y – d MMM y G"
                },
                "yMd": {
                  "M": "dd/MM/y – dd/MM/y GGGGG",
                  "d": "dd/MM/y – dd/MM/y GGGGG",
                  "y": "dd/MM/y – dd/MM/y GGGGG"
                }
              }
            }
          }
        }
      }
    }
  }
}
