{
  "main": {
    "lb": {
      "identity": {
        "version": {
          "_cldrVersion": "26",
          "_number": "$Revision: 10809 $"
        },
        "generation": {
          "_date": "$Date: 2014-08-14 15:10:07 -0500 (Thu, 14 Aug 2014) $"
        },
        "language": "lb"
      },
      "localeDisplayNames": {
        "scripts": {
          "Afak": "Afak",
          "Aghb": "Aghb",
          "Arab": "Arabesch",
          "Armi": "Armi",
          "Armn": "Armenesch",
          "Avst": "Avestesch",
          "Bali": "Balinesesch",
          "Bamu": "Bamu",
          "Bass": "Bass",
          "Batk": "Battakesch",
          "Beng": "Bengalesch",
          "Blis": "Bliss-Symboler",
          "Bopo": "Bopomofo",
          "Brah": "Brahmi",
          "Brai": "Blanneschrëft",
          "Bugi": "Buginesesch",
          "Buhd": "Buhid",
          "Cakm": "Cakm",
          "Cans": "UCAS",
          "Cari": "Karesch",
          "Cham": "Cham",
          "Cher": "Cherokee",
          "Cirt": "Cirth",
          "Copt": "Koptesch",
          "Cprt": "Zypriotesch",
          "Cyrl": "Kyrillesch",
          "Cyrs": "Alkiercheslawesch",
          "Deva": "Devanagari",
          "Dsrt": "Deseret",
          "Dupl": "Dupl",
          "Egyd": "Egyptesch-Demotesch",
          "Egyh": "Egyptesch-Hieratesch",
          "Egyp": "Egyptesch Hieroglyphen",
          "Elba": "Elba",
          "Ethi": "Ethiopesch",
          "Geok": "Khutsuri",
          "Geor": "Georgesch",
          "Glag": "Glagolitesch",
          "Goth": "Gotesch",
          "Gran": "Gran",
          "Grek": "Griichesch",
          "Gujr": "Gujarati",
          "Guru": "Gurmukhi",
          "Hang": "Hangul",
          "Hani": "Chinesesch",
          "Hano": "Hanunoo",
          "Hans": "Vereinfacht",
          "Hans-alt-stand-alone": "Vereinfacht Chinesesch",
          "Hant": "Traditionell",
          "Hant-alt-stand-alone": "Traditionellt Chinesesch",
          "Hebr": "Hebräesch",
          "Hira": "Hiragana",
          "Hluw": "Hluw",
          "Hmng": "Pahawh Hmong",
          "Hrkt": "Katakana oder Hiragana",
          "Hung": "Alungaresch",
          "Inds": "Indus-Schrëft",
          "Ital": "Alitalesch",
          "Java": "Javanesesch",
          "Jpan": "Japanesch",
          "Jurc": "Jurc",
          "Kali": "Kayah Li",
          "Kana": "Katakana",
          "Khar": "Kharoshthi",
          "Khmr": "Khmer",
          "Khoj": "Khoj",
          "Knda": "Kannada",
          "Kore": "Koreanesch",
          "Kpel": "Kpel",
          "Kthi": "Kthi",
          "Lana": "Lanna",
          "Laoo": "Laotesch",
          "Latf": "Laténgesch-Fraktur-Variant",
          "Latg": "Laténgesch-Gällesch Variant",
          "Latn": "Laténgesch",
          "Lepc": "Lepcha",
          "Limb": "Limbu",
          "Lina": "Linear A",
          "Linb": "Linear B",
          "Lisu": "Lisu",
          "Loma": "Loma",
          "Lyci": "Lykesch",
          "Lydi": "Lydesch",
          "Mahj": "Mahj",
          "Mand": "Mandäesch",
          "Mani": "Manichäesch",
          "Maya": "Maya-Hieroglyphen",
          "Mend": "Mend",
          "Merc": "Merc",
          "Mero": "Meroitesch",
          "Mlym": "Malaysesch",
          "Modi": "Modi",
          "Mong": "Mongolesch",
          "Moon": "Moon",
          "Mroo": "Mroo",
          "Mtei": "Meitei Mayek",
          "Mymr": "Birmanesch",
          "Narb": "Narb",
          "Nbat": "Nbat",
          "Nkgb": "Nkgb",
          "Nkoo": "N’Ko",
          "Nshu": "Nshu",
          "Ogam": "Ogham",
          "Olck": "Ol Chiki",
          "Orkh": "Orchon-Runen",
          "Orya": "Oriya",
          "Osma": "Osmanesch",
          "Palm": "Palm",
          "Pauc": "Pauc",
          "Perm": "Alpermesch",
          "Phag": "Phags-pa",
          "Phli": "Phli",
          "Phlp": "Phlp",
          "Phlv": "Pahlavi",
          "Phnx": "Phönizesch",
          "Plrd": "Pollard Phonetesch",
          "Prti": "Prti",
          "Qaaa": "Qaaa",
          "Qaab": "Qaab",
          "Qaac": "Qaac",
          "Qaad": "Qaad",
          "Qaae": "Qaae",
          "Qaaf": "Qaaf",
          "Qaag": "Qaag",
          "Qaah": "Qaah",
          "Qaaj": "Qaaj",
          "Qaak": "Qaak",
          "Qaal": "Qaal",
          "Qaam": "Qaam",
          "Qaan": "Qaan",
          "Qaao": "Qaao",
          "Qaap": "Qaap",
          "Qaaq": "Qaaq",
          "Qaar": "Qaar",
          "Qaas": "Qaas",
          "Qaat": "Qaat",
          "Qaau": "Qaau",
          "Qaav": "Qaav",
          "Qaaw": "Qaaw",
          "Qaax": "Qaax",
          "Qaay": "Qaay",
          "Qaaz": "Qaaz",
          "Qaba": "Qaba",
          "Qabb": "Qabb",
          "Qabc": "Qabc",
          "Qabd": "Qabd",
          "Qabe": "Qabe",
          "Qabf": "Qabf",
          "Qabg": "Qabg",
          "Qabh": "Qabh",
          "Qabi": "Qabi",
          "Qabj": "Qabj",
          "Qabk": "Qabk",
          "Qabl": "Qabl",
          "Qabm": "Qabm",
          "Qabn": "Qabn",
          "Qabo": "Qabo",
          "Qabp": "Qabp",
          "Qabq": "Qabq",
          "Qabr": "Qabr",
          "Qabs": "Qabs",
          "Qabt": "Qabt",
          "Qabu": "Qabu",
          "Qabv": "Qabv",
          "Qabw": "Qabw",
          "Qabx": "Qabx",
          "Rjng": "Rejang",
          "Roro": "Rongorongo",
          "Runr": "Runeschrëft",
          "Samr": "Samaritanesch",
          "Sara": "Sarati",
          "Sarb": "Sarb",
          "Saur": "Saurashtra",
          "Sgnw": "Zeechesprooch",
          "Shaw": "Shaw-Alphabet",
          "Shrd": "Shrd",
          "Sidd": "Sidd",
          "Sind": "Sind",
          "Sinh": "Singhalesesch",
          "Sora": "Sora",
          "Sund": "Sundanesesch",
          "Sylo": "Syloti Nagri",
          "Syrc": "Syresch",
          "Syre": "Syresch-Estrangelo-Variant",
          "Syrj": "Westsyresch",
          "Syrn": "Ostsyresch",
          "Tagb": "Tagb",
          "Takr": "Takr",
          "Tale": "Tai Le",
          "Talu": "Tai Lue",
          "Taml": "Tamilesch",
          "Tang": "Tang",
          "Tavt": "Tavt",
          "Telu": "Telugu",
          "Teng": "Tengwar",
          "Tfng": "Tifinagh",
          "Tglg": "Dagalog",
          "Thaa": "Thaana",
          "Thai": "Thai",
          "Tibt": "Tibetesch",
          "Tirh": "Tirh",
          "Ugar": "Ugaritesch",
          "Vaii": "Vai",
          "Visp": "Siichtbar Sprooch",
          "Wara": "Wara",
          "Wole": "Wole",
          "Xpeo": "Alpersesch",
          "Xsux": "Sumeresch-akkadesch Keilschrëft",
          "Yiii": "Yi",
          "Zinh": "Geierfte Schrëftwäert",
          "Zmth": "Zmth",
          "Zsym": "Symboler",
          "Zxxx": "Ouni Schrëft",
          "Zyyy": "Onbestëmmt",
          "Zzzz": "Oncodéiert Schrëft"
        }
      }
    }
  }
}
