{
  "main": {
    "sr-Latn-RS": {
      "identity": {
        "version": {
          "_cldrVersion": "26",
          "_number": "$Revision: 10669 $"
        },
        "generation": {
          "_date": "$Date: 2014-07-23 16:10:33 -0500 (Wed, 23 Jul 2014) $"
        },
        "language": "root",
        "script": "Latn",
        "territory": "RS"
      },
      "localeDisplayNames": {
        "localeDisplayPattern": {
          "localePattern": "{0} ({1})",
          "localeSeparator": "{0}, {1}",
          "localeKeyTypePattern": "{0}: {1}"
        },
        "keys": {
          "calendar": "kalendar",
          "colAlternate": "Sortiranje uz ignorisanje simbola",
          "colBackwards": "Sortiranje prema obrnutim akcentima",
          "colCaseFirst": "Ređanje prema malom/velikom slovu",
          "colCaseLevel": "Sortiranje prema malom/velikom slovu",
          "colHiraganaQuaternary": "Sortiranje prema kana simbolima",
          "colNormalization": "Normalizovano sortiranje",
          "colNumeric": "Numeričko sortiranje",
          "colStrength": "Sortiranje prema jačini",
          "collation": "Sortiranje",
          "currency": "valuta",
          "numbers": "brojevi",
          "timezone": "Vremenska zona",
          "va": "Varijanta lokaliteta",
          "variableTop": "Sortiraj kao simbole",
          "x": "Privatna upotreba"
        },
        "types": {
          "numbers": {
            "arab": "arapsko-indijske cifre",
            "arabext": "produžene arapsko-indijske cifre",
            "armn": "jermenski brojevi",
            "armnlow": "mali jermenski brojevi",
            "bali": "bali",
            "beng": "bengalske cifre"
          },
          "collation": {
            "big5han": "Tradicionalno kinesko sortiranje"
          },
          "numbers": {
            "brah": "brah"
          },
          "calendar": {
            "buddhist": "budistički kalendar"
          },
          "numbers": {
            "cakm": "cakm",
            "cham": "cham"
          },
          "calendar": {
            "chinese": "kineski kalendar",
            "coptic": "koptski kalendar",
            "dangi": "dangi kalendar"
          },
          "numbers": {
            "deva": "devangari cifre"
          },
          "collation": {
            "dictionary": "Redosled sortiranja u rečniku",
            "ducet": "Podrazumevani Unicode redosled sortiranja",
            "eor": "eor"
          },
          "numbers": {
            "ethi": "etiopski brojevi"
          },
          "calendar": {
            "ethiopic": "etiopski kalendar",
            "ethiopic-amete-alem": "etiopski amet alem kalendar"
          },
          "numbers": {
            "finance": "Finansijski brojevi",
            "fullwide": "cifre pune širine"
          },
          "collation": {
            "gb2312han": "Pojednostavljeno kinesko sortiranje"
          },
          "numbers": {
            "geor": "gruzijski brojevi"
          },
          "calendar": {
            "gregorian": "gregorijanski kalendar"
          },
          "numbers": {
            "grek": "grčki brojevi",
            "greklow": "mali grčki brojevi",
            "gujr": "gudžaratske cifre",
            "guru": "gurmuki cifre",
            "hanidec": "kineski decimalni brojevi",
            "hans": "pojednostavljeni kineski brojevi",
            "hansfin": "pojednostavljeni kineski finansijski brojevi",
            "hant": "tradicionalni kineski brojevi",
            "hantfin": "tradicionalni kineski finansijski brojevi",
            "hebr": "hebrejski brojevi"
          },
          "calendar": {
            "hebrew": "hebrejski kalendar"
          },
          "colStrength": {
            "identical": "Sortiraj sve"
          },
          "calendar": {
            "indian": "Indijski nacionalni kalendar",
            "islamic": "islamski kalendar",
            "islamic-civil": "Islamski civilni kalendar",
            "islamic-rgsa": "islamic-rgsa",
            "islamic-tbla": "islamic-tbla",
            "islamic-umalqura": "islamic-umalqura",
            "iso8601": "ISO-8601 kalendar",
            "japanese": "japanski kalendar"
          },
          "numbers": {
            "java": "java",
            "jpan": "japanski brojevi",
            "jpanfin": "japanski finansijski brojevi",
            "kali": "kali",
            "khmr": "kmerske cifre",
            "knda": "kanada cifre",
            "lana": "lana",
            "lanatham": "lanatham",
            "laoo": "laoške cifre",
            "latn": "zapadne cifre",
            "lepc": "lepc",
            "limb": "limb"
          },
          "colCaseFirst": {
            "lower": "Sortiraj prvo mala slova"
          },
          "numbers": {
            "mlym": "malajalam cifre",
            "mong": "mongolske cifre",
            "mtei": "mtei",
            "mymr": "mijanmarske cifre",
            "mymrshan": "mymrshan",
            "native": "Lokalne cifre",
            "nkoo": "nkoo"
          },
          "colBackwards": {
            "no": "Sortiraj akcente normalno"
          },
          "colCaseFirst": {
            "no": "Sortiraj normalan redosled velikih i malih slova"
          },
          "colCaseLevel": {
            "no": "Sortiraj bez obzira na velika i mala slova"
          },
          "colHiraganaQuaternary": {
            "no": "Sortiraj kana simbole odvojeno"
          },
          "colNormalization": {
            "no": "Sortiraj bez normalizacije"
          },
          "colNumeric": {
            "no": "Sortiraj cifre pojedinačno"
          },
          "colAlternate": {
            "non-ignorable": "Sortiraj simbole"
          },
          "numbers": {
            "olck": "olck",
            "orya": "orija cifre",
            "osma": "osma"
          },
          "calendar": {
            "persian": "persijski kalendar"
          },
          "collation": {
            "phonebook": "Sortiranje kao telefonski imenik",
            "phonetic": "Fonetski redosled sortiranja",
            "pinyin": "Pinjin sortiranje"
          },
          "colStrength": {
            "primary": "Sortiraj samo osnovna slova",
            "quaternary": "Sortiraj akcente/mala i velika slova/širinu/kana simbole"
          },
          "collation": {
            "reformed": "Reformisani redosled sortiranja"
          },
          "calendar": {
            "roc": "kalendar Republike Kine"
          },
          "numbers": {
            "roman": "rimski brojevi",
            "romanlow": "mali rimski brojevi",
            "saur": "saur"
          },
          "collation": {
            "search": "pretraga opšte namene",
            "searchjl": "Pretraga prema hangul početnom suglasniku"
          },
          "colStrength": {
            "secondary": "Sortiraj akcente"
          },
          "colAlternate": {
            "shifted": "Sortiranje uz ignorisanje simbola"
          },
          "numbers": {
            "shrd": "shrd",
            "sora": "sora"
          },
          "collation": {
            "standard": "standardni redosled sortiranja",
            "stroke": "Sortiranje po broju crta"
          },
          "numbers": {
            "sund": "sund",
            "takr": "takr",
            "talu": "talu",
            "taml": "tamilski brojevi",
            "tamldec": "tamilske cifre",
            "telu": "telugu cifre"
          },
          "colStrength": {
            "tertiary": "Sortiraj akcente/mala i velika slova/širinu"
          },
          "numbers": {
            "thai": "tajske cifre",
            "tibt": "tibetanske cifre"
          },
          "collation": {
            "traditional": "Tradicionalno sortiranje"
          },
          "numbers": {
            "traditional": "Tradicionalni brojevi"
          },
          "collation": {
            "unihan": "Redosled sortiranja radikalnim crticama"
          },
          "colCaseFirst": {
            "upper": "Sortiraj prvo velika slova"
          },
          "numbers": {
            "vaii": "Vai cifre"
          },
          "colBackwards": {
            "yes": "Sortiraj akcente obrnuto"
          },
          "colCaseLevel": {
            "yes": "Sortiraj mala i velika slova"
          },
          "colHiraganaQuaternary": {
            "yes": "Sortiraj kana simbole drugačije"
          },
          "colNormalization": {
            "yes": "Sortiraj Unicode normalizovano"
          },
          "colNumeric": {
            "yes": "Sortiraj cifre numerički"
          },
          "collation": {
            "zhuyin": "zhuyin"
          }
        },
        "codePatterns": {
          "language": "Jezik: {0}",
          "script": "pismo: {0}",
          "territory": "Region: {0}"
        }
      }
    }
  }
}
