{
  "main": {
    "sr-Cyrl-BA": {
      "identity": {
        "version": {
          "_cldrVersion": "26",
          "_number": "$Revision: 10819 $"
        },
        "generation": {
          "_date": "$Date: 2014-08-14 22:53:08 -0500 (Thu, 14 Aug 2014) $"
        },
        "language": "root",
        "script": "Cyrl",
        "territory": "BA"
      },
      "dates": {
        "calendars": {
          "roc": {
            "months": {
              "format": {
                "abbreviated": {
                  "1": "јан",
                  "2": "феб",
                  "3": "мар",
                  "4": "апр",
                  "5": "мај",
                  "6": "јун",
                  "7": "јул",
                  "8": "авг",
                  "9": "сеп",
                  "10": "окт",
                  "11": "нов",
                  "12": "дец"
                },
                "narrow": {
                  "1": "ј",
                  "2": "ф",
                  "3": "м",
                  "4": "а",
                  "5": "м",
                  "6": "ј",
                  "7": "ј",
                  "8": "а",
                  "9": "с",
                  "10": "о",
                  "11": "н",
                  "12": "д"
                },
                "wide": {
                  "1": "јануар",
                  "2": "фебруар",
                  "3": "март",
                  "4": "април",
                  "5": "мај",
                  "6": "јуни",
                  "7": "јули",
                  "8": "август",
                  "9": "септембар",
                  "10": "октобар",
                  "11": "новембар",
                  "12": "децембар"
                }
              },
              "stand-alone": {
                "abbreviated": {
                  "1": "јан",
                  "2": "феб",
                  "3": "мар",
                  "4": "апр",
                  "5": "мај",
                  "6": "јун",
                  "7": "јул",
                  "8": "авг",
                  "9": "сеп",
                  "10": "окт",
                  "11": "нов",
                  "12": "дец"
                },
                "narrow": {
                  "1": "ј",
                  "2": "ф",
                  "3": "м",
                  "4": "а",
                  "5": "м",
                  "6": "ј",
                  "7": "ј",
                  "8": "а",
                  "9": "с",
                  "10": "о",
                  "11": "н",
                  "12": "д"
                },
                "wide": {
                  "1": "јануар",
                  "2": "фебруар",
                  "3": "март",
                  "4": "април",
                  "5": "мај",
                  "6": "јун",
                  "7": "јул",
                  "8": "август",
                  "9": "септембар",
                  "10": "октобар",
                  "11": "новембар",
                  "12": "децембар"
                }
              }
            },
            "days": {
              "format": {
                "abbreviated": {
                  "sun": "нед",
                  "mon": "пон",
                  "tue": "уто",
                  "wed": "сри",
                  "thu": "чет",
                  "fri": "пет",
                  "sat": "суб"
                },
                "narrow": {
                  "sun": "н",
                  "mon": "п",
                  "tue": "у",
                  "wed": "с",
                  "thu": "ч",
                  "fri": "п",
                  "sat": "с"
                },
                "short": {
                  "sun": "нед",
                  "mon": "пон",
                  "tue": "уто",
                  "wed": "сре",
                  "thu": "чет",
                  "fri": "пет",
                  "sat": "суб"
                },
                "wide": {
                  "sun": "недеља",
                  "mon": "понедељак",
                  "tue": "уторак",
                  "wed": "сриједа",
                  "thu": "четвртак",
                  "fri": "петак",
                  "sat": "субота"
                }
              },
              "stand-alone": {
                "abbreviated": {
                  "sun": "нед",
                  "mon": "пон",
                  "tue": "уто",
                  "wed": "сре",
                  "thu": "чет",
                  "fri": "пет",
                  "sat": "суб"
                },
                "narrow": {
                  "sun": "н",
                  "mon": "п",
                  "tue": "у",
                  "wed": "с",
                  "thu": "ч",
                  "fri": "п",
                  "sat": "с"
                },
                "short": {
                  "sun": "не",
                  "mon": "по",
                  "tue": "ут",
                  "wed": "ср",
                  "thu": "че",
                  "fri": "пе",
                  "sat": "су"
                },
                "wide": {
                  "sun": "недеља",
                  "mon": "понедељак",
                  "tue": "уторак",
                  "wed": "среда",
                  "thu": "четвртак",
                  "fri": "петак",
                  "sat": "субота"
                }
              }
            },
            "quarters": {
              "format": {
                "abbreviated": {
                  "1": "К1",
                  "2": "К2",
                  "3": "К3",
                  "4": "К4"
                },
                "narrow": {
                  "1": "1.",
                  "2": "2.",
                  "3": "3.",
                  "4": "4."
                },
                "wide": {
                  "1": "Прво тромесечје",
                  "2": "Друго тромесечје",
                  "3": "Треће тромесечје",
                  "4": "Четврто тромесечје"
                }
              },
              "stand-alone": {
                "abbreviated": {
                  "1": "К1",
                  "2": "К2",
                  "3": "К3",
                  "4": "К4"
                },
                "narrow": {
                  "1": "1.",
                  "2": "2.",
                  "3": "3.",
                  "4": "4."
                },
                "wide": {
                  "1": "Прво тромесечје",
                  "2": "Друго тромесечје",
                  "3": "Треће тромесечје",
                  "4": "Четврто тромесечје"
                }
              }
            },
            "dayPeriods": {
              "format": {
                "abbreviated": {
                  "am": "пре подне",
                  "noon": "у подне",
                  "pm": "по подне"
                },
                "narrow": {
                  "am": "a",
                  "noon": "n",
                  "pm": "p"
                },
                "wide": {
                  "am": "пре подне",
                  "noon": "у подне",
                  "pm": "по подне"
                }
              },
              "stand-alone": {
                "abbreviated": {
                  "am": "пре подне",
                  "noon": "у подне",
                  "pm": "по подне"
                },
                "narrow": {
                  "am": "a",
                  "noon": "n",
                  "pm": "p"
                },
                "wide": {
                  "am": "пре подне",
                  "noon": "у подне",
                  "pm": "по подне"
                }
              }
            },
            "eras": {
              "eraNames": {
                "0": "Пре РК",
                "1": "РК"
              },
              "eraAbbr": {
                "0": "Пре РК",
                "1": "РК"
              },
              "eraNarrow": {
                "0": "Пре РК",
                "1": "РК"
              }
            },
            "dateFormats": {
              "full": "EEEE, dd. MMMM y. G",
              "long": "dd. MMMM y. G",
              "medium": "G y-MM-dd",
              "short": "GGGGG yy-MM-dd"
            },
            "timeFormats": {
              "full": "HH 'часова', mm 'минута', ss 'секунди' zzzz",
              "long": "HH.mm.ss z",
              "medium": "HH:mm:ss",
              "short": "HH:mm"
            },
            "dateTimeFormats": {
              "full": "{1} {0}",
              "long": "{1} {0}",
              "medium": "{1} {0}",
              "short": "{1} {0}",
              "availableFormats": {
                "E": "ccc",
                "EHm": "E HH:mm",
                "EHms": "E HH:mm:ss",
                "Ed": "E d.",
                "Ehm": "E h:mm a",
                "Ehms": "E h:mm:ss a",
                "Gy": "y. G",
                "GyMMM": "MMM y. G",
                "GyMMMEd": "E, d. MMM y. G",
                "GyMMMd": "d. MMM y. G",
                "H": "HH",
                "Hm": "HH.mm",
                "Hms": "HH.mm.ss",
                "M": "L",
                "MEd": "E, M-d",
                "MMM": "LLL",
                "MMMEd": "E d. MMM",
                "MMMMEd": "E d. MMMM",
                "MMMMd": "d. MMMM",
                "MMMd": "d. MMM",
                "MMMdd": "dd.MMM",
                "MMdd": "MM-dd",
                "Md": "d/M",
                "d": "d",
                "h": "hh a",
                "hm": "hh.mm a",
                "hms": "hh.mm.ss a",
                "ms": "mm.ss",
                "y": "y. G",
                "yyyy": "y. G",
                "yyyyM": "M.y. G",
                "yyyyMEd": "E, d.M.y. G",
                "yyyyMM": "MM.y. G",
                "yyyyMMM": "MMM y. G",
                "yyyyMMMEd": "E, d. MMM y. G",
                "yyyyMMMM": "MMMM y. G",
                "yyyyMMMd": "d. MMM y. G",
                "yyyyMMdd": "dd.MM.y. G",
                "yyyyMd": "d.M.y. G",
                "yyyyQQQ": "QQQ, y. G",
                "yyyyQQQQ": "QQQQ y. G"
              },
              "appendItems": {
                "Day": "{0} ({2}: {1})",
                "Day-Of-Week": "{0} {1}",
                "Era": "{1} {0}",
                "Hour": "{0} ({2}: {1})",
                "Minute": "{0} ({2}: {1})",
                "Month": "{0} ({2}: {1})",
                "Quarter": "{0} ({2}: {1})",
                "Second": "{0} ({2}: {1})",
                "Timezone": "{0} {1}",
                "Week": "{0} ({2}: {1})",
                "Year": "{1} {0}"
              },
              "intervalFormats": {
                "intervalFormatFallback": "{0} - {1}",
                "H": {
                  "H": "HH-HH"
                },
                "Hm": {
                  "H": "HH.mm-HH.mm",
                  "m": "HH.mm-HH.mm"
                },
                "Hmv": {
                  "H": "HH.mm-HH.mm v",
                  "m": "HH.mm-HH.mm v"
                },
                "Hv": {
                  "H": "HH-HH v"
                },
                "M": {
                  "M": "M-M"
                },
                "MEd": {
                  "M": "E, MM-dd - E, MM-dd",
                  "d": "E, MM-dd - E, MM-dd"
                },
                "MMM": {
                  "M": "MMM-MMM"
                },
                "MMMEd": {
                  "M": "E, dd. MMM - E, dd. MMM",
                  "d": "E, dd. - E, dd. MMM"
                },
                "MMMd": {
                  "M": "dd. MMM - dd. MMM",
                  "d": "dd.-dd. MMM"
                },
                "Md": {
                  "M": "MM-dd - MM-dd",
                  "d": "MM-dd - MM-dd"
                },
                "d": {
                  "d": "d-d"
                },
                "h": {
                  "a": "h a - h a",
                  "h": "h-h a"
                },
                "hm": {
                  "a": "h.mm a - h.mm a",
                  "h": "h.mm-h.mm a",
                  "m": "h.mm-h.mm a"
                },
                "hmv": {
                  "a": "h.mm a - h.mm a v",
                  "h": "h.mm-h.mm a v",
                  "m": "h.mm-h.mm a v"
                },
                "hv": {
                  "a": "h a - h a v",
                  "h": "h-h a v"
                },
                "y": {
                  "y": "y-y"
                },
                "yM": {
                  "M": "y-MM - y-MM",
                  "y": "y-MM - y-MM"
                },
                "yMEd": {
                  "M": "E, y-MM-dd - E, y-MM-dd",
                  "d": "E, y-MM-dd - E, y-MM-dd",
                  "y": "E, y-MM-dd - E, y-MM-dd"
                },
                "yMMM": {
                  "M": "MMM-MMM y.",
                  "y": "MMM y. - MMM y."
                },
                "yMMMEd": {
                  "M": "E, dd. MMM - E, dd. MMM y.",
                  "d": "E, dd. - E, dd. MMM y.",
                  "y": "E, dd. MMM y. - E, dd. MMM y."
                },
                "yMMMM": {
                  "M": "y-MM – MM",
                  "y": "y-MM – y-MM"
                },
                "yMMMd": {
                  "M": "dd. MMM - dd. MMM y.",
                  "d": "dd.-dd. MMM y.",
                  "y": "dd. MMM y. - dd. MMM y."
                },
                "yMd": {
                  "M": "y-MM-dd - y-MM-dd",
                  "d": "y-MM-dd - y-MM-dd",
                  "y": "y-MM-dd - y-MM-dd"
                }
              }
            }
          }
        }
      }
    }
  }
}
