{
  "main": {
    "sr-Cyrl-BA": {
      "identity": {
        "version": {
          "_cldrVersion": "26",
          "_number": "$Revision: 10819 $"
        },
        "generation": {
          "_date": "$Date: 2014-08-14 22:53:08 -0500 (Thu, 14 Aug 2014) $"
        },
        "language": "root",
        "script": "Cyrl",
        "territory": "BA"
      },
      "characters": {
        "exemplarCharacters": "[а б в г д ђ е ж з и ј к л љ м н њ о п р с т ћ у ф х ц ч џ ш]",
        "auxiliary": "[ё й щ ъ ы ь э ю я]",
        "punctuation": "[\\- ‐ – , ; \\: ! ? . … ‘ ‚ “ „ ( ) \\[ \\] \\{ \\} * #]",
        "index": "[А Б В Г Д Ђ Е Ж З И Ј К Л Љ М Н Њ О П Р С Т Ћ У Ф Х Ц Ч Џ Ш]",
        "ellipsis": {
          "initial": "…{0}",
          "medial": "{0}…{1}",
          "final": "{0}…",
          "word-initial": "… {0}",
          "word-medial": "{0} … {1}",
          "word-final": "{0} …"
        },
        "moreInformation": "?"
      }
    }
  }
}
