{
  "main": {
    "sr-Cyrl-BA": {
      "identity": {
        "version": {
          "_cldrVersion": "26",
          "_number": "$Revision: 10819 $"
        },
        "generation": {
          "_date": "$Date: 2014-08-14 22:53:08 -0500 (Thu, 14 Aug 2014) $"
        },
        "language": "root",
        "script": "Cyrl",
        "territory": "BA"
      },
      "dates": {
        "fields": {
          "era": {
            "displayName": "ера"
          },
          "year": {
            "displayName": "година",
            "relative-type--1": "прошле године",
            "relative-type-0": "ове године",
            "relative-type-1": "следеће године",
            "relativeTime-type-future": {
              "relativeTimePattern-count-one": "за {0} годину",
              "relativeTimePattern-count-few": "за {0} године",
              "relativeTimePattern-count-other": "за {0} година"
            },
            "relativeTime-type-past": {
              "relativeTimePattern-count-one": "пре {0} године",
              "relativeTimePattern-count-few": "пре {0} године",
              "relativeTimePattern-count-other": "пре {0} година"
            }
          },
          "year-short": {
            "displayName": "год.",
            "relative-type--1": "прошле године",
            "relative-type-0": "ове године",
            "relative-type-1": "следеће године",
            "relativeTime-type-future": {
              "relativeTimePattern-count-one": "за {0} год.",
              "relativeTimePattern-count-few": "за {0} год.",
              "relativeTimePattern-count-other": "за {0} год."
            },
            "relativeTime-type-past": {
              "relativeTimePattern-count-one": "пре {0} год.",
              "relativeTimePattern-count-few": "пре {0} год.",
              "relativeTimePattern-count-other": "пре {0} год."
            }
          },
          "year-narrow": {
            "displayName": "г.",
            "relative-type--1": "прошле године",
            "relative-type-0": "ове године",
            "relative-type-1": "следеће године",
            "relativeTime-type-future": {
              "relativeTimePattern-count-one": "за {0} г.",
              "relativeTimePattern-count-few": "за {0} г.",
              "relativeTimePattern-count-other": "за {0} г."
            },
            "relativeTime-type-past": {
              "relativeTimePattern-count-one": "пре {0} г.",
              "relativeTimePattern-count-few": "пре {0} г.",
              "relativeTimePattern-count-other": "пре {0} г."
            }
          },
          "quarter": {
            "displayName": "квартал",
            "relative-type--1": "last quarter",
            "relative-type-0": "this quarter",
            "relative-type-1": "next quarter",
            "relativeTime-type-future": {
              "relativeTimePattern-count-one": "за {0} квартал",
              "relativeTimePattern-count-few": "за {0} квартала",
              "relativeTimePattern-count-other": "за {0} квартала"
            },
            "relativeTime-type-past": {
              "relativeTimePattern-count-one": "пре {0} квартала",
              "relativeTimePattern-count-few": "пре {0} квартала",
              "relativeTimePattern-count-other": "пре {0} квартала"
            }
          },
          "quarter-short": {
            "displayName": "квартал",
            "relative-type--1": "last quarter",
            "relative-type-0": "this quarter",
            "relative-type-1": "next quarter",
            "relativeTime-type-future": {
              "relativeTimePattern-count-one": "за {0} квартала",
              "relativeTimePattern-count-few": "за {0} квартала",
              "relativeTimePattern-count-other": "за {0} квартала"
            },
            "relativeTime-type-past": {
              "relativeTimePattern-count-one": "пре {0} квартала",
              "relativeTimePattern-count-few": "пре {0} квартала",
              "relativeTimePattern-count-other": "пре {0} квартала"
            }
          },
          "quarter-narrow": {
            "displayName": "квартал",
            "relative-type--1": "last quarter",
            "relative-type-0": "this quarter",
            "relative-type-1": "next quarter",
            "relativeTime-type-future": {
              "relativeTimePattern-count-one": "за {0} квартала",
              "relativeTimePattern-count-few": "за {0} квартала",
              "relativeTimePattern-count-other": "за {0} квартала"
            },
            "relativeTime-type-past": {
              "relativeTimePattern-count-one": "пре {0} квартала",
              "relativeTimePattern-count-few": "пре {0} квартала",
              "relativeTimePattern-count-other": "пре {0} квартала"
            }
          },
          "month": {
            "displayName": "месец",
            "relative-type--1": "прошлог месеца",
            "relative-type-0": "овог месеца",
            "relative-type-1": "следећег месеца",
            "relativeTime-type-future": {
              "relativeTimePattern-count-one": "за {0} месец",
              "relativeTimePattern-count-few": "за {0} месеца",
              "relativeTimePattern-count-other": "за {0} месеци"
            },
            "relativeTime-type-past": {
              "relativeTimePattern-count-one": "пре {0} месеца",
              "relativeTimePattern-count-few": "пре {0} месеца",
              "relativeTimePattern-count-other": "пре {0} месеци"
            }
          },
          "month-short": {
            "displayName": "мес.",
            "relative-type--1": "прошлог месеца",
            "relative-type-0": "овог месеца",
            "relative-type-1": "следећег месеца",
            "relativeTime-type-future": {
              "relativeTimePattern-count-one": "за {0} мес.",
              "relativeTimePattern-count-few": "за {0} мес.",
              "relativeTimePattern-count-other": "за {0} мес."
            },
            "relativeTime-type-past": {
              "relativeTimePattern-count-one": "пре {0} мес.",
              "relativeTimePattern-count-few": "пре {0} мес.",
              "relativeTimePattern-count-other": "пре {0} мес."
            }
          },
          "month-narrow": {
            "displayName": "м.",
            "relative-type--1": "прошлог месеца",
            "relative-type-0": "овог месеца",
            "relative-type-1": "следећег месеца",
            "relativeTime-type-future": {
              "relativeTimePattern-count-one": "за {0} м.",
              "relativeTimePattern-count-few": "за {0} м.",
              "relativeTimePattern-count-other": "за {0} м."
            },
            "relativeTime-type-past": {
              "relativeTimePattern-count-one": "пре {0} м.",
              "relativeTimePattern-count-few": "пре {0} м.",
              "relativeTimePattern-count-other": "пре {0} м."
            }
          },
          "week": {
            "displayName": "недеља",
            "relative-type--1": "прошле недеље",
            "relative-type-0": "ове недеље",
            "relative-type-1": "следеће недеље",
            "relativeTime-type-future": {
              "relativeTimePattern-count-one": "за {0} недељу",
              "relativeTimePattern-count-few": "за {0} недеље",
              "relativeTimePattern-count-other": "за {0} недеља"
            },
            "relativeTime-type-past": {
              "relativeTimePattern-count-one": "пре {0} недеље",
              "relativeTimePattern-count-few": "пре {0} недеље",
              "relativeTimePattern-count-other": "пре {0} недеља"
            }
          },
          "week-short": {
            "displayName": "нед.",
            "relative-type--1": "прошле недеље",
            "relative-type-0": "ове недеље",
            "relative-type-1": "следеће недеље",
            "relativeTime-type-future": {
              "relativeTimePattern-count-one": "за {0} нед.",
              "relativeTimePattern-count-few": "за {0} нед.",
              "relativeTimePattern-count-other": "за {0} нед."
            },
            "relativeTime-type-past": {
              "relativeTimePattern-count-one": "пре {0} нед.",
              "relativeTimePattern-count-few": "пре {0} нед.",
              "relativeTimePattern-count-other": "пре {0} нед."
            }
          },
          "week-narrow": {
            "displayName": "н.",
            "relative-type--1": "прошле недеље",
            "relative-type-0": "ове недеље",
            "relative-type-1": "следеће недеље",
            "relativeTime-type-future": {
              "relativeTimePattern-count-one": "за {0} н.",
              "relativeTimePattern-count-few": "за {0} н.",
              "relativeTimePattern-count-other": "за {0} н."
            },
            "relativeTime-type-past": {
              "relativeTimePattern-count-one": "пре {0} н.",
              "relativeTimePattern-count-few": "пре {0} н.",
              "relativeTimePattern-count-other": "пре {0} н."
            }
          },
          "day": {
            "displayName": "дан",
            "relative-type--1": "јуче",
            "relative-type--2": "прекјуче",
            "relative-type-0": "данас",
            "relative-type-1": "сутра",
            "relative-type-2": "прекосутра",
            "relativeTime-type-future": {
              "relativeTimePattern-count-one": "за {0} дан",
              "relativeTimePattern-count-few": "за {0} дана",
              "relativeTimePattern-count-other": "за {0} дана"
            },
            "relativeTime-type-past": {
              "relativeTimePattern-count-one": "пре {0} дана",
              "relativeTimePattern-count-few": "пре {0} дана",
              "relativeTimePattern-count-other": "пре {0} дана"
            }
          },
          "day-short": {
            "displayName": "д.",
            "relative-type--1": "јуче",
            "relative-type--2": "прекјуче",
            "relative-type-0": "данас",
            "relative-type-1": "сутра",
            "relative-type-2": "прекосутра",
            "relativeTime-type-future": {
              "relativeTimePattern-count-one": "за {0} д.",
              "relativeTimePattern-count-few": "за {0} д.",
              "relativeTimePattern-count-other": "за {0} д."
            },
            "relativeTime-type-past": {
              "relativeTimePattern-count-one": "пре {0} д.",
              "relativeTimePattern-count-few": "пре {0} д.",
              "relativeTimePattern-count-other": "пре {0} д."
            }
          },
          "day-narrow": {
            "displayName": "д.",
            "relative-type--1": "јуче",
            "relative-type--2": "прекјуче",
            "relative-type-0": "данас",
            "relative-type-1": "сутра",
            "relative-type-2": "прекосутра",
            "relativeTime-type-future": {
              "relativeTimePattern-count-one": "за {0} д.",
              "relativeTimePattern-count-few": "за {0} д.",
              "relativeTimePattern-count-other": "за {0} д."
            },
            "relativeTime-type-past": {
              "relativeTimePattern-count-one": "пре {0} д.",
              "relativeTimePattern-count-few": "пре {0} д.",
              "relativeTimePattern-count-other": "пре {0} д."
            }
          },
          "weekday": {
            "displayName": "дан у недељи"
          },
          "sun": {
            "relative-type--1": "прошле недеље",
            "relative-type-0": "у недељу",
            "relative-type-1": "следеће недеље"
          },
          "sun-short": {
            "relative-type--1": "прошле нед",
            "relative-type-0": "у нед",
            "relative-type-1": "следеће нед"
          },
          "sun-narrow": {
            "relative-type--1": "прошле нед",
            "relative-type-0": "у нед",
            "relative-type-1": "следеће нед"
          },
          "mon": {
            "relative-type--1": "прошлог понедељка",
            "relative-type-0": "у понедељак",
            "relative-type-1": "следећег понедељка"
          },
          "mon-short": {
            "relative-type--1": "прошлог пон",
            "relative-type-0": "у пон",
            "relative-type-1": "следећег пон"
          },
          "mon-narrow": {
            "relative-type--1": "прошлог пон",
            "relative-type-0": "у пон",
            "relative-type-1": "следећег пон"
          },
          "tue": {
            "relative-type--1": "прошлог уторка",
            "relative-type-0": "у уторак",
            "relative-type-1": "следећег уторка"
          },
          "tue-short": {
            "relative-type--1": "прошлог уто",
            "relative-type-0": "у уто",
            "relative-type-1": "следећег уто"
          },
          "tue-narrow": {
            "relative-type--1": "прошлог уто",
            "relative-type-0": "у уто",
            "relative-type-1": "следећег уто"
          },
          "wed": {
            "relative-type--1": "прошле среде",
            "relative-type-0": "у среду",
            "relative-type-1": "следеће среде"
          },
          "wed-short": {
            "relative-type--1": "прошле сре",
            "relative-type-0": "у сре",
            "relative-type-1": "следеће сре"
          },
          "wed-narrow": {
            "relative-type--1": "прошле сре",
            "relative-type-0": "у сре",
            "relative-type-1": "следеће сре"
          },
          "thu": {
            "relative-type--1": "прошлог четвртка",
            "relative-type-0": "у четвртак",
            "relative-type-1": "следећег четвртка"
          },
          "thu-short": {
            "relative-type--1": "прошлог чет",
            "relative-type-0": "у чет",
            "relative-type-1": "следећег чет"
          },
          "thu-narrow": {
            "relative-type--1": "прошлог чет",
            "relative-type-0": "у чет",
            "relative-type-1": "следећег чет"
          },
          "fri": {
            "relative-type--1": "прошлог петка",
            "relative-type-0": "у петак",
            "relative-type-1": "следећег петка"
          },
          "fri-short": {
            "relative-type--1": "прошлог пет",
            "relative-type-0": "у пет",
            "relative-type-1": "следећег пет"
          },
          "fri-narrow": {
            "relative-type--1": "прошлог пет",
            "relative-type-0": "у пет",
            "relative-type-1": "следећег пет"
          },
          "sat": {
            "relative-type--1": "прошле суботе",
            "relative-type-0": "у суботу",
            "relative-type-1": "следеће суботе"
          },
          "sat-short": {
            "relative-type--1": "прошле суб",
            "relative-type-0": "у суб",
            "relative-type-1": "следеће суб"
          },
          "sat-narrow": {
            "relative-type--1": "прошле суб",
            "relative-type-0": "у суб",
            "relative-type-1": "следеће суб"
          },
          "dayperiod": {
            "displayName": "пре подне/по подне"
          },
          "hour": {
            "displayName": "сат",
            "relativeTime-type-future": {
              "relativeTimePattern-count-one": "за {0} сат",
              "relativeTimePattern-count-few": "за {0} сата",
              "relativeTimePattern-count-other": "за {0} сати"
            },
            "relativeTime-type-past": {
              "relativeTimePattern-count-one": "пре {0} сата",
              "relativeTimePattern-count-few": "пре {0} сата",
              "relativeTimePattern-count-other": "пре {0} сати"
            }
          },
          "hour-short": {
            "displayName": "ч.",
            "relativeTime-type-future": {
              "relativeTimePattern-count-one": "за {0} ч.",
              "relativeTimePattern-count-few": "за {0} ч.",
              "relativeTimePattern-count-other": "за {0} ч."
            },
            "relativeTime-type-past": {
              "relativeTimePattern-count-one": "пре {0} ч.",
              "relativeTimePattern-count-few": "пре {0} ч.",
              "relativeTimePattern-count-other": "пре {0} ч."
            }
          },
          "hour-narrow": {
            "displayName": "ч.",
            "relativeTime-type-future": {
              "relativeTimePattern-count-one": "за {0} ч.",
              "relativeTimePattern-count-few": "за {0} ч.",
              "relativeTimePattern-count-other": "за {0} ч."
            },
            "relativeTime-type-past": {
              "relativeTimePattern-count-one": "пре {0} ч.",
              "relativeTimePattern-count-few": "пре {0} ч.",
              "relativeTimePattern-count-other": "пре {0} ч."
            }
          },
          "minute": {
            "displayName": "минут",
            "relativeTime-type-future": {
              "relativeTimePattern-count-one": "за {0} минут",
              "relativeTimePattern-count-few": "за {0} минута",
              "relativeTimePattern-count-other": "за {0} минута"
            },
            "relativeTime-type-past": {
              "relativeTimePattern-count-one": "пре {0} минута",
              "relativeTimePattern-count-few": "пре {0} минута",
              "relativeTimePattern-count-other": "пре {0} минута"
            }
          },
          "minute-short": {
            "displayName": "мин.",
            "relativeTime-type-future": {
              "relativeTimePattern-count-one": "за {0} мин.",
              "relativeTimePattern-count-few": "за {0} мин.",
              "relativeTimePattern-count-other": "за {0} мин."
            },
            "relativeTime-type-past": {
              "relativeTimePattern-count-one": "пре {0} мин.",
              "relativeTimePattern-count-few": "пре {0} мин.",
              "relativeTimePattern-count-other": "пре {0} мин."
            }
          },
          "minute-narrow": {
            "displayName": "мин.",
            "relativeTime-type-future": {
              "relativeTimePattern-count-one": "за {0} мин.",
              "relativeTimePattern-count-few": "за {0} мин.",
              "relativeTimePattern-count-other": "за {0} мин."
            },
            "relativeTime-type-past": {
              "relativeTimePattern-count-one": "пре {0} мин.",
              "relativeTimePattern-count-few": "пре {0} мин.",
              "relativeTimePattern-count-other": "пре {0} мин."
            }
          },
          "second": {
            "displayName": "секунд",
            "relative-type-0": "сада",
            "relativeTime-type-future": {
              "relativeTimePattern-count-one": "за {0} секунду",
              "relativeTimePattern-count-few": "за {0} секунде",
              "relativeTimePattern-count-other": "за {0} секунди"
            },
            "relativeTime-type-past": {
              "relativeTimePattern-count-one": "пре {0} секунде",
              "relativeTimePattern-count-few": "пре {0} секунде",
              "relativeTimePattern-count-other": "пре {0} секунди"
            }
          },
          "second-short": {
            "displayName": "сек.",
            "relative-type-0": "сада",
            "relativeTime-type-future": {
              "relativeTimePattern-count-one": "за {0} сек.",
              "relativeTimePattern-count-few": "за {0} сек.",
              "relativeTimePattern-count-other": "за {0} сек."
            },
            "relativeTime-type-past": {
              "relativeTimePattern-count-one": "пре {0} сек.",
              "relativeTimePattern-count-few": "пре {0} сек.",
              "relativeTimePattern-count-other": "пре {0} сек."
            }
          },
          "second-narrow": {
            "displayName": "с.",
            "relative-type-0": "сада",
            "relativeTime-type-future": {
              "relativeTimePattern-count-one": "за {0} с.",
              "relativeTimePattern-count-few": "за {0} с.",
              "relativeTimePattern-count-other": "за {0} с."
            },
            "relativeTime-type-past": {
              "relativeTimePattern-count-one": "пре {0} с.",
              "relativeTimePattern-count-few": "пре {0} с.",
              "relativeTimePattern-count-other": "пре {0} с."
            }
          },
          "zone": {
            "displayName": "временска зона"
          }
        }
      }
    }
  }
}
