{
  "main": {
    "fr-WF": {
      "identity": {
        "version": {
          "_cldrVersion": "26",
          "_number": "$Revision: 10669 $"
        },
        "generation": {
          "_date": "$Date: 2014-07-23 16:10:33 -0500 (Wed, 23 Jul 2014) $"
        },
        "language": "fr",
        "territory": "WF"
      },
      "dates": {
        "timeZoneNames": {
          "hourFormat": "+HH:mm;−HH:mm",
          "gmtFormat": "UTC{0}",
          "gmtZeroFormat": "UTC",
          "regionFormat": "heure : {0}",
          "regionFormat-type-standard": "{0} (heure standard)",
          "regionFormat-type-daylight": "{0} (heure d’été)",
          "fallbackFormat": "{1} ({0})",
          "zone": {
            "America": {
              "Adak": {
                "exemplarCity": "Adak"
              },
              "Anchorage": {
                "exemplarCity": "Anchorage"
              },
              "Anguilla": {
                "exemplarCity": "Anguilla"
              },
              "Antigua": {
                "exemplarCity": "Antigua"
              },
              "Araguaina": {
                "exemplarCity": "Araguaína"
              },
              "Argentina": {
                "La_Rioja": {
                  "exemplarCity": "La Rioja"
                },
                "Rio_Gallegos": {
                  "exemplarCity": "Río Gallegos"
                },
                "Salta": {
                  "exemplarCity": "Salta"
                },
                "San_Juan": {
                  "exemplarCity": "San Juan"
                },
                "San_Luis": {
                  "exemplarCity": "San Luis"
                },
                "Tucuman": {
                  "exemplarCity": "Tucumán"
                },
                "Ushuaia": {
                  "exemplarCity": "Ushuaïa"
                }
              },
              "Aruba": {
                "exemplarCity": "Aruba"
              },
              "Asuncion": {
                "exemplarCity": "Asunción"
              },
              "Bahia": {
                "exemplarCity": "Bahia"
              },
              "Bahia_Banderas": {
                "exemplarCity": "Bahia de Banderas"
              },
              "Barbados": {
                "exemplarCity": "La Barbade"
              },
              "Belem": {
                "exemplarCity": "Belém"
              },
              "Belize": {
                "exemplarCity": "Belize"
              },
              "Blanc-Sablon": {
                "exemplarCity": "Blanc-Sablon"
              },
              "Boa_Vista": {
                "exemplarCity": "Boa Vista"
              },
              "Bogota": {
                "exemplarCity": "Bogota"
              },
              "Boise": {
                "exemplarCity": "Boise"
              },
              "Buenos_Aires": {
                "exemplarCity": "Buenos Aires"
              },
              "Cambridge_Bay": {
                "exemplarCity": "Cambridge Bay"
              },
              "Campo_Grande": {
                "exemplarCity": "Campo Grande"
              },
              "Cancun": {
                "exemplarCity": "Cancún"
              },
              "Caracas": {
                "exemplarCity": "Caracas"
              },
              "Catamarca": {
                "exemplarCity": "Catamarca"
              },
              "Cayenne": {
                "exemplarCity": "Cayenne"
              },
              "Cayman": {
                "exemplarCity": "Caïmans"
              },
              "Chicago": {
                "exemplarCity": "Chicago"
              },
              "Chihuahua": {
                "exemplarCity": "Chihuahua"
              },
              "Coral_Harbour": {
                "exemplarCity": "Atikokan"
              },
              "Cordoba": {
                "exemplarCity": "Córdoba"
              },
              "Costa_Rica": {
                "exemplarCity": "Costa Rica"
              },
              "Creston": {
                "exemplarCity": "Creston"
              },
              "Cuiaba": {
                "exemplarCity": "Cuiabá"
              },
              "Curacao": {
                "exemplarCity": "Curaçao"
              },
              "Danmarkshavn": {
                "exemplarCity": "Danmarkshavn"
              },
              "Dawson": {
                "exemplarCity": "Dawson"
              },
              "Dawson_Creek": {
                "exemplarCity": "Dawson Creek"
              },
              "Denver": {
                "exemplarCity": "Denver"
              },
              "Detroit": {
                "exemplarCity": "Détroit"
              },
              "Dominica": {
                "exemplarCity": "Dominique"
              },
              "Edmonton": {
                "exemplarCity": "Edmonton"
              },
              "Eirunepe": {
                "exemplarCity": "Eirunepé"
              },
              "El_Salvador": {
                "exemplarCity": "El Salvador"
              },
              "Fortaleza": {
                "exemplarCity": "Fortaleza"
              },
              "Glace_Bay": {
                "exemplarCity": "Glace Bay"
              },
              "Godthab": {
                "exemplarCity": "Nuuk"
              },
              "Goose_Bay": {
                "exemplarCity": "Goose Bay"
              },
              "Grand_Turk": {
                "exemplarCity": "Grand Turk"
              },
              "Grenada": {
                "exemplarCity": "Grenade"
              },
              "Guadeloupe": {
                "exemplarCity": "Guadeloupe"
              },
              "Guatemala": {
                "exemplarCity": "Guatemala"
              },
              "Guayaquil": {
                "exemplarCity": "Guayaquil"
              },
              "Guyana": {
                "exemplarCity": "Guyana"
              },
              "Halifax": {
                "exemplarCity": "Halifax"
              },
              "Havana": {
                "exemplarCity": "La Havane"
              },
              "Hermosillo": {
                "exemplarCity": "Hermosillo"
              },
              "Indiana": {
                "Knox": {
                  "exemplarCity": "Knox [Indiana]"
                },
                "Marengo": {
                  "exemplarCity": "Marengo [Indiana]"
                },
                "Petersburg": {
                  "exemplarCity": "Petersburg [Indiana]"
                },
                "Tell_City": {
                  "exemplarCity": "Tell City [Indiana]"
                },
                "Vevay": {
                  "exemplarCity": "Vevay [Indiana]"
                },
                "Vincennes": {
                  "exemplarCity": "Vincennes [Indiana]"
                },
                "Winamac": {
                  "exemplarCity": "Winamac [Indiana]"
                }
              },
              "Indianapolis": {
                "exemplarCity": "Indianapolis"
              },
              "Inuvik": {
                "exemplarCity": "Inuvik"
              },
              "Iqaluit": {
                "exemplarCity": "Iqaluit"
              },
              "Jamaica": {
                "exemplarCity": "Jamaïque"
              },
              "Jujuy": {
                "exemplarCity": "Jujuy"
              },
              "Juneau": {
                "exemplarCity": "Juneau"
              },
              "Kentucky": {
                "Monticello": {
                  "exemplarCity": "Monticello [Kentucky]"
                }
              },
              "Kralendijk": {
                "exemplarCity": "Kralendijk"
              },
              "La_Paz": {
                "exemplarCity": "La Paz"
              },
              "Lima": {
                "exemplarCity": "Lima"
              },
              "Los_Angeles": {
                "exemplarCity": "Los Angeles"
              },
              "Louisville": {
                "exemplarCity": "Louisville"
              },
              "Lower_Princes": {
                "exemplarCity": "Lower Prince’s Quarter"
              },
              "Maceio": {
                "exemplarCity": "Maceió"
              },
              "Managua": {
                "exemplarCity": "Managua"
              },
              "Manaus": {
                "exemplarCity": "Manaos"
              },
              "Marigot": {
                "exemplarCity": "Marigot"
              },
              "Martinique": {
                "exemplarCity": "Martinique"
              },
              "Matamoros": {
                "exemplarCity": "Matamoros"
              },
              "Mazatlan": {
                "exemplarCity": "Mazatlán"
              },
              "Mendoza": {
                "exemplarCity": "Mendoza"
              },
              "Menominee": {
                "exemplarCity": "Menominee"
              },
              "Merida": {
                "exemplarCity": "Mérida"
              },
              "Metlakatla": {
                "exemplarCity": "Metlakatla"
              },
              "Mexico_City": {
                "exemplarCity": "Mexico"
              },
              "Miquelon": {
                "exemplarCity": "Miquelon"
              },
              "Moncton": {
                "exemplarCity": "Moncton"
              },
              "Monterrey": {
                "exemplarCity": "Monterrey"
              },
              "Montevideo": {
                "exemplarCity": "Montevideo"
              },
              "Montserrat": {
                "exemplarCity": "Montserrat"
              },
              "Nassau": {
                "exemplarCity": "Nassau"
              },
              "New_York": {
                "exemplarCity": "New York"
              },
              "Nipigon": {
                "exemplarCity": "Nipigon"
              },
              "Nome": {
                "exemplarCity": "Nome"
              },
              "Noronha": {
                "exemplarCity": "Noronha"
              },
              "North_Dakota": {
                "Beulah": {
                  "exemplarCity": "Beulah [Dakota du Nord]"
                },
                "Center": {
                  "exemplarCity": "Center [Dakota du Nord]"
                },
                "New_Salem": {
                  "exemplarCity": "New Salem [Dakota du Nord]"
                }
              },
              "Ojinaga": {
                "exemplarCity": "Ojinaga"
              },
              "Panama": {
                "exemplarCity": "Panama"
              },
              "Pangnirtung": {
                "exemplarCity": "Pangnirtung"
              },
              "Paramaribo": {
                "exemplarCity": "Paramaribo"
              },
              "Phoenix": {
                "exemplarCity": "Phoenix"
              },
              "Port-au-Prince": {
                "exemplarCity": "Port-au-Prince"
              },
              "Port_of_Spain": {
                "exemplarCity": "Port-d’Espagne"
              },
              "Porto_Velho": {
                "exemplarCity": "Porto Velho"
              },
              "Puerto_Rico": {
                "exemplarCity": "Porto Rico"
              },
              "Rainy_River": {
                "exemplarCity": "Rainy River"
              },
              "Rankin_Inlet": {
                "exemplarCity": "Rankin Inlet"
              },
              "Recife": {
                "exemplarCity": "Recife"
              },
              "Regina": {
                "exemplarCity": "Regina"
              },
              "Resolute": {
                "exemplarCity": "Resolute"
              },
              "Rio_Branco": {
                "exemplarCity": "Rio Branco"
              },
              "Santa_Isabel": {
                "exemplarCity": "Santa Isabel"
              },
              "Santarem": {
                "exemplarCity": "Santarém"
              },
              "Santiago": {
                "exemplarCity": "Santiago"
              },
              "Santo_Domingo": {
                "exemplarCity": "Saint-Domingue"
              },
              "Sao_Paulo": {
                "exemplarCity": "São Paulo"
              },
              "Scoresbysund": {
                "exemplarCity": "Ittoqqortoormiit"
              },
              "Sitka": {
                "exemplarCity": "Sitka"
              },
              "St_Barthelemy": {
                "exemplarCity": "Saint-Barthélemy"
              },
              "St_Johns": {
                "exemplarCity": "Saint-Jean de Terre-Neuve"
              },
              "St_Kitts": {
                "exemplarCity": "Saint-Kitts"
              },
              "St_Lucia": {
                "exemplarCity": "Sainte-Lucie"
              },
              "St_Thomas": {
                "exemplarCity": "Saint-Thomas"
              },
              "St_Vincent": {
                "exemplarCity": "Saint-Vincent"
              },
              "Swift_Current": {
                "exemplarCity": "Swift Current"
              },
              "Tegucigalpa": {
                "exemplarCity": "Tégucigalpa"
              },
              "Thule": {
                "exemplarCity": "Thulé"
              },
              "Thunder_Bay": {
                "exemplarCity": "Thunder Bay"
              },
              "Tijuana": {
                "exemplarCity": "Tijuana"
              },
              "Toronto": {
                "exemplarCity": "Toronto"
              },
              "Tortola": {
                "exemplarCity": "Tortola"
              },
              "Vancouver": {
                "exemplarCity": "Vancouver"
              },
              "Whitehorse": {
                "exemplarCity": "Whitehorse"
              },
              "Winnipeg": {
                "exemplarCity": "Winnipeg"
              },
              "Yakutat": {
                "exemplarCity": "Yakutat"
              },
              "Yellowknife": {
                "exemplarCity": "Yellowknife"
              }
            },
            "Atlantic": {
              "Azores": {
                "exemplarCity": "Açores"
              },
              "Bermuda": {
                "exemplarCity": "Bermudes"
              },
              "Canary": {
                "exemplarCity": "Îles Canaries"
              },
              "Cape_Verde": {
                "exemplarCity": "Cap-Vert"
              },
              "Faeroe": {
                "exemplarCity": "Féroé"
              },
              "Madeira": {
                "exemplarCity": "Madère"
              },
              "Reykjavik": {
                "exemplarCity": "Reykjavik"
              },
              "South_Georgia": {
                "exemplarCity": "Géorgie du Sud"
              },
              "St_Helena": {
                "exemplarCity": "Sainte-Hélène"
              },
              "Stanley": {
                "exemplarCity": "Stanley"
              }
            },
            "Europe": {
              "Amsterdam": {
                "exemplarCity": "Amsterdam"
              },
              "Andorra": {
                "exemplarCity": "Andorre"
              },
              "Athens": {
                "exemplarCity": "Athènes"
              },
              "Belgrade": {
                "exemplarCity": "Belgrade"
              },
              "Berlin": {
                "exemplarCity": "Berlin"
              },
              "Bratislava": {
                "exemplarCity": "Bratislava"
              },
              "Brussels": {
                "exemplarCity": "Bruxelles"
              },
              "Bucharest": {
                "exemplarCity": "Bucarest"
              },
              "Budapest": {
                "exemplarCity": "Budapest"
              },
              "Busingen": {
                "exemplarCity": "Büsingen"
              },
              "Chisinau": {
                "exemplarCity": "Chisinau"
              },
              "Copenhagen": {
                "exemplarCity": "Copenhague"
              },
              "Dublin": {
                "long": {
                  "daylight": "heure d’été irlandaise"
                },
                "exemplarCity": "Dublin"
              },
              "Gibraltar": {
                "exemplarCity": "Gibraltar"
              },
              "Guernsey": {
                "exemplarCity": "Guernesey"
              },
              "Helsinki": {
                "exemplarCity": "Helsinki"
              },
              "Isle_of_Man": {
                "exemplarCity": "Île de Man"
              },
              "Istanbul": {
                "exemplarCity": "Istanbul"
              },
              "Jersey": {
                "exemplarCity": "Jersey"
              },
              "Kaliningrad": {
                "exemplarCity": "Kaliningrad"
              },
              "Kiev": {
                "exemplarCity": "Kiev"
              },
              "Lisbon": {
                "exemplarCity": "Lisbonne"
              },
              "Ljubljana": {
                "exemplarCity": "Ljubljana"
              },
              "London": {
                "long": {
                  "daylight": "heure d’été britannique"
                },
                "exemplarCity": "Londres"
              },
              "Luxembourg": {
                "exemplarCity": "Luxembourg"
              },
              "Madrid": {
                "exemplarCity": "Madrid"
              },
              "Malta": {
                "exemplarCity": "Malte"
              },
              "Mariehamn": {
                "exemplarCity": "Mariehamn"
              },
              "Minsk": {
                "exemplarCity": "Minsk"
              },
              "Monaco": {
                "exemplarCity": "Monaco"
              },
              "Moscow": {
                "exemplarCity": "Moscou"
              },
              "Oslo": {
                "exemplarCity": "Oslo"
              },
              "Paris": {
                "exemplarCity": "Paris"
              },
              "Podgorica": {
                "exemplarCity": "Podgorica"
              },
              "Prague": {
                "exemplarCity": "Prague"
              },
              "Riga": {
                "exemplarCity": "Riga"
              },
              "Rome": {
                "exemplarCity": "Rome"
              },
              "Samara": {
                "exemplarCity": "Samara"
              },
              "San_Marino": {
                "exemplarCity": "Saint-Marin"
              },
              "Sarajevo": {
                "exemplarCity": "Sarajevo"
              },
              "Simferopol": {
                "exemplarCity": "Simferopol"
              },
              "Skopje": {
                "exemplarCity": "Skopje"
              },
              "Sofia": {
                "exemplarCity": "Sofia"
              },
              "Stockholm": {
                "exemplarCity": "Stockholm"
              },
              "Tallinn": {
                "exemplarCity": "Tallinn"
              },
              "Tirane": {
                "exemplarCity": "Tirana"
              },
              "Uzhgorod": {
                "exemplarCity": "Oujgorod"
              },
              "Vaduz": {
                "exemplarCity": "Vaduz"
              },
              "Vatican": {
                "exemplarCity": "Le Vatican"
              },
              "Vienna": {
                "exemplarCity": "Vienne"
              },
              "Vilnius": {
                "exemplarCity": "Vilnius"
              },
              "Volgograd": {
                "exemplarCity": "Volgograd"
              },
              "Warsaw": {
                "exemplarCity": "Varsovie"
              },
              "Zagreb": {
                "exemplarCity": "Zagreb"
              },
              "Zaporozhye": {
                "exemplarCity": "Zaporojie"
              },
              "Zurich": {
                "exemplarCity": "Zurich"
              }
            },
            "Africa": {
              "Abidjan": {
                "exemplarCity": "Abidjan"
              },
              "Accra": {
                "exemplarCity": "Accra"
              },
              "Addis_Ababa": {
                "exemplarCity": "Addis-Abeba"
              },
              "Algiers": {
                "exemplarCity": "Alger"
              },
              "Asmera": {
                "exemplarCity": "Asmara"
              },
              "Bamako": {
                "exemplarCity": "Bamako"
              },
              "Bangui": {
                "exemplarCity": "Bangui"
              },
              "Banjul": {
                "exemplarCity": "Banjul"
              },
              "Bissau": {
                "exemplarCity": "Bissau"
              },
              "Blantyre": {
                "exemplarCity": "Blantyre"
              },
              "Brazzaville": {
                "exemplarCity": "Brazzaville"
              },
              "Bujumbura": {
                "exemplarCity": "Bujumbura"
              },
              "Cairo": {
                "exemplarCity": "Le Caire"
              },
              "Casablanca": {
                "exemplarCity": "Casablanca"
              },
              "Ceuta": {
                "exemplarCity": "Ceuta"
              },
              "Conakry": {
                "exemplarCity": "Conakry"
              },
              "Dakar": {
                "exemplarCity": "Dakar"
              },
              "Dar_es_Salaam": {
                "exemplarCity": "Dar es Salaam"
              },
              "Djibouti": {
                "exemplarCity": "Djibouti"
              },
              "Douala": {
                "exemplarCity": "Douala"
              },
              "El_Aaiun": {
                "exemplarCity": "Laâyoune"
              },
              "Freetown": {
                "exemplarCity": "Freetown"
              },
              "Gaborone": {
                "exemplarCity": "Gaborone"
              },
              "Harare": {
                "exemplarCity": "Harare"
              },
              "Johannesburg": {
                "exemplarCity": "Johannesburg"
              },
              "Juba": {
                "exemplarCity": "Juba"
              },
              "Kampala": {
                "exemplarCity": "Kampala"
              },
              "Khartoum": {
                "exemplarCity": "Khartoum"
              },
              "Kigali": {
                "exemplarCity": "Kigali"
              },
              "Kinshasa": {
                "exemplarCity": "Kinshasa"
              },
              "Lagos": {
                "exemplarCity": "Lagos"
              },
              "Libreville": {
                "exemplarCity": "Libreville"
              },
              "Lome": {
                "exemplarCity": "Lomé"
              },
              "Luanda": {
                "exemplarCity": "Luanda"
              },
              "Lubumbashi": {
                "exemplarCity": "Lubumbashi"
              },
              "Lusaka": {
                "exemplarCity": "Lusaka"
              },
              "Malabo": {
                "exemplarCity": "Malabo"
              },
              "Maputo": {
                "exemplarCity": "Maputo"
              },
              "Maseru": {
                "exemplarCity": "Maseru"
              },
              "Mbabane": {
                "exemplarCity": "Mbabane"
              },
              "Mogadishu": {
                "exemplarCity": "Mogadiscio"
              },
              "Monrovia": {
                "exemplarCity": "Monrovia"
              },
              "Nairobi": {
                "exemplarCity": "Nairobi"
              },
              "Ndjamena": {
                "exemplarCity": "N’Djamena"
              },
              "Niamey": {
                "exemplarCity": "Niamey"
              },
              "Nouakchott": {
                "exemplarCity": "Nouakchott"
              },
              "Ouagadougou": {
                "exemplarCity": "Ouagadougou"
              },
              "Porto-Novo": {
                "exemplarCity": "Porto-Novo"
              },
              "Sao_Tome": {
                "exemplarCity": "São Tomé"
              },
              "Tripoli": {
                "exemplarCity": "Tripoli [Libye]"
              },
              "Tunis": {
                "exemplarCity": "Tunis"
              },
              "Windhoek": {
                "exemplarCity": "Windhoek"
              }
            },
            "Asia": {
              "Aden": {
                "exemplarCity": "Aden"
              },
              "Almaty": {
                "exemplarCity": "Alma Ata"
              },
              "Amman": {
                "exemplarCity": "Amman"
              },
              "Anadyr": {
                "exemplarCity": "Anadyr"
              },
              "Aqtau": {
                "exemplarCity": "Aktaou"
              },
              "Aqtobe": {
                "exemplarCity": "Aktioubinsk"
              },
              "Ashgabat": {
                "exemplarCity": "Achgabat"
              },
              "Baghdad": {
                "exemplarCity": "Bagdad"
              },
              "Bahrain": {
                "exemplarCity": "Bahreïn"
              },
              "Baku": {
                "exemplarCity": "Bakou"
              },
              "Bangkok": {
                "exemplarCity": "Bangkok"
              },
              "Beirut": {
                "exemplarCity": "Beyrouth"
              },
              "Bishkek": {
                "exemplarCity": "Bichkek"
              },
              "Brunei": {
                "exemplarCity": "Brunei"
              },
              "Calcutta": {
                "exemplarCity": "Calcutta"
              },
              "Chita": {
                "exemplarCity": "Chita"
              },
              "Choibalsan": {
                "exemplarCity": "Tchoïbalsan"
              },
              "Chongqing": {
                "exemplarCity": "Chongqing"
              },
              "Colombo": {
                "exemplarCity": "Colombo"
              },
              "Damascus": {
                "exemplarCity": "Damas"
              },
              "Dhaka": {
                "exemplarCity": "Dhaka"
              },
              "Dili": {
                "exemplarCity": "Dili"
              },
              "Dubai": {
                "exemplarCity": "Dubaï"
              },
              "Dushanbe": {
                "exemplarCity": "Douchanbé"
              },
              "Gaza": {
                "exemplarCity": "Gaza"
              },
              "Harbin": {
                "exemplarCity": "Harbin"
              },
              "Hebron": {
                "exemplarCity": "Hébron"
              },
              "Hong_Kong": {
                "exemplarCity": "Hong Kong"
              },
              "Hovd": {
                "exemplarCity": "Hovd"
              },
              "Irkutsk": {
                "exemplarCity": "Irkoutsk"
              },
              "Jakarta": {
                "exemplarCity": "Jakarta"
              },
              "Jayapura": {
                "exemplarCity": "Jayapura"
              },
              "Jerusalem": {
                "exemplarCity": "Jérusalem"
              },
              "Kabul": {
                "exemplarCity": "Kaboul"
              },
              "Kamchatka": {
                "exemplarCity": "Kamtchatka"
              },
              "Karachi": {
                "exemplarCity": "Karachi"
              },
              "Kashgar": {
                "exemplarCity": "Kachgar"
              },
              "Katmandu": {
                "exemplarCity": "Katmandou"
              },
              "Khandyga": {
                "exemplarCity": "Khandyga"
              },
              "Krasnoyarsk": {
                "exemplarCity": "Krasnoïarsk"
              },
              "Kuala_Lumpur": {
                "exemplarCity": "Kuala Lumpur"
              },
              "Kuching": {
                "exemplarCity": "Kuching"
              },
              "Kuwait": {
                "exemplarCity": "Koweït"
              },
              "Macau": {
                "exemplarCity": "Macao"
              },
              "Magadan": {
                "exemplarCity": "Magadan"
              },
              "Makassar": {
                "exemplarCity": "Macassar"
              },
              "Manila": {
                "exemplarCity": "Manille"
              },
              "Muscat": {
                "exemplarCity": "Mascate"
              },
              "Nicosia": {
                "exemplarCity": "Nicosie"
              },
              "Novokuznetsk": {
                "exemplarCity": "Novokuznetsk"
              },
              "Novosibirsk": {
                "exemplarCity": "Novossibirsk"
              },
              "Omsk": {
                "exemplarCity": "Omsk"
              },
              "Oral": {
                "exemplarCity": "Ouralsk"
              },
              "Phnom_Penh": {
                "exemplarCity": "Phnom Penh"
              },
              "Pontianak": {
                "exemplarCity": "Pontianak"
              },
              "Pyongyang": {
                "exemplarCity": "Pyongyang"
              },
              "Qatar": {
                "exemplarCity": "Qatar"
              },
              "Qyzylorda": {
                "exemplarCity": "Kzyl Orda"
              },
              "Rangoon": {
                "exemplarCity": "Rangoun"
              },
              "Riyadh": {
                "exemplarCity": "Riyad"
              },
              "Saigon": {
                "exemplarCity": "Hô-Chi-Minh-Ville"
              },
              "Sakhalin": {
                "exemplarCity": "Sakhaline"
              },
              "Samarkand": {
                "exemplarCity": "Samarcande"
              },
              "Seoul": {
                "exemplarCity": "Séoul"
              },
              "Shanghai": {
                "exemplarCity": "Shanghai"
              },
              "Singapore": {
                "exemplarCity": "Singapour"
              },
              "Srednekolymsk": {
                "exemplarCity": "Srednekolymsk"
              },
              "Taipei": {
                "exemplarCity": "Taipei"
              },
              "Tashkent": {
                "exemplarCity": "Tachkent"
              },
              "Tbilisi": {
                "exemplarCity": "Tbilissi"
              },
              "Tehran": {
                "exemplarCity": "Téhéran"
              },
              "Thimphu": {
                "exemplarCity": "Thimphu"
              },
              "Tokyo": {
                "exemplarCity": "Tokyo"
              },
              "Ulaanbaatar": {
                "exemplarCity": "Oulan-Bator"
              },
              "Urumqi": {
                "exemplarCity": "Ürümqi"
              },
              "Ust-Nera": {
                "exemplarCity": "Ust-Nera"
              },
              "Vientiane": {
                "exemplarCity": "Vientiane"
              },
              "Vladivostok": {
                "exemplarCity": "Vladivostok"
              },
              "Yakutsk": {
                "exemplarCity": "Iakoutsk"
              },
              "Yekaterinburg": {
                "exemplarCity": "Ekaterinbourg"
              },
              "Yerevan": {
                "exemplarCity": "Erevan"
              }
            },
            "Indian": {
              "Antananarivo": {
                "exemplarCity": "Antananarivo"
              },
              "Chagos": {
                "exemplarCity": "Chagos"
              },
              "Christmas": {
                "exemplarCity": "Christmas"
              },
              "Cocos": {
                "exemplarCity": "Cocos"
              },
              "Comoro": {
                "exemplarCity": "Comores"
              },
              "Kerguelen": {
                "exemplarCity": "Kerguelen"
              },
              "Mahe": {
                "exemplarCity": "Mahé"
              },
              "Maldives": {
                "exemplarCity": "Maldives"
              },
              "Mauritius": {
                "exemplarCity": "Maurice"
              },
              "Mayotte": {
                "exemplarCity": "Mayotte"
              },
              "Reunion": {
                "exemplarCity": "La Réunion"
              }
            },
            "Australia": {
              "Adelaide": {
                "exemplarCity": "Adélaïde"
              },
              "Brisbane": {
                "exemplarCity": "Brisbane"
              },
              "Broken_Hill": {
                "exemplarCity": "Broken Hill"
              },
              "Currie": {
                "exemplarCity": "Currie"
              },
              "Darwin": {
                "exemplarCity": "Darwin"
              },
              "Eucla": {
                "exemplarCity": "Eucla"
              },
              "Hobart": {
                "exemplarCity": "Hobart"
              },
              "Lindeman": {
                "exemplarCity": "Lindeman"
              },
              "Lord_Howe": {
                "exemplarCity": "Lord Howe"
              },
              "Melbourne": {
                "exemplarCity": "Melbourne"
              },
              "Perth": {
                "exemplarCity": "Perth"
              },
              "Sydney": {
                "exemplarCity": "Sydney"
              }
            },
            "Pacific": {
              "Apia": {
                "exemplarCity": "Apia"
              },
              "Auckland": {
                "exemplarCity": "Auckland"
              },
              "Chatham": {
                "exemplarCity": "Chatham"
              },
              "Easter": {
                "exemplarCity": "Île de Pâques"
              },
              "Efate": {
                "exemplarCity": "Éfaté"
              },
              "Enderbury": {
                "exemplarCity": "Enderbury"
              },
              "Fakaofo": {
                "exemplarCity": "Fakaofo"
              },
              "Fiji": {
                "exemplarCity": "Fidji"
              },
              "Funafuti": {
                "exemplarCity": "Funafuti"
              },
              "Galapagos": {
                "exemplarCity": "Galápagos"
              },
              "Gambier": {
                "exemplarCity": "Gambier"
              },
              "Guadalcanal": {
                "exemplarCity": "Guadalcanal"
              },
              "Guam": {
                "exemplarCity": "Guam"
              },
              "Honolulu": {
                "exemplarCity": "Honolulu"
              },
              "Johnston": {
                "exemplarCity": "Johnston"
              },
              "Kiritimati": {
                "exemplarCity": "Kiritimati"
              },
              "Kosrae": {
                "exemplarCity": "Kosrae"
              },
              "Kwajalein": {
                "exemplarCity": "Kwajalein"
              },
              "Majuro": {
                "exemplarCity": "Majuro"
              },
              "Marquesas": {
                "exemplarCity": "Marquises"
              },
              "Midway": {
                "exemplarCity": "Midway"
              },
              "Nauru": {
                "exemplarCity": "Nauru"
              },
              "Niue": {
                "exemplarCity": "Niue"
              },
              "Norfolk": {
                "exemplarCity": "Norfolk"
              },
              "Noumea": {
                "exemplarCity": "Nouméa"
              },
              "Pago_Pago": {
                "exemplarCity": "Pago Pago"
              },
              "Palau": {
                "exemplarCity": "Palau"
              },
              "Pitcairn": {
                "exemplarCity": "Pitcairn"
              },
              "Ponape": {
                "exemplarCity": "Pohnpei"
              },
              "Port_Moresby": {
                "exemplarCity": "Port Moresby"
              },
              "Rarotonga": {
                "exemplarCity": "Rarotonga"
              },
              "Saipan": {
                "exemplarCity": "Saipan"
              },
              "Tahiti": {
                "exemplarCity": "Tahiti"
              },
              "Tarawa": {
                "exemplarCity": "Tarawa"
              },
              "Tongatapu": {
                "exemplarCity": "Tongatapu"
              },
              "Truk": {
                "exemplarCity": "Chuuk"
              },
              "Wake": {
                "exemplarCity": "Wake"
              },
              "Wallis": {
                "exemplarCity": "Wallis"
              }
            },
            "Arctic": {
              "Longyearbyen": {
                "exemplarCity": "Longyearbyen"
              }
            },
            "Antarctica": {
              "Casey": {
                "exemplarCity": "Casey"
              },
              "Davis": {
                "exemplarCity": "Davis"
              },
              "DumontDUrville": {
                "exemplarCity": "Dumont d’Urville"
              },
              "Macquarie": {
                "exemplarCity": "Macquarie"
              },
              "Mawson": {
                "exemplarCity": "Mawson"
              },
              "McMurdo": {
                "exemplarCity": "McMurdo"
              },
              "Palmer": {
                "exemplarCity": "Palmer"
              },
              "Rothera": {
                "exemplarCity": "Rothera"
              },
              "Syowa": {
                "exemplarCity": "Showa"
              },
              "Troll": {
                "exemplarCity": "Troll"
              },
              "Vostok": {
                "exemplarCity": "Vostok"
              }
            },
            "Etc": {
              "GMT": {
                "exemplarCity": "GMT"
              },
              "GMT1": {
                "exemplarCity": "GMT+1"
              },
              "GMT10": {
                "exemplarCity": "GMT+10"
              },
              "GMT11": {
                "exemplarCity": "GMT+11"
              },
              "GMT12": {
                "exemplarCity": "GMT+12"
              },
              "GMT2": {
                "exemplarCity": "GMT+2"
              },
              "GMT3": {
                "exemplarCity": "GMT+3"
              },
              "GMT4": {
                "exemplarCity": "GMT+4"
              },
              "GMT5": {
                "exemplarCity": "GMT+5"
              },
              "GMT6": {
                "exemplarCity": "GMT+6"
              },
              "GMT7": {
                "exemplarCity": "GMT+7"
              },
              "GMT8": {
                "exemplarCity": "GMT+8"
              },
              "GMT9": {
                "exemplarCity": "GMT+9"
              },
              "GMT-1": {
                "exemplarCity": "GMT-1"
              },
              "GMT-10": {
                "exemplarCity": "GMT-10"
              },
              "GMT-11": {
                "exemplarCity": "GMT-11"
              },
              "GMT-12": {
                "exemplarCity": "GMT-12"
              },
              "GMT-13": {
                "exemplarCity": "GMT-13"
              },
              "GMT-14": {
                "exemplarCity": "GMT-14"
              },
              "GMT-2": {
                "exemplarCity": "GMT-2"
              },
              "GMT-3": {
                "exemplarCity": "GMT-3"
              },
              "GMT-4": {
                "exemplarCity": "GMT-4"
              },
              "GMT-5": {
                "exemplarCity": "GMT-5"
              },
              "GMT-6": {
                "exemplarCity": "GMT-6"
              },
              "GMT-7": {
                "exemplarCity": "GMT-7"
              },
              "GMT-8": {
                "exemplarCity": "GMT-8"
              },
              "GMT-9": {
                "exemplarCity": "GMT-9"
              },
              "Unknown": {
                "exemplarCity": "zone inconnue"
              }
            }
          },
          "metazone": {
            "Acre": {
              "long": {
                "generic": "heure de l’Acre",
                "standard": "heure normale de l’Acre",
                "daylight": "heure d’été de l’Acre"
              }
            },
            "Afghanistan": {
              "long": {
                "standard": "heure de l’Afghanistan"
              }
            },
            "Africa_Central": {
              "long": {
                "standard": "heure normale d’Afrique centrale"
              }
            },
            "Africa_Eastern": {
              "long": {
                "standard": "heure normale d’Afrique de l’Est"
              }
            },
            "Africa_Southern": {
              "long": {
                "standard": "heure normale d’Afrique méridionale"
              }
            },
            "Africa_Western": {
              "long": {
                "generic": "heure d’Afrique de l’Ouest",
                "standard": "heure normale d’Afrique de l’Ouest",
                "daylight": "heure d’été d’Afrique de l’Ouest"
              }
            },
            "Alaska": {
              "long": {
                "generic": "heure de l’Alaska",
                "standard": "heure normale de l’Alaska",
                "daylight": "heure d’été de l’Alaska"
              }
            },
            "Almaty": {
              "long": {
                "generic": "heure d’Alma Ata",
                "standard": "heure normale d’Alma Ata",
                "daylight": "heure d’été d’Alma Ata"
              }
            },
            "Amazon": {
              "long": {
                "generic": "heure de l’Amazonie",
                "standard": "heure normale de l’Amazonie",
                "daylight": "heure d’été de l’Amazonie"
              }
            },
            "America_Central": {
              "long": {
                "generic": "heure du centre nord-américain",
                "standard": "heure normale du centre nord-américain",
                "daylight": "heure d’été du Centre"
              }
            },
            "America_Eastern": {
              "long": {
                "generic": "heure de l’Est nord-américain",
                "standard": "heure normale de l’Est nord-américain",
                "daylight": "heure d’été de l’Est"
              }
            },
            "America_Mountain": {
              "long": {
                "generic": "heure des Rocheuses",
                "standard": "heure normale des Rocheuses",
                "daylight": "heure d’été des Rocheuses"
              }
            },
            "America_Pacific": {
              "long": {
                "generic": "heure du Pacifique nord-américain",
                "standard": "heure normale du Pacifique nord-américain",
                "daylight": "heure d’été du Pacifique"
              }
            },
            "Anadyr": {
              "long": {
                "generic": "heure d’Anadyr",
                "standard": "heure normale d’Anadyr",
                "daylight": "heure d’été d’Anadyr"
              }
            },
            "Apia": {
              "long": {
                "generic": "heure d’Apia",
                "standard": "heure normale d’Apia",
                "daylight": "heure d’été d’Apia"
              }
            },
            "Aqtau": {
              "long": {
                "generic": "heure d’Aktaou",
                "standard": "heure normale d’Aktaou",
                "daylight": "heure d’été d’Aktaou"
              }
            },
            "Aqtobe": {
              "long": {
                "generic": "heure d’Aqtöbe",
                "standard": "heure normale d’Aqtöbe",
                "daylight": "heure d’été d’Aqtöbe"
              }
            },
            "Arabian": {
              "long": {
                "generic": "heure de l’Arabie",
                "standard": "heure normale de l’Arabie",
                "daylight": "heure d’été de l’Arabie"
              }
            },
            "Argentina": {
              "long": {
                "generic": "heure de l’Argentine",
                "standard": "heure normale d’Argentine",
                "daylight": "heure d’été de l’Argentine"
              }
            },
            "Argentina_Western": {
              "long": {
                "generic": "heure de l’Ouest argentin",
                "standard": "heure normale de l’Ouest argentin",
                "daylight": "heure d’été de l’Ouest argentin"
              }
            },
            "Armenia": {
              "long": {
                "generic": "heure de l’Arménie",
                "standard": "heure normale de l’Arménie",
                "daylight": "heure d’été d’Arménie"
              }
            },
            "Atlantic": {
              "long": {
                "generic": "heure de l’Atlantique",
                "standard": "heure normale de l’Atlantique",
                "daylight": "heure d’été de l’Atlantique"
              }
            },
            "Australia_Central": {
              "long": {
                "generic": "heure du centre de l’Australie",
                "standard": "heure normale du centre de l’Australie",
                "daylight": "heure d’été du centre de l’Australie"
              }
            },
            "Australia_CentralWestern": {
              "long": {
                "generic": "heure du centre-ouest de l’Australie",
                "standard": "heure normale du centre-ouest de l’Australie",
                "daylight": "heure d’été du centre-ouest de l’Australie"
              }
            },
            "Australia_Eastern": {
              "long": {
                "generic": "heure de l’Est de l’Australie",
                "standard": "heure normale de l’Est de l’Australie",
                "daylight": "heure d’été de l’Est de l’Australie"
              }
            },
            "Australia_Western": {
              "long": {
                "generic": "heure de l’Ouest de l’Australie",
                "standard": "heure normale de l’Ouest de l’Australie",
                "daylight": "heure d’été de l’Ouest de l’Australie"
              }
            },
            "Azerbaijan": {
              "long": {
                "generic": "heure de l’Azerbaïdjan",
                "standard": "heure normale de l’Azerbaïdjan",
                "daylight": "heure d’été d’Azerbaïdjan"
              }
            },
            "Azores": {
              "long": {
                "generic": "heure des Açores",
                "standard": "heure normale des Açores",
                "daylight": "heure d’été des Açores"
              }
            },
            "Bangladesh": {
              "long": {
                "generic": "heure du Bangladesh",
                "standard": "heure normale du Bangladesh",
                "daylight": "heure d’été du Bangladesh"
              }
            },
            "Bhutan": {
              "long": {
                "standard": "heure du Bhoutan"
              }
            },
            "Bolivia": {
              "long": {
                "standard": "heure de Bolivie"
              }
            },
            "Brasilia": {
              "long": {
                "generic": "heure de Brasilia",
                "standard": "heure normale de Brasilia",
                "daylight": "heure d’été de Brasilia"
              }
            },
            "Brunei": {
              "long": {
                "standard": "heure du Brunéi"
              }
            },
            "Cape_Verde": {
              "long": {
                "generic": "heure du Cap-Vert",
                "standard": "heure normale du Cap-Vert",
                "daylight": "heure d’été du Cap-Vert"
              }
            },
            "Chamorro": {
              "long": {
                "standard": "heure des Chamorro"
              }
            },
            "Chatham": {
              "long": {
                "generic": "heure des îles Chatham",
                "standard": "heure normale des Îles Chatham",
                "daylight": "heure d’été des Îles Chatham"
              }
            },
            "Chile": {
              "long": {
                "generic": "heure du Chili",
                "standard": "heure normale du Chili",
                "daylight": "heure d’été du Chili"
              }
            },
            "China": {
              "long": {
                "generic": "heure de la Chine",
                "standard": "heure normale de la Chine",
                "daylight": "heure d’été de Chine"
              }
            },
            "Choibalsan": {
              "long": {
                "generic": "heure de Choibalsan",
                "standard": "heure normale de Choibalsan",
                "daylight": "heure d’été de Choibalsan"
              }
            },
            "Christmas": {
              "long": {
                "standard": "heure de l’île Christmas"
              }
            },
            "Cocos": {
              "long": {
                "standard": "heure des îles Cocos"
              }
            },
            "Colombia": {
              "long": {
                "generic": "heure de Colombie",
                "standard": "heure normale de Colombie",
                "daylight": "heure d’été de Colombie"
              }
            },
            "Cook": {
              "long": {
                "generic": "heure des îles Cook",
                "standard": "heure normale des îles Cook",
                "daylight": "heure d’été des îles Cook"
              }
            },
            "Cuba": {
              "long": {
                "generic": "heure de Cuba",
                "standard": "heure normale de Cuba",
                "daylight": "heure d’été de Cuba"
              }
            },
            "Davis": {
              "long": {
                "standard": "heure de Davis"
              }
            },
            "DumontDUrville": {
              "long": {
                "standard": "heure de Dumont-d’Urville"
              }
            },
            "East_Timor": {
              "long": {
                "standard": "heure du Timor oriental"
              }
            },
            "Easter": {
              "long": {
                "generic": "heure de l’île de Pâques",
                "standard": "heure normale de l’île de Pâques",
                "daylight": "heure d’été de l’île de Pâques"
              }
            },
            "Ecuador": {
              "long": {
                "standard": "heure de l’Équateur"
              }
            },
            "Europe_Central": {
              "long": {
                "generic": "heure d’Europe centrale",
                "standard": "heure normale d’Europe centrale",
                "daylight": "heure d’été d’Europe centrale"
              }
            },
            "Europe_Eastern": {
              "long": {
                "generic": "heure d’Europe de l’Est",
                "standard": "heure normale d’Europe de l’Est",
                "daylight": "heure d’été d’Europe de l’Est"
              }
            },
            "Europe_Further_Eastern": {
              "long": {
                "standard": "heure de Kaliningrad"
              }
            },
            "Europe_Western": {
              "long": {
                "generic": "heure d’Europe de l’Ouest",
                "standard": "heure normale d’Europe de l’Ouest",
                "daylight": "heure d’été d’Europe de l’Ouest"
              }
            },
            "Falkland": {
              "long": {
                "generic": "heure des îles Malouines",
                "standard": "heure normale des îles Malouines",
                "daylight": "heure d’été des îles Malouines"
              }
            },
            "Fiji": {
              "long": {
                "generic": "heure des îles Fidji",
                "standard": "heure normale des îles Fidji",
                "daylight": "heure d’été des îles Fidji"
              }
            },
            "French_Guiana": {
              "long": {
                "standard": "heure de la Guyane française"
              }
            },
            "French_Southern": {
              "long": {
                "standard": "heure des Terres australes et antarctiques françaises"
              }
            },
            "GMT": {
              "long": {
                "standard": "heure moyenne de Greenwich"
              }
            },
            "Galapagos": {
              "long": {
                "standard": "heure des îles Galápagos"
              }
            },
            "Gambier": {
              "long": {
                "standard": "heure des îles Gambier"
              }
            },
            "Georgia": {
              "long": {
                "generic": "heure de la Géorgie",
                "standard": "heure normale de la Géorgie",
                "daylight": "heure d’été de Géorgie"
              }
            },
            "Gilbert_Islands": {
              "long": {
                "standard": "heure des îles Gilbert"
              }
            },
            "Greenland_Eastern": {
              "long": {
                "generic": "heure de l’Est du Groenland",
                "standard": "heure normale de l’Est du Groenland",
                "daylight": "heure d’été de l’Est du Groenland"
              }
            },
            "Greenland_Western": {
              "long": {
                "generic": "heure de l’Ouest du Groenland",
                "standard": "heure normale de l’Ouest du Groenland",
                "daylight": "heure d’été de l’Ouest du Groenland"
              }
            },
            "Guam": {
              "long": {
                "standard": "heure de Guam"
              }
            },
            "Gulf": {
              "long": {
                "standard": "heure du Golfe"
              }
            },
            "Guyana": {
              "long": {
                "standard": "heure du Guyana"
              }
            },
            "Hawaii_Aleutian": {
              "long": {
                "generic": "heure d’Hawaii - Aléoutiennes",
                "standard": "heure normale d’Hawaii - Aléoutiennes",
                "daylight": "heure d’été d’Hawaii - Aléoutiennes"
              }
            },
            "Hong_Kong": {
              "long": {
                "generic": "heure de Hong Kong",
                "standard": "heure normale de Hong Kong",
                "daylight": "heure d’été de Hong Kong"
              }
            },
            "Hovd": {
              "long": {
                "generic": "heure de Hovd",
                "standard": "heure normale de Hovd",
                "daylight": "heure d’été de Hovd"
              }
            },
            "India": {
              "long": {
                "standard": "heure de l’Inde"
              }
            },
            "Indian_Ocean": {
              "long": {
                "standard": "heure de l’Océan Indien"
              }
            },
            "Indochina": {
              "long": {
                "standard": "heure d’Indochine"
              }
            },
            "Indonesia_Central": {
              "long": {
                "standard": "heure du Centre indonésien"
              }
            },
            "Indonesia_Eastern": {
              "long": {
                "standard": "heure de l’Est indonésien"
              }
            },
            "Indonesia_Western": {
              "long": {
                "standard": "heure de l’Ouest indonésien"
              }
            },
            "Iran": {
              "long": {
                "generic": "heure de l’Iran",
                "standard": "heure normale d’Iran",
                "daylight": "heure d’été d’Iran"
              }
            },
            "Irkutsk": {
              "long": {
                "generic": "heure d’Irkoutsk",
                "standard": "heure normale d’Irkoutsk",
                "daylight": "heure d’été d’Irkoutsk"
              }
            },
            "Israel": {
              "long": {
                "generic": "heure d’Israël",
                "standard": "heure normale d’Israël",
                "daylight": "heure d’été d’Israël"
              }
            },
            "Japan": {
              "long": {
                "generic": "heure du Japon",
                "standard": "heure normale du Japon",
                "daylight": "heure d’été du Japon"
              }
            },
            "Kamchatka": {
              "long": {
                "generic": "heure de Petropavlovsk-Kamchatski",
                "standard": "heure normale de Petropavlovsk-Kamchatski",
                "daylight": "heure d’été de Petropavlovsk-Kamchatski"
              }
            },
            "Kazakhstan_Eastern": {
              "long": {
                "standard": "heure de l’Est du Kazakhstan"
              }
            },
            "Kazakhstan_Western": {
              "long": {
                "standard": "heure de l’Ouest du Kazakhstan"
              }
            },
            "Korea": {
              "long": {
                "generic": "heure de la Corée",
                "standard": "heure normale de la Corée",
                "daylight": "heure d’été de Corée"
              }
            },
            "Kosrae": {
              "long": {
                "standard": "heure de Kosrae"
              }
            },
            "Krasnoyarsk": {
              "long": {
                "generic": "heure de Krasnoïarsk",
                "standard": "heure normale de Krasnoïarsk",
                "daylight": "heure d’été de Krasnoïarsk"
              }
            },
            "Kyrgystan": {
              "long": {
                "standard": "heure du Kirghizistan"
              }
            },
            "Lanka": {
              "long": {
                "standard": "heure de Lanka"
              }
            },
            "Line_Islands": {
              "long": {
                "standard": "heure des îles de la Ligne"
              }
            },
            "Lord_Howe": {
              "long": {
                "generic": "heure de Lord Howe",
                "standard": "heure normale de Lord Howe",
                "daylight": "heure d’été de Lord Howe"
              }
            },
            "Macau": {
              "long": {
                "generic": "heure de Macao",
                "standard": "heure normale de Macao",
                "daylight": "heure d’été de Macao"
              }
            },
            "Macquarie": {
              "long": {
                "standard": "heure de l’île Macquarie"
              }
            },
            "Magadan": {
              "long": {
                "generic": "heure de Magadan",
                "standard": "heure normale de Magadan",
                "daylight": "heure d’été de Magadan"
              }
            },
            "Malaysia": {
              "long": {
                "standard": "heure de la Malaisie"
              }
            },
            "Maldives": {
              "long": {
                "standard": "heure des Maldives"
              }
            },
            "Marquesas": {
              "long": {
                "standard": "heure des îles Marquises"
              }
            },
            "Marshall_Islands": {
              "long": {
                "standard": "heure des îles Marshall"
              }
            },
            "Mauritius": {
              "long": {
                "generic": "heure de Maurice",
                "standard": "heure normale de Maurice",
                "daylight": "heure d’été de Maurice"
              }
            },
            "Mawson": {
              "long": {
                "standard": "heure de Mawson"
              }
            },
            "Mexico_Northwest": {
              "long": {
                "generic": "heure du Nord-Ouest du Mexique",
                "standard": "heure normale du Nord-Ouest du Mexique",
                "daylight": "heure d’été du Nord-Ouest du Mexique"
              }
            },
            "Mexico_Pacific": {
              "long": {
                "generic": "heure du Pacifique mexicain",
                "standard": "heure normale du Pacifique mexicain",
                "daylight": "heure d’été du Pacifique mexicain"
              }
            },
            "Mongolia": {
              "long": {
                "generic": "heure d’Oulan-Bator",
                "standard": "heure normale d’Oulan-Bator",
                "daylight": "heure d’été d’Oulan-Bator"
              }
            },
            "Moscow": {
              "long": {
                "generic": "heure de Moscou",
                "standard": "heure normale de Moscou",
                "daylight": "heure d’été de Moscou"
              }
            },
            "Myanmar": {
              "long": {
                "standard": "heure du Myanmar"
              }
            },
            "Nauru": {
              "long": {
                "standard": "heure de Nauru"
              }
            },
            "Nepal": {
              "long": {
                "standard": "heure du Népal"
              }
            },
            "New_Caledonia": {
              "long": {
                "generic": "heure de la Nouvelle-Calédonie",
                "standard": "heure normale de la Nouvelle-Calédonie",
                "daylight": "heure d’été de Nouvelle-Calédonie"
              }
            },
            "New_Zealand": {
              "long": {
                "generic": "heure de la Nouvelle-Zélande",
                "standard": "heure normale de la Nouvelle-Zélande",
                "daylight": "heure d’été de la Nouvelle-Zélande"
              }
            },
            "Newfoundland": {
              "long": {
                "generic": "heure de Terre-Neuve",
                "standard": "heure normale de Terre-Neuve",
                "daylight": "heure d’été de Terre-Neuve"
              }
            },
            "Niue": {
              "long": {
                "standard": "heure de Nioué"
              }
            },
            "Norfolk": {
              "long": {
                "standard": "heure de l’île Norfolk"
              }
            },
            "Noronha": {
              "long": {
                "generic": "heure de Fernando de Noronha",
                "standard": "heure normale de Fernando de Noronha",
                "daylight": "heure d’été de Fernando de Noronha"
              }
            },
            "North_Mariana": {
              "long": {
                "standard": "heure des îles Mariannes du Nord"
              }
            },
            "Novosibirsk": {
              "long": {
                "generic": "heure de Novossibirsk",
                "standard": "heure normale de Novossibirsk",
                "daylight": "heure d’été de Novossibirsk"
              }
            },
            "Omsk": {
              "long": {
                "generic": "heure de Omsk",
                "standard": "heure normale de Omsk",
                "daylight": "heure d’été de Omsk"
              }
            },
            "Pakistan": {
              "long": {
                "generic": "heure du Pakistan",
                "standard": "heure normale du Pakistan",
                "daylight": "heure d’été du Pakistan"
              }
            },
            "Palau": {
              "long": {
                "standard": "heure des Palaos"
              }
            },
            "Papua_New_Guinea": {
              "long": {
                "standard": "heure de la Papouasie-Nouvelle-Guinée"
              }
            },
            "Paraguay": {
              "long": {
                "generic": "heure du Paraguay",
                "standard": "heure normale du Paraguay",
                "daylight": "heure d’été du Paraguay"
              }
            },
            "Peru": {
              "long": {
                "generic": "heure du Pérou",
                "standard": "heure normale du Pérou",
                "daylight": "heure d’été du Pérou"
              }
            },
            "Philippines": {
              "long": {
                "generic": "heure des Philippines",
                "standard": "heure normale des Philippines",
                "daylight": "heure d’été des Philippines"
              }
            },
            "Phoenix_Islands": {
              "long": {
                "standard": "heure des îles Phoenix"
              }
            },
            "Pierre_Miquelon": {
              "long": {
                "generic": "heure de Saint-Pierre-et-Miquelon",
                "standard": "heure normale de Saint-Pierre-et-Miquelon",
                "daylight": "heure d’été de Saint-Pierre-et-Miquelon"
              }
            },
            "Pitcairn": {
              "long": {
                "standard": "heure des îles Pitcairn"
              }
            },
            "Ponape": {
              "long": {
                "standard": "heure de l’île de Pohnpei"
              }
            },
            "Reunion": {
              "long": {
                "standard": "heure de la Réunion"
              }
            },
            "Rothera": {
              "long": {
                "standard": "heure de Rothera"
              }
            },
            "Sakhalin": {
              "long": {
                "generic": "heure de Sakhaline",
                "standard": "heure normale de Sakhaline",
                "daylight": "heure d’été de Sakhaline"
              }
            },
            "Samara": {
              "long": {
                "generic": "heure de Samara",
                "standard": "heure normale de Samara",
                "daylight": "heure d’été de Samara"
              }
            },
            "Samoa": {
              "long": {
                "generic": "heure des Samoa",
                "standard": "heure normale des Samoa",
                "daylight": "heure d’été des Samoa"
              }
            },
            "Seychelles": {
              "long": {
                "standard": "heure des Seychelles"
              }
            },
            "Singapore": {
              "long": {
                "standard": "heure de Singapour"
              }
            },
            "Solomon": {
              "long": {
                "standard": "heure des îles Salomon"
              }
            },
            "South_Georgia": {
              "long": {
                "standard": "heure de Géorgie du Sud"
              }
            },
            "Suriname": {
              "long": {
                "standard": "heure du Suriname"
              }
            },
            "Syowa": {
              "long": {
                "standard": "heure de Syowa"
              }
            },
            "Tahiti": {
              "long": {
                "standard": "heure de Tahiti"
              }
            },
            "Taipei": {
              "long": {
                "generic": "heure de Taipei",
                "standard": "heure normale de Taipei",
                "daylight": "heure d’été de Taipei"
              }
            },
            "Tajikistan": {
              "long": {
                "standard": "heure du Tadjikistan"
              }
            },
            "Tokelau": {
              "long": {
                "standard": "heure de Tokelau"
              }
            },
            "Tonga": {
              "long": {
                "generic": "heure des Tonga",
                "standard": "heure normale des Tonga",
                "daylight": "heure d’été de Tonga"
              }
            },
            "Truk": {
              "long": {
                "standard": "heure de Chuuk"
              }
            },
            "Turkmenistan": {
              "long": {
                "generic": "heure du Turkménistan",
                "standard": "heure normale du Turkménistan",
                "daylight": "heure d’été du Turkménistan"
              }
            },
            "Tuvalu": {
              "long": {
                "standard": "heure des Tuvalu"
              }
            },
            "Uruguay": {
              "long": {
                "generic": "heure de l’Uruguay",
                "standard": "heure normale de l’Uruguay",
                "daylight": "heure d’été de l’Uruguay"
              }
            },
            "Uzbekistan": {
              "long": {
                "generic": "heure de l’Ouzbékistan",
                "standard": "heure normale de l’Ouzbékistan",
                "daylight": "heure d’été de l’Ouzbékistan"
              }
            },
            "Vanuatu": {
              "long": {
                "generic": "heure du Vanuatu",
                "standard": "heure normale du Vanuatu",
                "daylight": "heure d’été de Vanuatu"
              }
            },
            "Venezuela": {
              "long": {
                "standard": "heure du Venezuela"
              }
            },
            "Vladivostok": {
              "long": {
                "generic": "heure de Vladivostok",
                "standard": "heure normale de Vladivostok",
                "daylight": "heure d’été de Vladivostok"
              }
            },
            "Volgograd": {
              "long": {
                "generic": "heure de Volgograd",
                "standard": "heure normale de Volgograd",
                "daylight": "heure d’été de Volgograd"
              }
            },
            "Vostok": {
              "long": {
                "standard": "heure de Vostok"
              }
            },
            "Wake": {
              "long": {
                "standard": "heure de l’île Wake"
              }
            },
            "Wallis": {
              "long": {
                "standard": "heure de Wallis-et-Futuna"
              }
            },
            "Yakutsk": {
              "long": {
                "generic": "heure de Iakoutsk",
                "standard": "heure normale de Iakoutsk",
                "daylight": "heure d’été de Iakoutsk"
              }
            },
            "Yekaterinburg": {
              "long": {
                "generic": "heure d’Ekaterinbourg",
                "standard": "heure normale d’Ekaterinbourg",
                "daylight": "heure d’été d’Ekaterinbourg"
              }
            }
          }
        }
      }
    }
  }
}
