{
  "main": {
    "mg-MG": {
      "identity": {
        "version": {
          "_cldrVersion": "26",
          "_number": "$Revision: 10669 $"
        },
        "generation": {
          "_date": "$Date: 2014-07-23 16:10:33 -0500 (Wed, 23 Jul 2014) $"
        },
        "language": "mg",
        "territory": "MG"
      },
      "characters": {
        "exemplarCharacters": "[a à â b d e é è ê ë f g h i ì î ï j k l m n ñ o ô p r s t v y z]",
        "auxiliary": "[c q u w x]",
        "punctuation": "[\\- , ; \\: ! ? . ( ) \\[ \\] \\{ \\}]",
        "index": "[A B D E F G H I J K L M N O P R S T V Y Z]",
        "ellipsis": {
          "initial": "…{0}",
          "medial": "{0}…{1}",
          "final": "{0}…",
          "word-initial": "… {0}",
          "word-medial": "{0} … {1}",
          "word-final": "{0} …"
        },
        "moreInformation": "?"
      }
    }
  }
}
