{
  "main": {
    "to-TO": {
      "identity": {
        "version": {
          "_cldrVersion": "26",
          "_number": "$Revision: 10669 $"
        },
        "generation": {
          "_date": "$Date: 2014-07-23 16:10:33 -0500 (Wed, 23 Jul 2014) $"
        },
        "language": "root",
        "territory": "TO"
      },
      "characters": {
        "exemplarCharacters": "[a á ā e é ē f h i í ī k l m n {ng} o ó ō p s t u ú ū v ʻ]",
        "auxiliary": "[à ă â å ä æ b c ç d è ĕ ê ë g ì ĭ î ï j ñ ò ŏ ô ö ø œ q r ù ŭ û ü w x y ÿ z]",
        "punctuation": "[\\- ‐ – — , ; \\: ! ? . … ' ‘ ’ \" “ ” ( ) \\[ \\] § @ * / \\& # † ‡ ′ ″]",
        "index": "[A E F H I K L M N {NG} O P S T U V ʻ]",
        "ellipsis": {
          "initial": "…{0}",
          "medial": "{0}…{1}",
          "final": "{0}…",
          "word-initial": "… {0}",
          "word-medial": "{0} … {1}",
          "word-final": "{0} …"
        },
        "moreInformation": "?"
      }
    }
  }
}
