{
  "main": {
    "to-TO": {
      "identity": {
        "version": {
          "_cldrVersion": "26",
          "_number": "$Revision: 10669 $"
        },
        "generation": {
          "_date": "$Date: 2014-07-23 16:10:33 -0500 (Wed, 23 Jul 2014) $"
        },
        "language": "root",
        "territory": "TO"
      },
      "dates": {
        "fields": {
          "era": {
            "displayName": "kuonga"
          },
          "year": {
            "displayName": "taʻu",
            "relative-type--1": "taʻu kuoʻosi",
            "relative-type-0": "taʻú ni",
            "relative-type-1": "taʻu kahaʻu",
            "relativeTime-type-future": {
              "relativeTimePattern-count-other": "ʻi he taʻu ʻe {0}"
            },
            "relativeTime-type-past": {
              "relativeTimePattern-count-other": "taʻu ʻe {0} kuoʻosi"
            }
          },
          "year-short": {
            "displayName": "taʻu",
            "relative-type--1": "taʻu kuoʻosi",
            "relative-type-0": "taʻú ni",
            "relative-type-1": "taʻu kahaʻu",
            "relativeTime-type-future": {
              "relativeTimePattern-count-other": "ʻi he taʻu ʻe {0}"
            },
            "relativeTime-type-past": {
              "relativeTimePattern-count-other": "taʻu ʻe {0} kuoʻosi"
            }
          },
          "year-narrow": {
            "displayName": "taʻu",
            "relative-type--1": "taʻu kuoʻosi",
            "relative-type-0": "taʻú ni",
            "relative-type-1": "taʻu kahaʻu",
            "relativeTime-type-future": {
              "relativeTimePattern-count-other": "ʻi he taʻu ʻe {0}"
            },
            "relativeTime-type-past": {
              "relativeTimePattern-count-other": "taʻu ʻe {0} kuoʻosi"
            }
          },
          "quarter": {
            "displayName": "kuata",
            "relative-type--1": "last quarter",
            "relative-type-0": "this quarter",
            "relative-type-1": "next quarter",
            "relativeTime-type-future": {
              "relativeTimePattern-count-other": "ʻi he kuata ʻe {0}"
            },
            "relativeTime-type-past": {
              "relativeTimePattern-count-other": "kuata ʻe {0} kuoʻosi"
            }
          },
          "quarter-short": {
            "displayName": "kuata",
            "relative-type--1": "last quarter",
            "relative-type-0": "this quarter",
            "relative-type-1": "next quarter",
            "relativeTime-type-future": {
              "relativeTimePattern-count-other": "ʻi he kuata ʻe {0}"
            },
            "relativeTime-type-past": {
              "relativeTimePattern-count-other": "kuata ʻe {0} kuoʻosi"
            }
          },
          "quarter-narrow": {
            "displayName": "kuata",
            "relative-type--1": "last quarter",
            "relative-type-0": "this quarter",
            "relative-type-1": "next quarter",
            "relativeTime-type-future": {
              "relativeTimePattern-count-other": "ʻi he kuata ʻe {0}"
            },
            "relativeTime-type-past": {
              "relativeTimePattern-count-other": "kuata ʻe {0} kuoʻosi"
            }
          },
          "month": {
            "displayName": "māhina",
            "relative-type--1": "māhina kuoʻosi",
            "relative-type-0": "māhiná ni",
            "relative-type-1": "māhina kahaʻu",
            "relativeTime-type-future": {
              "relativeTimePattern-count-other": "ʻi he māhina ʻe {0}"
            },
            "relativeTime-type-past": {
              "relativeTimePattern-count-other": "māhina ʻe {0} kuoʻosi"
            }
          },
          "month-short": {
            "displayName": "māhina",
            "relative-type--1": "māhina kuoʻosi",
            "relative-type-0": "māhiná ni",
            "relative-type-1": "māhina kahaʻu",
            "relativeTime-type-future": {
              "relativeTimePattern-count-other": "ʻi he māhina ʻe {0}"
            },
            "relativeTime-type-past": {
              "relativeTimePattern-count-other": "māhina ʻe {0} kuoʻosi"
            }
          },
          "month-narrow": {
            "displayName": "māhina",
            "relative-type--1": "māhina kuoʻosi",
            "relative-type-0": "māhiná ni",
            "relative-type-1": "māhina kahaʻu",
            "relativeTime-type-future": {
              "relativeTimePattern-count-other": "ʻi he māhina ʻe {0}"
            },
            "relativeTime-type-past": {
              "relativeTimePattern-count-other": "māhina ʻe {0} kuoʻosi"
            }
          },
          "week": {
            "displayName": "uike",
            "relative-type--1": "uike kuoʻosi",
            "relative-type-0": "uiké ni",
            "relative-type-1": "uike kahaʻu",
            "relativeTime-type-future": {
              "relativeTimePattern-count-other": "ʻi he uike ʻe {0}"
            },
            "relativeTime-type-past": {
              "relativeTimePattern-count-other": "uike ʻe {0} kuoʻosi"
            }
          },
          "week-short": {
            "displayName": "uike",
            "relative-type--1": "uike kuoʻosi",
            "relative-type-0": "uiké ni",
            "relative-type-1": "uike kahaʻu",
            "relativeTime-type-future": {
              "relativeTimePattern-count-other": "ʻi he uike ʻe {0}"
            },
            "relativeTime-type-past": {
              "relativeTimePattern-count-other": "uike ʻe {0} kuoʻosi"
            }
          },
          "week-narrow": {
            "displayName": "uike",
            "relative-type--1": "uike kuoʻosi",
            "relative-type-0": "uiké ni",
            "relative-type-1": "uike kahaʻu",
            "relativeTime-type-future": {
              "relativeTimePattern-count-other": "ʻi he uike ʻe {0}"
            },
            "relativeTime-type-past": {
              "relativeTimePattern-count-other": "uike ʻe {0} kuoʻosi"
            }
          },
          "day": {
            "displayName": "ʻaho",
            "relative-type--1": "ʻaneafi",
            "relative-type--2": "ʻaneheafi",
            "relative-type-0": "ʻahó ni",
            "relative-type-1": "ʻapongipongi",
            "relative-type-2": "ʻahepongipongi",
            "relativeTime-type-future": {
              "relativeTimePattern-count-other": "ʻi he ʻaho ʻe {0}"
            },
            "relativeTime-type-past": {
              "relativeTimePattern-count-other": "ʻaho ʻe {0} kuoʻosi"
            }
          },
          "day-short": {
            "displayName": "ʻaho",
            "relative-type--1": "ʻaneafi",
            "relative-type--2": "ʻaneheafi",
            "relative-type-0": "ʻahó ni",
            "relative-type-1": "ʻapongipongi",
            "relative-type-2": "ʻahepongipongi",
            "relativeTime-type-future": {
              "relativeTimePattern-count-other": "ʻi he ʻaho ʻe {0}"
            },
            "relativeTime-type-past": {
              "relativeTimePattern-count-other": "ʻaho ʻe {0} kuoʻosi"
            }
          },
          "day-narrow": {
            "displayName": "ʻaho",
            "relative-type--1": "ʻaneafi",
            "relative-type--2": "ʻaneheafi",
            "relative-type-0": "ʻahó ni",
            "relative-type-1": "ʻapongipongi",
            "relative-type-2": "ʻahepongipongi",
            "relativeTime-type-future": {
              "relativeTimePattern-count-other": "ʻi he ʻaho ʻe {0}"
            },
            "relativeTime-type-past": {
              "relativeTimePattern-count-other": "ʻaho ʻe {0} kuoʻosi"
            }
          },
          "weekday": {
            "displayName": "ʻaho ʻo e uike"
          },
          "sun": {
            "relative-type--1": "Sāpate kuoʻosi",
            "relative-type-0": "Sāpaté ni",
            "relative-type-1": "Sāpate kahaʻu"
          },
          "sun-short": {
            "relative-type--1": "Sāpate kuoʻosi",
            "relative-type-0": "Sāpaté ni",
            "relative-type-1": "Sāpate kahaʻu"
          },
          "sun-narrow": {
            "relative-type--1": "Sāpate kuoʻosi",
            "relative-type-0": "Sāpaté ni",
            "relative-type-1": "Sāpate kahaʻu"
          },
          "mon": {
            "relative-type--1": "Mōnite kuoʻosi",
            "relative-type-0": "Mōnité ni",
            "relative-type-1": "Mōnite kahaʻu"
          },
          "mon-short": {
            "relative-type--1": "Mōnite kuoʻosi",
            "relative-type-0": "Mōnité ni",
            "relative-type-1": "Mōnite kahaʻu"
          },
          "mon-narrow": {
            "relative-type--1": "Mōnite kuoʻosi",
            "relative-type-0": "Mōnité ni",
            "relative-type-1": "Mōnite kahaʻu"
          },
          "tue": {
            "relative-type--1": "Tūsite kuoʻosi",
            "relative-type-0": "Tūsité ni",
            "relative-type-1": "Tūsite kahaʻu"
          },
          "tue-short": {
            "relative-type--1": "Tūsite kuoʻosi",
            "relative-type-0": "Tūsité ni",
            "relative-type-1": "Tūsite kahaʻu"
          },
          "tue-narrow": {
            "relative-type--1": "Tūsite kuoʻosi",
            "relative-type-0": "Tūsité ni",
            "relative-type-1": "Tūsite kahaʻu"
          },
          "wed": {
            "relative-type--1": "Pulelulu kuoʻosi",
            "relative-type-0": "Pulelulú ni",
            "relative-type-1": "Pulelulu kahaʻu"
          },
          "wed-short": {
            "relative-type--1": "Pulelulu kuoʻosi",
            "relative-type-0": "Pulelulú ni",
            "relative-type-1": "Pulelulu kahaʻu"
          },
          "wed-narrow": {
            "relative-type--1": "Pulelulu kuoʻosi",
            "relative-type-0": "Pulelulú ni",
            "relative-type-1": "Pulelulu kahaʻu"
          },
          "thu": {
            "relative-type--1": "Tuʻapulelulu kuoʻosi",
            "relative-type-0": "Tuʻapulelulú ni",
            "relative-type-1": "Tuʻapulelulu kahaʻu"
          },
          "thu-short": {
            "relative-type--1": "Tuʻapulelulu kuoʻosi",
            "relative-type-0": "Tuʻapulelulú ni",
            "relative-type-1": "Tuʻapulelulu kahaʻu"
          },
          "thu-narrow": {
            "relative-type--1": "Tuʻapulelulu kuoʻosi",
            "relative-type-0": "Tuʻapulelulú ni",
            "relative-type-1": "Tuʻapulelulu kahaʻu"
          },
          "fri": {
            "relative-type--1": "Falaite kuoʻosi",
            "relative-type-0": "Falaité ni",
            "relative-type-1": "Falaite kahaʻu"
          },
          "fri-short": {
            "relative-type--1": "Falaite kuoʻosi",
            "relative-type-0": "Falaité ni",
            "relative-type-1": "Falaite kahaʻu"
          },
          "fri-narrow": {
            "relative-type--1": "Falaite kuoʻosi",
            "relative-type-0": "Falaité ni",
            "relative-type-1": "Falaite kahaʻu"
          },
          "sat": {
            "relative-type--1": "Tokonaki kuoʻosi",
            "relative-type-0": "Tokonakí ni",
            "relative-type-1": "Tokonaki kahaʻu"
          },
          "sat-short": {
            "relative-type--1": "Tokonaki kuoʻosi",
            "relative-type-0": "Tokonakí ni",
            "relative-type-1": "Tokonaki kahaʻu"
          },
          "sat-narrow": {
            "relative-type--1": "Tokonaki kuoʻosi",
            "relative-type-0": "Tokonakí ni",
            "relative-type-1": "Tokonaki kahaʻu"
          },
          "dayperiod": {
            "displayName": "AM/PM"
          },
          "hour": {
            "displayName": "houa",
            "relativeTime-type-future": {
              "relativeTimePattern-count-other": "ʻi he houa ʻe {0}"
            },
            "relativeTime-type-past": {
              "relativeTimePattern-count-other": "houa ʻe {0} kuoʻosi"
            }
          },
          "hour-short": {
            "displayName": "houa",
            "relativeTime-type-future": {
              "relativeTimePattern-count-other": "ʻi he houa ʻe {0}"
            },
            "relativeTime-type-past": {
              "relativeTimePattern-count-other": "houa ʻe {0} kuoʻosi"
            }
          },
          "hour-narrow": {
            "displayName": "houa",
            "relativeTime-type-future": {
              "relativeTimePattern-count-other": "ʻi he houa ʻe {0}"
            },
            "relativeTime-type-past": {
              "relativeTimePattern-count-other": "houa ʻe {0} kuoʻosi"
            }
          },
          "minute": {
            "displayName": "miniti",
            "relativeTime-type-future": {
              "relativeTimePattern-count-other": "ʻi he miniti ʻe {0}"
            },
            "relativeTime-type-past": {
              "relativeTimePattern-count-other": "miniti ʻe {0} kuoʻosi"
            }
          },
          "minute-short": {
            "displayName": "miniti",
            "relativeTime-type-future": {
              "relativeTimePattern-count-other": "ʻi he miniti ʻe {0}"
            },
            "relativeTime-type-past": {
              "relativeTimePattern-count-other": "miniti ʻe {0} kuoʻosi"
            }
          },
          "minute-narrow": {
            "displayName": "miniti",
            "relativeTime-type-future": {
              "relativeTimePattern-count-other": "ʻi he miniti ʻe {0}"
            },
            "relativeTime-type-past": {
              "relativeTimePattern-count-other": "miniti ʻe {0} kuoʻosi"
            }
          },
          "second": {
            "displayName": "sekoni",
            "relative-type-0": "taimiʻni",
            "relativeTime-type-future": {
              "relativeTimePattern-count-other": "ʻi he sekoni ʻe {0}"
            },
            "relativeTime-type-past": {
              "relativeTimePattern-count-other": "sekoni ʻe {0} kuoʻosi"
            }
          },
          "second-short": {
            "displayName": "sekoni",
            "relative-type-0": "taimiʻni",
            "relativeTime-type-future": {
              "relativeTimePattern-count-other": "ʻi he sekoni ʻe {0}"
            },
            "relativeTime-type-past": {
              "relativeTimePattern-count-other": "sekoni ʻe {0} kuoʻosi"
            }
          },
          "second-narrow": {
            "displayName": "sekoni",
            "relative-type-0": "taimiʻni",
            "relativeTime-type-future": {
              "relativeTimePattern-count-other": "ʻi he sekoni ʻe {0}"
            },
            "relativeTime-type-past": {
              "relativeTimePattern-count-other": "sekoni ʻe {0} kuoʻosi"
            }
          },
          "zone": {
            "displayName": "taimi fakavahe"
          }
        }
      }
    }
  }
}
