{
  "main": {
    "to-TO": {
      "identity": {
        "version": {
          "_cldrVersion": "26",
          "_number": "$Revision: 10669 $"
        },
        "generation": {
          "_date": "$Date: 2014-07-23 16:10:33 -0500 (Wed, 23 Jul 2014) $"
        },
        "language": "root",
        "territory": "TO"
      },
      "localeDisplayNames": {
        "scripts": {
          "Afak": "tohinima fakaʻafaka",
          "Aghb": "tohinima fakaʻalapēnia-kaukasia",
          "Arab": "tohinima fakaʻalepea",
          "Armi": "tohinima fakaʻalāmiti-ʻemipaea",
          "Armn": "tohinima fakaʻāmenia",
          "Avst": "tohinima fakaʻavesitani",
          "Bali": "tohinima fakapali",
          "Bamu": "tohinima fakapamumi",
          "Bass": "tohinima fakapasa-vā",
          "Batk": "tohinima fakapātaki",
          "Beng": "tohinima fakapengikali",
          "Blis": "tohinima fakaʻilonga-pilisi",
          "Bopo": "tohinima fakapopomofo",
          "Brah": "tohinima fakapalāmī",
          "Brai": "tohinima laukonga ki he kui",
          "Bugi": "tohinima fakapukisi",
          "Buhd": "tohinima fakapuhiti",
          "Cakm": "tohinima fakasakimā",
          "Cans": "tohinima fakatupuʻi-kānata-fakatahataha",
          "Cari": "tohinima fakakali",
          "Cham": "tohinima fakasami",
          "Cher": "tohinima fakaselokī",
          "Cirt": "tohinima fakakīliti",
          "Copt": "tohinima fakakopitika",
          "Cprt": "tohinima fakasaipalesi",
          "Cyrl": "tohinima fakalūsia",
          "Cyrs": "tohinima fakalūsia-lotu-motuʻa",
          "Deva": "tohinima fakaʻinitia-tevanākalī",
          "Dsrt": "tohinima fakateseleti",
          "Dupl": "tohinimanounou fakatupoloiē",
          "Egyd": "tohinima temotika-fakaʻisipite",
          "Egyh": "tohinima hielatika-fakaʻisipite",
          "Egyp": "tohinima tongitapu-fakaʻisipite",
          "Elba": "tohinima fakaʻelepasani",
          "Ethi": "tohinima fakaʻītiōpia",
          "Geok": "tohinima fakakutusuli-seōsia",
          "Geor": "tohinima fakaseōsia",
          "Glag": "tohinima fakakalakoliti",
          "Goth": "tohinima fakakotika",
          "Gran": "tohinima fakasilanitā",
          "Grek": "tohinima fakakalisi",
          "Gujr": "tohinima fakaʻinitia-kutalati",
          "Guru": "tohinima fakakūmuki",
          "Hang": "tohinima fakakōlea-hāngūlu",
          "Hani": "tohinima fakasiaina",
          "Hano": "tohinima fakahanunōʻo",
          "Hans": "tohinima fakasiaina-fakafaingofua",
          "Hans-alt-stand-alone": "tohinima fakasiaina-fakafaingofua",
          "Hant": "tohinima fakasiaina-tukufakaholo",
          "Hant-alt-stand-alone": "tohinima fakasiaina-tukufakaholo",
          "Hebr": "tohinima fakahepelū",
          "Hira": "tohinima fakasiapani-hilakana",
          "Hluw": "tohinima tongitapu-fakaʻanatolia",
          "Hmng": "tohinima fakapahaumongi",
          "Hrkt": "tohinima fakasilapa-siapani",
          "Hung": "tohinima fakahungakalia-motuʻa",
          "Inds": "tohinima fakaʻinitusi",
          "Ital": "tohinima fakaʻītali-motuʻa",
          "Java": "tohinima fakasava",
          "Jpan": "tohinima fakasiapani",
          "Jurc": "tohinima fakaiūkeni",
          "Kali": "tohinima fakakaialī",
          "Kana": "tohinima fakasiapani-katakana",
          "Khar": "tohinima fakakalositī",
          "Khmr": "tohinima fakakamipōtia",
          "Khoj": "tohinima fakakosikī",
          "Knda": "tohinima fakaʻinitia-kanata",
          "Kore": "tohinima fakakōlea",
          "Kpel": "tohinima fakakepele",
          "Kthi": "tohinima fakakaiatī",
          "Lana": "tohinima fakalana",
          "Laoo": "tohinima fakalau",
          "Latf": "tohinima fakalatina-falakituli",
          "Latg": "tohinima fakalatina-kaeliki",
          "Latn": "tohinima fakalatina",
          "Lepc": "tohinima fakalepasā",
          "Limb": "tohinima fakalimipū",
          "Lina": "tohinima fakalinea-A",
          "Linb": "tohinima fakalinea-P",
          "Lisu": "tohinima fakafalāse",
          "Loma": "tohinima fakaloma",
          "Lyci": "tohinima fakalīsia",
          "Lydi": "tohinima fakalītia",
          "Mahj": "tohinima fakamahasani",
          "Mand": "tohinima fakamanitaea",
          "Mani": "tohinima fakamanikaea",
          "Maya": "tohinima tongitapu fakamaia",
          "Mend": "tohinima fakamēniti",
          "Merc": "tohinima fakameloue-heihei",
          "Mero": "tohinima fakameloue",
          "Mlym": "tohinima fakaʻinitia-malāialami",
          "Modi": "tohinima fakamotī",
          "Mong": "tohinima fakamongokōlia",
          "Moon": "tohinima laukonga ki he kui-māhina",
          "Mroo": "tohinima fakamolō",
          "Mtei": "tohinima fakametei-maieki",
          "Mymr": "tohinima fakapema",
          "Narb": "tohinima fakaʻalepea-tokelau-motuʻa",
          "Nbat": "tohinima fakanapatea",
          "Nkgb": "tohinima fakanati-sepa",
          "Nkoo": "tohinima fakanikō",
          "Nshu": "tohinima fakanasiū",
          "Ogam": "tohinima fakaʻokami",
          "Olck": "tohinima fakaʻolisiki",
          "Orkh": "tohinima fakaʻolikoni",
          "Orya": "tohinima fakaʻinitia-ʻolāea",
          "Osma": "tohinima fakaʻosimānia",
          "Palm": "tohinima fakapalamilene",
          "Pauc": "tohinima fakapausinihau",
          "Perm": "tohinima fakapēmi-motuʻa",
          "Phag": "tohinima fakapākisipā",
          "Phli": "tohinima fakapālavi-tongi",
          "Phlp": "tohinima fakapālavi-saame",
          "Phlv": "tohinima fakapālavi-tohi",
          "Phnx": "tohinima fakafoinikia",
          "Plrd": "tohinima fakafonētiki-polāti",
          "Prti": "tohinima fakapātia-tongi",
          "Qaaa": "Qaaa",
          "Qaab": "Qaab",
          "Qaac": "Qaac",
          "Qaad": "Qaad",
          "Qaae": "Qaae",
          "Qaaf": "Qaaf",
          "Qaag": "Qaag",
          "Qaah": "Qaah",
          "Qaaj": "Qaaj",
          "Qaak": "Qaak",
          "Qaal": "Qaal",
          "Qaam": "Qaam",
          "Qaan": "Qaan",
          "Qaao": "Qaao",
          "Qaap": "Qaap",
          "Qaaq": "Qaaq",
          "Qaar": "Qaar",
          "Qaas": "Qaas",
          "Qaat": "Qaat",
          "Qaau": "Qaau",
          "Qaav": "Qaav",
          "Qaaw": "Qaaw",
          "Qaax": "Qaax",
          "Qaay": "Qaay",
          "Qaaz": "Qaaz",
          "Qaba": "Qaba",
          "Qabb": "Qabb",
          "Qabc": "Qabc",
          "Qabd": "Qabd",
          "Qabe": "Qabe",
          "Qabf": "Qabf",
          "Qabg": "Qabg",
          "Qabh": "Qabh",
          "Qabi": "Qabi",
          "Qabj": "Qabj",
          "Qabk": "Qabk",
          "Qabl": "Qabl",
          "Qabm": "Qabm",
          "Qabn": "Qabn",
          "Qabo": "Qabo",
          "Qabp": "Qabp",
          "Qabq": "Qabq",
          "Qabr": "Qabr",
          "Qabs": "Qabs",
          "Qabt": "Qabt",
          "Qabu": "Qabu",
          "Qabv": "Qabv",
          "Qabw": "Qabw",
          "Qabx": "Qabx",
          "Rjng": "tohinima fakalesiangi",
          "Roro": "tohinima fakalongolongo",
          "Runr": "tohinima fakaluniki",
          "Samr": "tohinima fakasamalitane",
          "Sara": "tohinima fakasalati",
          "Sarb": "tohinima fakaʻalepea-tonga-motuʻa",
          "Saur": "tohinima fakasaulasitā",
          "Sgnw": "tohinima fakaʻilonga-tohi",
          "Shaw": "tohinima fakasiavi",
          "Shrd": "tohinima fakasiālatā",
          "Sidd": "tohinima fakasititami",
          "Sind": "tohinima fakakutauāti",
          "Sinh": "tohinima fakasingihala",
          "Sora": "tohinima fakasolasomipengi",
          "Sund": "tohinima fakasunitā",
          "Sylo": "tohinima fakasailoti-nakili",
          "Syrc": "tohinima fakasuliāiā",
          "Syre": "tohinima fakasuliāiā-ʻesitelangelo",
          "Syrj": "tohinima fakasuliāiā-hihifo",
          "Syrn": "tohinima fakasuliāiā-hahake",
          "Tagb": "tohinima fakatakipaneuā",
          "Takr": "tohinima fakatakili",
          "Tale": "tohinima fakatai-lue",
          "Talu": "tohinima fakatai-lue-foʻou",
          "Taml": "tohinima fakatamili",
          "Tang": "tohinima fakatanguti",
          "Tavt": "tohinima fakatai-vieti",
          "Telu": "tohinima fakaʻinitia-teluku",
          "Teng": "tohinima fakatengiuali",
          "Tfng": "tohinima fakatifināki",
          "Tglg": "tohinima fakatakaloka",
          "Thaa": "tohinima fakatāna",
          "Thai": "tohinima fakatailani",
          "Tibt": "tohinima fakataipeti",
          "Tirh": "tohinima fakatīhuta",
          "Ugar": "lea fakaʻūkaliti",
          "Vaii": "tohinima fakavai",
          "Visp": "tohinima fakafonētiki-hāmai",
          "Wara": "tohinima fakavalangi-kisitī",
          "Wole": "tohinima fakauoleai",
          "Xpeo": "tohinima fakapēsiamuʻa",
          "Xsux": "tohinima fakamataʻingahau-sumelo-akatia",
          "Yiii": "tohinima fakaīī",
          "Zinh": "tohinima hokosi",
          "Zmth": "tohinima fakamatematika",
          "Zsym": "tohinima fakaʻilonga",
          "Zxxx": "tohinima taʻetohitohiʻi",
          "Zyyy": "tohinima fakatatau",
          "Zzzz": "tohinima taʻeʻiloa"
        }
      }
    }
  }
}
