{
  "main": {
    "to-TO": {
      "identity": {
        "version": {
          "_cldrVersion": "26",
          "_number": "$Revision: 10669 $"
        },
        "generation": {
          "_date": "$Date: 2014-07-23 16:10:33 -0500 (Wed, 23 Jul 2014) $"
        },
        "language": "root",
        "territory": "TO"
      },
      "units": {
        "long": {
          "per": {
            "compoundUnitPattern": "{0} ʻi he {1}"
          },
          "acceleration-g-force": {
            "displayName": "k-mālohi",
            "unitPattern-count-other": "k-mālohi ʻe {0}"
          },
          "acceleration-meter-per-second-squared": {
            "displayName": "mita he sekoni sikuea",
            "unitPattern-count-other": "mita he sekoni sikuea ʻe {0}"
          },
          "angle-arc-minute": {
            "displayName": "miniti seakale",
            "unitPattern-count-other": "miniti seakale ʻe {0}"
          },
          "angle-arc-second": {
            "displayName": "sekoni seakale",
            "unitPattern-count-other": "sekoni seakale ʻe {0}"
          },
          "angle-degree": {
            "displayName": "tikili seakale",
            "unitPattern-count-other": "tikili seakale ʻe {0}"
          },
          "angle-radian": {
            "displayName": "lētiani",
            "unitPattern-count-other": "lētiani ʻe {0}"
          },
          "area-acre": {
            "displayName": "ʻeka ʻe",
            "unitPattern-count-other": "ʻeka ʻe {0}"
          },
          "area-hectare": {
            "displayName": "hekitale",
            "unitPattern-count-other": "hekitale ʻe {0}"
          },
          "area-square-centimeter": {
            "displayName": "senitimita sikuea",
            "unitPattern-count-other": "senitimita sikuea ʻe {0}"
          },
          "area-square-foot": {
            "displayName": "fute sikuea",
            "unitPattern-count-other": "fute sikuea ʻe {0}"
          },
          "area-square-inch": {
            "displayName": "ʻinisi sikuea",
            "unitPattern-count-other": "ʻinisi sikuea ʻe {0}"
          },
          "area-square-kilometer": {
            "displayName": "kilomita sikuea",
            "unitPattern-count-other": "kilomita sikuea ʻe {0}"
          },
          "area-square-meter": {
            "displayName": "mita sikuea ʻe",
            "unitPattern-count-other": "mita sikuea ʻe {0}"
          },
          "area-square-mile": {
            "displayName": "maile sikuea",
            "unitPattern-count-other": "maile sikuea ʻe {0}"
          },
          "area-square-yard": {
            "displayName": "iate sikuea",
            "unitPattern-count-other": "iate sikuea ʻe {0}"
          },
          "consumption-liter-per-kilometer": {
            "displayName": "lita he kilomita",
            "unitPattern-count-other": "lita he kilomita ʻe {0}"
          },
          "consumption-mile-per-gallon": {
            "displayName": "maile he kālani",
            "unitPattern-count-other": "maile he kālani ʻe {0}"
          },
          "digital-bit": {
            "displayName": "ʻū piti",
            "unitPattern-count-other": "piti ʻe {0}"
          },
          "digital-byte": {
            "displayName": "paiti",
            "unitPattern-count-other": "paiti ʻe {0}"
          },
          "digital-gigabit": {
            "displayName": "kikapiti",
            "unitPattern-count-other": "kikapiti ʻe {0}"
          },
          "digital-gigabyte": {
            "displayName": "kikapaiti",
            "unitPattern-count-other": "kikapaiti ʻe {0}"
          },
          "digital-kilobit": {
            "displayName": "kilopiti",
            "unitPattern-count-other": "kilopiti ʻe {0}"
          },
          "digital-kilobyte": {
            "displayName": "kilopaiti",
            "unitPattern-count-other": "kilopaiti ʻe {0}"
          },
          "digital-megabit": {
            "displayName": "mekapiti",
            "unitPattern-count-other": "mekapiti ʻe {0}"
          },
          "digital-megabyte": {
            "displayName": "mekapaiti",
            "unitPattern-count-other": "mekapaiti ʻe {0}"
          },
          "digital-terabit": {
            "displayName": "telapiti",
            "unitPattern-count-other": "telapiti ʻe {0}"
          },
          "digital-terabyte": {
            "displayName": "telapaiti",
            "unitPattern-count-other": "telapaiti ʻe {0}"
          },
          "duration-day": {
            "displayName": "ʻaho",
            "unitPattern-count-other": "ʻaho ʻe {0}"
          },
          "duration-hour": {
            "displayName": "houa",
            "unitPattern-count-other": "houa ʻe {0}",
            "perUnitPattern": "{0} ki he houa"
          },
          "duration-microsecond": {
            "displayName": "mikolosekoni",
            "unitPattern-count-other": "mikolosekoni ʻe {0}"
          },
          "duration-millisecond": {
            "displayName": "milisekoni",
            "unitPattern-count-other": "milisekoni ʻe {0}"
          },
          "duration-minute": {
            "displayName": "miniti",
            "unitPattern-count-other": "miniti ʻe {0}"
          },
          "duration-month": {
            "displayName": "māhina",
            "unitPattern-count-other": "māhina ʻe {0}"
          },
          "duration-nanosecond": {
            "displayName": "nanosekoni",
            "unitPattern-count-other": "nanosekoni ʻe {0}"
          },
          "duration-second": {
            "displayName": "sekoni",
            "unitPattern-count-other": "sekoni ʻe {0}",
            "perUnitPattern": "{0} ki he sekoni"
          },
          "duration-week": {
            "displayName": "uike",
            "unitPattern-count-other": "uike ʻe {0}"
          },
          "duration-year": {
            "displayName": "taʻu",
            "unitPattern-count-other": "taʻu ʻe {0}"
          },
          "electric-ampere": {
            "displayName": "ʻamipele",
            "unitPattern-count-other": "ʻamipele ʻe {0}"
          },
          "electric-milliampere": {
            "displayName": "miliʻamipele",
            "unitPattern-count-other": "miliʻamipele ʻe {0}"
          },
          "electric-ohm": {
            "displayName": "ʻōmi",
            "unitPattern-count-other": "ʻōmi ʻe {0}"
          },
          "electric-volt": {
            "displayName": "volotā",
            "unitPattern-count-other": "volotā ʻe {0}"
          },
          "energy-calorie": {
            "displayName": "ʻū kaloli",
            "unitPattern-count-other": "kaloli ʻe {0}"
          },
          "energy-foodcalorie": {
            "displayName": "ʻū kaloli-kai",
            "unitPattern-count-other": "kaloli-kai ʻe {0}"
          },
          "energy-joule": {
            "displayName": "siule",
            "unitPattern-count-other": "siule ʻe {0}"
          },
          "energy-kilocalorie": {
            "displayName": "kilokaloli",
            "unitPattern-count-other": "kilokaloli ʻe {0}"
          },
          "energy-kilojoule": {
            "displayName": "kilosiule",
            "unitPattern-count-other": "kilosiule ʻe {0}"
          },
          "energy-kilowatt-hour": {
            "displayName": "kilouate-houa",
            "unitPattern-count-other": "kilouate-houa ʻe {0}"
          },
          "frequency-gigahertz": {
            "displayName": "kikahēti",
            "unitPattern-count-other": "kikahēti ʻe {0}"
          },
          "frequency-hertz": {
            "displayName": "hēti",
            "unitPattern-count-other": "hēti ʻe {0}"
          },
          "frequency-kilohertz": {
            "displayName": "kilohēti",
            "unitPattern-count-other": "kilohēti ʻe {0}"
          },
          "frequency-megahertz": {
            "displayName": "megahēti",
            "unitPattern-count-other": "megahēti ʻe {0}"
          },
          "length-astronomical-unit": {
            "displayName": "ʻiuniti fakaʻasitalōnoma",
            "unitPattern-count-other": "ʻiuniti fakaʻasitalōnoma ʻe {0}"
          },
          "length-centimeter": {
            "displayName": "senitimita",
            "unitPattern-count-other": "senitimita ʻe {0}"
          },
          "length-decimeter": {
            "displayName": "tesimita",
            "unitPattern-count-other": "tesimita ʻe {0}"
          },
          "length-fathom": {
            "displayName": "ofa",
            "unitPattern-count-other": "ofa ʻe {0}"
          },
          "length-foot": {
            "displayName": "fute",
            "unitPattern-count-other": "fute ʻe {0}"
          },
          "length-furlong": {
            "displayName": "fālongo",
            "unitPattern-count-other": "fālongo ʻe {0}"
          },
          "length-inch": {
            "displayName": "ʻinisi",
            "unitPattern-count-other": "ʻinisi ʻe {0}"
          },
          "length-kilometer": {
            "displayName": "kilomita",
            "unitPattern-count-other": "kilomita ʻe {0}"
          },
          "length-light-year": {
            "displayName": "taʻumaama",
            "unitPattern-count-other": "taʻumaama ʻe {0}"
          },
          "length-meter": {
            "displayName": "mita",
            "unitPattern-count-other": "mita ʻe {0}"
          },
          "length-micrometer": {
            "displayName": "maikolomita",
            "unitPattern-count-other": "maikolomita ʻe {0}"
          },
          "length-mile": {
            "displayName": "maile",
            "unitPattern-count-other": "maile ʻe {0}"
          },
          "length-millimeter": {
            "displayName": "milimita",
            "unitPattern-count-other": "milimita ʻe {0}"
          },
          "length-nanometer": {
            "displayName": "nanomita",
            "unitPattern-count-other": "nanomita ʻe {0}"
          },
          "length-nautical-mile": {
            "displayName": "maile ʻi tahi",
            "unitPattern-count-other": "maile ʻi tahi ʻe {0}"
          },
          "length-parsec": {
            "displayName": "ngaofesekoni",
            "unitPattern-count-other": "ngaofesekoni ʻe {0}"
          },
          "length-picometer": {
            "displayName": "pikomita",
            "unitPattern-count-other": "pikomita ʻe {0}"
          },
          "length-yard": {
            "displayName": "iate",
            "unitPattern-count-other": "iate ʻe {0}"
          },
          "light-lux": {
            "displayName": "lukisi",
            "unitPattern-count-other": "lukisi ʻe {0}"
          },
          "mass-carat": {
            "displayName": "kalati",
            "unitPattern-count-other": "kalati ʻe {0}"
          },
          "mass-gram": {
            "displayName": "kalami",
            "unitPattern-count-other": "kalami ʻe {0}"
          },
          "mass-kilogram": {
            "displayName": "kilokalami",
            "unitPattern-count-other": "kilokalami ʻe {0}"
          },
          "mass-metric-ton": {
            "displayName": "toni",
            "unitPattern-count-other": "toni ʻe {0}"
          },
          "mass-microgram": {
            "displayName": "maikolokalami",
            "unitPattern-count-other": "maikolokalami ʻe {0}"
          },
          "mass-milligram": {
            "displayName": "milikalami",
            "unitPattern-count-other": "milikalami ʻe {0}"
          },
          "mass-ounce": {
            "displayName": "ʻaunise",
            "unitPattern-count-other": "ʻaunisi ʻe {0}"
          },
          "mass-ounce-troy": {
            "displayName": "ʻaunisi koula",
            "unitPattern-count-other": "ʻaunisi koula ʻe {0}"
          },
          "mass-pound": {
            "displayName": "pāuni",
            "unitPattern-count-other": "pāuni ʻe {0}"
          },
          "mass-stone": {
            "displayName": "sitoni",
            "unitPattern-count-other": "sitoni ʻe {0}"
          },
          "mass-ton": {
            "displayName": "toni nounou",
            "unitPattern-count-other": "toni nounou ʻe {0}"
          },
          "power-gigawatt": {
            "displayName": "kikauate",
            "unitPattern-count-other": "kikauate ʻe {0}"
          },
          "power-horsepower": {
            "displayName": "hoosipaoa",
            "unitPattern-count-other": "hoosipaoa ʻe {0}"
          },
          "power-kilowatt": {
            "displayName": "kilouate",
            "unitPattern-count-other": "kilouate ʻe {0}"
          },
          "power-megawatt": {
            "displayName": "mekauate",
            "unitPattern-count-other": "mekauate ʻe {0}"
          },
          "power-milliwatt": {
            "displayName": "miliuate",
            "unitPattern-count-other": "miliuate ʻe {0}"
          },
          "power-watt": {
            "displayName": "uate",
            "unitPattern-count-other": "uate ʻe {0}"
          },
          "pressure-hectopascal": {
            "displayName": "hēkitopasikale",
            "unitPattern-count-other": "hēkitopasikale ʻe {0}"
          },
          "pressure-inch-hg": {
            "displayName": "ʻinisi mēkuli",
            "unitPattern-count-other": "ʻinisi mēkuli ʻe {0}"
          },
          "pressure-millibar": {
            "displayName": "milipā",
            "unitPattern-count-other": "milipā ʻe {0}"
          },
          "pressure-millimeter-of-mercury": {
            "displayName": "milimita mēkuli",
            "unitPattern-count-other": "milimita mēkuli ʻe {0}"
          },
          "pressure-pound-per-square-inch": {
            "displayName": "pāuni he ʻinisi sikuea",
            "unitPattern-count-other": "pāuni he ʻinisi sikuea ʻe {0}"
          },
          "proportion-karat": {
            "displayName": "kalati",
            "unitPattern-count-other": "kalati ʻe {0}"
          },
          "speed-kilometer-per-hour": {
            "displayName": "kilomita he houa",
            "unitPattern-count-other": "kilomita he houa ʻe {0}"
          },
          "speed-meter-per-second": {
            "displayName": "mita he sekoni",
            "unitPattern-count-other": "mita he sekoni ʻe {0}"
          },
          "speed-mile-per-hour": {
            "displayName": "maile he houa",
            "unitPattern-count-other": "maile he houa ʻe {0}"
          },
          "temperature-celsius": {
            "displayName": "tikili selisiasi",
            "unitPattern-count-other": "tikili selisiasi ʻe {0}"
          },
          "temperature-fahrenheit": {
            "displayName": "tikili felenihaiti",
            "unitPattern-count-other": "tikili felenihaiti ʻe {0}"
          },
          "temperature-kelvin": {
            "displayName": "kelevini",
            "unitPattern-count-other": "kelevini ʻe {0}"
          },
          "volume-acre-foot": {
            "displayName": "ʻeka-fute",
            "unitPattern-count-other": "ʻeka-fute ʻe {0}"
          },
          "volume-bushel": {
            "displayName": "pūseli",
            "unitPattern-count-other": "pūseli ʻe {0}"
          },
          "volume-centiliter": {
            "displayName": "senitilita",
            "unitPattern-count-other": "senitilita ʻe {0}"
          },
          "volume-cubic-centimeter": {
            "displayName": "senitimita kiupiki",
            "unitPattern-count-other": "senitimita kiupiki ʻe {0}"
          },
          "volume-cubic-foot": {
            "displayName": "fute kiupiki",
            "unitPattern-count-other": "fute kiupiki ʻe {0}"
          },
          "volume-cubic-inch": {
            "displayName": "ʻinisi kiupiki",
            "unitPattern-count-other": "ʻinisi kiupiki ʻe {0}"
          },
          "volume-cubic-kilometer": {
            "displayName": "kilomita kiupiki",
            "unitPattern-count-other": "kilomita kiupiki ʻe {0}"
          },
          "volume-cubic-meter": {
            "displayName": "mita kiupiki",
            "unitPattern-count-other": "mita kiupiki ʻe {0}"
          },
          "volume-cubic-mile": {
            "displayName": "maile kiupiki",
            "unitPattern-count-other": "maile kiupiki ʻe {0}"
          },
          "volume-cubic-yard": {
            "displayName": "iate kiupiki",
            "unitPattern-count-other": "iate kiupiki ʻe {0}"
          },
          "volume-cup": {
            "displayName": "ipu",
            "unitPattern-count-other": "ipu ʻe {0}"
          },
          "volume-deciliter": {
            "displayName": "tesilita",
            "unitPattern-count-other": "tesilita ʻe {0}"
          },
          "volume-fluid-ounce": {
            "displayName": "ʻaunise tafe",
            "unitPattern-count-other": "ʻaunise tafe ʻe {0}"
          },
          "volume-gallon": {
            "displayName": "kālani",
            "unitPattern-count-other": "kālani ʻe {0}"
          },
          "volume-hectoliter": {
            "displayName": "hēkitolita",
            "unitPattern-count-other": "hēkitolita ʻe {0}"
          },
          "volume-liter": {
            "displayName": "lita",
            "unitPattern-count-other": "lita ʻe {0}"
          },
          "volume-megaliter": {
            "displayName": "mekalita",
            "unitPattern-count-other": "mekalita ʻe {0}"
          },
          "volume-milliliter": {
            "displayName": "mililita",
            "unitPattern-count-other": "mililita ʻe {0}"
          },
          "volume-pint": {
            "displayName": "painite",
            "unitPattern-count-other": "painite ʻe {0}"
          },
          "volume-quart": {
            "displayName": "kuata",
            "unitPattern-count-other": "kuata ʻe {0}"
          },
          "volume-tablespoon": {
            "displayName": "sēpuni tēpile",
            "unitPattern-count-other": "sēpuni tēpile ʻe {0}"
          },
          "volume-teaspoon": {
            "displayName": "sēpuni tī",
            "unitPattern-count-other": "sēpuni tī ʻe {0}"
          }
        },
        "short": {
          "per": {
            "compoundUnitPattern": "{0}/{1}"
          },
          "acceleration-g-force": {
            "displayName": "k-mā",
            "unitPattern-count-other": "k-mā ʻe {0}"
          },
          "acceleration-meter-per-second-squared": {
            "displayName": "m/s²",
            "unitPattern-count-other": "m/s² ʻe {0}"
          },
          "angle-arc-minute": {
            "displayName": "msk",
            "unitPattern-count-other": "msk ʻe {0}"
          },
          "angle-arc-second": {
            "displayName": "ssk",
            "unitPattern-count-other": "ssk ʻe {0}"
          },
          "angle-degree": {
            "displayName": "tsk",
            "unitPattern-count-other": "tsk ʻe {0}"
          },
          "angle-radian": {
            "displayName": "lēt",
            "unitPattern-count-other": "lēt ʻe {0}"
          },
          "area-acre": {
            "displayName": "ʻeka ʻe",
            "unitPattern-count-other": "ʻek ʻe {0}"
          },
          "area-hectare": {
            "displayName": "ha",
            "unitPattern-count-other": "ha ʻe {0}"
          },
          "area-square-centimeter": {
            "displayName": "sm²",
            "unitPattern-count-other": "sm² ʻe {0}"
          },
          "area-square-foot": {
            "displayName": "ft²",
            "unitPattern-count-other": "sk ft² ʻe {0}"
          },
          "area-square-inch": {
            "displayName": "in²",
            "unitPattern-count-other": "sk in² ʻe {0}"
          },
          "area-square-kilometer": {
            "displayName": "km²",
            "unitPattern-count-other": "sk km² ʻe {0}"
          },
          "area-square-meter": {
            "displayName": "mita sikuea ʻe",
            "unitPattern-count-other": "sk m² ʻe {0}"
          },
          "area-square-mile": {
            "displayName": "maile sikuea ʻe",
            "unitPattern-count-other": "sk mi² ʻe {0}"
          },
          "area-square-yard": {
            "displayName": "it²",
            "unitPattern-count-other": "it² ʻe {0}"
          },
          "consumption-liter-per-kilometer": {
            "displayName": "l/km",
            "unitPattern-count-other": "l/km ʻe {0}"
          },
          "consumption-mile-per-gallon": {
            "displayName": "mi/kā",
            "unitPattern-count-other": "mi/kā ʻe {0}"
          },
          "digital-bit": {
            "displayName": "piti",
            "unitPattern-count-other": "piti ʻe {0}"
          },
          "digital-byte": {
            "displayName": "ʻū paiti",
            "unitPattern-count-other": "paiti ʻe {0}"
          },
          "digital-gigabit": {
            "displayName": "Gb",
            "unitPattern-count-other": "Gb ʻe {0}"
          },
          "digital-gigabyte": {
            "displayName": "kikapaiti",
            "unitPattern-count-other": "KP ʻe {0}"
          },
          "digital-kilobit": {
            "displayName": "kilopiti",
            "unitPattern-count-other": "kb ʻe {0}"
          },
          "digital-kilobyte": {
            "displayName": "kilopaiti",
            "unitPattern-count-other": "kB ʻe {0}"
          },
          "digital-megabit": {
            "displayName": "mekapiti",
            "unitPattern-count-other": "Mb ʻe {0}"
          },
          "digital-megabyte": {
            "displayName": "mekapaiti",
            "unitPattern-count-other": "MB ʻe {0}"
          },
          "digital-terabit": {
            "displayName": "telapiti",
            "unitPattern-count-other": "Tb ʻe {0}"
          },
          "digital-terabyte": {
            "displayName": "telapaiti",
            "unitPattern-count-other": "TB ʻe {0}"
          },
          "duration-day": {
            "displayName": "ʻa",
            "unitPattern-count-other": "ʻa ʻe {0}"
          },
          "duration-hour": {
            "displayName": "h",
            "unitPattern-count-other": "h ʻe {0}",
            "perUnitPattern": "{0} /h"
          },
          "duration-microsecond": {
            "displayName": "μs",
            "unitPattern-count-other": "μs ʻe {0}"
          },
          "duration-millisecond": {
            "displayName": "ms",
            "unitPattern-count-other": "ms ʻe {0}"
          },
          "duration-minute": {
            "displayName": "m",
            "unitPattern-count-other": "m ʻe {0}"
          },
          "duration-month": {
            "displayName": "mā",
            "unitPattern-count-other": "mā ʻe {0}"
          },
          "duration-nanosecond": {
            "displayName": "ns",
            "unitPattern-count-other": "ns ʻe {0}"
          },
          "duration-second": {
            "displayName": "s",
            "unitPattern-count-other": "s ʻe {0}",
            "perUnitPattern": "{0} /s"
          },
          "duration-week": {
            "displayName": "u",
            "unitPattern-count-other": "u ʻe {0}"
          },
          "duration-year": {
            "displayName": "taʻu",
            "unitPattern-count-other": "taʻu ʻe {0}"
          },
          "electric-ampere": {
            "displayName": "A",
            "unitPattern-count-other": "A ʻe {0}"
          },
          "electric-milliampere": {
            "displayName": "mA",
            "unitPattern-count-other": "mA ʻe {0}"
          },
          "electric-ohm": {
            "displayName": "Ω",
            "unitPattern-count-other": "Ω ʻe {0}"
          },
          "electric-volt": {
            "displayName": "volotā",
            "unitPattern-count-other": "V ʻe {0}"
          },
          "energy-calorie": {
            "displayName": "kal",
            "unitPattern-count-other": "kal ʻe {0}"
          },
          "energy-foodcalorie": {
            "displayName": "kal-k",
            "unitPattern-count-other": "kal-k ʻe {0}"
          },
          "energy-joule": {
            "displayName": "J",
            "unitPattern-count-other": "J ʻe {0}"
          },
          "energy-kilocalorie": {
            "displayName": "kkal",
            "unitPattern-count-other": "kkal ʻe {0}"
          },
          "energy-kilojoule": {
            "displayName": "kJ",
            "unitPattern-count-other": "kJ ʻe {0}"
          },
          "energy-kilowatt-hour": {
            "displayName": "kWh",
            "unitPattern-count-other": "kWh ʻe {0}"
          },
          "frequency-gigahertz": {
            "displayName": "GHz",
            "unitPattern-count-other": "GHz ʻe {0}"
          },
          "frequency-hertz": {
            "displayName": "Hz",
            "unitPattern-count-other": "Hz ʻe {0}"
          },
          "frequency-kilohertz": {
            "displayName": "kHz",
            "unitPattern-count-other": "kHz ʻe {0}"
          },
          "frequency-megahertz": {
            "displayName": "MHz",
            "unitPattern-count-other": "MHz ʻe {0}"
          },
          "length-astronomical-unit": {
            "displayName": "ʻiʻa",
            "unitPattern-count-other": "ʻiʻa ʻe {0}"
          },
          "length-centimeter": {
            "displayName": "sm",
            "unitPattern-count-other": "sm ʻe {0}"
          },
          "length-decimeter": {
            "displayName": "tm",
            "unitPattern-count-other": "tm ʻe {0}"
          },
          "length-fathom": {
            "displayName": "ofa",
            "unitPattern-count-other": "ofa ʻe {0}"
          },
          "length-foot": {
            "displayName": "ft",
            "unitPattern-count-other": "ft ʻe {0}"
          },
          "length-furlong": {
            "displayName": "fāl",
            "unitPattern-count-other": "fāl ʻe {0}"
          },
          "length-inch": {
            "displayName": "in",
            "unitPattern-count-other": "in ʻe {0}"
          },
          "length-kilometer": {
            "displayName": "km",
            "unitPattern-count-other": "km ʻe {0}"
          },
          "length-light-year": {
            "displayName": "tma",
            "unitPattern-count-other": "tma ʻe {0}"
          },
          "length-meter": {
            "displayName": "m",
            "unitPattern-count-other": "m ʻe {0}"
          },
          "length-micrometer": {
            "displayName": "µm",
            "unitPattern-count-other": "µm ʻe {0}"
          },
          "length-mile": {
            "displayName": "mi",
            "unitPattern-count-other": "mi ʻe {0}"
          },
          "length-millimeter": {
            "displayName": "mm",
            "unitPattern-count-other": "mm ʻe {0}"
          },
          "length-nanometer": {
            "displayName": "nm",
            "unitPattern-count-other": "nm ʻe {0}"
          },
          "length-nautical-mile": {
            "displayName": "mt",
            "unitPattern-count-other": "mt ʻe {0}"
          },
          "length-parsec": {
            "displayName": "ngs",
            "unitPattern-count-other": "ngs ʻe {0}"
          },
          "length-picometer": {
            "displayName": "pm",
            "unitPattern-count-other": "pm ʻe {0}"
          },
          "length-yard": {
            "displayName": "it",
            "unitPattern-count-other": "it ʻe {0}"
          },
          "light-lux": {
            "displayName": "lx",
            "unitPattern-count-other": "lx ʻe {0}"
          },
          "mass-carat": {
            "displayName": "kt",
            "unitPattern-count-other": "kt ʻe {0}"
          },
          "mass-gram": {
            "displayName": "k",
            "unitPattern-count-other": "k ʻe {0}"
          },
          "mass-kilogram": {
            "displayName": "kk",
            "unitPattern-count-other": "kk ʻe {0}"
          },
          "mass-metric-ton": {
            "displayName": "to",
            "unitPattern-count-other": "to ʻe {0}"
          },
          "mass-microgram": {
            "displayName": "μk",
            "unitPattern-count-other": "μk ʻe {0}"
          },
          "mass-milligram": {
            "displayName": "mk",
            "unitPattern-count-other": "mk ʻe {0}"
          },
          "mass-ounce": {
            "displayName": "ʻau",
            "unitPattern-count-other": "ʻau ʻe {0}"
          },
          "mass-ounce-troy": {
            "displayName": "ʻau-k",
            "unitPattern-count-other": "ʻau-k ʻe {0}"
          },
          "mass-pound": {
            "displayName": "pā",
            "unitPattern-count-other": "pā ʻe {0}"
          },
          "mass-stone": {
            "displayName": "st",
            "unitPattern-count-other": "st ʻe {0}"
          },
          "mass-ton": {
            "displayName": "tn",
            "unitPattern-count-other": "tn ʻe {0}"
          },
          "power-gigawatt": {
            "displayName": "GW",
            "unitPattern-count-other": "GW ʻe {0}"
          },
          "power-horsepower": {
            "displayName": "hp",
            "unitPattern-count-other": "hp ʻe {0}"
          },
          "power-kilowatt": {
            "displayName": "kW",
            "unitPattern-count-other": "kW ʻe {0}"
          },
          "power-megawatt": {
            "displayName": "MW",
            "unitPattern-count-other": "MW ʻe {0}"
          },
          "power-milliwatt": {
            "displayName": "mW",
            "unitPattern-count-other": "mW ʻe {0}"
          },
          "power-watt": {
            "displayName": "uate",
            "unitPattern-count-other": "W ʻe {0}"
          },
          "pressure-hectopascal": {
            "displayName": "hPa",
            "unitPattern-count-other": "hPa ʻe {0}"
          },
          "pressure-inch-hg": {
            "displayName": "in-Hg",
            "unitPattern-count-other": "in-Hg ʻe {0}"
          },
          "pressure-millibar": {
            "displayName": "mpā",
            "unitPattern-count-other": "mpā ʻe {0}"
          },
          "pressure-millimeter-of-mercury": {
            "displayName": "mm-Hg",
            "unitPattern-count-other": "mm-Hg ʻe {0}"
          },
          "pressure-pound-per-square-inch": {
            "displayName": "pā/in²",
            "unitPattern-count-other": "pā/in² ʻe {0}"
          },
          "proportion-karat": {
            "displayName": "kt",
            "unitPattern-count-other": "kt ʻe {0}"
          },
          "speed-kilometer-per-hour": {
            "displayName": "km/h",
            "unitPattern-count-other": "km/h ʻe {0}"
          },
          "speed-meter-per-second": {
            "displayName": "m/s",
            "unitPattern-count-other": "m/s ʻe {0}"
          },
          "speed-mile-per-hour": {
            "displayName": "mi/h",
            "unitPattern-count-other": "mi/h ʻe {0}"
          },
          "temperature-celsius": {
            "displayName": "°S",
            "unitPattern-count-other": "°S ʻe {0}"
          },
          "temperature-fahrenheit": {
            "displayName": "°F",
            "unitPattern-count-other": "°F ʻe {0}"
          },
          "temperature-kelvin": {
            "displayName": "K",
            "unitPattern-count-other": "K ʻe {0}"
          },
          "volume-acre-foot": {
            "displayName": "ʻe-ft",
            "unitPattern-count-other": "ʻe-ft ʻe {0}"
          },
          "volume-bushel": {
            "displayName": "pū",
            "unitPattern-count-other": "pū ʻe {0}"
          },
          "volume-centiliter": {
            "displayName": "sl",
            "unitPattern-count-other": "sl ʻe {0}"
          },
          "volume-cubic-centimeter": {
            "displayName": "sm³",
            "unitPattern-count-other": "sm³ ʻe {0}"
          },
          "volume-cubic-foot": {
            "displayName": "ft³",
            "unitPattern-count-other": "ft³ ʻe {0}"
          },
          "volume-cubic-inch": {
            "displayName": "in³",
            "unitPattern-count-other": "in³ ʻe {0}"
          },
          "volume-cubic-kilometer": {
            "displayName": "km³",
            "unitPattern-count-other": "km³ ʻe {0}"
          },
          "volume-cubic-meter": {
            "displayName": "m³",
            "unitPattern-count-other": "m³ ʻe {0}"
          },
          "volume-cubic-mile": {
            "displayName": "mi³",
            "unitPattern-count-other": "mi³ ʻe {0}"
          },
          "volume-cubic-yard": {
            "displayName": "it³",
            "unitPattern-count-other": "it³ ʻe {0}"
          },
          "volume-cup": {
            "displayName": "ip",
            "unitPattern-count-other": "ip ʻe {0}"
          },
          "volume-deciliter": {
            "displayName": "tl",
            "unitPattern-count-other": "tl ʻe {0}"
          },
          "volume-fluid-ounce": {
            "displayName": "ʻau-tf",
            "unitPattern-count-other": "ʻau-tf ʻe {0}"
          },
          "volume-gallon": {
            "displayName": "kā",
            "unitPattern-count-other": "kā ʻe {0}"
          },
          "volume-hectoliter": {
            "displayName": "hl",
            "unitPattern-count-other": "hl ʻe {0}"
          },
          "volume-liter": {
            "displayName": "l",
            "unitPattern-count-other": "l ʻe {0}"
          },
          "volume-megaliter": {
            "displayName": "Ml",
            "unitPattern-count-other": "Ml ʻe {0}"
          },
          "volume-milliliter": {
            "displayName": "ml",
            "unitPattern-count-other": "ml ʻe {0}"
          },
          "volume-pint": {
            "displayName": "pt",
            "unitPattern-count-other": "pt ʻe {0}"
          },
          "volume-quart": {
            "displayName": "ku",
            "unitPattern-count-other": "ku ʻe {0}"
          },
          "volume-tablespoon": {
            "displayName": "sētē",
            "unitPattern-count-other": "sētē ʻe {0}"
          },
          "volume-teaspoon": {
            "displayName": "sētī",
            "unitPattern-count-other": "sētī ʻe {0}"
          }
        },
        "narrow": {
          "per": {
            "compoundUnitPattern": "{0}/{1}"
          },
          "acceleration-g-force": {
            "displayName": "k-mā",
            "unitPattern-count-other": "{0} k-mā"
          },
          "acceleration-meter-per-second-squared": {
            "displayName": "m/s²",
            "unitPattern-count-other": "{0} m/s²"
          },
          "angle-arc-minute": {
            "displayName": "′",
            "unitPattern-count-other": "{0}′"
          },
          "angle-arc-second": {
            "displayName": "″",
            "unitPattern-count-other": "{0}″"
          },
          "angle-degree": {
            "displayName": "°",
            "unitPattern-count-other": "{0}°"
          },
          "angle-radian": {
            "displayName": "lēt",
            "unitPattern-count-other": "{0} lēt"
          },
          "area-acre": {
            "displayName": "ʻek",
            "unitPattern-count-other": "{0} ʻek"
          },
          "area-hectare": {
            "displayName": "ha",
            "unitPattern-count-other": "{0} ha"
          },
          "area-square-centimeter": {
            "displayName": "sm²",
            "unitPattern-count-other": "{0} sm²"
          },
          "area-square-foot": {
            "displayName": "ft²",
            "unitPattern-count-other": "{0} ft²"
          },
          "area-square-inch": {
            "displayName": "in²",
            "unitPattern-count-other": "{0} in²"
          },
          "area-square-kilometer": {
            "displayName": "km²",
            "unitPattern-count-other": "{0} km²"
          },
          "area-square-meter": {
            "displayName": "m²",
            "unitPattern-count-other": "{0} m²"
          },
          "area-square-mile": {
            "displayName": "mi²",
            "unitPattern-count-other": "{0} mi²"
          },
          "area-square-yard": {
            "displayName": "it²",
            "unitPattern-count-other": "{0} it²"
          },
          "consumption-liter-per-kilometer": {
            "displayName": "l/km",
            "unitPattern-count-other": "{0} l/km"
          },
          "consumption-mile-per-gallon": {
            "displayName": "mi/kā",
            "unitPattern-count-other": "{0} mi/kā"
          },
          "digital-bit": {
            "displayName": "b",
            "unitPattern-count-other": "{0} b"
          },
          "digital-byte": {
            "displayName": "B",
            "unitPattern-count-other": "{0} B"
          },
          "digital-gigabit": {
            "displayName": "Gb",
            "unitPattern-count-other": "{0} Gb"
          },
          "digital-gigabyte": {
            "displayName": "GB",
            "unitPattern-count-other": "{0} GB"
          },
          "digital-kilobit": {
            "displayName": "kb",
            "unitPattern-count-other": "{0} kb"
          },
          "digital-kilobyte": {
            "displayName": "kB",
            "unitPattern-count-other": "{0} kB"
          },
          "digital-megabit": {
            "displayName": "Mb",
            "unitPattern-count-other": "{0} Mb"
          },
          "digital-megabyte": {
            "displayName": "MB",
            "unitPattern-count-other": "{0} MB"
          },
          "digital-terabit": {
            "displayName": "Tb",
            "unitPattern-count-other": "{0} Tb"
          },
          "digital-terabyte": {
            "displayName": "TB",
            "unitPattern-count-other": "{0} TB"
          },
          "duration-day": {
            "displayName": "ʻa",
            "unitPattern-count-other": "{0} ʻa"
          },
          "duration-hour": {
            "displayName": "h",
            "unitPattern-count-other": "{0} h",
            "perUnitPattern": "{0} /h"
          },
          "duration-microsecond": {
            "displayName": "μs",
            "unitPattern-count-other": "{0} μs"
          },
          "duration-millisecond": {
            "displayName": "ms",
            "unitPattern-count-other": "{0} ms"
          },
          "duration-minute": {
            "displayName": "m",
            "unitPattern-count-other": "{0} m"
          },
          "duration-month": {
            "displayName": "m",
            "unitPattern-count-other": "{0} m"
          },
          "duration-nanosecond": {
            "displayName": "ns",
            "unitPattern-count-other": "{0} ns"
          },
          "duration-second": {
            "displayName": "s",
            "unitPattern-count-other": "{0} s",
            "perUnitPattern": "{0} /s"
          },
          "duration-week": {
            "displayName": "u",
            "unitPattern-count-other": "{0} u"
          },
          "duration-year": {
            "displayName": "t",
            "unitPattern-count-other": "{0} t"
          },
          "electric-ampere": {
            "displayName": "A",
            "unitPattern-count-other": "{0} A"
          },
          "electric-milliampere": {
            "displayName": "mA",
            "unitPattern-count-other": "{0} mA"
          },
          "electric-ohm": {
            "displayName": "Ω",
            "unitPattern-count-other": "{0} Ω"
          },
          "electric-volt": {
            "displayName": "V",
            "unitPattern-count-other": "{0} V"
          },
          "energy-calorie": {
            "displayName": "kal",
            "unitPattern-count-other": "{0} kal"
          },
          "energy-foodcalorie": {
            "displayName": "kal-k",
            "unitPattern-count-other": "{0} kal-k"
          },
          "energy-joule": {
            "displayName": "J",
            "unitPattern-count-other": "J ʻe {0}"
          },
          "energy-kilocalorie": {
            "displayName": "kkal",
            "unitPattern-count-other": "{0} kkal"
          },
          "energy-kilojoule": {
            "displayName": "kJ",
            "unitPattern-count-other": "{0} kJ"
          },
          "energy-kilowatt-hour": {
            "displayName": "kWh",
            "unitPattern-count-other": "{0} kWh"
          },
          "frequency-gigahertz": {
            "displayName": "GHz",
            "unitPattern-count-other": "{0} GHz"
          },
          "frequency-hertz": {
            "displayName": "Hz",
            "unitPattern-count-other": "{0} Hz"
          },
          "frequency-kilohertz": {
            "displayName": "kHz",
            "unitPattern-count-other": "{0} kHz"
          },
          "frequency-megahertz": {
            "displayName": "MHz",
            "unitPattern-count-other": "{0} MHz"
          },
          "length-astronomical-unit": {
            "displayName": "ʻiʻa",
            "unitPattern-count-other": "{0} ʻiʻa"
          },
          "length-centimeter": {
            "displayName": "sm",
            "unitPattern-count-other": "{0} sm"
          },
          "length-decimeter": {
            "displayName": "tm",
            "unitPattern-count-other": "{0} tm"
          },
          "length-fathom": {
            "displayName": "o",
            "unitPattern-count-other": "{0} o"
          },
          "length-foot": {
            "displayName": "ft",
            "unitPattern-count-other": "{0} ft"
          },
          "length-furlong": {
            "displayName": "fāl",
            "unitPattern-count-other": "{0} fāl"
          },
          "length-inch": {
            "displayName": "in",
            "unitPattern-count-other": "{0} in"
          },
          "length-kilometer": {
            "displayName": "km",
            "unitPattern-count-other": "{0} km"
          },
          "length-light-year": {
            "displayName": "tma",
            "unitPattern-count-other": "{0} tma"
          },
          "length-meter": {
            "displayName": "m",
            "unitPattern-count-other": "{0} m"
          },
          "length-micrometer": {
            "displayName": "µm",
            "unitPattern-count-other": "{0} µm"
          },
          "length-mile": {
            "displayName": "mi",
            "unitPattern-count-other": "{0} mi"
          },
          "length-millimeter": {
            "displayName": "mm",
            "unitPattern-count-other": "{0} mm"
          },
          "length-nanometer": {
            "displayName": "nm",
            "unitPattern-count-other": "{0} nm"
          },
          "length-nautical-mile": {
            "displayName": "mt",
            "unitPattern-count-other": "{0} mt"
          },
          "length-parsec": {
            "displayName": "ngs",
            "unitPattern-count-other": "{0} ngs"
          },
          "length-picometer": {
            "displayName": "pm",
            "unitPattern-count-other": "{0} pm"
          },
          "length-yard": {
            "displayName": "it",
            "unitPattern-count-other": "{0} it"
          },
          "light-lux": {
            "displayName": "lx",
            "unitPattern-count-other": "{0} lx"
          },
          "mass-carat": {
            "displayName": "kt",
            "unitPattern-count-other": "{0} kt"
          },
          "mass-gram": {
            "displayName": "k",
            "unitPattern-count-other": "{0} k"
          },
          "mass-kilogram": {
            "displayName": "kk",
            "unitPattern-count-other": "{0} kk"
          },
          "mass-metric-ton": {
            "displayName": "to",
            "unitPattern-count-other": "{0} to"
          },
          "mass-microgram": {
            "displayName": "μk",
            "unitPattern-count-other": "{0} μk"
          },
          "mass-milligram": {
            "displayName": "mk",
            "unitPattern-count-other": "{0} mk"
          },
          "mass-ounce": {
            "displayName": "ʻau",
            "unitPattern-count-other": "{0} ʻau"
          },
          "mass-ounce-troy": {
            "displayName": "ʻau-k",
            "unitPattern-count-other": "{0} ʻau-k"
          },
          "mass-pound": {
            "displayName": "pā",
            "unitPattern-count-other": "{0} pā"
          },
          "mass-stone": {
            "displayName": "st",
            "unitPattern-count-other": "{0} st"
          },
          "mass-ton": {
            "displayName": "tn",
            "unitPattern-count-other": "{0} tn"
          },
          "power-gigawatt": {
            "displayName": "GW",
            "unitPattern-count-other": "{0} GW"
          },
          "power-horsepower": {
            "displayName": "hp",
            "unitPattern-count-other": "{0} hp"
          },
          "power-kilowatt": {
            "displayName": "kW",
            "unitPattern-count-other": "{0} kW"
          },
          "power-megawatt": {
            "displayName": "MW",
            "unitPattern-count-other": "{0} MW"
          },
          "power-milliwatt": {
            "displayName": "mW",
            "unitPattern-count-other": "{0} mW"
          },
          "power-watt": {
            "displayName": "W",
            "unitPattern-count-other": "{0} W"
          },
          "pressure-hectopascal": {
            "displayName": "hPa",
            "unitPattern-count-other": "{0} hPa"
          },
          "pressure-inch-hg": {
            "displayName": "in-Hg",
            "unitPattern-count-other": "{0} in-Hg"
          },
          "pressure-millibar": {
            "displayName": "mpā",
            "unitPattern-count-other": "{0} mpā"
          },
          "pressure-millimeter-of-mercury": {
            "displayName": "mm-Hg",
            "unitPattern-count-other": "{0} mm-Hg"
          },
          "pressure-pound-per-square-inch": {
            "displayName": "pā/in²",
            "unitPattern-count-other": "{0} pā/in²"
          },
          "proportion-karat": {
            "displayName": "kt",
            "unitPattern-count-other": "{0} kt"
          },
          "speed-kilometer-per-hour": {
            "displayName": "km/h",
            "unitPattern-count-other": "{0} km/h"
          },
          "speed-meter-per-second": {
            "displayName": "m/s",
            "unitPattern-count-other": "{0} m/s"
          },
          "speed-mile-per-hour": {
            "displayName": "mi/h",
            "unitPattern-count-other": "{0} mi/h"
          },
          "temperature-celsius": {
            "displayName": "°S",
            "unitPattern-count-other": "{0}°S"
          },
          "temperature-fahrenheit": {
            "displayName": "°F",
            "unitPattern-count-other": "{0}°F"
          },
          "temperature-kelvin": {
            "displayName": "K",
            "unitPattern-count-other": "{0} K"
          },
          "volume-acre-foot": {
            "displayName": "ʻe-ft",
            "unitPattern-count-other": "{0} ʻe-ft"
          },
          "volume-bushel": {
            "displayName": "pū",
            "unitPattern-count-other": "{0} pū"
          },
          "volume-centiliter": {
            "displayName": "sl",
            "unitPattern-count-other": "{0} sl"
          },
          "volume-cubic-centimeter": {
            "displayName": "sm³",
            "unitPattern-count-other": "{0} sm³"
          },
          "volume-cubic-foot": {
            "displayName": "ft³",
            "unitPattern-count-other": "{0} ft³"
          },
          "volume-cubic-inch": {
            "displayName": "in³",
            "unitPattern-count-other": "{0} in³"
          },
          "volume-cubic-kilometer": {
            "displayName": "km³",
            "unitPattern-count-other": "{0} km³"
          },
          "volume-cubic-meter": {
            "displayName": "m³",
            "unitPattern-count-other": "{0} m³"
          },
          "volume-cubic-mile": {
            "displayName": "mi³",
            "unitPattern-count-other": "{0} mi³"
          },
          "volume-cubic-yard": {
            "displayName": "it³",
            "unitPattern-count-other": "{0} it³"
          },
          "volume-cup": {
            "displayName": "ip",
            "unitPattern-count-other": "{0} ip"
          },
          "volume-deciliter": {
            "displayName": "tl",
            "unitPattern-count-other": "{0} tl"
          },
          "volume-fluid-ounce": {
            "displayName": "ʻau-tf",
            "unitPattern-count-other": "{0} ʻau-tf"
          },
          "volume-gallon": {
            "displayName": "kā",
            "unitPattern-count-other": "{0} kā"
          },
          "volume-hectoliter": {
            "displayName": "hl",
            "unitPattern-count-other": "{0} hl"
          },
          "volume-liter": {
            "displayName": "l",
            "unitPattern-count-other": "{0} l"
          },
          "volume-megaliter": {
            "displayName": "Ml",
            "unitPattern-count-other": "{0} Ml"
          },
          "volume-milliliter": {
            "displayName": "ml",
            "unitPattern-count-other": "{0} ml"
          },
          "volume-pint": {
            "displayName": "pt",
            "unitPattern-count-other": "{0} pt"
          },
          "volume-quart": {
            "displayName": "ku",
            "unitPattern-count-other": "{0} ku"
          },
          "volume-tablespoon": {
            "displayName": "sētē",
            "unitPattern-count-other": "{0} sētē"
          },
          "volume-teaspoon": {
            "displayName": "sētī",
            "unitPattern-count-other": "{0} sētī"
          }
        },
        "durationUnit-type-hm": {
          "durationUnitPattern": "h:mm"
        },
        "durationUnit-type-hms": {
          "durationUnitPattern": "h:mm:ss"
        },
        "durationUnit-type-ms": {
          "durationUnitPattern": "m:ss"
        }
      }
    }
  }
}
