{
  "main": {
    "tzm-Latn-MA": {
      "identity": {
        "version": {
          "_cldrVersion": "26",
          "_number": "$Revision: 10669 $"
        },
        "generation": {
          "_date": "$Date: 2014-07-23 16:10:33 -0500 (Wed, 23 Jul 2014) $"
        },
        "language": "root",
        "script": "Latn",
        "territory": "MA"
      },
      "characters": {
        "exemplarCharacters": "[a b c d ḍ e ɛ f g {gʷ} ɣ h ḥ i j k {kʷ} l m n q r ṛ s ṣ t ṭ u w x y z]",
        "auxiliary": "[o p v]",
        "punctuation": "[\\- , ; \\: ! ? . ( ) \\[ \\] \\{ \\}]",
        "index": "[A B C D Ḍ E Ɛ F G Ɣ H Ḥ I J K L M N Q R Ṛ S Ṣ T Ṭ U W X Y Z]",
        "ellipsis": {
          "initial": "…{0}",
          "medial": "{0}…{1}",
          "final": "{0}…",
          "word-initial": "… {0}",
          "word-medial": "{0} … {1}",
          "word-final": "{0} …"
        },
        "moreInformation": "?"
      }
    }
  }
}
