{
  "main": {
    "si": {
      "identity": {
        "version": {
          "_cldrVersion": "26",
          "_number": "$Revision: 10809 $"
        },
        "generation": {
          "_date": "$Date: 2014-08-14 15:10:07 -0500 (Thu, 14 Aug 2014) $"
        },
        "language": "root"
      },
      "dates": {
        "calendars": {
          "coptic": {
            "months": {
              "format": {
                "abbreviated": {
                  "1": "Tout",
                  "2": "Baba",
                  "3": "Hator",
                  "4": "Kiahk",
                  "5": "Toba",
                  "6": "Amshir",
                  "7": "Baramhat",
                  "8": "Baramouda",
                  "9": "Bashans",
                  "10": "Paona",
                  "11": "Epep",
                  "12": "Mesra",
                  "13": "Nasie"
                },
                "narrow": {
                  "1": "1",
                  "2": "2",
                  "3": "3",
                  "4": "4",
                  "5": "5",
                  "6": "6",
                  "7": "7",
                  "8": "8",
                  "9": "9",
                  "10": "10",
                  "11": "11",
                  "12": "12",
                  "13": "13"
                },
                "wide": {
                  "1": "Tout",
                  "2": "Baba",
                  "3": "Hator",
                  "4": "Kiahk",
                  "5": "Toba",
                  "6": "Amshir",
                  "7": "Baramhat",
                  "8": "Baramouda",
                  "9": "Bashans",
                  "10": "Paona",
                  "11": "Epep",
                  "12": "Mesra",
                  "13": "Nasie"
                }
              },
              "stand-alone": {
                "abbreviated": {
                  "1": "Tout",
                  "2": "Baba",
                  "3": "Hator",
                  "4": "Kiahk",
                  "5": "Toba",
                  "6": "Amshir",
                  "7": "Baramhat",
                  "8": "Baramouda",
                  "9": "Bashans",
                  "10": "Paona",
                  "11": "Epep",
                  "12": "Mesra",
                  "13": "Nasie"
                },
                "narrow": {
                  "1": "1",
                  "2": "2",
                  "3": "3",
                  "4": "4",
                  "5": "5",
                  "6": "6",
                  "7": "7",
                  "8": "8",
                  "9": "9",
                  "10": "10",
                  "11": "11",
                  "12": "12",
                  "13": "13"
                },
                "wide": {
                  "1": "Tout",
                  "2": "Baba",
                  "3": "Hator",
                  "4": "Kiahk",
                  "5": "Toba",
                  "6": "Amshir",
                  "7": "Baramhat",
                  "8": "Baramouda",
                  "9": "Bashans",
                  "10": "Paona",
                  "11": "Epep",
                  "12": "Mesra",
                  "13": "Nasie"
                }
              }
            },
            "days": {
              "format": {
                "abbreviated": {
                  "sun": "ඉරිදා",
                  "mon": "සඳුදා",
                  "tue": "අඟහ",
                  "wed": "බදාදා",
                  "thu": "බ්‍රහස්",
                  "fri": "සිකු",
                  "sat": "සෙන"
                },
                "narrow": {
                  "sun": "ඉ",
                  "mon": "ස",
                  "tue": "අ",
                  "wed": "බ",
                  "thu": "බ්‍ර",
                  "fri": "සි",
                  "sat": "සෙ"
                },
                "short": {
                  "sun": "ඉරි",
                  "mon": "සඳු",
                  "tue": "අඟ",
                  "wed": "බදා",
                  "thu": "බ්‍රහ",
                  "fri": "සිකු",
                  "sat": "සෙන"
                },
                "wide": {
                  "sun": "ඉරිදා",
                  "mon": "සඳුදා",
                  "tue": "අඟහරුවාදා",
                  "wed": "බදාදා",
                  "thu": "බ්‍රහස්පතින්දා",
                  "fri": "සිකුරාදා",
                  "sat": "සෙනසුරාදා"
                }
              },
              "stand-alone": {
                "abbreviated": {
                  "sun": "ඉරිදා",
                  "mon": "සඳුදා",
                  "tue": "අඟහ",
                  "wed": "බදාදා",
                  "thu": "බ්‍රහස්",
                  "fri": "සිකු",
                  "sat": "සෙන"
                },
                "narrow": {
                  "sun": "ඉ",
                  "mon": "ස",
                  "tue": "අ",
                  "wed": "බ",
                  "thu": "බ්‍ර",
                  "fri": "සි",
                  "sat": "සෙ"
                },
                "short": {
                  "sun": "ඉරි",
                  "mon": "සඳු",
                  "tue": "අඟ",
                  "wed": "බදා",
                  "thu": "බ්‍රහ",
                  "fri": "සිකු",
                  "sat": "සෙන"
                },
                "wide": {
                  "sun": "ඉරිදා",
                  "mon": "සඳුදා",
                  "tue": "අඟහරුවාදා",
                  "wed": "බදාදා",
                  "thu": "බ්‍රහස්පතින්දා",
                  "fri": "සිකුරාදා",
                  "sat": "සෙනසුරාදා"
                }
              }
            },
            "quarters": {
              "format": {
                "abbreviated": {
                  "1": "කාර්:1",
                  "2": "කාර්:2",
                  "3": "කාර්:3",
                  "4": "කාර්:4"
                },
                "narrow": {
                  "1": "1",
                  "2": "2",
                  "3": "3",
                  "4": "4"
                },
                "wide": {
                  "1": "1 වන කාර්තුව",
                  "2": "2 වන කාර්තුව",
                  "3": "3 වන කාර්තුව",
                  "4": "4 වන කාර්තුව"
                }
              },
              "stand-alone": {
                "abbreviated": {
                  "1": "කාර්:1",
                  "2": "කාර්:2",
                  "3": "කාර්:3",
                  "4": "කාර්:4"
                },
                "narrow": {
                  "1": "1",
                  "2": "2",
                  "3": "3",
                  "4": "4"
                },
                "wide": {
                  "1": "1 වන කාර්තුව",
                  "2": "2 වන කාර්තුව",
                  "3": "3 වන කාර්තුව",
                  "4": "4 වන කාර්තුව"
                }
              }
            },
            "dayPeriods": {
              "format": {
                "abbreviated": {
                  "am": "පෙ.ව.",
                  "noon": "මධ්‍යාහ්නය",
                  "pm": "ප.ව."
                },
                "narrow": {
                  "am": "පෙ",
                  "noon": "ම",
                  "pm": "ප"
                },
                "wide": {
                  "am": "පෙ.ව.",
                  "noon": "මධ්‍යාහ්නය",
                  "pm": "ප.ව."
                }
              },
              "stand-alone": {
                "abbreviated": {
                  "am": "පෙ.ව.",
                  "noon": "මධ්‍යාහ්නය",
                  "pm": "ප.ව."
                },
                "narrow": {
                  "am": "පෙ",
                  "noon": "ම",
                  "pm": "ප"
                },
                "wide": {
                  "am": "පෙ.ව.",
                  "noon": "මධ්‍යාහ්නය",
                  "pm": "ප.ව."
                }
              }
            },
            "eras": {
              "eraNames": {
                "0": "ERA0",
                "1": "ERA1"
              },
              "eraAbbr": {
                "0": "ERA0",
                "1": "ERA1"
              },
              "eraNarrow": {
                "0": "ERA0",
                "1": "ERA1"
              }
            },
            "dateFormats": {
              "full": "G y MMMM d, EEEE",
              "long": "G y MMMM d",
              "medium": "G y MMM d",
              "short": "GGGGG y-MM-dd"
            },
            "timeFormats": {
              "full": "a h.mm.ss zzzz",
              "long": "a h.mm.ss z",
              "medium": "a h.mm.ss",
              "short": "a h.mm"
            },
            "dateTimeFormats": {
              "full": "{1} {0}",
              "long": "{1} {0}",
              "medium": "{1} {0}",
              "short": "{1} {0}",
              "availableFormats": {
                "E": "ccc",
                "EHm": "E HH:mm",
                "EHms": "E HH:mm:ss",
                "Ed": "d E",
                "Ehm": "E h:mm a",
                "Ehms": "E h:mm:ss a",
                "Gy": "G y",
                "GyMMM": "G y MMM",
                "GyMMMEd": "G y MMM d, E",
                "GyMMMd": "G y MMM d",
                "H": "HH",
                "Hm": "HH:mm",
                "Hms": "HH:mm:ss",
                "M": "L",
                "MEd": "M-d, E",
                "MMM": "LLL",
                "MMMEd": "MMM d E",
                "MMMd": "MMM d",
                "Md": "M-d",
                "d": "d",
                "h": "a h",
                "hm": "a h.mm",
                "hms": "a h.mm.ss",
                "ms": "mm.ss",
                "y": "G y",
                "yyyy": "G y",
                "yyyyM": "G y-M",
                "yyyyMEd": "G y-M-d, E",
                "yyyyMMM": "G y MMM",
                "yyyyMMMEd": "G y MMM d, E",
                "yyyyMMMd": "G y MMM d",
                "yyyyMd": "G y-M-d",
                "yyyyQQQ": "G y QQQ",
                "yyyyQQQQ": "G y QQQQ"
              },
              "appendItems": {
                "Day": "{0} ({2}: {1})",
                "Day-Of-Week": "{0} {1}",
                "Era": "{1} {0}",
                "Hour": "{0} ({2}: {1})",
                "Minute": "{0} ({2}: {1})",
                "Month": "{0} ({2}: {1})",
                "Quarter": "{0} ({2}: {1})",
                "Second": "{0} ({2}: {1})",
                "Timezone": "{0} {1}",
                "Week": "{0} ({2}: {1})",
                "Year": "{1} {0}"
              },
              "intervalFormats": {
                "intervalFormatFallback": "{0} – {1}",
                "H": {
                  "H": "HH–HH"
                },
                "Hm": {
                  "H": "HH:mm–HH:mm",
                  "m": "HH:mm–HH:mm"
                },
                "Hmv": {
                  "H": "HH:mm–HH:mm v",
                  "m": "HHmm-HHmm v"
                },
                "Hv": {
                  "H": "HH–HH v"
                },
                "M": {
                  "M": "M–M"
                },
                "MEd": {
                  "M": "M-d, E – M-d, E",
                  "d": "M-d, E – M-d, E"
                },
                "MMM": {
                  "M": "LLL–LLL"
                },
                "MMMEd": {
                  "M": "MMM-dd, E – MMM-dd, E",
                  "d": "MMM-d, E – MMM-d, E"
                },
                "MMMd": {
                  "M": "MMM d - MMM d",
                  "d": "MMM d-d"
                },
                "Md": {
                  "M": "M-d - M-d",
                  "d": "M-d - M-d"
                },
                "d": {
                  "d": "d–d"
                },
                "h": {
                  "a": "a h - a h",
                  "h": "a h-h"
                },
                "hm": {
                  "a": "a h:mm - a h:mm",
                  "h": "a h.mm - h.mm",
                  "m": "a h.mm - h.mm"
                },
                "hmv": {
                  "a": "a h.mm - a hhh.mm v",
                  "h": "a h.mm - h.mm v",
                  "m": "a h:mm - h.mm v"
                },
                "hv": {
                  "a": "a h - a h v",
                  "h": "a h - h vv"
                },
                "y": {
                  "y": "G y–y"
                },
                "yM": {
                  "M": "G y-M – y-M",
                  "y": "G y-M – y-M"
                },
                "yMEd": {
                  "M": "G y-M-d, E – y-M-d, E",
                  "d": "G y-M-d, E – y-M-d, E",
                  "y": "G y-M-d, E – y-M-d, E"
                },
                "yMMM": {
                  "M": "G y MMM–MMM",
                  "y": "G y MMM - y MMM"
                },
                "yMMMEd": {
                  "M": "G y MMM d, E - y MMM d, E",
                  "d": "G y MMM d, E - y MMM d, E",
                  "y": "G y MMM d, E - y MMM d, E"
                },
                "yMMMM": {
                  "M": "G y MMMM - MMMM",
                  "y": "G y MMMM - y MMMM"
                },
                "yMMMd": {
                  "M": "G y MMM d - MMM d",
                  "d": "G y MMM d - d",
                  "y": "G y MMM d - y MMM d"
                },
                "yMd": {
                  "M": "G y-M-d – y-M-d",
                  "d": "G y-M-d – y-M-d",
                  "y": "G y-M-d – y-M-d"
                }
              }
            }
          }
        }
      }
    }
  }
}
