{
  "main": {
    "rm": {
      "identity": {
        "version": {
          "_cldrVersion": "26",
          "_number": "$Revision: 10809 $"
        },
        "generation": {
          "_date": "$Date: 2014-08-14 15:10:07 -0500 (Thu, 14 Aug 2014) $"
        },
        "language": "rm"
      },
      "dates": {
        "calendars": {
          "persian": {
            "months": {
              "format": {
                "abbreviated": {
                  "1": "Farvardin",
                  "2": "Ordibehesht",
                  "3": "Khordad",
                  "4": "Tir",
                  "5": "Mordad",
                  "6": "Shahrivar",
                  "7": "Mehr",
                  "8": "Aban",
                  "9": "Azar",
                  "10": "Dey",
                  "11": "Bahman",
                  "12": "Esfand"
                },
                "narrow": {
                  "1": "1",
                  "2": "2",
                  "3": "3",
                  "4": "4",
                  "5": "5",
                  "6": "6",
                  "7": "7",
                  "8": "8",
                  "9": "9",
                  "10": "10",
                  "11": "11",
                  "12": "12"
                },
                "wide": {
                  "1": "Farvardin",
                  "2": "Ordibehesht",
                  "3": "Khordad",
                  "4": "Tir",
                  "5": "Mordad",
                  "6": "Shahrivar",
                  "7": "Mehr",
                  "8": "Aban",
                  "9": "Azar",
                  "10": "Dey",
                  "11": "Bahman",
                  "12": "Esfand"
                }
              },
              "stand-alone": {
                "abbreviated": {
                  "1": "Farvardin",
                  "2": "Ordibehesht",
                  "3": "Khordad",
                  "4": "Tir",
                  "5": "Mordad",
                  "6": "Shahrivar",
                  "7": "Mehr",
                  "8": "Aban",
                  "9": "Azar",
                  "10": "Dey",
                  "11": "Bahman",
                  "12": "Esfand"
                },
                "narrow": {
                  "1": "1",
                  "2": "2",
                  "3": "3",
                  "4": "4",
                  "5": "5",
                  "6": "6",
                  "7": "7",
                  "8": "8",
                  "9": "9",
                  "10": "10",
                  "11": "11",
                  "12": "12"
                },
                "wide": {
                  "1": "Farvardin",
                  "2": "Ordibehesht",
                  "3": "Khordad",
                  "4": "Tir",
                  "5": "Mordad",
                  "6": "Shahrivar",
                  "7": "Mehr",
                  "8": "Aban",
                  "9": "Azar",
                  "10": "Dey",
                  "11": "Bahman",
                  "12": "Esfand"
                }
              }
            },
            "days": {
              "format": {
                "abbreviated": {
                  "sun": "du",
                  "mon": "gli",
                  "tue": "ma",
                  "wed": "me",
                  "thu": "gie",
                  "fri": "ve",
                  "sat": "so"
                },
                "narrow": {
                  "sun": "D",
                  "mon": "G",
                  "tue": "M",
                  "wed": "M",
                  "thu": "G",
                  "fri": "V",
                  "sat": "S"
                },
                "short": {
                  "sun": "du",
                  "mon": "gli",
                  "tue": "ma",
                  "wed": "me",
                  "thu": "gie",
                  "fri": "ve",
                  "sat": "so"
                },
                "wide": {
                  "sun": "dumengia",
                  "mon": "glindesdi",
                  "tue": "mardi",
                  "wed": "mesemna",
                  "thu": "gievgia",
                  "fri": "venderdi",
                  "sat": "sonda"
                }
              },
              "stand-alone": {
                "abbreviated": {
                  "sun": "du",
                  "mon": "gli",
                  "tue": "ma",
                  "wed": "me",
                  "thu": "gie",
                  "fri": "ve",
                  "sat": "so"
                },
                "narrow": {
                  "sun": "D",
                  "mon": "G",
                  "tue": "M",
                  "wed": "M",
                  "thu": "G",
                  "fri": "V",
                  "sat": "S"
                },
                "short": {
                  "sun": "du",
                  "mon": "gli",
                  "tue": "ma",
                  "wed": "me",
                  "thu": "gie",
                  "fri": "ve",
                  "sat": "so"
                },
                "wide": {
                  "sun": "dumengia",
                  "mon": "glindesdi",
                  "tue": "mardi",
                  "wed": "mesemna",
                  "thu": "gievgia",
                  "fri": "venderdi",
                  "sat": "sonda"
                }
              }
            },
            "quarters": {
              "format": {
                "abbreviated": {
                  "1": "1. quartal",
                  "2": "2. quartal",
                  "3": "3. quartal",
                  "4": "4. quartal"
                },
                "narrow": {
                  "1": "1",
                  "2": "2",
                  "3": "3",
                  "4": "4"
                },
                "wide": {
                  "1": "1. quartal",
                  "2": "2. quartal",
                  "3": "3. quartal",
                  "4": "4. quartal"
                }
              },
              "stand-alone": {
                "abbreviated": {
                  "1": "1. quartal",
                  "2": "2. quartal",
                  "3": "3. quartal",
                  "4": "4. quartal"
                },
                "narrow": {
                  "1": "1",
                  "2": "2",
                  "3": "3",
                  "4": "4"
                },
                "wide": {
                  "1": "1. quartal",
                  "2": "2. quartal",
                  "3": "3. quartal",
                  "4": "4. quartal"
                }
              }
            },
            "dayPeriods": {
              "format": {
                "abbreviated": {
                  "am": "am",
                  "noon": "noon",
                  "pm": "sm"
                },
                "narrow": {
                  "am": "a",
                  "noon": "n",
                  "pm": "p"
                },
                "wide": {
                  "am": "am",
                  "noon": "noon",
                  "pm": "sm"
                }
              },
              "stand-alone": {
                "abbreviated": {
                  "am": "am",
                  "noon": "noon",
                  "pm": "sm"
                },
                "narrow": {
                  "am": "a",
                  "noon": "n",
                  "pm": "p"
                },
                "wide": {
                  "am": "am",
                  "noon": "noon",
                  "pm": "sm"
                }
              }
            },
            "eras": {
              "eraNames": {
                "0": "AP"
              },
              "eraAbbr": {
                "0": "AP"
              },
              "eraNarrow": {
                "0": "AP"
              }
            },
            "dateFormats": {
              "full": "EEEE, 'ils' d 'da' MMMM y G",
              "long": "d 'da' MMMM y G",
              "medium": "dd-MM-y G",
              "short": "dd-MM-yy GGGGG"
            },
            "timeFormats": {
              "full": "HH:mm:ss zzzz",
              "long": "HH:mm:ss z",
              "medium": "HH:mm:ss",
              "short": "HH:mm"
            },
            "dateTimeFormats": {
              "full": "{1} {0}",
              "long": "{1} {0}",
              "medium": "{1} {0}",
              "short": "{1} {0}",
              "availableFormats": {
                "E": "ccc",
                "EHm": "E HH:mm",
                "EHms": "E HH:mm:ss",
                "Ed": "E d.",
                "Ehm": "E h:mm a",
                "Ehms": "E h:mm:ss a",
                "Gy": "G y",
                "GyMMM": "G y MMM",
                "GyMMMEd": "G y MMM d, E",
                "GyMMMd": "G y MMM d",
                "H": "H",
                "HHmm": "HH:mm",
                "HHmmss": "HH:mm:ss",
                "Hm": "H:mm",
                "Hms": "HH:mm:ss",
                "M": "L",
                "MEd": "E, d.M.",
                "MMM": "LLL",
                "MMMEd": "E d. MMM",
                "MMMMEd": "E d. MMMM",
                "MMMMd": "d. MMMM",
                "MMMd": "d. MMM",
                "MMd": "d.MM.",
                "MMdd": "dd.MM.",
                "Md": "d.M.",
                "d": "d",
                "h": "h a",
                "hm": "h:mm a",
                "hms": "h:mm:ss a",
                "mmss": "mm:ss",
                "ms": "mm:ss",
                "y": "y",
                "yM": "y-M",
                "yMEd": "E, y-M-d",
                "yMM": "MM.y",
                "yMMM": "MMM y",
                "yMMMEd": "E, d. MMM y",
                "yMMMM": "MMMM y",
                "yMMdd": "dd.MM.y",
                "yQQQ": "QQQ y",
                "yQQQQ": "QQQQ y",
                "yyyy": "G y",
                "yyyyM": "GGGGG y-MM",
                "yyyyMEd": "GGGGG y-MM-dd, E",
                "yyyyMMM": "G y MMM",
                "yyyyMMMEd": "G y MMM d, E",
                "yyyyMMMd": "G y MMM d",
                "yyyyMd": "GGGGG y-MM-dd",
                "yyyyQQQ": "G y QQQ",
                "yyyyQQQQ": "G y QQQQ"
              },
              "appendItems": {
                "Day": "{0} ({2}: {1})",
                "Day-Of-Week": "{0} {1}",
                "Era": "{1} {0}",
                "Hour": "{0} ({2}: {1})",
                "Minute": "{0} ({2}: {1})",
                "Month": "{0} ({2}: {1})",
                "Quarter": "{0} ({2}: {1})",
                "Second": "{0} ({2}: {1})",
                "Timezone": "{0} {1}",
                "Week": "{0} ({2}: {1})",
                "Year": "{1} {0}"
              },
              "intervalFormats": {
                "intervalFormatFallback": "{0} - {1}",
                "H": {
                  "H": "HH–HH"
                },
                "Hm": {
                  "H": "HH:mm–HH:mm",
                  "m": "HH:mm–HH:mm"
                },
                "Hmv": {
                  "H": "HH:mm–HH:mm v",
                  "m": "HH:mm–HH:mm v"
                },
                "Hv": {
                  "H": "HH–HH v"
                },
                "M": {
                  "M": "M.-M."
                },
                "MEd": {
                  "M": "E, dd.MM. - E, dd.MM.",
                  "d": "E, dd.MM. - E, dd.MM."
                },
                "MMM": {
                  "M": "MMM-MMM"
                },
                "MMMEd": {
                  "M": "E, d. MMM - E, d. MMM",
                  "d": "E, d. - E, d. MMM"
                },
                "MMMd": {
                  "M": "d. MMM - d. MMM",
                  "d": "d.-d. MMM"
                },
                "Md": {
                  "M": "dd.MM. - dd.MM.",
                  "d": "dd.MM. - dd.MM."
                },
                "d": {
                  "d": "d.-d."
                },
                "h": {
                  "a": "h a - h a",
                  "h": "h-h a"
                },
                "hm": {
                  "a": "h:mm a - h:mm a",
                  "h": "h:mm-h:mm a",
                  "m": "h:mm-h:mm a"
                },
                "hmv": {
                  "a": "h:mm a - h:mm a v",
                  "h": "h:mm-h:mm a v",
                  "m": "h:mm-h:mm a v"
                },
                "hv": {
                  "a": "h a - h a v",
                  "h": "h-h a v"
                },
                "y": {
                  "y": "y-y"
                },
                "yM": {
                  "M": "MM.y - MM.y",
                  "y": "MM.y - MM.y"
                },
                "yMEd": {
                  "M": "E, dd.MM.y - E, dd.MM.y",
                  "d": "E, dd.MM.y - E, dd.MM.y",
                  "y": "E, dd.MM.y - E, dd.MM.y"
                },
                "yMMM": {
                  "M": "MMM-MMM y",
                  "y": "MMM y - MMM y"
                },
                "yMMMEd": {
                  "M": "E, d. MMM - E, d. MMM y",
                  "d": "E, d. - E, d. MMM y",
                  "y": "E, d. MMM y - E, d. MMM y"
                },
                "yMMMM": {
                  "M": "MM – MM.y",
                  "y": "MM.y – MM.y"
                },
                "yMMMd": {
                  "M": "d. MMM - d. MMM y",
                  "d": "d.-d. MMM y",
                  "y": "d. MMM y - d. MMM y"
                },
                "yMd": {
                  "M": "dd.MM.y - dd.MM.y",
                  "d": "dd.MM.y - dd.MM.y",
                  "y": "dd.MM.y - dd.MM.y"
                }
              }
            }
          }
        }
      }
    }
  }
}
