{
  "main": {
    "pa-Arab": {
      "identity": {
        "version": {
          "_cldrVersion": "26",
          "_number": "$Revision: 10669 $"
        },
        "generation": {
          "_date": "$Date: 2014-07-23 16:10:33 -0500 (Wed, 23 Jul 2014) $"
        },
        "language": "pa",
        "script": "Arab"
      },
      "characters": {
        "exemplarCharacters": "[\u064F ء آ ؤ ئ ا ب پ ت ث ٹ ج چ ح خ د ذ ڈ ر ز ڑ ژ س ش ص ض ط ظ ع غ ف ق ک گ ل م ن ں ه ھ ہ و ی ے]",
        "auxiliary": "[\u200E\u200F أ ٻ ة ٺ ټ ٽ]",
        "punctuation": "[\\- , ; \\: ! ? . ( ) \\[ \\] \\{ \\}]",
        "index": "[ء آ ؤ ئ ا ب پ ت ث ٹ ج چ ح خ د ذ ڈ ر ز ڑ ژ س ش ص ض ط ظ ع غ ف ق ک گ ل م ن ں ه ھ ہ و ی ے]",
        "ellipsis": {
          "initial": "…{0}",
          "medial": "{0}…{1}",
          "final": "{0}…",
          "word-initial": "… {0}",
          "word-medial": "{0} … {1}",
          "word-final": "{0} …"
        },
        "moreInformation": "?"
      }
    }
  }
}
