{
  "main": {
    "my": {
      "identity": {
        "version": {
          "_cldrVersion": "26",
          "_number": "$Revision: 10809 $"
        },
        "generation": {
          "_date": "$Date: 2014-08-14 15:10:07 -0500 (Thu, 14 Aug 2014) $"
        },
        "language": "my"
      },
      "dates": {
        "calendars": {
          "buddhist": {
            "months": {
              "format": {
                "abbreviated": {
                  "1": "ဇန်နဝါရီ",
                  "2": "ဖေဖော်ဝါရီ",
                  "3": "မတ်",
                  "4": "ဧပြီ",
                  "5": "မေ",
                  "6": "ဇွန်",
                  "7": "ဇူလိုင်",
                  "8": "ဩဂုတ်",
                  "9": "စက်တင်ဘာ",
                  "10": "အောက်တိုဘာ",
                  "11": "နိုဝင်ဘာ",
                  "12": "ဒီဇင်ဘာ"
                },
                "narrow": {
                  "1": "ဇ",
                  "2": "ဖ",
                  "3": "မ",
                  "4": "ဧ",
                  "5": "မ",
                  "6": "ဇ",
                  "7": "ဇ",
                  "8": "ဩ",
                  "9": "စ",
                  "10": "အ",
                  "11": "န",
                  "12": "ဒ"
                },
                "wide": {
                  "1": "ဇန်နဝါရီ",
                  "2": "ဖေဖော်ဝါရီ",
                  "3": "မတ်",
                  "4": "ဧပြီ",
                  "5": "မေ",
                  "6": "ဇွန်",
                  "7": "ဇူလိုင်",
                  "8": "ဩဂုတ်",
                  "9": "စက်တင်ဘာ",
                  "10": "အောက်တိုဘာ",
                  "11": "နိုဝင်ဘာ",
                  "12": "ဒီဇင်ဘာ"
                }
              },
              "stand-alone": {
                "abbreviated": {
                  "1": "ဇန်နဝါရီ",
                  "2": "ဖေဖော်ဝါရီ",
                  "3": "မတ်",
                  "4": "ဧပြီ",
                  "5": "မေ",
                  "6": "ဇွန်",
                  "7": "ဇူလိုင်",
                  "8": "ဩဂုတ်",
                  "9": "စက်တင်ဘာ",
                  "10": "အောက်တိုဘာ",
                  "11": "နိုဝင်ဘာ",
                  "12": "ဒီဇင်ဘာ"
                },
                "narrow": {
                  "1": "ဇ",
                  "2": "ဖ",
                  "3": "မ",
                  "4": "ဧ",
                  "5": "မ",
                  "6": "ဇ",
                  "7": "ဇ",
                  "8": "ဩ",
                  "9": "စ",
                  "10": "အ",
                  "11": "န",
                  "12": "ဒ"
                },
                "wide": {
                  "1": "ဇန်နဝါရီ",
                  "2": "ဖေဖော်ဝါရီ",
                  "3": "မတ်",
                  "4": "ဧပြီ",
                  "5": "မေ",
                  "6": "ဇွန်",
                  "7": "ဇူလိုင်",
                  "8": "ဩဂုတ်",
                  "9": "စက်တင်ဘာ",
                  "10": "အောက်တိုဘာ",
                  "11": "နိုဝင်ဘာ",
                  "12": "ဒီဇင်ဘာ"
                }
              }
            },
            "days": {
              "format": {
                "abbreviated": {
                  "sun": "တနင်္ဂနွေ",
                  "mon": "တနင်္လာ",
                  "tue": "အင်္ဂါ",
                  "wed": "ဗုဒ္ဓဟူး",
                  "thu": "ကြာသပတေး",
                  "fri": "သောကြာ",
                  "sat": "စနေ"
                },
                "narrow": {
                  "sun": "တ",
                  "mon": "တ",
                  "tue": "အ",
                  "wed": "ဗ",
                  "thu": "က",
                  "fri": "သ",
                  "sat": "စ"
                },
                "short": {
                  "sun": "တနင်္ဂနွေ",
                  "mon": "တနင်္လာ",
                  "tue": "အင်္ဂါ",
                  "wed": "ဗုဒ္ဓဟူး",
                  "thu": "ကြာသပတေး",
                  "fri": "သောကြာ",
                  "sat": "စနေ"
                },
                "wide": {
                  "sun": "တနင်္ဂနွေ",
                  "mon": "တနင်္လာ",
                  "tue": "အင်္ဂါ",
                  "wed": "ဗုဒ္ဓဟူး",
                  "thu": "ကြာသပတေး",
                  "fri": "သောကြာ",
                  "sat": "စနေ"
                }
              },
              "stand-alone": {
                "abbreviated": {
                  "sun": "တနင်္ဂနွေ",
                  "mon": "တနင်္လာ",
                  "tue": "အင်္ဂါ",
                  "wed": "ဗုဒ္ဓဟူး",
                  "thu": "ကြာသပတေး",
                  "fri": "သောကြာ",
                  "sat": "စနေ"
                },
                "narrow": {
                  "sun": "တ",
                  "mon": "တ",
                  "tue": "အ",
                  "wed": "ဗ",
                  "thu": "က",
                  "fri": "သ",
                  "sat": "စ"
                },
                "short": {
                  "sun": "တနင်္ဂနွေ",
                  "mon": "တနင်္လာ",
                  "tue": "အင်္ဂါ",
                  "wed": "ဗုဒ္ဓဟူး",
                  "thu": "ကြာသပတေး",
                  "fri": "သောကြာ",
                  "sat": "စနေ"
                },
                "wide": {
                  "sun": "တနင်္ဂနွေ",
                  "mon": "တနင်္လာ",
                  "tue": "အင်္ဂါ",
                  "wed": "ဗုဒ္ဓဟူး",
                  "thu": "ကြာသပတေး",
                  "fri": "သောကြာ",
                  "sat": "စနေ"
                }
              }
            },
            "quarters": {
              "format": {
                "abbreviated": {
                  "1": "ပထမ သုံးလပတ်",
                  "2": "ဒုတိယ သုံးလပတ်",
                  "3": "တတိယ သုံးလပတ်",
                  "4": "စတုတ္ထ သုံးလပတ်"
                },
                "narrow": {
                  "1": "ပ",
                  "2": "ဒု",
                  "3": "တ",
                  "4": "စ"
                },
                "wide": {
                  "1": "ပထမ သုံးလပတ်",
                  "2": "ဒုတိယ သုံးလပတ်",
                  "3": "တတိယ သုံးလပတ်",
                  "4": "စတုတ္ထ သုံးလပတ်"
                }
              },
              "stand-alone": {
                "abbreviated": {
                  "1": "ပထမ သုံးလပတ်",
                  "2": "ဒုတိယ သုံးလပတ်",
                  "3": "တတိယ သုံးလပတ်",
                  "4": "စတုတ္ထ သုံးလပတ်"
                },
                "narrow": {
                  "1": "ပ",
                  "2": "ဒု",
                  "3": "တ",
                  "4": "စ"
                },
                "wide": {
                  "1": "ပထမ သုံးလပတ်",
                  "2": "ဒုတိယ သုံးလပတ်",
                  "3": "တတိယ သုံးလပတ်",
                  "4": "စတုတ္ထ သုံးလပတ်"
                }
              }
            },
            "dayPeriods": {
              "format": {
                "abbreviated": {
                  "am": "နံနက်",
                  "noon": "မွန်းတည့်",
                  "pm": "ညနေ"
                },
                "narrow": {
                  "am": "နံနက်",
                  "noon": "မွန်းတည့်",
                  "pm": "ညနေ"
                },
                "wide": {
                  "am": "နံနက်",
                  "noon": "မွန်းတည့်",
                  "pm": "ညနေ"
                }
              },
              "stand-alone": {
                "abbreviated": {
                  "am": "နံနက်",
                  "noon": "မွန်းတည့်",
                  "pm": "ညနေ"
                },
                "narrow": {
                  "am": "နံနက်",
                  "noon": "မွန်းတည့်",
                  "pm": "ညနေ"
                },
                "wide": {
                  "am": "နံနက်",
                  "noon": "မွန်းတည့်",
                  "pm": "ညနေ"
                }
              }
            },
            "eras": {
              "eraNames": {
                "0": "BE"
              },
              "eraAbbr": {
                "0": "BE"
              },
              "eraNarrow": {
                "0": "BE"
              }
            },
            "dateFormats": {
              "full": "EEEE, G y MMMM dd",
              "long": "G y MMMM d",
              "medium": "G y MMM d",
              "short": "GGGGG y/MM/dd"
            },
            "timeFormats": {
              "full": "HH:mm:ss zzzz",
              "long": "HH:mm:ss z",
              "medium": "HH:mm:ss",
              "short": "HH:mm"
            },
            "dateTimeFormats": {
              "full": "{1} {0}တွင်",
              "long": "{1} {0}တွင်",
              "medium": "{1} {0}",
              "short": "{1} {0}",
              "availableFormats": {
                "E": "ccc",
                "EHm": "E HH:mm",
                "EHms": "E HH:mm:ss",
                "Ed": "E, d",
                "Ehm": "E h:mm a",
                "Ehms": "E h:mm:ss a",
                "Gy": "G y",
                "GyMMM": "G y MMM",
                "GyMMMEd": "E, G y MMM d",
                "GyMMMd": "G y MMM d",
                "H": "HH",
                "Hm": "HH:mm",
                "Hms": "HH:mm:ss",
                "M": "L",
                "MEd": "E, M/d",
                "MMM": "LLL",
                "MMMEd": "E, MMM d",
                "MMMMEd": "E, MMMM d",
                "MMMMd": "MMMM d",
                "MMMd": "MMM d",
                "Md": "M/d",
                "d": "d",
                "h": "h a",
                "hm": "h:mm a",
                "hms": "h:mm:ss a",
                "ms": "mm:ss",
                "y": "G y",
                "yyyy": "G y",
                "yyyyM": "G y/M",
                "yyyyMEd": "E, G y/M/d",
                "yyyyMMM": "G y MMM",
                "yyyyMMMEd": "E, G y MMM d",
                "yyyyMMMM": "G y MMMM",
                "yyyyMMMd": "G y MMM d",
                "yyyyMd": "GGGGG y-MM-dd",
                "yyyyQQQ": "G y QQQ",
                "yyyyQQQQ": "G y QQQQ"
              },
              "appendItems": {
                "Day": "{0} ({2}: {1})",
                "Day-Of-Week": "{0} {1}",
                "Era": "{1} {0}",
                "Hour": "{0} ({2}: {1})",
                "Minute": "{0} ({2}: {1})",
                "Month": "{0} ({2}: {1})",
                "Quarter": "{0} ({2}: {1})",
                "Second": "{0} ({2}: {1})",
                "Timezone": "{0} {1}",
                "Week": "{0} ({2}: {1})",
                "Year": "{1} {0}"
              },
              "intervalFormats": {
                "intervalFormatFallback": "{0} – {1}",
                "H": {
                  "H": "HH-HH"
                },
                "Hm": {
                  "H": "HH:mm-HH:mm",
                  "m": "HH:mm-HH:mm"
                },
                "Hmv": {
                  "H": "HH:mm-HH:mm v",
                  "m": "HH:mm-HH:mm v"
                },
                "Hv": {
                  "H": "HH-HH v"
                },
                "M": {
                  "M": "M-M"
                },
                "MEd": {
                  "M": "EEEE၊ M/d – EEEE၊ M/d",
                  "d": "EEEE၊ M/d – EEEE၊ M/d"
                },
                "MMM": {
                  "M": "MMM – MMM"
                },
                "MMMEd": {
                  "M": "MMM d၊ EEEE – MMM d၊ EEEE",
                  "d": "MMM d၊ EEEE – MMM d၊ EEEE"
                },
                "MMMd": {
                  "M": "MMM d – MMM d",
                  "d": "MMM d–d"
                },
                "Md": {
                  "M": "M/d – M/d",
                  "d": "M/d – M/d"
                },
                "d": {
                  "d": "d–d"
                },
                "h": {
                  "a": "h a - h a",
                  "h": "h-h a"
                },
                "hm": {
                  "a": "h:mm a - h:mm a",
                  "h": "h:mm-h:mm a",
                  "m": "h:mm-h:mm a"
                },
                "hmv": {
                  "a": "h:mm a - h:mm a v",
                  "h": "h:mm-h:mm a v",
                  "m": "h:mm-h:mm a v"
                },
                "hv": {
                  "a": "h a - h a v",
                  "h": "h-h a v"
                },
                "y": {
                  "y": "G y-y"
                },
                "yM": {
                  "M": "G y/M – y/M",
                  "y": "G y/M – y/M"
                },
                "yMEd": {
                  "M": "EEEE၊ G y/M/d – EEEE၊ y/M/d",
                  "d": "EEEE၊ G y/M/d – EEEE၊ y/M/d",
                  "y": "EEEE၊ G y/M/d – EEEE၊ y/M/d"
                },
                "yMMM": {
                  "M": "G y MMM – y MMM",
                  "y": "G y MMM – y MMM"
                },
                "yMMMEd": {
                  "M": "G y၊ MMM d၊ EEEE – MMM d၊ EEEE",
                  "d": "G y၊ MMM d၊ EEEE – MMM d၊ EEEE",
                  "y": "G y၊ MMM d၊ EEEE – y၊ MMM d၊ EEEE"
                },
                "yMMMM": {
                  "M": "G y MMMM–MMMM",
                  "y": "G y MMMM – y MMMM"
                },
                "yMMMd": {
                  "M": "G y၊ MMM d – MMM d",
                  "d": "G y MMM d–d",
                  "y": "G y MMM d – y MMM d"
                },
                "yMd": {
                  "M": "G y/M/d – y/M/d",
                  "d": "G y/M/d – y/M/d",
                  "y": "G y/M/d – y/M/d"
                }
              }
            }
          }
        }
      }
    }
  }
}
