{
  "main": {
    "my": {
      "identity": {
        "version": {
          "_cldrVersion": "26",
          "_number": "$Revision: 10809 $"
        },
        "generation": {
          "_date": "$Date: 2014-08-14 15:10:07 -0500 (Thu, 14 Aug 2014) $"
        },
        "language": "my"
      },
      "characters": {
        "exemplarCharacters": "[က ခ ဂ ဃ င စ ဆ ဇ ဈ ဉ ည ဋ ဌ ဍ ဎ ဏ တ ထ ဒ ဓ န ပ ဖ ဗ ဘ မ ယ ရ လ ဝ သ ဟ ဠ အ ဣ ဤ ဥ ဦ ဧ ဩ ဪ ာ ါ \u102D \u102E \u102F \u1030 ေ \u1032 \u1036 ဿ ျ ြ \u103D \u103E \u1039 \u103A \u1037 း]",
        "auxiliary": "[ၐ ၑ ဨ ဢ ၒ ၓ ၔ ၕ ၖ ၗ \u1058 \u1059]",
        "punctuation": "[၊ ။ ‘ ’ “ ”]",
        "index": "[က ခ ဂ ဃ င စ ဆ ဇ ဈ ဉ ည ဋ ဌ ဍ ဎ ဏ တ ထ ဒ ဓ န ပ ဖ ဗ ဘ မ ယ ရ လ ဝ သ ဟ ဠ အ]",
        "ellipsis": {
          "initial": "…{0}",
          "medial": "{0}…{1}",
          "final": "{0}…",
          "word-initial": "… {0}",
          "word-medial": "{0} … {1}",
          "word-final": "{0} …"
        },
        "moreInformation": "?"
      }
    }
  }
}
