{
  "main": {
    "my": {
      "identity": {
        "version": {
          "_cldrVersion": "26",
          "_number": "$Revision: 10809 $"
        },
        "generation": {
          "_date": "$Date: 2014-08-14 15:10:07 -0500 (Thu, 14 Aug 2014) $"
        },
        "language": "my"
      },
      "posix": {
        "messages": {
          "yesstr": "ဟုတ်တယ်",
          "nostr": "မဟုတ်ဘူး"
        }
      }
    }
  }
}
