{
  "main": {
    "my": {
      "identity": {
        "version": {
          "_cldrVersion": "26",
          "_number": "$Revision: 10809 $"
        },
        "generation": {
          "_date": "$Date: 2014-08-14 15:10:07 -0500 (Thu, 14 Aug 2014) $"
        },
        "language": "my"
      },
      "dates": {
        "timeZoneNames": {
          "hourFormat": "+HH:mm;-HH:mm",
          "gmtFormat": "ဂရင်းနစ်စံတော်ချိန်{0}",
          "gmtZeroFormat": "ဂရင်းနစ်စံတော်ချိန်",
          "regionFormat": "{0}အချိန်",
          "regionFormat-type-standard": "{0} (စံတော်ချိန်)",
          "regionFormat-type-daylight": "{0} (+1)",
          "fallbackFormat": "{1} ({0})",
          "zone": {
            "America": {
              "Adak": {
                "exemplarCity": "အာဒခ်"
              },
              "Anchorage": {
                "exemplarCity": "အန်ကာရေ့ဂျ်"
              },
              "Anguilla": {
                "exemplarCity": "အန်ဂွီလာ"
              },
              "Antigua": {
                "exemplarCity": "အန်တီဂုအာ"
              },
              "Araguaina": {
                "exemplarCity": "အာရာဂွာအီနာ"
              },
              "Argentina": {
                "La_Rioja": {
                  "exemplarCity": "လာ ရီအိုဂျာ"
                },
                "Rio_Gallegos": {
                  "exemplarCity": "ရီအို ဂါလီဂိုစ်"
                },
                "Salta": {
                  "exemplarCity": "ဆာလ်တာ"
                },
                "San_Juan": {
                  "exemplarCity": "စော့တ ဂျုအန်"
                },
                "San_Luis": {
                  "exemplarCity": "စော့န် လူအီးစ်"
                },
                "Tucuman": {
                  "exemplarCity": "တူကူမန်"
                },
                "Ushuaia": {
                  "exemplarCity": "ဥဆွာအီအာ"
                }
              },
              "Aruba": {
                "exemplarCity": "အာရုဘာ"
              },
              "Asuncion": {
                "exemplarCity": "အာဆူစီအွန်း"
              },
              "Bahia": {
                "exemplarCity": "ဘာဟီအာ"
              },
              "Bahia_Banderas": {
                "exemplarCity": "ဘာဟီအာ ဘန်ဒရက်စ်"
              },
              "Barbados": {
                "exemplarCity": "ဘာဘဒိုးစ်"
              },
              "Belem": {
                "exemplarCity": "ဘာလီန်"
              },
              "Belize": {
                "exemplarCity": "ဘီလီဇ်"
              },
              "Blanc-Sablon": {
                "exemplarCity": "ဘလွန်ခ်-စာဘလွန်"
              },
              "Boa_Vista": {
                "exemplarCity": "ဘိုအာဗီစ်တာ"
              },
              "Bogota": {
                "exemplarCity": "ဘိုဂိုတာ"
              },
              "Boise": {
                "exemplarCity": "ဘိုအီဇီ"
              },
              "Buenos_Aires": {
                "exemplarCity": "ဘရူနိုစ်အေရီစ်"
              },
              "Cambridge_Bay": {
                "exemplarCity": "ကိန်းဘရီဂျ်ဘေး"
              },
              "Campo_Grande": {
                "exemplarCity": "ကိမ်ပို ဂရန်ဒီ"
              },
              "Cancun": {
                "exemplarCity": "ကန်ခန်"
              },
              "Caracas": {
                "exemplarCity": "ကာရာကာစ်"
              },
              "Catamarca": {
                "exemplarCity": "ကာတာမာရ်ကာ"
              },
              "Cayenne": {
                "exemplarCity": "ခါရန်း"
              },
              "Cayman": {
                "exemplarCity": "ကေမန်"
              },
              "Chicago": {
                "exemplarCity": "ချီကာကို"
              },
              "Chihuahua": {
                "exemplarCity": "ချီဟူအာဟူအာ"
              },
              "Coral_Harbour": {
                "exemplarCity": "အာတီကိုကန်"
              },
              "Cordoba": {
                "exemplarCity": "ကိုဒိုဘာ"
              },
              "Costa_Rica": {
                "exemplarCity": "ကိုစတာရီကာ"
              },
              "Creston": {
                "exemplarCity": "ကရစ်စတွန်"
              },
              "Cuiaba": {
                "exemplarCity": "ခူရာဘာ"
              },
              "Curacao": {
                "exemplarCity": "ခူရာကာအို"
              },
              "Danmarkshavn": {
                "exemplarCity": "ဒန်မတ်ရှာန်"
              },
              "Dawson": {
                "exemplarCity": "ဒေါ်စွန်"
              },
              "Dawson_Creek": {
                "exemplarCity": "ဒေါ်စွန်ကရိခ်"
              },
              "Denver": {
                "exemplarCity": "ဒင်ဗာ"
              },
              "Detroit": {
                "exemplarCity": "ဒေထရိုအ်"
              },
              "Dominica": {
                "exemplarCity": "ဒိုမီနီကာ"
              },
              "Edmonton": {
                "exemplarCity": "အက်ဒ်မွန်တွန်"
              },
              "Eirunepe": {
                "exemplarCity": "အီရူနီပီ"
              },
              "El_Salvador": {
                "exemplarCity": "အဲလ် ဆာဗီဒို"
              },
              "Fortaleza": {
                "exemplarCity": "ဖို့တ်တာလီဇာ"
              },
              "Glace_Bay": {
                "exemplarCity": "ဂလဲစ်ဘေး"
              },
              "Godthab": {
                "exemplarCity": "နုအုခ်"
              },
              "Goose_Bay": {
                "exemplarCity": "ဂူးစ်ဘေး"
              },
              "Grand_Turk": {
                "exemplarCity": "ဂရန်ဒ် တခ်"
              },
              "Grenada": {
                "exemplarCity": "ဂရီနာဒါ"
              },
              "Guadeloupe": {
                "exemplarCity": "ဂူအာဒီလူပ်"
              },
              "Guatemala": {
                "exemplarCity": "ဂွာတီမာလာ"
              },
              "Guayaquil": {
                "exemplarCity": "ဂွာရာကီးလ်"
              },
              "Guyana": {
                "exemplarCity": "ဂိုင်းရာနား"
              },
              "Halifax": {
                "exemplarCity": "ဟလီဖက်စ်"
              },
              "Havana": {
                "exemplarCity": "ဟာဗာနာ"
              },
              "Hermosillo": {
                "exemplarCity": "ဟာမိုစ်စီလို"
              },
              "Indiana": {
                "Knox": {
                  "exemplarCity": "နို့ခ်စ် အင်ဒီအားနား"
                },
                "Marengo": {
                  "exemplarCity": "မာရန်ဂို အင်ဒီအားနား"
                },
                "Petersburg": {
                  "exemplarCity": "ပီတာဘာဂ်စ် အင်ဒီအားနား"
                },
                "Tell_City": {
                  "exemplarCity": "တဲလ်စီးတီး အင်ဒီအားနား"
                },
                "Vevay": {
                  "exemplarCity": "ဗီဗဲ အင်ဒီအားနား"
                },
                "Vincennes": {
                  "exemplarCity": "ဗင်ဆင့်စ် အင်ဒီအားနား"
                },
                "Winamac": {
                  "exemplarCity": "ဝီနာမက်ခ် အင်ဒီအားနား"
                }
              },
              "Indianapolis": {
                "exemplarCity": "အင်ဒီယားနားပိုလစ်"
              },
              "Inuvik": {
                "exemplarCity": "အီနုဗီခ်"
              },
              "Iqaluit": {
                "exemplarCity": "အီကာလူအီတ်"
              },
              "Jamaica": {
                "exemplarCity": "ဂျာမေကာ"
              },
              "Jujuy": {
                "exemplarCity": "ဂျုဂျေ"
              },
              "Juneau": {
                "exemplarCity": "ဂျုနိုအော"
              },
              "Kentucky": {
                "Monticello": {
                  "exemplarCity": "မွန်တီဆယ်လို ကင်တပ်ခ်ကီး"
                }
              },
              "Kralendijk": {
                "exemplarCity": "ခရာလဲန်းဒီခ်"
              },
              "La_Paz": {
                "exemplarCity": "လာပါဇ်"
              },
              "Lima": {
                "exemplarCity": "လီမာ"
              },
              "Los_Angeles": {
                "exemplarCity": "လော့စ်အိန်ဂျယ်လိစ်"
              },
              "Louisville": {
                "exemplarCity": "လူအီးစ်ဗီလ်"
              },
              "Lower_Princes": {
                "exemplarCity": "လိုအာပရင့်စ် ကွာတာ"
              },
              "Maceio": {
                "exemplarCity": "မာဆဲသြာ"
              },
              "Managua": {
                "exemplarCity": "မာနာဂူအာ"
              },
              "Manaus": {
                "exemplarCity": "မာနောက်စ်"
              },
              "Marigot": {
                "exemplarCity": "မာရီဂိုတ်"
              },
              "Martinique": {
                "exemplarCity": "မာတီနီဂ်"
              },
              "Matamoros": {
                "exemplarCity": "မာတာမိုရိုစ်"
              },
              "Mazatlan": {
                "exemplarCity": "မာဇတ်လန်"
              },
              "Mendoza": {
                "exemplarCity": "မိန်ဒိုဇာ"
              },
              "Menominee": {
                "exemplarCity": "မီနိုမီနီး"
              },
              "Merida": {
                "exemplarCity": "မီရီဒါ"
              },
              "Metlakatla": {
                "exemplarCity": "မက်တ်လာကက်လာ"
              },
              "Mexico_City": {
                "exemplarCity": "မက်ခ်စီကိုစီတီး"
              },
              "Miquelon": {
                "exemplarCity": "မိခွီလွန်"
              },
              "Moncton": {
                "exemplarCity": "မွန်ခ်တွန်"
              },
              "Monterrey": {
                "exemplarCity": "မွန်တီရဲယ်လ်"
              },
              "Montevideo": {
                "exemplarCity": "မွန်တီဗီဒီအို"
              },
              "Montserrat": {
                "exemplarCity": "မွန့်(တ်)ဆေးရတ်"
              },
              "Nassau": {
                "exemplarCity": "နာ့ဆော်"
              },
              "New_York": {
                "exemplarCity": "နယူးယောက်"
              },
              "Nipigon": {
                "exemplarCity": "နီပီဂွန်"
              },
              "Nome": {
                "exemplarCity": "နိုမီ"
              },
              "Noronha": {
                "exemplarCity": "နိုရိုညာ"
              },
              "North_Dakota": {
                "Beulah": {
                  "exemplarCity": "ဘီဥလာ မြောက်ဒါကိုတာ"
                },
                "Center": {
                  "exemplarCity": "စင်တာ မြောက်ဒါကိုတာ"
                },
                "New_Salem": {
                  "exemplarCity": "နယူးစီလန် မြောက်ဒါကိုတာ"
                }
              },
              "Ojinaga": {
                "exemplarCity": "အိုဂျီနာဂါ"
              },
              "Panama": {
                "exemplarCity": "ပါနားမား"
              },
              "Pangnirtung": {
                "exemplarCity": "ဖန်ဂ်နသ်တံ"
              },
              "Paramaribo": {
                "exemplarCity": "ပါရာမာရီဘို"
              },
              "Phoenix": {
                "exemplarCity": "ဖီးနစ်"
              },
              "Port-au-Prince": {
                "exemplarCity": "ပို့တ်-အို-ပရင့်စ်"
              },
              "Port_of_Spain": {
                "exemplarCity": "ပို့တ် အော့ဖ် စပိန်"
              },
              "Porto_Velho": {
                "exemplarCity": "ဖို့တ်တို ဗဲလ်လီအာ"
              },
              "Puerto_Rico": {
                "exemplarCity": "ပိုတိုရီကို"
              },
              "Rainy_River": {
                "exemplarCity": "ရိမ်းနီး ရီဗာ"
              },
              "Rankin_Inlet": {
                "exemplarCity": "ရမ်ကင် အင်လက်"
              },
              "Recife": {
                "exemplarCity": "ရယ်စီ့ဖ်ဖာ"
              },
              "Regina": {
                "exemplarCity": "ရယ်ဂျီနာ"
              },
              "Resolute": {
                "exemplarCity": "ရဲလ်ဆိုလု(တ်)"
              },
              "Rio_Branco": {
                "exemplarCity": "ရီယို ဘရန်ကို"
              },
              "Santa_Isabel": {
                "exemplarCity": "ဆန်တာ အီးဇဘဲယ်လ်"
              },
              "Santarem": {
                "exemplarCity": "ဆန်တာရန်"
              },
              "Santiago": {
                "exemplarCity": "ဆန်တီအာဂို"
              },
              "Santo_Domingo": {
                "exemplarCity": "ဆန်တို ဒိုမီနီကာ"
              },
              "Sao_Paulo": {
                "exemplarCity": "ဆာပိုလို"
              },
              "Scoresbysund": {
                "exemplarCity": "အို့တိုခိုတိုမစ်"
              },
              "Sitka": {
                "exemplarCity": "စစ်ကာ"
              },
              "St_Barthelemy": {
                "exemplarCity": "စိန့်ဘာသည်လီမိုင်"
              },
              "St_Johns": {
                "exemplarCity": "စိန့်ဂျွန်းစ်"
              },
              "St_Kitts": {
                "exemplarCity": "စိန့်ကိစ်"
              },
              "St_Lucia": {
                "exemplarCity": "စိန့်လူစီအာ"
              },
              "St_Thomas": {
                "exemplarCity": "စိန့်သောမားစ်"
              },
              "St_Vincent": {
                "exemplarCity": "စိန့်ဗင်းဆင့်"
              },
              "Swift_Current": {
                "exemplarCity": "စဝီ(ဘ်)ကာရင့်"
              },
              "Tegucigalpa": {
                "exemplarCity": "တီဂူစီဂလ်ပါ"
              },
              "Thule": {
                "exemplarCity": "သုလီ"
              },
              "Thunder_Bay": {
                "exemplarCity": "သံဒါဘေး"
              },
              "Tijuana": {
                "exemplarCity": "တီဂျုအာနာ"
              },
              "Toronto": {
                "exemplarCity": "တိုရွန်တို"
              },
              "Tortola": {
                "exemplarCity": "တောတိုလာ"
              },
              "Vancouver": {
                "exemplarCity": "ဗင်ခူဘာ"
              },
              "Whitehorse": {
                "exemplarCity": "ဝိုက်(တ်)ဟိုစ်"
              },
              "Winnipeg": {
                "exemplarCity": "ဝီနီဗက်ဂ်"
              },
              "Yakutat": {
                "exemplarCity": "ရာကုတတ်"
              },
              "Yellowknife": {
                "exemplarCity": "ရဲလိုနိုင်ဖ်"
              }
            },
            "Atlantic": {
              "Azores": {
                "exemplarCity": "အာဇိုးစ်"
              },
              "Bermuda": {
                "exemplarCity": "ဘာမူဒါ"
              },
              "Canary": {
                "exemplarCity": "ကာနာရီ"
              },
              "Cape_Verde": {
                "exemplarCity": "ကိတ်ဗာဒု"
              },
              "Faeroe": {
                "exemplarCity": "ဖဲရို"
              },
              "Madeira": {
                "exemplarCity": "မဒီးရာ"
              },
              "Reykjavik": {
                "exemplarCity": "ရေးခဗခ့်"
              },
              "South_Georgia": {
                "exemplarCity": "စောက်ဂျိုဂျီရာ"
              },
              "St_Helena": {
                "exemplarCity": "စိန့်ဟီလီနာ"
              },
              "Stanley": {
                "exemplarCity": "စတန်လီ"
              }
            },
            "Europe": {
              "Amsterdam": {
                "exemplarCity": "အမ္စတာဒန်"
              },
              "Andorra": {
                "exemplarCity": "အန်ဒိုရာ"
              },
              "Athens": {
                "exemplarCity": "အေသင်"
              },
              "Belgrade": {
                "exemplarCity": "ဘဲလ်ဂရိတ်"
              },
              "Berlin": {
                "exemplarCity": "ဘာလင်"
              },
              "Bratislava": {
                "exemplarCity": "ဘရာတီးစ်လားဗာ"
              },
              "Brussels": {
                "exemplarCity": "ဘရူဆဲလ်"
              },
              "Bucharest": {
                "exemplarCity": "ဘူချာရက်စ်"
              },
              "Budapest": {
                "exemplarCity": "ဘူတာပက်စ်"
              },
              "Busingen": {
                "exemplarCity": "ဘူရှင်ဂျင်"
              },
              "Chisinau": {
                "exemplarCity": "ချီရှီနားအူ"
              },
              "Copenhagen": {
                "exemplarCity": "ကိုပါဟေဂန်"
              },
              "Dublin": {
                "long": {
                  "daylight": "အိုင်းရစ်စံတော်ချိန်"
                },
                "exemplarCity": "ဒတ်ဘလင်"
              },
              "Gibraltar": {
                "exemplarCity": "ဂျီဘရော်လ်တာ"
              },
              "Guernsey": {
                "exemplarCity": "ဂွန်းဇီ"
              },
              "Helsinki": {
                "exemplarCity": "ဟဲလ်စင်ကီ"
              },
              "Isle_of_Man": {
                "exemplarCity": "မန်းကျွန်း"
              },
              "Istanbul": {
                "exemplarCity": "အစ္စတန်ဘူလ်"
              },
              "Jersey": {
                "exemplarCity": "ဂျဲးအ်ဇီ"
              },
              "Kaliningrad": {
                "exemplarCity": "ခါလီနင်ဂရက်"
              },
              "Kiev": {
                "exemplarCity": "ခီးအက်ဖ်"
              },
              "Lisbon": {
                "exemplarCity": "လစ္စဘွန်"
              },
              "Ljubljana": {
                "exemplarCity": "လူဘလီအားနား"
              },
              "London": {
                "long": {
                  "daylight": "ဗြိတိန်နွေရာသီအချိန်"
                },
                "exemplarCity": "လန်ဒန်"
              },
              "Luxembourg": {
                "exemplarCity": "လူဇင်ဘာဂ်"
              },
              "Madrid": {
                "exemplarCity": "မာဒရစ်"
              },
              "Malta": {
                "exemplarCity": "မော်လ်တာ"
              },
              "Mariehamn": {
                "exemplarCity": "မရီအာ ဟားမန်"
              },
              "Minsk": {
                "exemplarCity": "မင်းစခ်"
              },
              "Monaco": {
                "exemplarCity": "မိုနာကို"
              },
              "Moscow": {
                "exemplarCity": "မော့စ်ကို"
              },
              "Oslo": {
                "exemplarCity": "အော့စ်လို"
              },
              "Paris": {
                "exemplarCity": "ပါရီစ်"
              },
              "Podgorica": {
                "exemplarCity": "ဖို့တ်ဂိုရီစာ"
              },
              "Prague": {
                "exemplarCity": "ပါရာဂ်"
              },
              "Riga": {
                "exemplarCity": "ရီဂါ"
              },
              "Rome": {
                "exemplarCity": "ရောမ"
              },
              "Samara": {
                "exemplarCity": "ဆာမားရာ"
              },
              "San_Marino": {
                "exemplarCity": "ဆန်မရီးနို"
              },
              "Sarajevo": {
                "exemplarCity": "ဆာရာဂျေဗို"
              },
              "Simferopol": {
                "exemplarCity": "စင်ဖာရိုးဖို"
              },
              "Skopje": {
                "exemplarCity": "စကော့ပ်ရာ"
              },
              "Sofia": {
                "exemplarCity": "ဆိုပီအာ"
              },
              "Stockholm": {
                "exemplarCity": "စတော့ဟုမ်း"
              },
              "Tallinn": {
                "exemplarCity": "ထားလင်"
              },
              "Tirane": {
                "exemplarCity": "တီရာနီ"
              },
              "Uzhgorod": {
                "exemplarCity": "ဥဇ်ဂိုရို့တ်"
              },
              "Vaduz": {
                "exemplarCity": "ဗာဒူးစ်"
              },
              "Vatican": {
                "exemplarCity": "ဗာတီကန်"
              },
              "Vienna": {
                "exemplarCity": "ဗီအင်နာ"
              },
              "Vilnius": {
                "exemplarCity": "ဗီးလ်နီအိုးစ်"
              },
              "Volgograd": {
                "exemplarCity": "ဗိုလ်ဂိုဂရက်"
              },
              "Warsaw": {
                "exemplarCity": "ဝါဆော"
              },
              "Zagreb": {
                "exemplarCity": "ဇာဂ်ဂရက်ဘ်"
              },
              "Zaporozhye": {
                "exemplarCity": "ဇာဖိုရိုးစ်ဂျာ"
              },
              "Zurich": {
                "exemplarCity": "ဇူရီချ်"
              }
            },
            "Africa": {
              "Abidjan": {
                "exemplarCity": "အာဘီဂျွန်း"
              },
              "Accra": {
                "exemplarCity": "အက်ကရာ"
              },
              "Addis_Ababa": {
                "exemplarCity": "အားဒစ် အားဘဘာ"
              },
              "Algiers": {
                "exemplarCity": "အယ်လ်ဂျီးအားစ်"
              },
              "Asmera": {
                "exemplarCity": "အားစ်မားရာ"
              },
              "Bamako": {
                "exemplarCity": "ဘာမာကို"
              },
              "Bangui": {
                "exemplarCity": "ဘာန်ဂီး"
              },
              "Banjul": {
                "exemplarCity": "ဘန်ဂျုးလ်"
              },
              "Bissau": {
                "exemplarCity": "ဘီစာအို"
              },
              "Blantyre": {
                "exemplarCity": "ဘလန်တိုင်းအာ"
              },
              "Brazzaville": {
                "exemplarCity": "ဘရားဇာဗီးလ်"
              },
              "Bujumbura": {
                "exemplarCity": "ဘူဂျွန်ဘူးရာ"
              },
              "Cairo": {
                "exemplarCity": "ကိုင်ရို"
              },
              "Casablanca": {
                "exemplarCity": "ကာစာဘလန်ကာ"
              },
              "Ceuta": {
                "exemplarCity": "ဆီရူးတာ"
              },
              "Conakry": {
                "exemplarCity": "ခေါ်နာခရီး"
              },
              "Dakar": {
                "exemplarCity": "ဒါကာ"
              },
              "Dar_es_Salaam": {
                "exemplarCity": "ဒါအက်စ်ဆာလမ်း"
              },
              "Djibouti": {
                "exemplarCity": "ဂျီးဘူးတီ"
              },
              "Douala": {
                "exemplarCity": "ဒိုအူအာလာ"
              },
              "El_Aaiun": {
                "exemplarCity": "အယ်လ်အာယွန်း"
              },
              "Freetown": {
                "exemplarCity": "ဖရီးတောင်းန်"
              },
              "Gaborone": {
                "exemplarCity": "ဂါဘာရွန်းနီ"
              },
              "Harare": {
                "exemplarCity": "ဟာရားရဲယ်"
              },
              "Johannesburg": {
                "exemplarCity": "ဂျိုဟန်နက်စ်ဘခ်"
              },
              "Juba": {
                "exemplarCity": "ဂျုဘာ"
              },
              "Kampala": {
                "exemplarCity": "ခမ်ပါးလား"
              },
              "Khartoum": {
                "exemplarCity": "ကာတိုအန်"
              },
              "Kigali": {
                "exemplarCity": "ခီဂါးလီ"
              },
              "Kinshasa": {
                "exemplarCity": "ခင်ရှာစာ"
              },
              "Lagos": {
                "exemplarCity": "လာဂိုစ်"
              },
              "Libreville": {
                "exemplarCity": "လီဗရာဗီးလ်"
              },
              "Lome": {
                "exemplarCity": "လိုမီ"
              },
              "Luanda": {
                "exemplarCity": "လူအန်ဒါ"
              },
              "Lubumbashi": {
                "exemplarCity": "လူဘွန်းဘာရှီ"
              },
              "Lusaka": {
                "exemplarCity": "လူစားခါး"
              },
              "Malabo": {
                "exemplarCity": "မာလာဘို"
              },
              "Maputo": {
                "exemplarCity": "မာပူးတို"
              },
              "Maseru": {
                "exemplarCity": "မာဆူရူး"
              },
              "Mbabane": {
                "exemplarCity": "ဘားဘာန်း"
              },
              "Mogadishu": {
                "exemplarCity": "မော်ဂါဒီးသျုး"
              },
              "Monrovia": {
                "exemplarCity": "မွန်ရိုဗီအာ"
              },
              "Nairobi": {
                "exemplarCity": "နိုင်ရိုဘီ"
              },
              "Ndjamena": {
                "exemplarCity": "အင်ဂျာမီနာ"
              },
              "Niamey": {
                "exemplarCity": "ညာမဲယ်"
              },
              "Nouakchott": {
                "exemplarCity": "နိုအာ့ခ်ရှော့တ်"
              },
              "Ouagadougou": {
                "exemplarCity": "ဝါဂါဒူးဂူ"
              },
              "Porto-Novo": {
                "exemplarCity": "ပိုတို-နိုဗို"
              },
              "Sao_Tome": {
                "exemplarCity": "ဆာအို တိုမီ"
              },
              "Tripoli": {
                "exemplarCity": "ထရီပိုလီ"
              },
              "Tunis": {
                "exemplarCity": "တူနီစ်"
              },
              "Windhoek": {
                "exemplarCity": "ဗင်းဟူးခ်"
              }
            },
            "Asia": {
              "Aden": {
                "exemplarCity": "အာဒင်"
              },
              "Almaty": {
                "exemplarCity": "အော်မာတီ"
              },
              "Amman": {
                "exemplarCity": "အာမာန်း"
              },
              "Anadyr": {
                "exemplarCity": "အန်အာဒီအာ"
              },
              "Aqtau": {
                "exemplarCity": "အက်တာဥု"
              },
              "Aqtobe": {
                "exemplarCity": "အာခ်တူးဘီ"
              },
              "Ashgabat": {
                "exemplarCity": "အာရှ်ဂါဘာဒ်"
              },
              "Baghdad": {
                "exemplarCity": "ဘက်ဂဒက်"
              },
              "Bahrain": {
                "exemplarCity": "ဘာရိန်း"
              },
              "Baku": {
                "exemplarCity": "ဘာခူး"
              },
              "Bangkok": {
                "exemplarCity": "ဘန်ကောက်"
              },
              "Beirut": {
                "exemplarCity": "ဘေရု"
              },
              "Bishkek": {
                "exemplarCity": "ဘီရှ်ခက်"
              },
              "Brunei": {
                "exemplarCity": "ဘရူနိုင်း"
              },
              "Calcutta": {
                "exemplarCity": "ကိုလ်ကာတာ"
              },
              "Chita": {
                "exemplarCity": "Chita"
              },
              "Choibalsan": {
                "exemplarCity": "ချွဲဘောဆန်"
              },
              "Chongqing": {
                "exemplarCity": "ချောင်ချင်း"
              },
              "Colombo": {
                "exemplarCity": "ကိုလံဘို"
              },
              "Damascus": {
                "exemplarCity": "ဒါးမားစ်ကတ်စ်"
              },
              "Dhaka": {
                "exemplarCity": "ဒက္ကာ"
              },
              "Dili": {
                "exemplarCity": "ဒစ်လီ"
              },
              "Dubai": {
                "exemplarCity": "ဒူဘိုင်း"
              },
              "Dushanbe": {
                "exemplarCity": "ဒူရှောန်းဘာ"
              },
              "Gaza": {
                "exemplarCity": "ဂါဇာ"
              },
              "Harbin": {
                "exemplarCity": "ဟာဘင်"
              },
              "Hebron": {
                "exemplarCity": "ဟီဘရွန်"
              },
              "Hong_Kong": {
                "exemplarCity": "ဟောင်ကောင်"
              },
              "Hovd": {
                "exemplarCity": "ဟိုးဗ်"
              },
              "Irkutsk": {
                "exemplarCity": "အီရူခူတ်"
              },
              "Jakarta": {
                "exemplarCity": "ဂျာကာတာ"
              },
              "Jayapura": {
                "exemplarCity": "ဂျာရာပူရာ"
              },
              "Jerusalem": {
                "exemplarCity": "ဂျေရုစလန်"
              },
              "Kabul": {
                "exemplarCity": "ကာဘူလ်"
              },
              "Kamchatka": {
                "exemplarCity": "ခမ်ချာ့ခါ"
              },
              "Karachi": {
                "exemplarCity": "ကာရာချီ"
              },
              "Kashgar": {
                "exemplarCity": "ခါရှီးဂ်"
              },
              "Katmandu": {
                "exemplarCity": "ခတ္တမန္ဒူ"
              },
              "Khandyga": {
                "exemplarCity": "ခန်ဒိုင်ဂါ"
              },
              "Krasnoyarsk": {
                "exemplarCity": "ခရာ့စ်နိုရာစ်"
              },
              "Kuala_Lumpur": {
                "exemplarCity": "ကွာလာလမ်ပူ"
              },
              "Kuching": {
                "exemplarCity": "ကူချင်"
              },
              "Kuwait": {
                "exemplarCity": "ကူဝိတ်"
              },
              "Macau": {
                "exemplarCity": "မာကာအို"
              },
              "Magadan": {
                "exemplarCity": "မာဂါဒန်း"
              },
              "Makassar": {
                "exemplarCity": "မခက်စ်ဆာ"
              },
              "Manila": {
                "exemplarCity": "မနီလာ"
              },
              "Muscat": {
                "exemplarCity": "မတ်စ်ကက်တ်"
              },
              "Nicosia": {
                "exemplarCity": "နီခိုစီးအား"
              },
              "Novokuznetsk": {
                "exemplarCity": "နိုဗိုခူဇ်နက်စ်"
              },
              "Novosibirsk": {
                "exemplarCity": "နိုဗိုစဲဘီအဲယ်စ်"
              },
              "Omsk": {
                "exemplarCity": "အွမ်းစ်ခ်"
              },
              "Oral": {
                "exemplarCity": "အောရဲယ်"
              },
              "Phnom_Penh": {
                "exemplarCity": "ပနွမ်ဖင်"
              },
              "Pontianak": {
                "exemplarCity": "ပွန်တီအားနာ့ခ်"
              },
              "Pyongyang": {
                "exemplarCity": "ပြုံယန်း"
              },
              "Qatar": {
                "exemplarCity": "ကာတာ"
              },
              "Qyzylorda": {
                "exemplarCity": "ခွီဇိုင်လိုဒါ"
              },
              "Rangoon": {
                "exemplarCity": "ရန်ကုန်"
              },
              "Riyadh": {
                "exemplarCity": "ရီယားဒ်"
              },
              "Saigon": {
                "exemplarCity": "ဟိုချီမင်"
              },
              "Sakhalin": {
                "exemplarCity": "စဲက်ခါလီးင်"
              },
              "Samarkand": {
                "exemplarCity": "ဆမ်းမာခန်းဒ်"
              },
              "Seoul": {
                "exemplarCity": "ဆိုးလ်"
              },
              "Shanghai": {
                "exemplarCity": "ရှန်ဟိုင်း"
              },
              "Singapore": {
                "exemplarCity": "စင်္ဂပူ"
              },
              "Srednekolymsk": {
                "exemplarCity": "Srednekolymsk"
              },
              "Taipei": {
                "exemplarCity": "ထိုင်ပေ"
              },
              "Tashkent": {
                "exemplarCity": "တာရှ်ကဲန့်"
              },
              "Tbilisi": {
                "exemplarCity": "တဘီးလီစီ"
              },
              "Tehran": {
                "exemplarCity": "တီရန်"
              },
              "Thimphu": {
                "exemplarCity": "တင်ဖူး"
              },
              "Tokyo": {
                "exemplarCity": "တိုကျို"
              },
              "Ulaanbaatar": {
                "exemplarCity": "ဥလန်ဘာတော"
              },
              "Urumqi": {
                "exemplarCity": "အီရင်ချီး"
              },
              "Ust-Nera": {
                "exemplarCity": "အူးစ် နီရား"
              },
              "Vientiane": {
                "exemplarCity": "ဗီအင်ချမ်"
              },
              "Vladivostok": {
                "exemplarCity": "ဗလာဒါဗိုစ်တိုခ်"
              },
              "Yakutsk": {
                "exemplarCity": "ယူခူးတ်စ်"
              },
              "Yekaterinburg": {
                "exemplarCity": "ရယ်ခါးတီရင်ဘားခ်"
              },
              "Yerevan": {
                "exemplarCity": "ရဲယ်ရေဗန်း"
              }
            },
            "Indian": {
              "Antananarivo": {
                "exemplarCity": "အန်တာနာနာရီးဘို"
              },
              "Chagos": {
                "exemplarCity": "ချာဂိုစ်"
              },
              "Christmas": {
                "exemplarCity": "ခရစ်စမတ်စ်"
              },
              "Cocos": {
                "exemplarCity": "ကိုကိုးစ်"
              },
              "Comoro": {
                "exemplarCity": "ကွန်မိုရို"
              },
              "Kerguelen": {
                "exemplarCity": "ခူဂါလန်"
              },
              "Mahe": {
                "exemplarCity": "မာဟီ"
              },
              "Maldives": {
                "exemplarCity": "မောလ်ဒီးဖ်စ်"
              },
              "Mauritius": {
                "exemplarCity": "မောရီလျာ"
              },
              "Mayotte": {
                "exemplarCity": "မာရော့တ်"
              },
              "Reunion": {
                "exemplarCity": "ရယ်ယူးနယွန်"
              }
            },
            "Australia": {
              "Adelaide": {
                "exemplarCity": "အန္ဒီလိတ်ဒ်"
              },
              "Brisbane": {
                "exemplarCity": "ဘရစ္စဘိန်း"
              },
              "Broken_Hill": {
                "exemplarCity": "ဘရိုကင်ဟီးလ်"
              },
              "Currie": {
                "exemplarCity": "ကာရီ"
              },
              "Darwin": {
                "exemplarCity": "ဒေါဝင်"
              },
              "Eucla": {
                "exemplarCity": "ယူးခလာ"
              },
              "Hobart": {
                "exemplarCity": "ဟိုးဘားတ်"
              },
              "Lindeman": {
                "exemplarCity": "လင်းဒီမန်း"
              },
              "Lord_Howe": {
                "exemplarCity": "လော့ဒ် ဟောင်"
              },
              "Melbourne": {
                "exemplarCity": "မယ်လ်ဘွန်း"
              },
              "Perth": {
                "exemplarCity": "ပါးသ်"
              },
              "Sydney": {
                "exemplarCity": "ဆစ်ဒနီ"
              }
            },
            "Pacific": {
              "Apia": {
                "exemplarCity": "အားပီအား"
              },
              "Auckland": {
                "exemplarCity": "အော့ကလန်"
              },
              "Chatham": {
                "exemplarCity": "ချားသမ်"
              },
              "Easter": {
                "exemplarCity": "အီစတာ"
              },
              "Efate": {
                "exemplarCity": "အီဖာတီ"
              },
              "Enderbury": {
                "exemplarCity": "အန်ဒါဘူရီ"
              },
              "Fakaofo": {
                "exemplarCity": "ဖာခါအိုဖို"
              },
              "Fiji": {
                "exemplarCity": "ဖီဂျီ"
              },
              "Funafuti": {
                "exemplarCity": "ဖူနာဖူတီ"
              },
              "Galapagos": {
                "exemplarCity": "ဂါလာပါဂိုစ်"
              },
              "Gambier": {
                "exemplarCity": "ဂန်ဘီအာ"
              },
              "Guadalcanal": {
                "exemplarCity": "ဂွာဒါခယ်နယ်လ်"
              },
              "Guam": {
                "exemplarCity": "ဂူအမ်"
              },
              "Honolulu": {
                "exemplarCity": "ဟိုနိုလူလူ"
              },
              "Johnston": {
                "exemplarCity": "ဂျွန်စတန်"
              },
              "Kiritimati": {
                "exemplarCity": "ခရစ့်မားစ်"
              },
              "Kosrae": {
                "exemplarCity": "ခိုစ်ရိုင်"
              },
              "Kwajalein": {
                "exemplarCity": "ခွာဂျာလိန်"
              },
              "Majuro": {
                "exemplarCity": "မူဂျုးရို"
              },
              "Marquesas": {
                "exemplarCity": "မာခေးအပ်စ်"
              },
              "Midway": {
                "exemplarCity": "မစ်ဒ်ဝေး"
              },
              "Nauru": {
                "exemplarCity": "နာဥူရူ"
              },
              "Niue": {
                "exemplarCity": "နီဦးအေ"
              },
              "Norfolk": {
                "exemplarCity": "နော်ဖော့ခ်"
              },
              "Noumea": {
                "exemplarCity": "နူမယ်အာ"
              },
              "Pago_Pago": {
                "exemplarCity": "ဖါငိုဖါငို"
              },
              "Palau": {
                "exemplarCity": "ဖလောင်"
              },
              "Pitcairn": {
                "exemplarCity": "ပိကိန်း"
              },
              "Ponape": {
                "exemplarCity": "ဖိုနာဖဲအ်"
              },
              "Port_Moresby": {
                "exemplarCity": "ဖို့တ် မိုရက်စ်ဘီ"
              },
              "Rarotonga": {
                "exemplarCity": "ရာရိုတွန်းဂါ"
              },
              "Saipan": {
                "exemplarCity": "ဆိုင်းပန်"
              },
              "Tahiti": {
                "exemplarCity": "တာဟီတီ"
              },
              "Tarawa": {
                "exemplarCity": "တာရာဝါ"
              },
              "Tongatapu": {
                "exemplarCity": "တွန်ဂါတာပု"
              },
              "Truk": {
                "exemplarCity": "ချုခ်"
              },
              "Wake": {
                "exemplarCity": "ဝက်ခ်"
              },
              "Wallis": {
                "exemplarCity": "ဝေါလီစ်"
              }
            },
            "Arctic": {
              "Longyearbyen": {
                "exemplarCity": "လောင်ရီယားဘရံ"
              }
            },
            "Antarctica": {
              "Casey": {
                "exemplarCity": "ကေစီ"
              },
              "Davis": {
                "exemplarCity": "ဒေးဗစ်"
              },
              "DumontDUrville": {
                "exemplarCity": "ဒူးမော့တ် ဒါရ်ဗီးလ်"
              },
              "Macquarie": {
                "exemplarCity": "မခွါရီး"
              },
              "Mawson": {
                "exemplarCity": "မော်စွန်"
              },
              "McMurdo": {
                "exemplarCity": "မက်မူဒိုး"
              },
              "Palmer": {
                "exemplarCity": "ပါလ်မာ"
              },
              "Rothera": {
                "exemplarCity": "ရိုသီရာ"
              },
              "Syowa": {
                "exemplarCity": "ရှိုးဝါ"
              },
              "Troll": {
                "exemplarCity": "ထရိုလ်"
              },
              "Vostok": {
                "exemplarCity": "ဗိုစ်တိုခ်"
              }
            },
            "Etc": {
              "GMT": {
                "exemplarCity": "GMT"
              },
              "GMT1": {
                "exemplarCity": "GMT+1"
              },
              "GMT10": {
                "exemplarCity": "GMT+10"
              },
              "GMT11": {
                "exemplarCity": "GMT+11"
              },
              "GMT12": {
                "exemplarCity": "GMT+12"
              },
              "GMT2": {
                "exemplarCity": "GMT+2"
              },
              "GMT3": {
                "exemplarCity": "GMT+3"
              },
              "GMT4": {
                "exemplarCity": "GMT+4"
              },
              "GMT5": {
                "exemplarCity": "GMT+5"
              },
              "GMT6": {
                "exemplarCity": "GMT+6"
              },
              "GMT7": {
                "exemplarCity": "GMT+7"
              },
              "GMT8": {
                "exemplarCity": "GMT+8"
              },
              "GMT9": {
                "exemplarCity": "GMT+9"
              },
              "GMT-1": {
                "exemplarCity": "GMT-1"
              },
              "GMT-10": {
                "exemplarCity": "GMT-10"
              },
              "GMT-11": {
                "exemplarCity": "GMT-11"
              },
              "GMT-12": {
                "exemplarCity": "GMT-12"
              },
              "GMT-13": {
                "exemplarCity": "GMT-13"
              },
              "GMT-14": {
                "exemplarCity": "GMT-14"
              },
              "GMT-2": {
                "exemplarCity": "GMT-2"
              },
              "GMT-3": {
                "exemplarCity": "GMT-3"
              },
              "GMT-4": {
                "exemplarCity": "GMT-4"
              },
              "GMT-5": {
                "exemplarCity": "GMT-5"
              },
              "GMT-6": {
                "exemplarCity": "GMT-6"
              },
              "GMT-7": {
                "exemplarCity": "GMT-7"
              },
              "GMT-8": {
                "exemplarCity": "GMT-8"
              },
              "GMT-9": {
                "exemplarCity": "GMT-9"
              },
              "Unknown": {
                "exemplarCity": "အမည်မသိသောမြို့"
              }
            }
          },
          "metazone": {
            "Afghanistan": {
              "long": {
                "standard": "အာဖဂန်နစ္စတန် အချိန်"
              }
            },
            "Africa_Central": {
              "long": {
                "standard": "အလယ်ပိုင်း အာဖရိက အချိန်"
              }
            },
            "Africa_Eastern": {
              "long": {
                "standard": "အရှေ့ပိုင်း အာဖရိက အချိန်"
              }
            },
            "Africa_Southern": {
              "long": {
                "standard": "တောင်အာဖရိက အချိန်"
              }
            },
            "Africa_Western": {
              "long": {
                "generic": "အနောက်ပိုင်း အာဖရိက အချိန်",
                "standard": "အနောက်ပိုင်း အာဖရိက စံတော်ချိန်",
                "daylight": "အနောက်ပိုင်း အာဖရိက နွေရာသီ အချိန်"
              }
            },
            "Alaska": {
              "long": {
                "generic": "အလာစကာအချိန်",
                "standard": "အလာစကာစံတော်ချိန်",
                "daylight": "အလာစကာနေ့ပိုင်းအချိန်"
              }
            },
            "Amazon": {
              "long": {
                "generic": "အမေဇွန်အချိန်",
                "standard": "အမေဇွန်စံတော်ချိန်",
                "daylight": "အမေဇွန်နွေရာသီအချိန်"
              }
            },
            "America_Central": {
              "long": {
                "generic": "အလယ်ပိုင်း အမေရိက အချိန်",
                "standard": "အလယ်ပိုင်း အမေရိက စံတော်ချိန်",
                "daylight": "အလယ်ပိုင်း အမေရိက နွေရာသီ အချိန်"
              }
            },
            "America_Eastern": {
              "long": {
                "generic": "အရှေ့ပိုင်း အမေရိက အချိန်",
                "standard": "အရှေ့ပိုင်း အမေရိက စံတော်ချိန်",
                "daylight": "အရှေ့ပိုင်း အမေရိက နေ့ပိုင်း အချိန်"
              }
            },
            "America_Mountain": {
              "long": {
                "generic": "အမေရိက တောင် အချိန်",
                "standard": "အမေရိက တောင် စံတော်ချိန်",
                "daylight": "အမေရိက တောင် နေ့ပိုင်း အချိန်"
              }
            },
            "America_Pacific": {
              "long": {
                "generic": "ပစိဖိတ် အချိန်",
                "standard": "ပစိဖိတ် စံတော်ချိန်",
                "daylight": "ပစိဖိတ် နေ့ပိုင်း အချိန်"
              }
            },
            "Apia": {
              "long": {
                "generic": "အပီယာအချိန်",
                "standard": "အပီယာစံတော်ချိန်",
                "daylight": "အပီယာနေ့ပိုင်းအချိန်"
              }
            },
            "Arabian": {
              "long": {
                "generic": "အာရေဗျ အချိန်",
                "standard": "အာရေဗျ စံတော်ချိန်",
                "daylight": "အာရေဗျ နေ့ပိုင်း အချိန်"
              }
            },
            "Argentina": {
              "long": {
                "generic": "အာဂျင်တီးနား အချိန်",
                "standard": "အာဂျင်တီးနား စံတော်ချိန်",
                "daylight": "အာဂျင်တီးနား နွေရာသီ အချိန်"
              }
            },
            "Argentina_Western": {
              "long": {
                "generic": "အနောက် အာဂျင်တီးနား အချိန်",
                "standard": "အနောက် အာဂျင်တီးနား စံတော်ချိန်",
                "daylight": "အနောက် အာဂျင်တီးနား နွေရာသီ အချိန်"
              }
            },
            "Armenia": {
              "long": {
                "generic": "အာမေနီးယား အချိန်",
                "standard": "အာမေနီးယား စံတော်ချိန်",
                "daylight": "အာမေနီးယား နွေရာသီ အချိန်"
              }
            },
            "Atlantic": {
              "long": {
                "generic": "အတ္ထလန်တစ် အချိန်",
                "standard": "အတ္ထလန်တစ် စံတော်ချိန်",
                "daylight": "အတ္ထလန်တစ် နေ့ပိုင်း အချိန်"
              }
            },
            "Australia_Central": {
              "long": {
                "generic": "အလယ်ဩစတြေးလျှား အချိန်",
                "standard": "အလယ်ပိုင်း ဩစတြေးလျှား စံတော်ချိန်",
                "daylight": "အလယ်ပိုင်း ဩစတြေးလျှား နေ့ပိုင်း အချိန်"
              }
            },
            "Australia_CentralWestern": {
              "long": {
                "generic": "အလယ်အနောက်ပိုင်း ဩစတြေးလျှား အချိန်",
                "standard": "အလယ်အနောက်ပိုင်း ဩစတြေးလျှား စံတော်ချိန်",
                "daylight": "အလယ်အနောက်ပိုင်း ဩစတြေးလျှား နေ့ပိုင်း အချိန်"
              }
            },
            "Australia_Eastern": {
              "long": {
                "generic": "အရှေ့ဩစတြေးလျှား အချိန်",
                "standard": "အရှေ့ပိုင်း ဩစတြေးလျှား စံတော်ချိန်",
                "daylight": "အရှေ့ပိုင်း ဩစတြေးလျှား နေ့ပိုင်း အချိန်"
              }
            },
            "Australia_Western": {
              "long": {
                "generic": "အနောက် ဩစတြေးလျှား အချိန်",
                "standard": "အနောက်ပိုင်း ဩစတြေးလျှား စံတော်ချိန်",
                "daylight": "အနောက်ပိုင်း ဩစတြေးလျှား နေ့ပိုင်း အချိန်"
              }
            },
            "Azerbaijan": {
              "long": {
                "generic": "အဇာဘိုင်ဂျန် အချိန်",
                "standard": "အဇာဘိုင်ဂျန် စံတော်ချိန်",
                "daylight": "အဇာဘိုင်ဂျန် နွေရာသီ အချိန်"
              }
            },
            "Azores": {
              "long": {
                "generic": "အာဇိုးစ်အချိန်",
                "standard": "အာဇိုးစ်စံတော်ချိန်",
                "daylight": "အာဇိုးစ်နွေရာသီအချိန်"
              }
            },
            "Bangladesh": {
              "long": {
                "generic": "ဘင်္ဂလားဒေ့ရှ် အချိန်",
                "standard": "ဘင်္ဂလားဒေ့ရှ် စံတော်ချိန်",
                "daylight": "ဘင်္ဂလားဒေ့ရှ် နွေရာသီ အချိန်"
              }
            },
            "Bhutan": {
              "long": {
                "standard": "ဘူတန် အချိန်"
              }
            },
            "Bolivia": {
              "long": {
                "standard": "ဘိုလီးဘီးယား အချိန်"
              }
            },
            "Brasilia": {
              "long": {
                "generic": "ဘရာဇီး အချိန်",
                "standard": "ဘရာဇီး စံတော်ချိန်",
                "daylight": "ဘရာဇီး နွေရာသီ အချိန်"
              }
            },
            "Brunei": {
              "long": {
                "standard": "ဘရူနိုင်း စံတော်ချိန်"
              }
            },
            "Cape_Verde": {
              "long": {
                "generic": "ခေ့ပ်ဗာဒူအချိန်",
                "standard": "ခေ့ပ်ဗာဒူစံတော်ချိန်",
                "daylight": "ခေ့ပ်ဗာဒူနွေရာသီအချိန်"
              }
            },
            "Chamorro": {
              "long": {
                "standard": "ချာမိုရိုအချိန်"
              }
            },
            "Chatham": {
              "long": {
                "generic": "ချားသမ်အချိန်",
                "standard": "ချားသမ်စံတော်ချိန်",
                "daylight": "ချားသမ်နေ့ပိုင်းအချိန်"
              }
            },
            "Chile": {
              "long": {
                "generic": "ချီလီ အချိန်",
                "standard": "ချီလီ စံတော်ချိန်",
                "daylight": "ချီလီ နွေရာသီ အချိန်"
              }
            },
            "China": {
              "long": {
                "generic": "တရုတ် အချိန်",
                "standard": "တရုတ် စံတော်ချိန်",
                "daylight": "တရုတ် နေ့ပိုင်း အချိန်"
              }
            },
            "Choibalsan": {
              "long": {
                "generic": "ချွဲဘော်ဆန်းအချိန်",
                "standard": "ချွဲဘော်ဆန်းစံတော်ချိန်",
                "daylight": "ချွဲဘော်ဆန်းနွေရာသီအချိန်"
              }
            },
            "Christmas": {
              "long": {
                "standard": "ခရစ်စမတ်ကျွန်းအချိန်"
              }
            },
            "Cocos": {
              "long": {
                "standard": "ကိုးကိုးကျွန်းအချိန်"
              }
            },
            "Colombia": {
              "long": {
                "generic": "ကိုလံဘီယာ အချိန်",
                "standard": "ကိုလံဘီယာ စံတော်ချိန်",
                "daylight": "ကိုလံဘီယာ နွေရာသီ အချိန်"
              }
            },
            "Cook": {
              "long": {
                "generic": "ကွတ်ခ်ကျွန်းစုအချိန်",
                "standard": "ကွတ်ခ်ကျွန်းစုစံတော်ချိန်",
                "daylight": "ကွတ်က်ကျွန်းစုနွေရာသီအချိန်"
              }
            },
            "Cuba": {
              "long": {
                "generic": "ကျူးဘား အချိန်",
                "standard": "ကျူးဘား စံတော်ချိန်",
                "daylight": "ကျူးဘား နေ့ပိုင်းအချိန်"
              }
            },
            "Davis": {
              "long": {
                "standard": "ဒေးဗစ်အချိန်"
              }
            },
            "DumontDUrville": {
              "long": {
                "standard": "ဒူးမော့တ် ဒါရ်ဗီးလ်အချိန်"
              }
            },
            "East_Timor": {
              "long": {
                "standard": "အရှေ့တီမော အချိန်"
              }
            },
            "Easter": {
              "long": {
                "generic": "အီစတာကျွန်းအချိန်",
                "standard": "အီစတာကျွန်းစံတော်ချိန်",
                "daylight": "အီစတာကျွန်းနွေရာသီအချိန်"
              }
            },
            "Ecuador": {
              "long": {
                "standard": "အီကွေဒေါ အချိန်"
              }
            },
            "Europe_Central": {
              "long": {
                "generic": "ဥရောပအလယ်ပိုင်းအချိန်",
                "standard": "ဥရောပ အလယ်ပိုင်း စံတော်ချိန်",
                "daylight": "ဥရောပ အလယ်ပိုင်း နွေရာသီ အချိန်"
              }
            },
            "Europe_Eastern": {
              "long": {
                "generic": "အရှေ့ဥရောပ အချိန်",
                "standard": "အရှေ့ဥရောပ စံတော်ချိန်",
                "daylight": "အရှေ့ဥရောပ နွေရာသီ အချိန်"
              }
            },
            "Europe_Further_Eastern": {
              "long": {
                "standard": "ထပ်တိုးအရှေ့ပိုင်းဥရောပအချိန်"
              }
            },
            "Europe_Western": {
              "long": {
                "generic": "အနောက်ပိုင်း ဥရောပ အချိန်",
                "standard": "အနောက်ပိုင်း ဥရောပ စံတော်ချိန်",
                "daylight": "အနောက်ပိုင်း ဥရောပ နွေရာသီ အချိန်"
              }
            },
            "Falkland": {
              "long": {
                "generic": "ဖောင်ကလန်ကျွန်းစု အချိန်",
                "standard": "ဖောင်ကလန်ကျွန်းစု စံတော်ချိန်",
                "daylight": "ဖောင်ကလန်ကျွန်းစု နွေရာသီ အချိန်"
              }
            },
            "Fiji": {
              "long": {
                "generic": "ဖီဂျီအချိန်",
                "standard": "ဖီဂျီစံတော်ချိန်",
                "daylight": "ဖီဂျီနွေရာသီအချိန်"
              }
            },
            "French_Guiana": {
              "long": {
                "standard": "ပြင်သစ် ဂီယာနာ အချိန်"
              }
            },
            "French_Southern": {
              "long": {
                "standard": "ပြင်သစ်တောင်ပိုင်းနင့်အန္တတစ်အချိန်"
              }
            },
            "GMT": {
              "long": {
                "standard": "ဂရင်းနစ် စံတော်ချိန်"
              }
            },
            "Galapagos": {
              "long": {
                "standard": "ဂါလားပါဂိုးစ်အချိန်"
              }
            },
            "Gambier": {
              "long": {
                "standard": "ဂန်ဘီအာအချိန်"
              }
            },
            "Georgia": {
              "long": {
                "generic": "ဂျော်ဂျီယာ အချိန်",
                "standard": "ဂျော်ဂျီယာ စံတော်ချိန်",
                "daylight": "ဂျော်ဂျီယာ နွေရာသီ အချိန်"
              }
            },
            "Gilbert_Islands": {
              "long": {
                "standard": "ဂီလ်ဘတ်ကျွန်းစုအချိန်"
              }
            },
            "Greenland_Eastern": {
              "long": {
                "generic": "အရှေ့ဂရင်းလန်း အချိန်",
                "standard": "အရှေ့ဂရင်းလန်း စံတော်ချိန်",
                "daylight": "အရှေ့ဂရင်းလန်း နွေရာသီ အချိန်"
              }
            },
            "Greenland_Western": {
              "long": {
                "generic": "အနောက် ဂရင်းလန်း အချိန်",
                "standard": "အနောက် ဂရင်းလန်း စံတော်ချိန်",
                "daylight": "အနောက် ဂရင်းလန်း နွေရာသီ အချိန်"
              }
            },
            "Gulf": {
              "long": {
                "standard": "ပင်လယ်ဂွေ့ အချိန်"
              }
            },
            "Guyana": {
              "long": {
                "standard": "ဂိုင်ရာနားအချိန်"
              }
            },
            "Hawaii_Aleutian": {
              "long": {
                "generic": "ဟာဝိုင်အီ အာလူးရှန်အချိန်",
                "standard": "ဟာဝိုင်အီ အာလူးရှန်စံတော်ချိန်",
                "daylight": "ဟာဝိုင်အီ အာလူးရှန်နေ့ပိုင်းအချိန်"
              }
            },
            "Hong_Kong": {
              "long": {
                "generic": "ဟောင်ကောင် အချိန်",
                "standard": "ဟောင်ကောင် စံတော်ချိန်",
                "daylight": "ဟောင်ကောင် နွေရာသီ အချိန်"
              }
            },
            "Hovd": {
              "long": {
                "generic": "ဟိုးဗ်အချိန်",
                "standard": "ဟိုးဗ်စံတော်ချိန်",
                "daylight": "ဟိုးဗ်နွေရာသီအချိန်"
              }
            },
            "India": {
              "long": {
                "standard": "အိန္ဒြိယ စံတော်ချိန်"
              }
            },
            "Indian_Ocean": {
              "long": {
                "standard": "အိန္ဒြိယ သမုဒ္ဒရာ အချိန်"
              }
            },
            "Indochina": {
              "long": {
                "standard": "အင်ဒိုချိုင်းနား အချိန်"
              }
            },
            "Indonesia_Central": {
              "long": {
                "standard": "အလယ်ပိုင်း အင်ဒိုနီးရှား အချိန်"
              }
            },
            "Indonesia_Eastern": {
              "long": {
                "standard": "အရှေ့ပိုင်း အင်ဒိုနီးရှား အချိန်"
              }
            },
            "Indonesia_Western": {
              "long": {
                "standard": "အနောက်ပိုင်း အင်ဒိုနီးရှား အချိန်"
              }
            },
            "Iran": {
              "long": {
                "generic": "အီရန် အချိန်",
                "standard": "အီရန် စံတော်ချိန်",
                "daylight": "အီရန် နေ့ပိုင်း အချိန်"
              }
            },
            "Irkutsk": {
              "long": {
                "generic": "အီရူခူတ်အချိန်",
                "standard": "အီရူခူတ်စံတော်ချိန်",
                "daylight": "အီရူခူတ်နွေရာသီအချိန်"
              }
            },
            "Israel": {
              "long": {
                "generic": "အစ္စရေး အချိန်",
                "standard": "အစ္စရေး စံတော်ချိန်",
                "daylight": "အစ္စရေး နေ့ပိုင်း အချိန်"
              }
            },
            "Japan": {
              "long": {
                "generic": "ဂျပန် အချိန်",
                "standard": "ဂျပန် စံတော်ချိန်",
                "daylight": "ဂျပန် နေ့ပိုင်း အချိန်"
              }
            },
            "Kazakhstan_Eastern": {
              "long": {
                "standard": "အရှေ့ကာဇက်စတန် အချိန်"
              }
            },
            "Kazakhstan_Western": {
              "long": {
                "standard": "အနောက်ကာဇက်စတန်အချိန်"
              }
            },
            "Korea": {
              "long": {
                "generic": "ကိုးရီးယား အချိန်",
                "standard": "ကိုးရီးယား စံတော်ချိန်",
                "daylight": "ကိုးရီးယား နေ့ပိုင်း အချိန်"
              }
            },
            "Kosrae": {
              "long": {
                "standard": "ခိုစ်ရိုင်အချိန်"
              }
            },
            "Krasnoyarsk": {
              "long": {
                "generic": "ခရာ့စ်နိုရာစ်အချိန်",
                "standard": "ခရာ့စ်နိုရာစ်စံတော်ချိန်",
                "daylight": "ခရာ့စ်နိုရာစ်နွေရာသီအချိန်"
              }
            },
            "Kyrgystan": {
              "long": {
                "standard": "ခယ်ကစ်တန်အချိန်"
              }
            },
            "Lanka": {
              "long": {
                "standard": "သီရိလင်္ကာ အချိန်"
              }
            },
            "Line_Islands": {
              "long": {
                "standard": "လိုင်းကျွန်းစုအချိန်"
              }
            },
            "Lord_Howe": {
              "long": {
                "generic": "လော့ဒ်ဟောင်အချိန်",
                "standard": "လော့ဒ်ဟောင်စံတော်ချိန်",
                "daylight": "လော့ဒ်ဟောင်နေ့ပိုင်းအချိန်"
              }
            },
            "Macau": {
              "long": {
                "generic": "မကာအို အချိန်",
                "standard": "မကာအို စံတော်ချိန်",
                "daylight": "မကာအို နွေရာသီ အချိန်"
              }
            },
            "Macquarie": {
              "long": {
                "standard": "မခွါရီးအချိန်"
              }
            },
            "Magadan": {
              "long": {
                "generic": "မာဂါဒန်းအချိန်",
                "standard": "မာဂါဒန်းစံတော်ချိန်",
                "daylight": "မာဂါဒန်းနွေရာသီအချိန်"
              }
            },
            "Malaysia": {
              "long": {
                "standard": "မလေးရှား အချိန်"
              }
            },
            "Maldives": {
              "long": {
                "standard": "မောလ်ဒိုင်းဗ်အချိန်"
              }
            },
            "Marquesas": {
              "long": {
                "standard": "မာခေးအပ်စ်အချိန်"
              }
            },
            "Marshall_Islands": {
              "long": {
                "standard": "မာရယ်ကျွန်းစုအချိန်"
              }
            },
            "Mauritius": {
              "long": {
                "generic": "မော်ရေရှားစ်အချိန်",
                "standard": "မော်ရေရှားစ်စံတော်ချိန်",
                "daylight": "မော်ရေရှားစ်နွေရာသီအချိန်"
              }
            },
            "Mawson": {
              "long": {
                "standard": "မော်စွန်အချိန်"
              }
            },
            "Mexico_Northwest": {
              "long": {
                "generic": "အနောက်တောင် မက္ကဆီကို အချိန်",
                "standard": "အနောက်တောင် မက္ကဆီကို စံတော်ချိန်",
                "daylight": "အနောက်တောင် မက္ကဆီကို နေ့ပိုင်းအချိန်"
              }
            },
            "Mexico_Pacific": {
              "long": {
                "generic": "မက္ကဆီကန် ပစိဖိတ်အချိန်",
                "standard": "မက္ကဆီကန် ပစိဖိတ် စံတော်ချိန်",
                "daylight": "မက္ကဆီကန် ပစိဖိတ် နေ့ပိုင်းအချိန်"
              }
            },
            "Mongolia": {
              "long": {
                "generic": "ဥလန်ဘာတောအချိန်",
                "standard": "ဥလန်ဘာတောစံတော်ချိန်",
                "daylight": "ဥလန်ဘာတောနွေရာသီအချိန်"
              }
            },
            "Moscow": {
              "long": {
                "generic": "မော့စ်ကို အချိန်",
                "standard": "မော့စ်ကိုစံတော်ချိန်",
                "daylight": "မော့စ်ကိုနွေရာသီ အချိန်"
              }
            },
            "Myanmar": {
              "long": {
                "standard": "မြန်မာ အချိန်"
              }
            },
            "Nauru": {
              "long": {
                "standard": "နာဥူရူအချိန်"
              }
            },
            "Nepal": {
              "long": {
                "standard": "နီပေါ အချိန်"
              }
            },
            "New_Caledonia": {
              "long": {
                "generic": "နယူးကာလီဒိုးနီးယားအချိန်",
                "standard": "နယူးကာလီဒိုးနီးယားစံတော်ချိန်",
                "daylight": "နယူးကာလီဒိုးနီးယားနွေရာသီအချိန်"
              }
            },
            "New_Zealand": {
              "long": {
                "generic": "နယူးဇီလန် အချိန်",
                "standard": "နယူးဇီလန် စံတော်ချိန်",
                "daylight": "နယူးဇီလန် နေ့ပိုင်း အချိန်"
              }
            },
            "Newfoundland": {
              "long": {
                "generic": "နယူးဖောင်လန် အချိန်",
                "standard": "နယူးဖောင်လန် စံတော်ချိန်",
                "daylight": "နယူးဖောင်လန် နေ့ပိုင်း အချိန်"
              }
            },
            "Niue": {
              "long": {
                "standard": "နီဦးအေအချိန်"
              }
            },
            "Norfolk": {
              "long": {
                "standard": "နောဖော့ခ်ကျွန်းအချိန်"
              }
            },
            "Noronha": {
              "long": {
                "generic": "ဖာနန်ဒိုးဒီနိုးရိုးညာအချိန်",
                "standard": "ဖာနန်ဒိုးဒီနိုးရိုးညာစံတော်ချိန်",
                "daylight": "ဖာနန်ဒိုးဒီနိုးရိုးညာနွေရာသီအချိန်"
              }
            },
            "Novosibirsk": {
              "long": {
                "generic": "နိုဗိုစဲဘီအဲယ်စ်အချိန်",
                "standard": "နိုဗိုစဲဘီအဲယ်စ်စံတော်ချိန်",
                "daylight": "နိုဗိုစဲဘီအဲယ်စ်နွေရာသီအချိန်"
              }
            },
            "Omsk": {
              "long": {
                "generic": "အွမ်းစ်ခ်အချိန်",
                "standard": "အွမ်းစ်ခ်စံတော်ချိန်",
                "daylight": "အွမ်းစ်ခ်နွေရာသီအချိန်"
              }
            },
            "Pakistan": {
              "long": {
                "generic": "ပါကစ္စတန် အချိန်",
                "standard": "ပါကစ္စတန် စံတော်ချိန်",
                "daylight": "ပါကစ္စတန် နွေရာသီ အချိန်"
              }
            },
            "Palau": {
              "long": {
                "standard": "ဖလောင်အချိန်"
              }
            },
            "Papua_New_Guinea": {
              "long": {
                "standard": "ပါပူရာနယူးဂီနီ အချိန်"
              }
            },
            "Paraguay": {
              "long": {
                "generic": "ပါရာဂွေး အချိန်",
                "standard": "ပါရာဂွေး စံတော်ချိန်",
                "daylight": "ပါရာဂွေး နွေရာသီ အချိန်"
              }
            },
            "Peru": {
              "long": {
                "generic": "ပီရူး အချိန်",
                "standard": "ပီရူး စံတော်ချိန်",
                "daylight": "ပီရူး နွေရာသီ အချိန်"
              }
            },
            "Philippines": {
              "long": {
                "generic": "ဖိလစ်ပိုင် အချိန်",
                "standard": "ဖိလစ်ပိုင် စံတော်ချိန်",
                "daylight": "ဖိလစ်ပိုင် နွေရာသီ အချိန်"
              }
            },
            "Phoenix_Islands": {
              "long": {
                "standard": "ဖီးနစ်ကျွန်းစုအချိန်"
              }
            },
            "Pierre_Miquelon": {
              "long": {
                "generic": "စိန့်ပီအဲနှင့်မီခွီလွန်အချိန်",
                "standard": "စိန့်ပီအဲနှင့်မီခွီလွန်စံတော်ချိန်",
                "daylight": "စိန့်ပီအဲနှင့်မီခွီလွန်နေ့ပိုင်းအချိန်"
              }
            },
            "Pitcairn": {
              "long": {
                "standard": "ပိကိန်းအချိန်"
              }
            },
            "Ponape": {
              "long": {
                "standard": "ဖိုနာဖဲအ်အချိန်"
              }
            },
            "Reunion": {
              "long": {
                "standard": "ရဲအူနီရွန်အချိန်"
              }
            },
            "Rothera": {
              "long": {
                "standard": "ရိုသီရာအချိန်"
              }
            },
            "Sakhalin": {
              "long": {
                "generic": "စဲက်ခါလီင်းအချိန်",
                "standard": "စဲက်ခါလီင်းစံတော်ချိန်",
                "daylight": "စဲက်ခါလီးင်နွေရာသီအချိန်"
              }
            },
            "Samoa": {
              "long": {
                "generic": "ဆာမိုအာအချိန်",
                "standard": "ဆာမိုအာစံတော်ချိန်",
                "daylight": "ဆာမိုအာနေ့အချိန်"
              }
            },
            "Seychelles": {
              "long": {
                "standard": "ဆေးရှလ်အချိန်"
              }
            },
            "Singapore": {
              "long": {
                "standard": "စင်္ကာပူ စံတော်ချိန်"
              }
            },
            "Solomon": {
              "long": {
                "standard": "ဆိုလိုမွန်ကျွန်းစုအချိန်"
              }
            },
            "South_Georgia": {
              "long": {
                "standard": "တောင်ဂျော်ဂျီယာ အချိန်"
              }
            },
            "Suriname": {
              "long": {
                "standard": "စူးရီနာမ်အချိန်"
              }
            },
            "Syowa": {
              "long": {
                "standard": "ရှိုဝါအချိန်"
              }
            },
            "Tahiti": {
              "long": {
                "standard": "တာဟီတီအချိန်"
              }
            },
            "Taipei": {
              "long": {
                "generic": "တိုင်ပေအချိန်",
                "standard": "တိုင်ပေစံတော်ချိန်",
                "daylight": "တိုင်ပေနေ့ပိုင်းအချိန်"
              }
            },
            "Tajikistan": {
              "long": {
                "standard": "တာဂျီကစ္စတန်အချိန်"
              }
            },
            "Tokelau": {
              "long": {
                "standard": "တိုကီလာဥ အချိန်"
              }
            },
            "Tonga": {
              "long": {
                "generic": "တွန်ဂါအချိန်",
                "standard": "တွန်ဂါစံတော်ချိန်",
                "daylight": "တွန်ဂါနွေရာသီအချိန်"
              }
            },
            "Truk": {
              "long": {
                "standard": "ချုခ်အချိန်"
              }
            },
            "Turkmenistan": {
              "long": {
                "generic": "တာခ်မီန့စ်တန်အချိန်",
                "standard": "တာခ်မီန့စ်တန်စံတော်ချိန်",
                "daylight": "တာခ်မီန့စ်တန်နွေရာသီအချိန်"
              }
            },
            "Tuvalu": {
              "long": {
                "standard": "ထူဗာလူအချိန်"
              }
            },
            "Uruguay": {
              "long": {
                "generic": "ဥရုဂွေး အချိန်",
                "standard": "ဥရုဂွေး စံတော်ချိန်",
                "daylight": "ဥရုဂွေး နွေရာသီ အချိန်"
              }
            },
            "Uzbekistan": {
              "long": {
                "generic": "ဥဘက်ကစ္စတန် အချိန်",
                "standard": "ဥဘက်ကစ္စတန် စံတော်ချိန်",
                "daylight": "ဥဘက်ကစ္စတန် နွေရာသီ အချိန်"
              }
            },
            "Vanuatu": {
              "long": {
                "generic": "ဗာနုအာတူအချိန်",
                "standard": "ဗာနုအာတူစံတော်ချိန်",
                "daylight": "ဗာနုအာတူနွေရာသီအချိန်"
              }
            },
            "Venezuela": {
              "long": {
                "standard": "ဗင်နီဇွဲလား အချိန်"
              }
            },
            "Vladivostok": {
              "long": {
                "generic": "ဗလာဒါဗိုစ်တိုခ်အချိန်",
                "standard": "ဗလာဒါဗိုစ်တိုခ်စံတော်ချိန်",
                "daylight": "ဗလာဒါဗိုစ်တိုခ်နွေရာသီအချိန်"
              }
            },
            "Volgograd": {
              "long": {
                "generic": "ဗိုလ်ဂိုဂရက်အချိန်",
                "standard": "ဗိုလ်ဂိုဂရက်စံတော်ချိန်",
                "daylight": "ဗိုလ်ဂိုဂရက်နွေရာသီအချိန်"
              }
            },
            "Vostok": {
              "long": {
                "standard": "ဗိုစ်တိုခ်အချိန်"
              }
            },
            "Wake": {
              "long": {
                "standard": "ဝိတ်ခ်ကျွန်းအချိန်"
              }
            },
            "Wallis": {
              "long": {
                "standard": "ဝေါလီစ်နှင့်"
              }
            },
            "Yakutsk": {
              "long": {
                "generic": "ယူခူးတ်စ်အချိန်",
                "standard": "ယူခူးတ်စ်စံတော်ချိန်",
                "daylight": "ယူခူးတ်စ်နွေရာသီအချိန်"
              }
            },
            "Yekaterinburg": {
              "long": {
                "generic": "ရယ်ခါးတီရင်ဘားခ်အချိန်",
                "standard": "ရယ်ခါးတီရင်ဘားခ်စံတော်ချိန်",
                "daylight": "ရယ်ခါးတီရင်ဘာခ်နွေရာသီအချိန်"
              }
            }
          }
        }
      }
    }
  }
}
