{
  "main": {
    "sr-Cyrl-RS": {
      "identity": {
        "version": {
          "_cldrVersion": "26",
          "_number": "$Revision: 10669 $"
        },
        "generation": {
          "_date": "$Date: 2014-07-23 16:10:33 -0500 (Wed, 23 Jul 2014) $"
        },
        "language": "root",
        "script": "Cyrl",
        "territory": "RS"
      },
      "localeDisplayNames": {
        "transformNames": {
          "BGN": "БГН (BGN)",
          "Numeric": "Нумеричка",
          "Tone": "Тон",
          "UNGEGN": "УНГЕГН (BGN)",
          "x-Accents": "Акценти",
          "x-Fullwidth": "пуна ширина",
          "x-Halfwidth": "пола ширине",
          "x-Jamo": "Џамо",
          "x-Pinyin": "Пинјин",
          "x-Publishing": "Издавачки"
        }
      }
    }
  }
}
