{
  "main": {
    "ee-GH": {
      "identity": {
        "version": {
          "_cldrVersion": "26",
          "_number": "$Revision: 10669 $"
        },
        "generation": {
          "_date": "$Date: 2014-07-23 16:10:33 -0500 (Wed, 23 Jul 2014) $"
        },
        "language": "ee",
        "territory": "GH"
      },
      "characters": {
        "exemplarCharacters": "[a á à ã b d ɖ e é è ẽ ɛ {ɛ\u0301} {ɛ\u0300} {ɛ\u0303} f ƒ g ɣ h x i í ì ĩ k l m n ŋ o ó ò õ ɔ {ɔ\u0301} {ɔ\u0300} {ɔ\u0303} p r s t u ú ù ũ v ʋ w y z]",
        "auxiliary": "[ă â å ä ā æ c ç ĕ ê ë ĭ î ï j ñ ŏ ô ö ø œ q ŭ û ü ÿ]",
        "punctuation": "[\\- ‐ – — , ; \\: ! ? . … ' ‘ ’ \" “ ” ( ) \\[ \\] \\{ \\} § @ * / \\& # † ‡ ′ ″]",
        "index": "[A B D Ɖ E Ɛ F Ƒ G Ɣ H X I K L M N Ŋ O Ɔ P R S T U V Ʋ W Y Z]",
        "ellipsis": {
          "initial": "…{0}",
          "medial": "{0}…{1}",
          "final": "{0}…",
          "word-initial": "… {0}",
          "word-medial": "{0} … {1}",
          "word-final": "{0} …"
        },
        "moreInformation": "..."
      }
    }
  }
}
