{
  "main": {
    "ff-MR": {
      "identity": {
        "version": {
          "_cldrVersion": "26",
          "_number": "$Revision: 10669 $"
        },
        "generation": {
          "_date": "$Date: 2014-07-23 16:10:33 -0500 (Wed, 23 Jul 2014) $"
        },
        "language": "ff",
        "territory": "MR"
      },
      "characters": {
        "exemplarCharacters": "[a b ɓ c d ɗ e f g h i j k l m n ñ ŋ o p r s t u w y ƴ]",
        "auxiliary": "[q v x z]",
        "punctuation": "[\\- , ; \\: ! ? . ( ) \\[ \\] \\{ \\}]",
        "index": "[A B Ɓ C D Ɗ E F G H I J K L M N Ñ Ŋ O P R S T U W Y Ƴ]",
        "ellipsis": {
          "initial": "…{0}",
          "medial": "{0}…{1}",
          "final": "{0}…",
          "word-initial": "… {0}",
          "word-medial": "{0} … {1}",
          "word-final": "{0} …"
        },
        "moreInformation": "?"
      }
    }
  }
}
