{
  "main": {
    "ln-AO": {
      "identity": {
        "version": {
          "_cldrVersion": "26",
          "_number": "$Revision: 10669 $"
        },
        "generation": {
          "_date": "$Date: 2014-07-23 16:10:33 -0500 (Wed, 23 Jul 2014) $"
        },
        "language": "ln",
        "territory": "AO"
      },
      "characters": {
        "exemplarCharacters": "[a á â ǎ b c d e é ê ě ɛ {ɛ\u0301} {ɛ\u0302} {ɛ\u030C} f g {gb} h i í î ǐ k l m {mb} {mp} n {nd} {ng} {nk} {ns} {nt} {ny} {nz} o ó ô ǒ ɔ {ɔ\u0301} {ɔ\u0302} {ɔ\u030C} p r s t u ú v w y z]",
        "auxiliary": "[j q x]",
        "punctuation": "[\\- , ; \\: ! ? . ( ) \\[ \\] \\{ \\}]",
        "index": "[A B C D E Ɛ F G {Gb} H I K L M {Mb} {Mp} N {Nd} {Ng} {Nk} {Ns} {Nt} {Ny} {Nz} O Ɔ P R S T U V W Y Z]",
        "ellipsis": {
          "initial": "…{0}",
          "medial": "{0}…{1}",
          "final": "{0}…",
          "word-initial": "… {0}",
          "word-medial": "{0} … {1}",
          "word-final": "{0} …"
        },
        "moreInformation": "?"
      }
    }
  }
}
