{
  "main": {
    "ml-IN": {
      "identity": {
        "version": {
          "_cldrVersion": "26",
          "_number": "$Revision: 10669 $"
        },
        "generation": {
          "_date": "$Date: 2014-07-23 16:10:33 -0500 (Wed, 23 Jul 2014) $"
        },
        "language": "ml",
        "territory": "IN"
      },
      "units": {
        "long": {
          "per": {
            "compoundUnitPattern": "{0}/{1}"
          },
          "acceleration-g-force": {
            "displayName": "ജി-ഫോഴ്‌സ്",
            "unitPattern-count-one": "{0} ജി-ഫോഴ്‌സ്",
            "unitPattern-count-other": "{0} ജി-ഫോഴ്‌സ്"
          },
          "acceleration-meter-per-second-squared": {
            "displayName": "മീറ്റർ/സെക്കൻഡ്²",
            "unitPattern-count-one": "{0} മീറ്റർ/സെക്കൻഡ്²",
            "unitPattern-count-other": "{0} മീറ്റർ/സെക്കൻഡ്²"
          },
          "angle-arc-minute": {
            "displayName": "ആർക്ക്മിനിറ്റ്",
            "unitPattern-count-one": "{0} ആർക്ക്മിനിറ്റ്",
            "unitPattern-count-other": "{0} ആർക്ക്മിനിറ്റ്"
          },
          "angle-arc-second": {
            "displayName": "ആർക്ക്സെക്കൻഡ്",
            "unitPattern-count-one": "{0} ആർക്ക്സെക്കൻഡ്",
            "unitPattern-count-other": "{0} ആർക്ക്സെക്കൻഡ്"
          },
          "angle-degree": {
            "displayName": "ഡിഗ്രി",
            "unitPattern-count-one": "{0} ഡിഗ്രി",
            "unitPattern-count-other": "{0} ഡിഗ്രി"
          },
          "angle-radian": {
            "displayName": "റേഡിയൻ",
            "unitPattern-count-one": "{0} റേഡിയൻ",
            "unitPattern-count-other": "{0} റേഡിയൻ"
          },
          "area-acre": {
            "displayName": "ഏക്കർ",
            "unitPattern-count-one": "{0} ഏക്കർ",
            "unitPattern-count-other": "{0} ഏക്കർ"
          },
          "area-hectare": {
            "displayName": "ഹെക്‌ടർ",
            "unitPattern-count-one": "{0} ഹെക്‌ടർ",
            "unitPattern-count-other": "{0} ഹെക്‌ടർ"
          },
          "area-square-centimeter": {
            "displayName": "ചതുരശ്ര സെന്റിമീറ്റർ",
            "unitPattern-count-one": "{0} ചതുരശ്ര സെന്റിമീറ്റർ",
            "unitPattern-count-other": "{0} ചതുരശ്ര സെന്റിമീറ്റർ"
          },
          "area-square-foot": {
            "displayName": "ചതുരശ്ര അടി",
            "unitPattern-count-one": "{0} ചതുരശ്ര അടി",
            "unitPattern-count-other": "{0} ചതുരശ്ര അടി"
          },
          "area-square-inch": {
            "displayName": "ചതുരശ്ര ഇഞ്ച്",
            "unitPattern-count-one": "{0} ചതുരശ്ര ഇഞ്ച്",
            "unitPattern-count-other": "{0} ചതുരശ്ര ഇഞ്ച്"
          },
          "area-square-kilometer": {
            "displayName": "ചതുരശ്ര കിലോമീറ്റർ",
            "unitPattern-count-one": "{0} ചതുരശ്ര കിലോമീറ്റർ",
            "unitPattern-count-other": "{0} ചതുരശ്ര കിലോമീറ്റർ"
          },
          "area-square-meter": {
            "displayName": "ചതുരശ്ര മീറ്റർ",
            "unitPattern-count-one": "{0} ചതുരശ്ര മീറ്റർ",
            "unitPattern-count-other": "{0} ചതുരശ്ര മീറ്റർ"
          },
          "area-square-mile": {
            "displayName": "ചതുരശ്ര മൈൽ",
            "unitPattern-count-one": "{0} ചതുരശ്ര മൈൽ",
            "unitPattern-count-other": "{0} ചതുരശ്ര മൈൽ"
          },
          "area-square-yard": {
            "displayName": "ചതുരശ്ര വാര",
            "unitPattern-count-one": "{0} ചതുരശ്ര വാര",
            "unitPattern-count-other": "{0} ചതുരശ്ര വാര"
          },
          "consumption-liter-per-kilometer": {
            "displayName": "ലിറ്റർ/കിലോമീറ്റർ",
            "unitPattern-count-one": "{0} ലിറ്റർ/കിലോമീറ്റർ",
            "unitPattern-count-other": "{0} ലിറ്റർ/കിലോമീറ്റർ"
          },
          "consumption-mile-per-gallon": {
            "displayName": "മൈൽ/ഗാലൻ",
            "unitPattern-count-one": "{0} മൈൽ/ഗാലൻ",
            "unitPattern-count-other": "{0} മൈൽ/ഗാലൻ"
          },
          "digital-bit": {
            "displayName": "ബിറ്റ്",
            "unitPattern-count-one": "{0} ബിറ്റ്",
            "unitPattern-count-other": "{0} ബിറ്റ്"
          },
          "digital-byte": {
            "displayName": "ബൈറ്റ്",
            "unitPattern-count-one": "{0} ബൈറ്റ്",
            "unitPattern-count-other": "{0} ബൈറ്റ്"
          },
          "digital-gigabit": {
            "displayName": "ജിഗാബിറ്റ്",
            "unitPattern-count-one": "{0} ജിഗാബിറ്റ്",
            "unitPattern-count-other": "{0} ജിഗാബിറ്റ്"
          },
          "digital-gigabyte": {
            "displayName": "ജിഗാബൈറ്റ്",
            "unitPattern-count-one": "{0} ജിഗാബൈറ്റ്",
            "unitPattern-count-other": "{0} ജിഗാബൈറ്റ്"
          },
          "digital-kilobit": {
            "displayName": "കിലോബിറ്റ്",
            "unitPattern-count-one": "{0} കിലോബിറ്റ്",
            "unitPattern-count-other": "{0} കിലോബിറ്റ്"
          },
          "digital-kilobyte": {
            "displayName": "കിലോബൈറ്റ്",
            "unitPattern-count-one": "{0} കിലോബൈറ്റ്",
            "unitPattern-count-other": "{0} കിലോബൈറ്റ്"
          },
          "digital-megabit": {
            "displayName": "മെഗാബിറ്റ്",
            "unitPattern-count-one": "{0} മെഗാബിറ്റ്",
            "unitPattern-count-other": "{0} മെഗാബിറ്റ്"
          },
          "digital-megabyte": {
            "displayName": "മെഗാബൈറ്റ്",
            "unitPattern-count-one": "{0} മെഗാബൈറ്റ്",
            "unitPattern-count-other": "{0} മെഗാബൈറ്റ്"
          },
          "digital-terabit": {
            "displayName": "ടെറാബിറ്റ്",
            "unitPattern-count-one": "{0} ടെറാബിറ്റ്",
            "unitPattern-count-other": "{0} ടെറാബിറ്റ്"
          },
          "digital-terabyte": {
            "displayName": "ടെറാബൈറ്റ്",
            "unitPattern-count-one": "{0} ടെറാബൈറ്റ്",
            "unitPattern-count-other": "{0} ടെറാബൈറ്റ്"
          },
          "duration-day": {
            "displayName": "ദിവസം",
            "unitPattern-count-one": "{0} ദിവസം",
            "unitPattern-count-other": "{0} ദിവസം"
          },
          "duration-hour": {
            "displayName": "മണിക്കൂർ",
            "unitPattern-count-one": "{0} മണിക്കൂർ",
            "unitPattern-count-other": "{0} മണിക്കൂർ",
            "perUnitPattern": "{0} / മണിക്കൂർ"
          },
          "duration-microsecond": {
            "displayName": "മൈക്രോസെക്കൻഡ്",
            "unitPattern-count-one": "{0} മൈക്രോസെക്കൻഡ്",
            "unitPattern-count-other": "{0} മൈക്രോസെക്കൻഡ്"
          },
          "duration-millisecond": {
            "displayName": "മില്ലിസെക്കൻഡ്",
            "unitPattern-count-one": "{0} മില്ലിസെക്കൻഡ്",
            "unitPattern-count-other": "{0} മില്ലിസെക്കൻഡ്"
          },
          "duration-minute": {
            "displayName": "മിനിറ്റ്",
            "unitPattern-count-one": "{0} മിനിറ്റ്",
            "unitPattern-count-other": "{0} മിനിറ്റ്"
          },
          "duration-month": {
            "displayName": "മാസം",
            "unitPattern-count-one": "{0} മാസം",
            "unitPattern-count-other": "{0} മാസം"
          },
          "duration-nanosecond": {
            "displayName": "നാനോസെക്കൻഡ്",
            "unitPattern-count-one": "{0} നാനോസെക്കൻഡ്",
            "unitPattern-count-other": "{0} നാനോസെക്കൻഡ്"
          },
          "duration-second": {
            "displayName": "സെക്കൻഡ്",
            "unitPattern-count-one": "{0} സെക്കൻഡ്",
            "unitPattern-count-other": "{0} സെക്കൻഡ്",
            "perUnitPattern": "{0} / സെക്കൻഡ്"
          },
          "duration-week": {
            "displayName": "ആഴ്ച",
            "unitPattern-count-one": "{0} ആഴ്ച",
            "unitPattern-count-other": "{0} ആഴ്ച"
          },
          "duration-year": {
            "displayName": "വർഷം",
            "unitPattern-count-one": "{0} വർഷം",
            "unitPattern-count-other": "{0} വർഷം"
          },
          "electric-ampere": {
            "displayName": "ആമ്പിയർ",
            "unitPattern-count-one": "{0} ആമ്പിയർ",
            "unitPattern-count-other": "{0} ആമ്പിയർ"
          },
          "electric-milliampere": {
            "displayName": "മില്ലിആമ്പിയർ",
            "unitPattern-count-one": "{0} മില്ലിആമ്പിയർ",
            "unitPattern-count-other": "{0} മില്ലിആമ്പിയർ"
          },
          "electric-ohm": {
            "displayName": "ഓം",
            "unitPattern-count-one": "{0} ഓം",
            "unitPattern-count-other": "{0} ഓം"
          },
          "electric-volt": {
            "displayName": "വോൾട്ട്",
            "unitPattern-count-one": "{0} വോൾട്ട്",
            "unitPattern-count-other": "{0} വോൾട്ട്"
          },
          "energy-calorie": {
            "displayName": "കലോറി",
            "unitPattern-count-one": "{0} കലോറി",
            "unitPattern-count-other": "{0} കലോറി"
          },
          "energy-foodcalorie": {
            "displayName": "കലോറി",
            "unitPattern-count-one": "{0} കലോറി",
            "unitPattern-count-other": "{0} കലോറി"
          },
          "energy-joule": {
            "displayName": "ജൂൾ",
            "unitPattern-count-one": "{0} ജൂൾ",
            "unitPattern-count-other": "{0} ജൂൾ"
          },
          "energy-kilocalorie": {
            "displayName": "കിലോകലോറി",
            "unitPattern-count-one": "{0} കിലോകലോറി",
            "unitPattern-count-other": "{0} കിലോകലോറി"
          },
          "energy-kilojoule": {
            "displayName": "കിലോജൂൾ",
            "unitPattern-count-one": "{0} കിലോജൂൾ",
            "unitPattern-count-other": "{0} കിലോജൂൾ"
          },
          "energy-kilowatt-hour": {
            "displayName": "കിലോവാട്ട്/മണിക്കൂർ",
            "unitPattern-count-one": "{0} കിലോവാട്ട്/മണിക്കൂർ",
            "unitPattern-count-other": "{0} കിലോവാട്ട്/മണിക്കൂർ"
          },
          "frequency-gigahertz": {
            "displayName": "ജിഗാഹെർട്സ്",
            "unitPattern-count-one": "{0} ജിഗാഹെർട്സ്",
            "unitPattern-count-other": "{0} ജിഗാഹെർട്സ്"
          },
          "frequency-hertz": {
            "displayName": "ഹെർട്സ്",
            "unitPattern-count-one": "{0} ഹെർട്സ്",
            "unitPattern-count-other": "{0} ഹെർട്സ്"
          },
          "frequency-kilohertz": {
            "displayName": "കിലോഹെർട്സ്",
            "unitPattern-count-one": "{0} കിലോഹെർട്സ്",
            "unitPattern-count-other": "{0} കിലോഹെർട്സ്"
          },
          "frequency-megahertz": {
            "displayName": "മെഗാഹെർട്സ്",
            "unitPattern-count-one": "{0} മെഗാഹെർട്സ്",
            "unitPattern-count-other": "{0} മെഗാഹെർട്സ്"
          },
          "length-astronomical-unit": {
            "displayName": "ജ്യോതിശാസ്‌ത്ര യൂണിറ്റ്",
            "unitPattern-count-one": "{0} ജ്യോതിശാസ്‌ത്ര യൂണിറ്റ്",
            "unitPattern-count-other": "{0} ജ്യോതിശാസ്‌ത്ര യൂണിറ്റ്"
          },
          "length-centimeter": {
            "displayName": "സെന്റീമീറ്റർ",
            "unitPattern-count-one": "{0} സെന്റീമീറ്റർ",
            "unitPattern-count-other": "{0} സെന്റീമീറ്റർ"
          },
          "length-decimeter": {
            "displayName": "ഡെസീമീറ്റർ",
            "unitPattern-count-one": "{0} ഡെസീമീറ്റർ",
            "unitPattern-count-other": "{0} ഡെസീമീറ്റർ"
          },
          "length-fathom": {
            "displayName": "fm",
            "unitPattern-count-other": "{0} fm"
          },
          "length-foot": {
            "displayName": "അടി",
            "unitPattern-count-one": "{0} അടി",
            "unitPattern-count-other": "{0} അടി"
          },
          "length-furlong": {
            "displayName": "fur",
            "unitPattern-count-other": "{0} fur"
          },
          "length-inch": {
            "displayName": "ഇഞ്ച്",
            "unitPattern-count-one": "{0} ഇഞ്ച്",
            "unitPattern-count-other": "{0} ഇഞ്ച്"
          },
          "length-kilometer": {
            "displayName": "കിലോമീറ്റർ",
            "unitPattern-count-one": "{0} കിലോമീറ്റർ",
            "unitPattern-count-other": "{0} കിലോമീറ്റർ"
          },
          "length-light-year": {
            "displayName": "പ്രകാശവർഷം",
            "unitPattern-count-one": "{0} പ്രകാശവർഷം",
            "unitPattern-count-other": "{0} പ്രകാശവർഷം"
          },
          "length-meter": {
            "displayName": "മീറ്റർ",
            "unitPattern-count-one": "{0} മീറ്റർ",
            "unitPattern-count-other": "{0} മീറ്റർ"
          },
          "length-micrometer": {
            "displayName": "മൈക്രോമീറ്റർ",
            "unitPattern-count-one": "{0} മൈക്രോമീറ്റർ",
            "unitPattern-count-other": "{0} മൈക്രോമീറ്റർ"
          },
          "length-mile": {
            "displayName": "മൈൽ",
            "unitPattern-count-one": "{0} മൈൽ",
            "unitPattern-count-other": "{0} മൈൽ"
          },
          "length-millimeter": {
            "displayName": "മില്ലീമീറ്റർ",
            "unitPattern-count-one": "{0} മില്ലീമീറ്റർ",
            "unitPattern-count-other": "{0} മില്ലീമീറ്റർ"
          },
          "length-nanometer": {
            "displayName": "നാനോമീറ്റർ",
            "unitPattern-count-one": "{0} നാനോമീറ്റർ",
            "unitPattern-count-other": "{0} നാനോമീറ്റർ"
          },
          "length-nautical-mile": {
            "displayName": "നോട്ടിക്കൽ മൈൽ",
            "unitPattern-count-one": "{0} നോട്ടിക്കൽ മൈൽ",
            "unitPattern-count-other": "{0} നോട്ടിക്കൽ മൈൽ"
          },
          "length-parsec": {
            "displayName": "പാർസെക്",
            "unitPattern-count-one": "{0} പാർസെക്",
            "unitPattern-count-other": "{0} പാർസെക്"
          },
          "length-picometer": {
            "displayName": "പൈക്കോമീറ്റർ",
            "unitPattern-count-one": "{0} പൈക്കോമീറ്റർ",
            "unitPattern-count-other": "{0} പൈക്കോമീറ്റർ"
          },
          "length-yard": {
            "displayName": "വാര",
            "unitPattern-count-one": "{0} വാര",
            "unitPattern-count-other": "{0} വാര"
          },
          "light-lux": {
            "displayName": "ലക്സ്",
            "unitPattern-count-one": "{0} ലക്സ്",
            "unitPattern-count-other": "{0} ലക്സ്"
          },
          "mass-carat": {
            "displayName": "ക്യാരറ്റ്",
            "unitPattern-count-one": "{0} ക്യാരറ്റ്",
            "unitPattern-count-other": "{0} ക്യാരറ്റ്"
          },
          "mass-gram": {
            "displayName": "ഗ്രാം",
            "unitPattern-count-one": "{0} ഗ്രാം",
            "unitPattern-count-other": "{0} ഗ്രാം"
          },
          "mass-kilogram": {
            "displayName": "കിലോഗ്രാം",
            "unitPattern-count-one": "{0} കിലോഗ്രാം",
            "unitPattern-count-other": "{0} കിലോഗ്രാം"
          },
          "mass-metric-ton": {
            "displayName": "മെട്രിക് ടൺ",
            "unitPattern-count-one": "{0} മെട്രിക് ടൺ",
            "unitPattern-count-other": "{0} മെട്രിക് ടൺ"
          },
          "mass-microgram": {
            "displayName": "മൈക്രോഗ്രാം",
            "unitPattern-count-one": "{0} മൈക്രോഗ്രാം",
            "unitPattern-count-other": "{0} മൈക്രോഗ്രാം"
          },
          "mass-milligram": {
            "displayName": "മില്ലിഗ്രാം",
            "unitPattern-count-one": "{0} മില്ലിഗ്രാം",
            "unitPattern-count-other": "{0} മില്ലിഗ്രാം"
          },
          "mass-ounce": {
            "displayName": "ഔൺസ്",
            "unitPattern-count-one": "{0} ഔൺസ്",
            "unitPattern-count-other": "{0} ഔൺസ്"
          },
          "mass-ounce-troy": {
            "displayName": "ട്രോയ് ഔൺസ്",
            "unitPattern-count-one": "{0} ട്രോയ് ഔൺസ്",
            "unitPattern-count-other": "{0} ട്രോയ് ഔൺസ്"
          },
          "mass-pound": {
            "displayName": "പൗണ്ട്",
            "unitPattern-count-one": "{0} പൗണ്ട്",
            "unitPattern-count-other": "{0} പൗണ്ട്"
          },
          "mass-stone": {
            "displayName": "st",
            "unitPattern-count-other": "{0} st"
          },
          "mass-ton": {
            "displayName": "ടൺ",
            "unitPattern-count-one": "{0} ടൺ",
            "unitPattern-count-other": "{0} ടൺ"
          },
          "power-gigawatt": {
            "displayName": "ജിഗാവാട്ട്",
            "unitPattern-count-one": "{0} ജിഗാവാട്ട്",
            "unitPattern-count-other": "{0} ജിഗാവാട്ട്"
          },
          "power-horsepower": {
            "displayName": "കുതിരശക്തി",
            "unitPattern-count-one": "{0} കുതിരശക്തി",
            "unitPattern-count-other": "{0} കുതിരശക്തി"
          },
          "power-kilowatt": {
            "displayName": "കിലോവാട്ട്",
            "unitPattern-count-one": "{0} കിലോവാട്ട്",
            "unitPattern-count-other": "{0} കിലോവാട്ട്"
          },
          "power-megawatt": {
            "displayName": "മെഗാവാട്ട്",
            "unitPattern-count-one": "{0} മെഗാവാട്ട്",
            "unitPattern-count-other": "{0} മെഗാവാട്ട്"
          },
          "power-milliwatt": {
            "displayName": "മില്ലിവാട്ട്",
            "unitPattern-count-one": "{0} മില്ലിവാട്ട്",
            "unitPattern-count-other": "{0} മില്ലിവാട്ട്"
          },
          "power-watt": {
            "displayName": "വാട്ട്",
            "unitPattern-count-one": "{0} വാട്ട്",
            "unitPattern-count-other": "{0} വാട്ട്"
          },
          "pressure-hectopascal": {
            "displayName": "ഹെക്‌ടോപാസ്‌ക്കൽ",
            "unitPattern-count-one": "{0} ഹെക്‌ടോപാസ്‌ക്കൽ",
            "unitPattern-count-other": "{0} ഹെക്‌ടോപാസ്‌ക്കൽ"
          },
          "pressure-inch-hg": {
            "displayName": "ഇഞ്ച് ഓഫ് മെർക്കുറി",
            "unitPattern-count-one": "{0} ഇഞ്ച് ഓഫ് മെർക്കുറി",
            "unitPattern-count-other": "{0} ഇഞ്ച് ഓഫ് മെർക്കുറി"
          },
          "pressure-millibar": {
            "displayName": "മില്ലിബാർ",
            "unitPattern-count-one": "{0} മില്ലിബാർ",
            "unitPattern-count-other": "{0} മില്ലിബാർ"
          },
          "pressure-millimeter-of-mercury": {
            "displayName": "മില്ലീമീറ്റർ മെർക്കുറി",
            "unitPattern-count-one": "{0} മില്ലീമീറ്റർ മെർക്കുറി",
            "unitPattern-count-other": "{0} മില്ലീമീറ്റർ മെർക്കുറി"
          },
          "pressure-pound-per-square-inch": {
            "displayName": "ചതുരശ്ര ഇഞ്ചിലുള്ള റാത്തൽ",
            "unitPattern-count-one": "{0} ചതുരശ്ര ഇഞ്ചിലുള്ള റാത്തൽ",
            "unitPattern-count-other": "{0} ചതുരശ്ര ഇഞ്ചിലുള്ള റാത്തൽ"
          },
          "proportion-karat": {
            "displayName": "ക്യാരറ്റ്",
            "unitPattern-count-one": "{0} ക്യാരറ്റ്",
            "unitPattern-count-other": "{0} ക്യാരറ്റ്"
          },
          "speed-kilometer-per-hour": {
            "displayName": "കിലോമീറ്റർ/മണിക്കൂർ",
            "unitPattern-count-one": "{0} കിലോമീറ്റർ/മണിക്കൂർ",
            "unitPattern-count-other": "{0} കിലോമീറ്റർ/മണിക്കൂർ"
          },
          "speed-meter-per-second": {
            "displayName": "മീറ്റർ/സെക്കൻഡ്",
            "unitPattern-count-one": "{0} മീറ്റർ/സെക്കൻഡ്",
            "unitPattern-count-other": "{0} മീറ്റർ/സെക്കൻഡ്"
          },
          "speed-mile-per-hour": {
            "displayName": "മൈൽ/മണിക്കൂർ",
            "unitPattern-count-one": "{0} മൈൽ/മണിക്കൂർ",
            "unitPattern-count-other": "{0} മൈൽ/മണിക്കൂർ"
          },
          "temperature-celsius": {
            "displayName": "ഡിഗ്രി സെൽഷ്യസ്",
            "unitPattern-count-one": "{0} ഡിഗ്രി സെൽഷ്യസ്",
            "unitPattern-count-other": "{0} ഡിഗ്രി സെൽഷ്യസ്"
          },
          "temperature-fahrenheit": {
            "displayName": "ഡിഗ്രി ഫാരൻഹീറ്റ്",
            "unitPattern-count-one": "{0} ഡിഗ്രി ഫാരൻഹീറ്റ്",
            "unitPattern-count-other": "{0} ഡിഗ്രി ഫാരൻഹീറ്റ്"
          },
          "temperature-kelvin": {
            "displayName": "കെൽവിൻ",
            "unitPattern-count-one": "{0} കെൽവിൻ",
            "unitPattern-count-other": "{0} കെൽവിൻ"
          },
          "volume-acre-foot": {
            "displayName": "ഏക്കർ അടി",
            "unitPattern-count-one": "{0} ഏക്കർ അടി",
            "unitPattern-count-other": "{0} ഏക്കർ അടി"
          },
          "volume-bushel": {
            "displayName": "bu",
            "unitPattern-count-other": "{0} bu"
          },
          "volume-centiliter": {
            "displayName": "സെന്റീലിറ്റർ",
            "unitPattern-count-one": "{0} സെന്റീലിറ്റർ",
            "unitPattern-count-other": "{0} സെന്റീലിറ്റർ"
          },
          "volume-cubic-centimeter": {
            "displayName": "ക്യൂബിക് സെന്റീമീറ്റർ",
            "unitPattern-count-one": "{0} ക്യൂബിക് സെന്റീമീറ്റർ",
            "unitPattern-count-other": "{0} ക്യൂബിക് സെന്റീമീറ്റർ"
          },
          "volume-cubic-foot": {
            "displayName": "ക്യൂബിക് അടി",
            "unitPattern-count-one": "{0} ക്യൂബിക് അടി",
            "unitPattern-count-other": "{0} ക്യൂബിക് അടി"
          },
          "volume-cubic-inch": {
            "displayName": "ക്യൂബിക് ഇഞ്ച്",
            "unitPattern-count-one": "{0} ക്യൂബിക് ഇഞ്ച്",
            "unitPattern-count-other": "{0} ക്യൂബിക് ഇഞ്ച്"
          },
          "volume-cubic-kilometer": {
            "displayName": "ക്യൂബിക് കിലോമീറ്റർ",
            "unitPattern-count-one": "{0} ക്യൂബിക് കിലോമീറ്റർ",
            "unitPattern-count-other": "{0} ക്യൂബിക് കിലോമീറ്റർ"
          },
          "volume-cubic-meter": {
            "displayName": "ക്യൂബിക് മീറ്റർ",
            "unitPattern-count-one": "{0} ക്യൂബിക് മീറ്റർ",
            "unitPattern-count-other": "{0} ക്യൂബിക് മീറ്റർ"
          },
          "volume-cubic-mile": {
            "displayName": "ക്യൂബിക്ക് മൈൽ",
            "unitPattern-count-one": "{0} ക്യൂബിക്ക് മൈൽ",
            "unitPattern-count-other": "{0} ക്യൂബിക്ക് മൈൽ"
          },
          "volume-cubic-yard": {
            "displayName": "ക്യൂബിക് യാർഡ്",
            "unitPattern-count-one": "{0} ക്യൂബിക് യാർഡ്",
            "unitPattern-count-other": "{0} ക്യൂബിക് യാർഡ്"
          },
          "volume-cup": {
            "displayName": "കപ്പ്",
            "unitPattern-count-one": "{0} കപ്പ്",
            "unitPattern-count-other": "{0} കപ്പ്"
          },
          "volume-deciliter": {
            "displayName": "ഡെസിലിറ്റർ",
            "unitPattern-count-one": "{0} ഡെസിലിറ്റർ",
            "unitPattern-count-other": "{0} ഡെസിലിറ്റർ"
          },
          "volume-fluid-ounce": {
            "displayName": "ഫ്ലൂയിഡ് ഔൺസ്",
            "unitPattern-count-one": "{0} ഫ്ലൂയിഡ് ഔൺസ്",
            "unitPattern-count-other": "{0} ഫ്ലൂയിഡ് ഔൺസ്"
          },
          "volume-gallon": {
            "displayName": "ഗാലൻ",
            "unitPattern-count-one": "{0} ഗാലൻ",
            "unitPattern-count-other": "{0} ഗാലൻ"
          },
          "volume-hectoliter": {
            "displayName": "ഹെക്ടോലിറ്റർ",
            "unitPattern-count-one": "{0} ഹെക്ടോലിറ്റർ",
            "unitPattern-count-other": "{0} ഹെക്ടോലിറ്റർ"
          },
          "volume-liter": {
            "displayName": "ലിറ്റർ",
            "unitPattern-count-one": "{0} ലിറ്റർ",
            "unitPattern-count-other": "{0} ലിറ്റർ"
          },
          "volume-megaliter": {
            "displayName": "മെഗാലിറ്റർ",
            "unitPattern-count-one": "{0} മെഗാലിറ്റർ",
            "unitPattern-count-other": "{0} മെഗാലിറ്റർ"
          },
          "volume-milliliter": {
            "displayName": "മില്ലിലിറ്റർ",
            "unitPattern-count-one": "{0} മില്ലിലിറ്റർ",
            "unitPattern-count-other": "{0} മില്ലിലിറ്റർ"
          },
          "volume-pint": {
            "displayName": "പൈന്റ്",
            "unitPattern-count-one": "{0} പൈന്റ്",
            "unitPattern-count-other": "{0} പൈന്റ്"
          },
          "volume-quart": {
            "displayName": "ക്വാർട്ട്",
            "unitPattern-count-one": "{0} ക്വാർട്ട്",
            "unitPattern-count-other": "{0} ക്വാർട്ട്"
          },
          "volume-tablespoon": {
            "displayName": "ടേബിൾസ്‌പൂൺ",
            "unitPattern-count-one": "{0} ടേബിൾസ്‌പൂൺ",
            "unitPattern-count-other": "{0} ടേബിൾസ്‌പൂൺ"
          },
          "volume-teaspoon": {
            "displayName": "ടീസ്‌പൂൺ",
            "unitPattern-count-one": "{0} ടീസ്‌പൂൺ",
            "unitPattern-count-other": "{0} ടീസ്‌പൂൺ"
          }
        },
        "short": {
          "per": {
            "compoundUnitPattern": "{0}/{1}"
          },
          "acceleration-g-force": {
            "displayName": "ജി-ഫോഴ്‌സ്",
            "unitPattern-count-one": "{0} ജി",
            "unitPattern-count-other": "{0} ജി"
          },
          "acceleration-meter-per-second-squared": {
            "displayName": "മീറ്റർ/സെക്കൻഡ്²",
            "unitPattern-count-one": "{0} മീ/സെ²",
            "unitPattern-count-other": "{0} മീ/സെ²"
          },
          "angle-arc-minute": {
            "displayName": "ആർക്ക്.മി.",
            "unitPattern-count-one": "{0} ആർക്ക്.മി.",
            "unitPattern-count-other": "{0} ആർക്ക്.മി."
          },
          "angle-arc-second": {
            "displayName": "ആർക്ക്.സെ.",
            "unitPattern-count-one": "{0} ആർക്ക്.സെ.",
            "unitPattern-count-other": "{0} ആർക്ക്.സെ."
          },
          "angle-degree": {
            "displayName": "ഡിഗ്രി",
            "unitPattern-count-one": "{0} ഡിഗ്രി",
            "unitPattern-count-other": "{0} ഡിഗ്രി"
          },
          "angle-radian": {
            "displayName": "റേഡിയൻ",
            "unitPattern-count-one": "{0} റേഡി.",
            "unitPattern-count-other": "{0} റേഡി."
          },
          "area-acre": {
            "displayName": "ഏക്കർ",
            "unitPattern-count-one": "{0} ഏക്ക.",
            "unitPattern-count-other": "{0} ഏക്ക."
          },
          "area-hectare": {
            "displayName": "ഹെക്‌ടർ",
            "unitPattern-count-one": "{0} ഹെക്.",
            "unitPattern-count-other": "{0} ഹെക്."
          },
          "area-square-centimeter": {
            "displayName": "സെ.മീ²",
            "unitPattern-count-one": "{0} സെ.മീ²",
            "unitPattern-count-other": "{0} സെ.മീ²"
          },
          "area-square-foot": {
            "displayName": "ചതു.അടി",
            "unitPattern-count-one": "{0} ചതു.അടി",
            "unitPattern-count-other": "{0} ചതു.അടി"
          },
          "area-square-inch": {
            "displayName": "ഇഞ്ച്²",
            "unitPattern-count-one": "{0} ഇഞ്ച്²",
            "unitPattern-count-other": "{0} ഇഞ്ച്²"
          },
          "area-square-kilometer": {
            "displayName": "കി.മീ²",
            "unitPattern-count-one": "{0} കി.മീ²",
            "unitPattern-count-other": "{0} കി.മീ²"
          },
          "area-square-meter": {
            "displayName": "മീറ്റർ²",
            "unitPattern-count-one": "{0} മീ²",
            "unitPattern-count-other": "{0} മീ²"
          },
          "area-square-mile": {
            "displayName": "ചതു.മൈൽ",
            "unitPattern-count-one": "{0} ചതു.മൈ",
            "unitPattern-count-other": "{0} ചതു.മൈ"
          },
          "area-square-yard": {
            "displayName": "വാര²",
            "unitPattern-count-one": "{0} വാ²",
            "unitPattern-count-other": "{0} വാ²"
          },
          "consumption-liter-per-kilometer": {
            "displayName": "ലിറ്റർ/കി.മീ.",
            "unitPattern-count-one": "{0} ലി/കി.മീ.",
            "unitPattern-count-other": "{0} ലി/കി.മീ."
          },
          "consumption-mile-per-gallon": {
            "displayName": "മൈൽ/ഗാ.",
            "unitPattern-count-one": "{0} മൈ/ഗാ.",
            "unitPattern-count-other": "{0} മൈ/ഗാ."
          },
          "digital-bit": {
            "displayName": "ബിറ്റ്",
            "unitPattern-count-one": "{0} ബിറ്റ്",
            "unitPattern-count-other": "{0} ബിറ്റ്"
          },
          "digital-byte": {
            "displayName": "ബൈറ്റ്",
            "unitPattern-count-one": "{0} ബൈറ്റ്",
            "unitPattern-count-other": "{0} ബൈറ്റ്"
          },
          "digital-gigabit": {
            "displayName": "ജി.ബിറ്റ്",
            "unitPattern-count-one": "{0} ജിബി",
            "unitPattern-count-other": "{0} ജിബി"
          },
          "digital-gigabyte": {
            "displayName": "ജി.ബൈറ്റ്",
            "unitPattern-count-one": "{0} ജി.ബൈ.",
            "unitPattern-count-other": "{0} ജി.ബൈ."
          },
          "digital-kilobit": {
            "displayName": "കി.ബിറ്റ്",
            "unitPattern-count-one": "{0} കി.ബിറ്റ്",
            "unitPattern-count-other": "{0} കി.ബിറ്റ്"
          },
          "digital-kilobyte": {
            "displayName": "കി.ബൈറ്റ്",
            "unitPattern-count-one": "{0} കി.ബി.",
            "unitPattern-count-other": "{0} കി.ബി."
          },
          "digital-megabit": {
            "displayName": "മെ.ബിറ്റ്",
            "unitPattern-count-one": "{0} മെ.ബി.",
            "unitPattern-count-other": "{0} മെ.ബി."
          },
          "digital-megabyte": {
            "displayName": "മെ.ബൈറ്റ്",
            "unitPattern-count-one": "{0} മെ.ബൈ.",
            "unitPattern-count-other": "{0} മെ.ബൈ."
          },
          "digital-terabit": {
            "displayName": "ടെ.ബിറ്റ്",
            "unitPattern-count-one": "{0} ടെ.ബി.",
            "unitPattern-count-other": "{0} ടെ.ബി."
          },
          "digital-terabyte": {
            "displayName": "ടെ.ബൈറ്റ്",
            "unitPattern-count-one": "{0} ടെ.ബൈ.",
            "unitPattern-count-other": "{0} ടെ.ബൈ."
          },
          "duration-day": {
            "displayName": "ദിവസം",
            "unitPattern-count-one": "{0} ദിവസം‌",
            "unitPattern-count-other": "{0} ദിവസം‌"
          },
          "duration-hour": {
            "displayName": "മണിക്കൂർ",
            "unitPattern-count-one": "{0} മ",
            "unitPattern-count-other": "{0} മ",
            "perUnitPattern": "{0}/മ."
          },
          "duration-microsecond": {
            "displayName": "μ.സെ.",
            "unitPattern-count-one": "{0} μ.സെ.",
            "unitPattern-count-other": "{0} μ.സെ."
          },
          "duration-millisecond": {
            "displayName": "മില്ലിസെക്കൻഡ്",
            "unitPattern-count-one": "{0} മി.സെ.",
            "unitPattern-count-other": "{0} മി.സെ."
          },
          "duration-minute": {
            "displayName": "മിനിറ്റ്",
            "unitPattern-count-one": "{0} മിനിറ്റ്",
            "unitPattern-count-other": "{0} മിനിറ്റ്"
          },
          "duration-month": {
            "displayName": "മാസം",
            "unitPattern-count-one": "{0} മാസം",
            "unitPattern-count-other": "{0} മാസം"
          },
          "duration-nanosecond": {
            "displayName": "നാനോസെക്കൻഡ്",
            "unitPattern-count-one": "{0} നാ.സെ.",
            "unitPattern-count-other": "{0} നാ.സെ."
          },
          "duration-second": {
            "displayName": "സെക്കൻഡ്",
            "unitPattern-count-one": "{0} സെ.",
            "unitPattern-count-other": "{0} സെ.",
            "perUnitPattern": "{0}/സെ."
          },
          "duration-week": {
            "displayName": "ആഴ്ച",
            "unitPattern-count-one": "{0} ആ",
            "unitPattern-count-other": "{0} ആ"
          },
          "duration-year": {
            "displayName": "വർഷം",
            "unitPattern-count-one": "{0} വ",
            "unitPattern-count-other": "{0} വ"
          },
          "electric-ampere": {
            "displayName": "ആമ്പിയർ",
            "unitPattern-count-one": "{0} ആ.",
            "unitPattern-count-other": "{0} ആ."
          },
          "electric-milliampere": {
            "displayName": "മില്ലിആമ്പിയർ",
            "unitPattern-count-one": "{0} മി.ആ.",
            "unitPattern-count-other": "{0} മി.ആ."
          },
          "electric-ohm": {
            "displayName": "ഓം",
            "unitPattern-count-one": "{0} Ω",
            "unitPattern-count-other": "{0} Ω"
          },
          "electric-volt": {
            "displayName": "വോൾട്ട്",
            "unitPattern-count-one": "{0} V",
            "unitPattern-count-other": "{0} V"
          },
          "energy-calorie": {
            "displayName": "കലോ.",
            "unitPattern-count-one": "{0} കലോ.",
            "unitPattern-count-other": "{0} കലോ."
          },
          "energy-foodcalorie": {
            "displayName": "കലോ.",
            "unitPattern-count-one": "{0} കലോ.",
            "unitPattern-count-other": "{0} കലോ."
          },
          "energy-joule": {
            "displayName": "ജൂൾ",
            "unitPattern-count-one": "{0} ജൂ.",
            "unitPattern-count-other": "{0} ജൂ."
          },
          "energy-kilocalorie": {
            "displayName": "കി.കലോ.",
            "unitPattern-count-one": "{0} കി.കലോ.",
            "unitPattern-count-other": "{0} കി.കലോ."
          },
          "energy-kilojoule": {
            "displayName": "കി.ജൂ.",
            "unitPattern-count-one": "{0} കി.ജൂ.",
            "unitPattern-count-other": "{0} കി.ജൂ."
          },
          "energy-kilowatt-hour": {
            "displayName": "കി.വാ/മ.",
            "unitPattern-count-one": "{0} കി.വാ/മ.",
            "unitPattern-count-other": "{0} കി.വാ/മ."
          },
          "frequency-gigahertz": {
            "displayName": "ജി.ഹെ.",
            "unitPattern-count-one": "{0} ജി.ഹെ.",
            "unitPattern-count-other": "{0} ജി.ഹെ."
          },
          "frequency-hertz": {
            "displayName": "ഹെ.",
            "unitPattern-count-one": "{0} ഹെ.",
            "unitPattern-count-other": "{0} ഹെ."
          },
          "frequency-kilohertz": {
            "displayName": "കി.ഹെ.",
            "unitPattern-count-one": "{0} കി.ഹെ.",
            "unitPattern-count-other": "{0} കി.ഹെ."
          },
          "frequency-megahertz": {
            "displayName": "മെ.ഹെ.",
            "unitPattern-count-one": "{0} മെ.ഹെ.",
            "unitPattern-count-other": "{0} മെ.ഹെ."
          },
          "length-astronomical-unit": {
            "displayName": "ജ്യോ.യൂ.",
            "unitPattern-count-one": "{0} ജ്യോ.യൂ.",
            "unitPattern-count-other": "{0} ജ്യോ.യൂ."
          },
          "length-centimeter": {
            "displayName": "സെ.മീ.",
            "unitPattern-count-one": "{0} സെ.മീ.",
            "unitPattern-count-other": "{0} സെ.മീ."
          },
          "length-decimeter": {
            "displayName": "ഡെ.മീ.",
            "unitPattern-count-one": "{0} ഡെ.മീ.",
            "unitPattern-count-other": "{0} ഡെ.മീ"
          },
          "length-fathom": {
            "displayName": "fm",
            "unitPattern-count-other": "{0} fm"
          },
          "length-foot": {
            "displayName": "അടി",
            "unitPattern-count-one": "{0} അടി",
            "unitPattern-count-other": "{0} അടി"
          },
          "length-furlong": {
            "displayName": "fur",
            "unitPattern-count-other": "{0} fur"
          },
          "length-inch": {
            "displayName": "ഇഞ്ച്",
            "unitPattern-count-one": "{0} ഇഞ്ച്",
            "unitPattern-count-other": "{0} ഇഞ്ച്"
          },
          "length-kilometer": {
            "displayName": "കിലോമീറ്റർ",
            "unitPattern-count-one": "{0} കി.മീ.",
            "unitPattern-count-other": "{0} കി.മീ."
          },
          "length-light-year": {
            "displayName": "പ്രകാശവർഷം",
            "unitPattern-count-one": "{0} പ.വ.",
            "unitPattern-count-other": "{0} പ്രക.വർ"
          },
          "length-meter": {
            "displayName": "മീറ്റർ",
            "unitPattern-count-one": "{0} മീ.",
            "unitPattern-count-other": "{0} മീ."
          },
          "length-micrometer": {
            "displayName": "µമീറ്റർ",
            "unitPattern-count-one": "µമീ.",
            "unitPattern-count-other": "{0} µമീ."
          },
          "length-mile": {
            "displayName": "മൈൽ",
            "unitPattern-count-one": "{0} മൈൽ",
            "unitPattern-count-other": "{0} മൈ"
          },
          "length-millimeter": {
            "displayName": "മില്ലീമീറ്റർ",
            "unitPattern-count-one": "{0} മി.മീ.",
            "unitPattern-count-other": "{0} മി.മീ."
          },
          "length-nanometer": {
            "displayName": "നാ.മീ.",
            "unitPattern-count-one": "{0} നാ.മീ.",
            "unitPattern-count-other": "{0} നാ.മീ."
          },
          "length-nautical-mile": {
            "displayName": "നോ.മൈ.",
            "unitPattern-count-one": "{0} നോ.മൈ.",
            "unitPattern-count-other": "{0} നോ.മൈ."
          },
          "length-parsec": {
            "displayName": "പാർസെക്",
            "unitPattern-count-one": "{0} പാ.സെ.",
            "unitPattern-count-other": "{0} പാ.സെ."
          },
          "length-picometer": {
            "displayName": "പൈ.മീ.",
            "unitPattern-count-one": "{0} പൈ.മീ.",
            "unitPattern-count-other": "{0} പൈ.മീ."
          },
          "length-yard": {
            "displayName": "വാര",
            "unitPattern-count-one": "{0} യാ",
            "unitPattern-count-other": "{0} യാ"
          },
          "light-lux": {
            "displayName": "ലക്സ്",
            "unitPattern-count-one": "{0} ലക്സ്",
            "unitPattern-count-other": "{0} ലക്സ്"
          },
          "mass-carat": {
            "displayName": "ക്യാരറ്റ്",
            "unitPattern-count-one": "{0} CD",
            "unitPattern-count-other": "{0} CD"
          },
          "mass-gram": {
            "displayName": "ഗ്രാം",
            "unitPattern-count-one": "{0} ഗ്രാം",
            "unitPattern-count-other": "{0} ഗ്രാം"
          },
          "mass-kilogram": {
            "displayName": "കി.ഗ്രാം",
            "unitPattern-count-one": "{0} കി.ഗ്രാം",
            "unitPattern-count-other": "{0} കി.ഗ്രാം"
          },
          "mass-metric-ton": {
            "displayName": "ട.",
            "unitPattern-count-one": "{0} ട.",
            "unitPattern-count-other": "{0} ട."
          },
          "mass-microgram": {
            "displayName": "µ.ഗ്രാം.",
            "unitPattern-count-one": "{0} µ.ഗ്രാം.",
            "unitPattern-count-other": "{0} µ.ഗ്രാം."
          },
          "mass-milligram": {
            "displayName": "മി.ഗ്രാം.",
            "unitPattern-count-one": "{0} മി.ഗ്രാം.",
            "unitPattern-count-other": "{0} മി.ഗ്രാം."
          },
          "mass-ounce": {
            "displayName": "ഔ.",
            "unitPattern-count-one": "{0} ഔ.",
            "unitPattern-count-other": "{0} ഔ."
          },
          "mass-ounce-troy": {
            "displayName": "ട്രോ.ഔ.",
            "unitPattern-count-one": "{0} ട്രോ.ഔ.",
            "unitPattern-count-other": "{0} ട്രോ.ഔ."
          },
          "mass-pound": {
            "displayName": "പൗണ്ട്",
            "unitPattern-count-one": "{0} പൗ",
            "unitPattern-count-other": "{0} പൗ"
          },
          "mass-stone": {
            "displayName": "st",
            "unitPattern-count-other": "{0} st"
          },
          "mass-ton": {
            "displayName": "ടൺ",
            "unitPattern-count-one": "{0} ടൺ",
            "unitPattern-count-other": "{0} ടൺ"
          },
          "power-gigawatt": {
            "displayName": "ജി.വാ.",
            "unitPattern-count-one": "{0} ജി.വാ.",
            "unitPattern-count-other": "{0} ജി.വാട്ട്"
          },
          "power-horsepower": {
            "displayName": "എച്ച്.പി.",
            "unitPattern-count-one": "{0} എച്ച്.പി.",
            "unitPattern-count-other": "{0} എച്ച്.പി."
          },
          "power-kilowatt": {
            "displayName": "കി.വാട്ട്",
            "unitPattern-count-one": "{0} കി.വാ.",
            "unitPattern-count-other": "{0} കി.വാ."
          },
          "power-megawatt": {
            "displayName": "മെ.വാ.",
            "unitPattern-count-one": "{0} മെ.വാ.",
            "unitPattern-count-other": "{0} മെ.വാ."
          },
          "power-milliwatt": {
            "displayName": "മി.വാ.",
            "unitPattern-count-one": "{0} മി.വാ.",
            "unitPattern-count-other": "{0} മി.വാ."
          },
          "power-watt": {
            "displayName": "വാട്ട്",
            "unitPattern-count-one": "{0} വാ.",
            "unitPattern-count-other": "{0} വാ."
          },
          "pressure-hectopascal": {
            "displayName": "ഹെ.പാ.",
            "unitPattern-count-one": "{0} ഹെ.പാ.",
            "unitPattern-count-other": "{0} ഹെ.പാ."
          },
          "pressure-inch-hg": {
            "displayName": "ഇഞ്ച് മെ.",
            "unitPattern-count-one": "Hg ൽ {0}",
            "unitPattern-count-other": "Hg ൽ {0}"
          },
          "pressure-millibar": {
            "displayName": "മി.ബാർ",
            "unitPattern-count-one": "{0} മി.ബാ",
            "unitPattern-count-other": "{0} മി.ബാ"
          },
          "pressure-millimeter-of-mercury": {
            "displayName": "മിമീ.മെ.",
            "unitPattern-count-one": "{0} മിമീ.മെ.",
            "unitPattern-count-other": "{0} മിമീ.മെ."
          },
          "pressure-pound-per-square-inch": {
            "displayName": "പിഎസ്ഐ",
            "unitPattern-count-one": "{0} പിഎസ്ഐ",
            "unitPattern-count-other": "{0} പിഎസ്ഐ"
          },
          "proportion-karat": {
            "displayName": "ക്യാരറ്റ്",
            "unitPattern-count-one": "{0} ക്യാ.",
            "unitPattern-count-other": "{0} ക്യാ."
          },
          "speed-kilometer-per-hour": {
            "displayName": "കി.മീ/മ.",
            "unitPattern-count-one": "{0} കി.മീ/മ.",
            "unitPattern-count-other": "{0} കി.മീ/മ."
          },
          "speed-meter-per-second": {
            "displayName": "മീറ്റർ/സെ.",
            "unitPattern-count-one": "{0} മീ/സെ.",
            "unitPattern-count-other": "{0} മീ/സെ."
          },
          "speed-mile-per-hour": {
            "displayName": "മൈൽ/മ.",
            "unitPattern-count-one": "{0} മൈ/മ.",
            "unitPattern-count-other": "{0} മൈ/മ."
          },
          "temperature-celsius": {
            "displayName": "ഡിഗ്രി.സെ.",
            "unitPattern-count-one": "{0}°സെ",
            "unitPattern-count-other": "{0}°സെ"
          },
          "temperature-fahrenheit": {
            "displayName": "ഡിഗ്രി.ഫാ.",
            "unitPattern-count-one": "{0}° ഫാ",
            "unitPattern-count-other": "{0}°ഫാ"
          },
          "temperature-kelvin": {
            "displayName": "K",
            "unitPattern-count-one": "{0} K​",
            "unitPattern-count-other": "{0} K"
          },
          "volume-acre-foot": {
            "displayName": "ഏ. അടി",
            "unitPattern-count-one": "{0} ഏ. അടി",
            "unitPattern-count-other": "{0} ഏ. അടി"
          },
          "volume-bushel": {
            "displayName": "bu",
            "unitPattern-count-other": "{0} bu"
          },
          "volume-centiliter": {
            "displayName": "സെ.ലി.",
            "unitPattern-count-one": "{0} സെ.ലി.",
            "unitPattern-count-other": "{0} സെ.ലി."
          },
          "volume-cubic-centimeter": {
            "displayName": "സെ.മീ³",
            "unitPattern-count-one": "{0} സെ.മീ³",
            "unitPattern-count-other": "{0} സെ.മീ³"
          },
          "volume-cubic-foot": {
            "displayName": "അടി³",
            "unitPattern-count-one": "{0} അടി³",
            "unitPattern-count-other": "{0} അടി³"
          },
          "volume-cubic-inch": {
            "displayName": "ഇഞ്ച്³",
            "unitPattern-count-one": "{0} ഇഞ്ച്³",
            "unitPattern-count-other": "{0} ഇഞ്ച്³"
          },
          "volume-cubic-kilometer": {
            "displayName": "കി.മീ³",
            "unitPattern-count-one": "{0} കി.മീ³",
            "unitPattern-count-other": "{0} കി.മീ³"
          },
          "volume-cubic-meter": {
            "displayName": "മീ³",
            "unitPattern-count-one": "{0} മീ³",
            "unitPattern-count-other": "{0} മീ³"
          },
          "volume-cubic-mile": {
            "displayName": "മൈ³",
            "unitPattern-count-one": "{0} മൈ³",
            "unitPattern-count-other": "{0} മൈ³"
          },
          "volume-cubic-yard": {
            "displayName": "വാര³",
            "unitPattern-count-one": "{0} വാ³",
            "unitPattern-count-other": "{0} വാ³"
          },
          "volume-cup": {
            "displayName": "കപ്പ്",
            "unitPattern-count-one": "{0} കപ്പ്",
            "unitPattern-count-other": "{0} കപ്പ്"
          },
          "volume-deciliter": {
            "displayName": "ഡെ.ലി.",
            "unitPattern-count-one": "{0} ഡെ.ലി.",
            "unitPattern-count-other": "{0} ഡെ.ലി."
          },
          "volume-fluid-ounce": {
            "displayName": "ഫ്ലൂ. ഔ.",
            "unitPattern-count-one": "{0} ഫ്ലൂ. ഔ.",
            "unitPattern-count-other": "{0} ഫ്ലൂ. ഔ."
          },
          "volume-gallon": {
            "displayName": "ഗാ.",
            "unitPattern-count-one": "{0} ഗാ.",
            "unitPattern-count-other": "{0} ഗാ."
          },
          "volume-hectoliter": {
            "displayName": "ഹെ.ലി.",
            "unitPattern-count-one": "{0} ഹെ.ലി.",
            "unitPattern-count-other": "{0} ഹെ.ലി."
          },
          "volume-liter": {
            "displayName": "ലിറ്റർ",
            "unitPattern-count-one": "{0} ലി.",
            "unitPattern-count-other": "{0} ലി."
          },
          "volume-megaliter": {
            "displayName": "മെ.ലി.",
            "unitPattern-count-one": "{0} മെ.ലി.",
            "unitPattern-count-other": "{0} മെ.ലി."
          },
          "volume-milliliter": {
            "displayName": "മി.ലി.",
            "unitPattern-count-one": "{0} മി.ലി.",
            "unitPattern-count-other": "{0} മി.ലി."
          },
          "volume-pint": {
            "displayName": "പൈ.",
            "unitPattern-count-one": "{0} പൈ.",
            "unitPattern-count-other": "{0} പൈ."
          },
          "volume-quart": {
            "displayName": "ക്വാ.",
            "unitPattern-count-one": "{0} ക്വാ.",
            "unitPattern-count-other": "{0} ക്വാ."
          },
          "volume-tablespoon": {
            "displayName": "ടേ.സ്‌പൂ.",
            "unitPattern-count-one": "{0} ടേ.സ്‌പൂ.",
            "unitPattern-count-other": "{0} ടേ.സ്‌പൂ."
          },
          "volume-teaspoon": {
            "displayName": "ടീ.സ്‌പൂ.",
            "unitPattern-count-one": "{0} ടീ.സ്‌പൂ.",
            "unitPattern-count-other": "{0} ടീ.സ്‌പൂ."
          }
        },
        "narrow": {
          "per": {
            "compoundUnitPattern": "{0}/{1}"
          },
          "acceleration-g-force": {
            "displayName": "ജി-ഫോഴ്‌സ്",
            "unitPattern-count-one": "{0} ജി",
            "unitPattern-count-other": "{0} ജി"
          },
          "acceleration-meter-per-second-squared": {
            "displayName": "മീറ്റർ/സെക്കൻഡ്²",
            "unitPattern-count-one": "{0} മീ/സെ²",
            "unitPattern-count-other": "{0} മീ/സെ²"
          },
          "angle-arc-minute": {
            "displayName": "ആർക്ക്.മി.",
            "unitPattern-count-one": "{0}′",
            "unitPattern-count-other": "{0}′"
          },
          "angle-arc-second": {
            "displayName": "ആർക്ക്.സെ.",
            "unitPattern-count-one": "{0}″",
            "unitPattern-count-other": "{0}″"
          },
          "angle-degree": {
            "displayName": "ഡിഗ്രി",
            "unitPattern-count-one": "{0}°",
            "unitPattern-count-other": "{0}°"
          },
          "angle-radian": {
            "displayName": "റേഡിയൻ",
            "unitPattern-count-one": "{0} റേഡി.",
            "unitPattern-count-other": "{0} റേഡി."
          },
          "area-acre": {
            "displayName": "ഏക്കർ",
            "unitPattern-count-one": "{0} ഏ",
            "unitPattern-count-other": "{0} ഏക്ക"
          },
          "area-hectare": {
            "displayName": "ഹെക്‌ടർ",
            "unitPattern-count-one": "{0} ഹെ",
            "unitPattern-count-other": "{0} ഹെ"
          },
          "area-square-centimeter": {
            "displayName": "സെ.മീ²",
            "unitPattern-count-one": "{0} സെ.മീ²",
            "unitPattern-count-other": "{0} സെ.മീ²"
          },
          "area-square-foot": {
            "displayName": "ചതു.അടി",
            "unitPattern-count-one": "{0} ച. അടി",
            "unitPattern-count-other": "{0} ച.അടി"
          },
          "area-square-inch": {
            "displayName": "ഇഞ്ച്²",
            "unitPattern-count-one": "{0} ഇഞ്ച്²",
            "unitPattern-count-other": "{0} ഇഞ്ച്²"
          },
          "area-square-kilometer": {
            "displayName": "കി.മീ²",
            "unitPattern-count-one": "{0} ച.കിമീ",
            "unitPattern-count-other": "{0} ച.കിമീ"
          },
          "area-square-meter": {
            "displayName": "മീറ്റർ²",
            "unitPattern-count-one": "{0} ച.മീ",
            "unitPattern-count-other": "{0} ച.മീ"
          },
          "area-square-mile": {
            "displayName": "ചതു.മൈൽ",
            "unitPattern-count-one": "{0} ച.മൈ",
            "unitPattern-count-other": "{0} ച.മൈ"
          },
          "area-square-yard": {
            "displayName": "വാര²",
            "unitPattern-count-one": "{0} വാ²",
            "unitPattern-count-other": "{0} വാ²"
          },
          "consumption-liter-per-kilometer": {
            "displayName": "ലിറ്റർ/കി.മീ.",
            "unitPattern-count-one": "{0} ലി/കി.മീ.",
            "unitPattern-count-other": "{0} ലി/കി.മീ."
          },
          "consumption-mile-per-gallon": {
            "displayName": "മൈൽ/ഗാ.",
            "unitPattern-count-one": "{0} മൈ/ഗാ.",
            "unitPattern-count-other": "{0} മൈ/ഗാ."
          },
          "digital-bit": {
            "displayName": "ബിറ്റ്",
            "unitPattern-count-one": "{0} ബിറ്റ്",
            "unitPattern-count-other": "{0} ബിറ്റ്"
          },
          "digital-byte": {
            "displayName": "ബൈറ്റ്",
            "unitPattern-count-one": "{0} ബൈറ്റ്",
            "unitPattern-count-other": "{0} ബൈറ്റ്"
          },
          "digital-gigabit": {
            "displayName": "ജി.ബിറ്റ്",
            "unitPattern-count-one": "{0} ജിബി",
            "unitPattern-count-other": "{0} ജിബി"
          },
          "digital-gigabyte": {
            "displayName": "ജി.ബൈറ്റ്",
            "unitPattern-count-one": "{0} ജി.ബൈ.",
            "unitPattern-count-other": "{0} ജി.ബൈ."
          },
          "digital-kilobit": {
            "displayName": "കി.ബിറ്റ്",
            "unitPattern-count-one": "{0} കി.ബിറ്റ്",
            "unitPattern-count-other": "{0} കി.ബിറ്റ്"
          },
          "digital-kilobyte": {
            "displayName": "കി.ബൈറ്റ്",
            "unitPattern-count-one": "{0} കി.ബി.",
            "unitPattern-count-other": "{0} കി.ബി."
          },
          "digital-megabit": {
            "displayName": "മെ.ബിറ്റ്",
            "unitPattern-count-one": "{0} മെ.ബി.",
            "unitPattern-count-other": "{0} മെ.ബി."
          },
          "digital-megabyte": {
            "displayName": "മെ.ബൈറ്റ്",
            "unitPattern-count-one": "{0} മെ.ബൈ.",
            "unitPattern-count-other": "{0} മെ.ബൈ."
          },
          "digital-terabit": {
            "displayName": "ടെ.ബിറ്റ്",
            "unitPattern-count-one": "{0} ടെ.ബി.",
            "unitPattern-count-other": "{0} ടെ.ബി."
          },
          "digital-terabyte": {
            "displayName": "ടെ.ബൈറ്റ്",
            "unitPattern-count-one": "{0} ടെ.ബൈ.",
            "unitPattern-count-other": "{0} ടെ.ബൈ."
          },
          "duration-day": {
            "displayName": "ദിവസം",
            "unitPattern-count-one": "{0} ദി",
            "unitPattern-count-other": "{0} ദി"
          },
          "duration-hour": {
            "displayName": "മണിക്കൂർ",
            "unitPattern-count-one": "{0} മ",
            "unitPattern-count-other": "{0} മ",
            "perUnitPattern": "{0}/മ."
          },
          "duration-microsecond": {
            "displayName": "μ.സെ.",
            "unitPattern-count-one": "{0} μ.സെ.",
            "unitPattern-count-other": "{0} μ.സെ."
          },
          "duration-millisecond": {
            "displayName": "മി.സെ.",
            "unitPattern-count-one": "{0} മി.സെ.",
            "unitPattern-count-other": "{0} മി.സെ."
          },
          "duration-minute": {
            "displayName": "മിനിറ്റ്",
            "unitPattern-count-one": "{0} മി.",
            "unitPattern-count-other": "{0} മി."
          },
          "duration-month": {
            "displayName": "മാസം",
            "unitPattern-count-one": "{0} മാ",
            "unitPattern-count-other": "{0} മാ"
          },
          "duration-nanosecond": {
            "displayName": "നാനോസെക്കൻഡ്",
            "unitPattern-count-one": "{0} നാ.സെ.",
            "unitPattern-count-other": "{0} നാ.സെ."
          },
          "duration-second": {
            "displayName": "സെ.",
            "unitPattern-count-one": "{0} സെ.",
            "unitPattern-count-other": "{0} സെ.",
            "perUnitPattern": "{0}/സെ."
          },
          "duration-week": {
            "displayName": "ആ",
            "unitPattern-count-one": "{0} ആ",
            "unitPattern-count-other": "{0} ആ"
          },
          "duration-year": {
            "displayName": "വർഷം",
            "unitPattern-count-one": "{0} വ",
            "unitPattern-count-other": "{0} വ"
          },
          "electric-ampere": {
            "displayName": "ആമ്പിയർ",
            "unitPattern-count-one": "{0} ആ.",
            "unitPattern-count-other": "{0} ആ."
          },
          "electric-milliampere": {
            "displayName": "മില്ലിആമ്പിയർ",
            "unitPattern-count-one": "{0} മി.ആ.",
            "unitPattern-count-other": "{0} മി.ആ."
          },
          "electric-ohm": {
            "displayName": "ഓം",
            "unitPattern-count-one": "{0} Ω",
            "unitPattern-count-other": "{0} Ω"
          },
          "electric-volt": {
            "displayName": "വോൾട്ട്",
            "unitPattern-count-one": "{0} V",
            "unitPattern-count-other": "{0} V"
          },
          "energy-calorie": {
            "displayName": "കലോ.",
            "unitPattern-count-one": "{0} കലോ.",
            "unitPattern-count-other": "{0} കലോ."
          },
          "energy-foodcalorie": {
            "displayName": "കലോ.",
            "unitPattern-count-one": "{0} കലോ.",
            "unitPattern-count-other": "{0} കലോ."
          },
          "energy-joule": {
            "displayName": "ജൂൾ",
            "unitPattern-count-one": "{0} ജൂ.",
            "unitPattern-count-other": "{0} ജൂ."
          },
          "energy-kilocalorie": {
            "displayName": "കി.കലോ.",
            "unitPattern-count-one": "{0} കി.കലോ.",
            "unitPattern-count-other": "{0} കി.കലോ."
          },
          "energy-kilojoule": {
            "displayName": "കി.ജൂ.",
            "unitPattern-count-one": "{0} കി.ജൂ.",
            "unitPattern-count-other": "{0} കി.ജൂ."
          },
          "energy-kilowatt-hour": {
            "displayName": "കി.വാ/മ.",
            "unitPattern-count-one": "{0} കി.വാ/മ.",
            "unitPattern-count-other": "{0} കി.വാ/മ."
          },
          "frequency-gigahertz": {
            "displayName": "ജി.ഹെ.",
            "unitPattern-count-one": "{0} ജി.ഹെ.",
            "unitPattern-count-other": "{0} ജി.ഹെ."
          },
          "frequency-hertz": {
            "displayName": "ഹെ.",
            "unitPattern-count-one": "{0} ഹെ.",
            "unitPattern-count-other": "{0} ഹെ."
          },
          "frequency-kilohertz": {
            "displayName": "കി.ഹെ.",
            "unitPattern-count-one": "{0} കി.ഹെ.",
            "unitPattern-count-other": "{0} കി.ഹെ."
          },
          "frequency-megahertz": {
            "displayName": "മെ.ഹെ.",
            "unitPattern-count-one": "{0} മെ.ഹെ.",
            "unitPattern-count-other": "{0} മെ.ഹെ."
          },
          "length-astronomical-unit": {
            "displayName": "ജ്യോ.യൂ.",
            "unitPattern-count-one": "{0} ജ്യോ.യൂ.",
            "unitPattern-count-other": "{0} ജ്യോ.യൂ."
          },
          "length-centimeter": {
            "displayName": "സെ.മീ.",
            "unitPattern-count-one": "{0} സെ.മീ.",
            "unitPattern-count-other": "{0} സെ.മീ."
          },
          "length-decimeter": {
            "displayName": "ഡെ.മീ.",
            "unitPattern-count-one": "{0} ഡെ.മീ",
            "unitPattern-count-other": "{0} ഡെ.മീ"
          },
          "length-fathom": {
            "displayName": "fm",
            "unitPattern-count-other": "{0} fm"
          },
          "length-foot": {
            "displayName": "അടി",
            "unitPattern-count-one": "{0}′",
            "unitPattern-count-other": "{0}′"
          },
          "length-furlong": {
            "displayName": "fur",
            "unitPattern-count-other": "{0} fur"
          },
          "length-inch": {
            "displayName": "ഇഞ്ച്",
            "unitPattern-count-one": "{0}″",
            "unitPattern-count-other": "{0}″"
          },
          "length-kilometer": {
            "displayName": "കി.മീ.",
            "unitPattern-count-one": "{0} കി.മീ.",
            "unitPattern-count-other": "{0} കി.മീ."
          },
          "length-light-year": {
            "displayName": "പ്രകാശവർഷം",
            "unitPattern-count-one": "{0} പ്ര.വ",
            "unitPattern-count-other": "{0} പ്ര.വ"
          },
          "length-meter": {
            "displayName": "മീറ്റർ",
            "unitPattern-count-one": "{0} മീ.",
            "unitPattern-count-other": "{0} മീ."
          },
          "length-micrometer": {
            "displayName": "µമീറ്റർ",
            "unitPattern-count-one": "{0} µമീ.",
            "unitPattern-count-other": "{0} µമീ."
          },
          "length-mile": {
            "displayName": "മൈൽ",
            "unitPattern-count-one": "{0} മൈ",
            "unitPattern-count-other": "{0} മൈ"
          },
          "length-millimeter": {
            "displayName": "മി.മീ.",
            "unitPattern-count-one": "{0} മി.മീ.",
            "unitPattern-count-other": "{0} മി.മീ."
          },
          "length-nanometer": {
            "displayName": "നാ.മീ.",
            "unitPattern-count-one": "{0} നാ.മീ.",
            "unitPattern-count-other": "{0} നാ.മീ."
          },
          "length-nautical-mile": {
            "displayName": "നോ.മൈ.",
            "unitPattern-count-one": "{0} നോ.മൈ.",
            "unitPattern-count-other": "{0} നോ.മൈ."
          },
          "length-parsec": {
            "displayName": "പാർസെക്",
            "unitPattern-count-one": "{0} പാ.സെ.",
            "unitPattern-count-other": "{0} പാ.സെ."
          },
          "length-picometer": {
            "displayName": "പൈ.മീ.",
            "unitPattern-count-one": "{0} പൈ.മീ",
            "unitPattern-count-other": "{0} പൈ.മീ"
          },
          "length-yard": {
            "displayName": "വാര",
            "unitPattern-count-one": "{0} യാ",
            "unitPattern-count-other": "{0} യാ"
          },
          "light-lux": {
            "displayName": "ലക്സ്",
            "unitPattern-count-one": "{0} ലക്സ്",
            "unitPattern-count-other": "{0} ലക്സ്"
          },
          "mass-carat": {
            "displayName": "ക്യാരറ്റ്",
            "unitPattern-count-one": "{0} CD",
            "unitPattern-count-other": "{0} CD"
          },
          "mass-gram": {
            "displayName": "ഗ്രാം",
            "unitPattern-count-one": "{0} ഗ്രാം",
            "unitPattern-count-other": "{0} ഗ്രാം"
          },
          "mass-kilogram": {
            "displayName": "കി.ഗ്രാം",
            "unitPattern-count-one": "{0} kg",
            "unitPattern-count-other": "{0} kg"
          },
          "mass-metric-ton": {
            "displayName": "ട.",
            "unitPattern-count-one": "{0} ട.",
            "unitPattern-count-other": "{0} ട."
          },
          "mass-microgram": {
            "displayName": "µ.ഗ്രാം.",
            "unitPattern-count-one": "{0} µ.ഗ്രാം.",
            "unitPattern-count-other": "{0} µ.ഗ്രാം."
          },
          "mass-milligram": {
            "displayName": "മി.ഗ്രാം.",
            "unitPattern-count-one": "{0} മി.ഗ്രാം.",
            "unitPattern-count-other": "{0} മി.ഗ്രാം."
          },
          "mass-ounce": {
            "displayName": "ഔ.",
            "unitPattern-count-one": "{0} ഔ",
            "unitPattern-count-other": "{0} ഔ"
          },
          "mass-ounce-troy": {
            "displayName": "ട്രോ.ഔ.",
            "unitPattern-count-one": "{0} ട്രോ.ഔ.",
            "unitPattern-count-other": "{0} ട്രോ.ഔ."
          },
          "mass-pound": {
            "displayName": "പൗണ്ട്",
            "unitPattern-count-one": "{0} പൗ",
            "unitPattern-count-other": "{0} പൗ"
          },
          "mass-stone": {
            "displayName": "st",
            "unitPattern-count-other": "{0} st"
          },
          "mass-ton": {
            "displayName": "ടൺ",
            "unitPattern-count-one": "{0} ടൺ",
            "unitPattern-count-other": "{0} ടൺ"
          },
          "power-gigawatt": {
            "displayName": "ജി.വാ.",
            "unitPattern-count-one": "{0} ജി.വാട്ട്",
            "unitPattern-count-other": "{0} ജി.വാട്ട്"
          },
          "power-horsepower": {
            "displayName": "എച്ച്.പി.",
            "unitPattern-count-one": "{0} hp",
            "unitPattern-count-other": "{0} hp"
          },
          "power-kilowatt": {
            "displayName": "കി.വാട്ട്",
            "unitPattern-count-one": "{0}kW",
            "unitPattern-count-other": "{0}kW"
          },
          "power-megawatt": {
            "displayName": "മെ.വാ.",
            "unitPattern-count-one": "{0} മെ.വാ.",
            "unitPattern-count-other": "{0} മെ.വാ."
          },
          "power-milliwatt": {
            "displayName": "മി.വാ.",
            "unitPattern-count-one": "{0} മി.വാ.",
            "unitPattern-count-other": "{0} മി.വാ."
          },
          "power-watt": {
            "displayName": "വാട്ട്",
            "unitPattern-count-one": "{0} വാ",
            "unitPattern-count-other": "{0} വാ"
          },
          "pressure-hectopascal": {
            "displayName": "ഹെ.പാ.",
            "unitPattern-count-one": "{0} hPa",
            "unitPattern-count-other": "{0} hPa"
          },
          "pressure-inch-hg": {
            "displayName": "ഇഞ്ച് മെ.",
            "unitPattern-count-one": "{0}\" Hg",
            "unitPattern-count-other": "{0}\" Hg"
          },
          "pressure-millibar": {
            "displayName": "മി.ബാർ",
            "unitPattern-count-one": "{0} മിബാ",
            "unitPattern-count-other": "{0} മിബാ"
          },
          "pressure-millimeter-of-mercury": {
            "displayName": "മിമീ.മെ.",
            "unitPattern-count-one": "{0} മിമീ.മെ.",
            "unitPattern-count-other": "{0} മിമീ.മെ."
          },
          "pressure-pound-per-square-inch": {
            "displayName": "പിഎസ്ഐ",
            "unitPattern-count-one": "{0} പിഎസ്ഐ",
            "unitPattern-count-other": "{0} പിഎസ്ഐ"
          },
          "proportion-karat": {
            "displayName": "ക്യാരറ്റ്",
            "unitPattern-count-one": "{0} ക്യാ.",
            "unitPattern-count-other": "{0} ക്യാ."
          },
          "speed-kilometer-per-hour": {
            "displayName": "കി.മീ/മ.",
            "unitPattern-count-one": "{0}കി.മീ/മ.",
            "unitPattern-count-other": "{0}കി.മീ/മ."
          },
          "speed-meter-per-second": {
            "displayName": "മീറ്റർ/സെ.",
            "unitPattern-count-one": "{0} മീ/സെ",
            "unitPattern-count-other": "{0} മീ/സെ"
          },
          "speed-mile-per-hour": {
            "displayName": "മൈൽ/മ.",
            "unitPattern-count-one": "{0} മൈ/മ",
            "unitPattern-count-other": "{0} മൈ/മ"
          },
          "temperature-celsius": {
            "displayName": "°സെ",
            "unitPattern-count-one": "{0}°സെ",
            "unitPattern-count-other": "{0}°സെ"
          },
          "temperature-fahrenheit": {
            "displayName": "ഡിഗ്രി.ഫാ.",
            "unitPattern-count-one": "{0}°ഫാ",
            "unitPattern-count-other": "{0}°ഫാ"
          },
          "temperature-kelvin": {
            "displayName": "K",
            "unitPattern-count-one": "{0} K",
            "unitPattern-count-other": "{0} K"
          },
          "volume-acre-foot": {
            "displayName": "ഏ. അടി",
            "unitPattern-count-one": "{0} ഏ. അടി",
            "unitPattern-count-other": "{0} ഏ. അടി"
          },
          "volume-bushel": {
            "displayName": "bu",
            "unitPattern-count-other": "{0} bu"
          },
          "volume-centiliter": {
            "displayName": "സെ.ലി.",
            "unitPattern-count-one": "{0} സെ.ലി.",
            "unitPattern-count-other": "{0} സെ.ലി."
          },
          "volume-cubic-centimeter": {
            "displayName": "സെ.മീ³",
            "unitPattern-count-one": "{0} സെ.മീ³",
            "unitPattern-count-other": "{0} സെ.മീ³"
          },
          "volume-cubic-foot": {
            "displayName": "അടി³",
            "unitPattern-count-one": "{0} അടി³",
            "unitPattern-count-other": "{0} അടി³"
          },
          "volume-cubic-inch": {
            "displayName": "ഇഞ്ച്³",
            "unitPattern-count-one": "{0} ഇഞ്ച്³",
            "unitPattern-count-other": "{0} ഇഞ്ച്³"
          },
          "volume-cubic-kilometer": {
            "displayName": "കി.മീ³",
            "unitPattern-count-one": "{0} കിമീ³",
            "unitPattern-count-other": "{0} കിമീ³"
          },
          "volume-cubic-meter": {
            "displayName": "മീ³",
            "unitPattern-count-one": "{0} മീ³",
            "unitPattern-count-other": "{0} മീ³"
          },
          "volume-cubic-mile": {
            "displayName": "മൈ³",
            "unitPattern-count-one": "{0} മൈ³",
            "unitPattern-count-other": "{0} മൈ³"
          },
          "volume-cubic-yard": {
            "displayName": "വാര³",
            "unitPattern-count-one": "{0} വാ³",
            "unitPattern-count-other": "{0} വാ³"
          },
          "volume-cup": {
            "displayName": "കപ്പ്",
            "unitPattern-count-one": "{0} കപ്പ്",
            "unitPattern-count-other": "{0} കപ്പ്"
          },
          "volume-deciliter": {
            "displayName": "ഡെ.ലി.",
            "unitPattern-count-one": "{0} ഡെ.ലി.",
            "unitPattern-count-other": "{0} ഡെ.ലി."
          },
          "volume-fluid-ounce": {
            "displayName": "ഫ്ലൂ. ഔ.",
            "unitPattern-count-one": "{0} ഫ്ലൂ. ഔ.",
            "unitPattern-count-other": "{0} ഫ്ലൂ. ഔ."
          },
          "volume-gallon": {
            "displayName": "ഗാ.",
            "unitPattern-count-one": "{0} ഗാ.",
            "unitPattern-count-other": "{0} ഗാ."
          },
          "volume-hectoliter": {
            "displayName": "ഹെ.ലി.",
            "unitPattern-count-one": "{0} ഹെ.ലി.",
            "unitPattern-count-other": "{0} ഹെ.ലി."
          },
          "volume-liter": {
            "displayName": "ലിറ്റർ",
            "unitPattern-count-one": "{0} ലി.",
            "unitPattern-count-other": "{0} ലി."
          },
          "volume-megaliter": {
            "displayName": "മെ.ലി.",
            "unitPattern-count-one": "{0} മെ.ലി.",
            "unitPattern-count-other": "{0} മെ.ലി."
          },
          "volume-milliliter": {
            "displayName": "മി.ലി.",
            "unitPattern-count-one": "{0} മി.ലി.",
            "unitPattern-count-other": "{0} മി.ലി."
          },
          "volume-pint": {
            "displayName": "പൈ.",
            "unitPattern-count-one": "{0} പൈ.",
            "unitPattern-count-other": "{0} പൈ."
          },
          "volume-quart": {
            "displayName": "ക്വാ.",
            "unitPattern-count-one": "{0} ക്വാ.",
            "unitPattern-count-other": "{0} ക്വാ."
          },
          "volume-tablespoon": {
            "displayName": "ടേ.സ്‌പൂ.",
            "unitPattern-count-one": "{0} ടേ.സ്‌പൂ.",
            "unitPattern-count-other": "{0} ടേ.സ്‌പൂ."
          },
          "volume-teaspoon": {
            "displayName": "ടീ.സ്‌പൂ.",
            "unitPattern-count-one": "{0} ടീ.സ്‌പൂ.",
            "unitPattern-count-other": "{0} ടീ.സ്‌പൂ."
          }
        },
        "durationUnit-type-hm": {
          "durationUnitPattern": "h:mm"
        },
        "durationUnit-type-hms": {
          "durationUnitPattern": "h:mm:ss"
        },
        "durationUnit-type-ms": {
          "durationUnitPattern": "m:ss"
        }
      }
    }
  }
}
