{
  "main": {
    "yi-001": {
      "identity": {
        "version": {
          "_cldrVersion": "26",
          "_number": "$Revision: 10671 $"
        },
        "generation": {
          "_date": "$Date: 2014-07-23 17:52:33 -0500 (Wed, 23 Jul 2014) $"
        },
        "language": "root",
        "territory": "001"
      },
      "dates": {
        "calendars": {
          "roc": {
            "months": {
              "format": {
                "abbreviated": {
                  "1": "יאַנואַר",
                  "2": "פֿעברואַר",
                  "3": "מערץ",
                  "4": "אַפּריל",
                  "5": "מיי",
                  "6": "יוני",
                  "7": "יולי",
                  "8": "אויגוסט",
                  "9": "סעפּטעמבער",
                  "10": "אקטאבער",
                  "11": "נאוועמבער",
                  "12": "דעצעמבער"
                },
                "narrow": {
                  "1": "1",
                  "2": "2",
                  "3": "3",
                  "4": "4",
                  "5": "5",
                  "6": "6",
                  "7": "7",
                  "8": "8",
                  "9": "9",
                  "10": "10",
                  "11": "11",
                  "12": "12"
                },
                "wide": {
                  "1": "יאַנואַר",
                  "2": "פֿעברואַר",
                  "3": "מערץ",
                  "4": "אַפּריל",
                  "5": "מיי",
                  "6": "יוני",
                  "7": "יולי",
                  "8": "אויגוסט",
                  "9": "סעפּטעמבער",
                  "10": "אקטאבער",
                  "11": "נאוועמבער",
                  "12": "דעצעמבער"
                }
              },
              "stand-alone": {
                "abbreviated": {
                  "1": "יאַנ",
                  "2": "פֿעב",
                  "3": "מערץ",
                  "4": "אַפּר",
                  "5": "מיי",
                  "6": "יוני",
                  "7": "יולי",
                  "8": "אויגוסט",
                  "9": "סעפּ",
                  "10": "אקט",
                  "11": "נאוו",
                  "12": "דעצ"
                },
                "narrow": {
                  "1": "1",
                  "2": "2",
                  "3": "3",
                  "4": "4",
                  "5": "5",
                  "6": "6",
                  "7": "7",
                  "8": "8",
                  "9": "9",
                  "10": "10",
                  "11": "11",
                  "12": "12"
                },
                "wide": {
                  "1": "יאַנואַר",
                  "2": "פֿעברואַר",
                  "3": "מערץ",
                  "4": "אַפּריל",
                  "5": "מיי",
                  "6": "יוני",
                  "7": "יולי",
                  "8": "אויגוסט",
                  "9": "סעפּטעמבער",
                  "10": "אקטאבער",
                  "11": "נאוועמבער",
                  "12": "דעצעמבער"
                }
              }
            },
            "days": {
              "format": {
                "abbreviated": {
                  "sun": "זונטיק",
                  "mon": "מאָנטיק",
                  "tue": "דינסטיק",
                  "wed": "מיטוואך",
                  "thu": "דאנערשטיק",
                  "fri": "פֿרײַטיק",
                  "sat": "שבת"
                },
                "narrow": {
                  "sun": "S",
                  "mon": "M",
                  "tue": "T",
                  "wed": "W",
                  "thu": "T",
                  "fri": "F",
                  "sat": "S"
                },
                "short": {
                  "sun": "זונטיק",
                  "mon": "מאָנטיק",
                  "tue": "דינסטיק",
                  "wed": "מיטוואך",
                  "thu": "דאנערשטיק",
                  "fri": "פֿרײַטיק",
                  "sat": "שבת"
                },
                "wide": {
                  "sun": "זונטיק",
                  "mon": "מאָנטיק",
                  "tue": "דינסטיק",
                  "wed": "מיטוואך",
                  "thu": "דאנערשטיק",
                  "fri": "פֿרײַטיק",
                  "sat": "שבת"
                }
              },
              "stand-alone": {
                "abbreviated": {
                  "sun": "זונטיק",
                  "mon": "מאָנטיק",
                  "tue": "דינסטיק",
                  "wed": "מיטוואך",
                  "thu": "דאנערשטיק",
                  "fri": "פֿרײַטיק",
                  "sat": "שבת"
                },
                "narrow": {
                  "sun": "S",
                  "mon": "M",
                  "tue": "T",
                  "wed": "W",
                  "thu": "T",
                  "fri": "F",
                  "sat": "S"
                },
                "short": {
                  "sun": "זונטיק",
                  "mon": "מאָנטיק",
                  "tue": "דינסטיק",
                  "wed": "מיטוואך",
                  "thu": "דאנערשטיק",
                  "fri": "פֿרײַטיק",
                  "sat": "שבת"
                },
                "wide": {
                  "sun": "זונטיק",
                  "mon": "מאָנטיק",
                  "tue": "דינסטיק",
                  "wed": "מיטוואך",
                  "thu": "דאנערשטיק",
                  "fri": "פֿרײַטיק",
                  "sat": "שבת"
                }
              }
            },
            "quarters": {
              "format": {
                "abbreviated": {
                  "1": "Q1",
                  "2": "Q2",
                  "3": "Q3",
                  "4": "Q4"
                },
                "narrow": {
                  "1": "1",
                  "2": "2",
                  "3": "3",
                  "4": "4"
                },
                "wide": {
                  "1": "Q1",
                  "2": "Q2",
                  "3": "Q3",
                  "4": "Q4"
                }
              },
              "stand-alone": {
                "abbreviated": {
                  "1": "Q1",
                  "2": "Q2",
                  "3": "Q3",
                  "4": "Q4"
                },
                "narrow": {
                  "1": "1",
                  "2": "2",
                  "3": "3",
                  "4": "4"
                },
                "wide": {
                  "1": "Q1",
                  "2": "Q2",
                  "3": "Q3",
                  "4": "Q4"
                }
              }
            },
            "dayPeriods": {
              "format": {
                "abbreviated": {
                  "am": "פארמיטאג",
                  "noon": "האַלבערטאָג",
                  "pm": "נאכמיטאג"
                },
                "narrow": {
                  "am": "a",
                  "noon": "n",
                  "pm": "p"
                },
                "wide": {
                  "am": "פארמיטאג",
                  "noon": "האַלבערטאָג",
                  "pm": "נאכמיטאג"
                }
              },
              "stand-alone": {
                "abbreviated": {
                  "am": "פארמיטאג",
                  "noon": "האַלבערטאָג",
                  "pm": "נאכמיטאג"
                },
                "narrow": {
                  "am": "a",
                  "noon": "n",
                  "pm": "p"
                },
                "wide": {
                  "am": "פארמיטאג",
                  "noon": "האַלבערטאָג",
                  "pm": "נאכמיטאג"
                }
              }
            },
            "eras": {
              "eraNames": {
                "0": "Before R.O.C.",
                "1": "R.O.C."
              },
              "eraAbbr": {
                "0": "Before R.O.C.",
                "1": "R.O.C."
              },
              "eraNarrow": {
                "0": "Before R.O.C.",
                "1": "R.O.C."
              }
            },
            "dateFormats": {
              "full": "EEEE, d בMMMM y G",
              "long": "d בMMMM y G",
              "medium": "d בMMM y G",
              "short": "dd/MM/yy GGGGG"
            },
            "timeFormats": {
              "full": "HH:mm:ss zzzz",
              "long": "HH:mm:ss z",
              "medium": "HH:mm:ss",
              "short": "HH:mm"
            },
            "dateTimeFormats": {
              "full": "{1} {0}",
              "long": "{1} {0}",
              "medium": "{1}, {0}",
              "short": "{1}, {0}",
              "availableFormats": {
                "E": "ccc",
                "EHm": "E HH:mm",
                "EHms": "E HH:mm:ss",
                "Ed": "E ה-d",
                "Ehm": "E h:mm a",
                "Ehms": "E h:mm:ss a",
                "Gy": "y G",
                "GyMMM": "MMM y G",
                "GyMMMEd": "E, d בMMM y G",
                "GyMMMd": "d בMMM y G",
                "H": "HH",
                "Hm": "HH:mm",
                "Hms": "HH:mm:ss",
                "M": "L",
                "MEd": "E, d/M",
                "MMM": "LLL",
                "MMMEd": "E, d בMMM",
                "MMMd": "d בMMM",
                "Md": "d/M",
                "d": "d",
                "h": "‏h a",
                "hm": "h:mm a",
                "hms": "h:mm:ss a",
                "ms": "mm:ss",
                "y": "y G",
                "yyyy": "y G",
                "yyyyM": "M.y G",
                "yyyyMEd": "E, d/M/y G",
                "yyyyMM": "MM/y G",
                "yyyyMMM": "MMM y G",
                "yyyyMMMEd": "E, d בMMM y G",
                "yyyyMMMd": "d בMMM y G",
                "yyyyMd": "d.M.y G",
                "yyyyQQQ": "G y QQQ",
                "yyyyQQQQ": "G y QQQQ"
              },
              "appendItems": {
                "Day": "{0} ({2}: {1})",
                "Day-Of-Week": "{0} {1}",
                "Era": "{1} {0}",
                "Hour": "{0} ({2}: {1})",
                "Minute": "{0} ({2}: {1})",
                "Month": "{0} ({2}: {1})",
                "Quarter": "{0} ({2}: {1})",
                "Second": "{0} ({2}: {1})",
                "Timezone": "{0} {1}",
                "Week": "{0} ({2}: {1})",
                "Year": "{1} {0}"
              },
              "intervalFormats": {
                "intervalFormatFallback": "{0} – {1}",
                "H": {
                  "H": "HH–HH"
                },
                "Hm": {
                  "H": "HH:mm–HH:mm",
                  "m": "HH:mm–HH:mm"
                },
                "Hmv": {
                  "H": "HH:mm–HH:mm v",
                  "m": "HH:mm–HH:mm v"
                },
                "Hv": {
                  "H": "HH–HH v"
                },
                "M": {
                  "M": "M–M"
                },
                "MEd": {
                  "M": "EEEE dd/MM – EEEE dd/MM",
                  "d": "EEEE dd/MM – EEEE dd/MM"
                },
                "MMM": {
                  "M": "MMM–MMM"
                },
                "MMMEd": {
                  "M": "EEEE d MMM – EEEE d MMM",
                  "d": "EEEE d MMM – EEEE d MMM"
                },
                "MMMM": {
                  "M": "LLLL–LLLL"
                },
                "MMMd": {
                  "M": "d MMM – d MMM",
                  "d": "d–d MMM"
                },
                "Md": {
                  "M": "dd/MM – dd/MM",
                  "d": "dd/MM – dd/MM"
                },
                "d": {
                  "d": "d–d"
                },
                "h": {
                  "a": "h a – h a",
                  "h": "h–h a"
                },
                "hm": {
                  "a": "h:mm a – h:mm a",
                  "h": "h:mm–h:mm a",
                  "m": "h:mm–h:mm a"
                },
                "hmv": {
                  "a": "h:mm a – h:mm a v",
                  "h": "h:mm–h:mm a v",
                  "m": "h:mm–h:mm a v"
                },
                "hv": {
                  "a": "h a – h a v",
                  "h": "h–h a v"
                },
                "y": {
                  "y": "y–y"
                },
                "yM": {
                  "M": "MM/y – MM/y",
                  "y": "MM/y – MM/y"
                },
                "yMEd": {
                  "M": "EEEE dd/MM/y – EEEE dd/MM/y",
                  "d": "EEEE dd/MM/y – EEEE dd/MM/y",
                  "y": "EEEE dd/MM/y – EEEE dd/MM/y"
                },
                "yMMM": {
                  "M": "MMM–MMM y",
                  "y": "MMM y – MMM y"
                },
                "yMMMEd": {
                  "M": "EEEE d MMM – EEEE d MMM y",
                  "d": "EEEE d MMM – EEEE d MMM y",
                  "y": "EEEE d MMM y – EEEE d MMM y"
                },
                "yMMMM": {
                  "M": "MMMM–MMMM y",
                  "y": "MMMM y–MMMM y"
                },
                "yMMMd": {
                  "M": "d MMM – d MMM y",
                  "d": "d–d MMM y",
                  "y": "d MMM y – d MMM y"
                },
                "yMd": {
                  "M": "dd/MM/y – dd/MM/y",
                  "d": "dd/MM/y – dd/MM/y",
                  "y": "dd/MM/y – dd/MM/y"
                }
              }
            }
          }
        }
      }
    }
  }
}
