{
  "main": {
    "it-SM": {
      "identity": {
        "version": {
          "_cldrVersion": "26",
          "_number": "$Revision: 10669 $"
        },
        "generation": {
          "_date": "$Date: 2014-07-23 16:10:33 -0500 (Wed, 23 Jul 2014) $"
        },
        "language": "it",
        "territory": "SM"
      },
      "dates": {
        "calendars": {
          "roc": {
            "months": {
              "format": {
                "abbreviated": {
                  "1": "gen",
                  "2": "feb",
                  "3": "mar",
                  "4": "apr",
                  "5": "mag",
                  "6": "giu",
                  "7": "lug",
                  "8": "ago",
                  "9": "set",
                  "10": "ott",
                  "11": "nov",
                  "12": "dic"
                },
                "narrow": {
                  "1": "G",
                  "2": "F",
                  "3": "M",
                  "4": "A",
                  "5": "M",
                  "6": "G",
                  "7": "L",
                  "8": "A",
                  "9": "S",
                  "10": "O",
                  "11": "N",
                  "12": "D"
                },
                "wide": {
                  "1": "gennaio",
                  "2": "febbraio",
                  "3": "marzo",
                  "4": "aprile",
                  "5": "maggio",
                  "6": "giugno",
                  "7": "luglio",
                  "8": "agosto",
                  "9": "settembre",
                  "10": "ottobre",
                  "11": "novembre",
                  "12": "dicembre"
                }
              },
              "stand-alone": {
                "abbreviated": {
                  "1": "gen",
                  "2": "feb",
                  "3": "mar",
                  "4": "apr",
                  "5": "mag",
                  "6": "giu",
                  "7": "lug",
                  "8": "ago",
                  "9": "set",
                  "10": "ott",
                  "11": "nov",
                  "12": "dic"
                },
                "narrow": {
                  "1": "G",
                  "2": "F",
                  "3": "M",
                  "4": "A",
                  "5": "M",
                  "6": "G",
                  "7": "L",
                  "8": "A",
                  "9": "S",
                  "10": "O",
                  "11": "N",
                  "12": "D"
                },
                "wide": {
                  "1": "Gennaio",
                  "2": "Febbraio",
                  "3": "Marzo",
                  "4": "Aprile",
                  "5": "Maggio",
                  "6": "Giugno",
                  "7": "Luglio",
                  "8": "Agosto",
                  "9": "Settembre",
                  "10": "Ottobre",
                  "11": "Novembre",
                  "12": "Dicembre"
                }
              }
            },
            "days": {
              "format": {
                "abbreviated": {
                  "sun": "dom",
                  "mon": "lun",
                  "tue": "mar",
                  "wed": "mer",
                  "thu": "gio",
                  "fri": "ven",
                  "sat": "sab"
                },
                "narrow": {
                  "sun": "D",
                  "mon": "L",
                  "tue": "M",
                  "wed": "M",
                  "thu": "G",
                  "fri": "V",
                  "sat": "S"
                },
                "short": {
                  "sun": "dom",
                  "mon": "lun",
                  "tue": "mar",
                  "wed": "mer",
                  "thu": "gio",
                  "fri": "ven",
                  "sat": "sab"
                },
                "wide": {
                  "sun": "domenica",
                  "mon": "lunedì",
                  "tue": "martedì",
                  "wed": "mercoledì",
                  "thu": "giovedì",
                  "fri": "venerdì",
                  "sat": "sabato"
                }
              },
              "stand-alone": {
                "abbreviated": {
                  "sun": "dom",
                  "mon": "lun",
                  "tue": "mar",
                  "wed": "mer",
                  "thu": "gio",
                  "fri": "ven",
                  "sat": "sab"
                },
                "narrow": {
                  "sun": "D",
                  "mon": "L",
                  "tue": "M",
                  "wed": "M",
                  "thu": "G",
                  "fri": "V",
                  "sat": "S"
                },
                "short": {
                  "sun": "dom",
                  "mon": "lun",
                  "tue": "mar",
                  "wed": "mer",
                  "thu": "gio",
                  "fri": "ven",
                  "sat": "sab"
                },
                "wide": {
                  "sun": "Domenica",
                  "mon": "Lunedì",
                  "tue": "Martedì",
                  "wed": "Mercoledì",
                  "thu": "Giovedì",
                  "fri": "Venerdì",
                  "sat": "Sabato"
                }
              }
            },
            "quarters": {
              "format": {
                "abbreviated": {
                  "1": "T1",
                  "2": "T2",
                  "3": "T3",
                  "4": "T4"
                },
                "narrow": {
                  "1": "1",
                  "2": "2",
                  "3": "3",
                  "4": "4"
                },
                "wide": {
                  "1": "1º trimestre",
                  "2": "2º trimestre",
                  "3": "3º trimestre",
                  "4": "4º trimestre"
                }
              },
              "stand-alone": {
                "abbreviated": {
                  "1": "T1",
                  "2": "T2",
                  "3": "T3",
                  "4": "T4"
                },
                "narrow": {
                  "1": "1",
                  "2": "2",
                  "3": "3",
                  "4": "4"
                },
                "wide": {
                  "1": "1º trimestre",
                  "2": "2º trimestre",
                  "3": "3º trimestre",
                  "4": "4º trimestre"
                }
              }
            },
            "dayPeriods": {
              "format": {
                "abbreviated": {
                  "am": "AM",
                  "noon": "mezzogiorno",
                  "pm": "PM"
                },
                "narrow": {
                  "am": "m.",
                  "noon": "n",
                  "pm": "p."
                },
                "wide": {
                  "am": "AM",
                  "noon": "mezzogiorno",
                  "pm": "PM"
                }
              },
              "stand-alone": {
                "abbreviated": {
                  "am": "AM",
                  "noon": "mezzogiorno",
                  "pm": "PM"
                },
                "narrow": {
                  "am": "m.",
                  "noon": "n",
                  "pm": "p."
                },
                "wide": {
                  "am": "AM",
                  "noon": "mezzogiorno",
                  "pm": "PM"
                }
              }
            },
            "eras": {
              "eraNames": {
                "0": "Prima della R.O.C.",
                "1": "Minguo"
              },
              "eraAbbr": {
                "0": "Prima della R.O.C.",
                "1": "Minguo"
              },
              "eraNarrow": {
                "0": "Prima della R.O.C.",
                "1": "Minguo"
              }
            },
            "dateFormats": {
              "full": "EEEE d MMMM y G",
              "long": "dd MMMM y G",
              "medium": "dd MMM y G",
              "short": "dd/MM/yy GGGGG"
            },
            "timeFormats": {
              "full": "HH:mm:ss zzzz",
              "long": "HH:mm:ss z",
              "medium": "HH:mm:ss",
              "short": "HH:mm"
            },
            "dateTimeFormats": {
              "full": "{1} 'alle' {0}",
              "long": "{1} 'alle' {0}",
              "medium": "{1}, {0}",
              "short": "{1}, {0}",
              "availableFormats": {
                "E": "ccc",
                "EHm": "E HH:mm",
                "EHms": "E HH:mm:ss",
                "Ed": "E d",
                "Ehm": "E h:mm a",
                "Ehms": "E h:mm:ss a",
                "Gy": "y G",
                "GyMMM": "MMM y G",
                "GyMMMEd": "E d MMM y G",
                "GyMMMd": "d MMM y G",
                "H": "HH",
                "Hm": "HH:mm",
                "Hms": "HH:mm:ss",
                "M": "L",
                "MEd": "E d/M",
                "MMM": "LLL",
                "MMMEd": "E d MMM",
                "MMMd": "d MMM",
                "Md": "d/M",
                "d": "d",
                "h": "hh a",
                "hm": "hh:mm a",
                "hms": "hh:mm:ss a",
                "ms": "mm:ss",
                "y": "y G",
                "yyyy": "y G",
                "yyyyM": "M/y GGGGG",
                "yyyyMEd": "E d/M/y GGGGG",
                "yyyyMMM": "MMM y G",
                "yyyyMMMEd": "E d MMM y G",
                "yyyyMMMM": "MMMM y G",
                "yyyyMMMd": "d MMM y G",
                "yyyyMd": "d/M/y GGGGG",
                "yyyyQQQ": "QQQ y G",
                "yyyyQQQQ": "QQQQ y G"
              },
              "appendItems": {
                "Day": "{0} ({2}: {1})",
                "Day-Of-Week": "{0} {1}",
                "Era": "{1} {0}",
                "Hour": "{0} ({2}: {1})",
                "Minute": "{0} ({2}: {1})",
                "Month": "{0} ({2}: {1})",
                "Quarter": "{0} ({2}: {1})",
                "Second": "{0} ({2}: {1})",
                "Timezone": "{0} {1}",
                "Week": "{0} ({2}: {1})",
                "Year": "{1} {0}"
              },
              "intervalFormats": {
                "intervalFormatFallback": "{0} - {1}",
                "H": {
                  "H": "HH-HH"
                },
                "Hm": {
                  "H": "HH:mm-HH:mm",
                  "m": "HH:mm-HH:mm"
                },
                "Hmv": {
                  "H": "HH:mm-HH:mm v",
                  "m": "HH:mm-HH:mm v"
                },
                "Hv": {
                  "H": "HH-HH v"
                },
                "M": {
                  "M": "M-M"
                },
                "MEd": {
                  "M": "E dd/MM - E dd/MM",
                  "d": "E dd/MM - E dd/MM"
                },
                "MMM": {
                  "M": "MMM-MMM"
                },
                "MMMEd": {
                  "M": "E dd MMM - E dd MMM",
                  "d": "E dd - E dd MMM"
                },
                "MMMd": {
                  "M": "dd MMM - dd MMM",
                  "d": "dd-dd MMM"
                },
                "Md": {
                  "M": "dd/MM - dd/MM",
                  "d": "dd/MM - dd/MM"
                },
                "d": {
                  "d": "d-d"
                },
                "h": {
                  "a": "h a - h a",
                  "h": "h-h a"
                },
                "hm": {
                  "a": "h:mm a - h:mm a",
                  "h": "h:mm-h:mm a",
                  "m": "h:mm-h:mm a"
                },
                "hmv": {
                  "a": "h:mm a - h:mm a v",
                  "h": "h:mm-h:mm a v",
                  "m": "h:mm-h:mm a v"
                },
                "hv": {
                  "a": "h a - h a v",
                  "h": "h-h a v"
                },
                "y": {
                  "y": "y-y G"
                },
                "yM": {
                  "M": "MM/y - MM/y G",
                  "y": "MM/y - MM/y G"
                },
                "yMEd": {
                  "M": "E dd/MM/y - E dd/MM/y G",
                  "d": "E dd/MM/y - E dd/MM/y G",
                  "y": "E dd/MM/y - E dd/MM/y G"
                },
                "yMMM": {
                  "M": "MMM-MMM y G",
                  "y": "MMM y - MMM y G"
                },
                "yMMMEd": {
                  "M": "E d MMM - E d MMM y G",
                  "d": "E d - E d MMM y G",
                  "y": "E d MMM y - E d MMM y G"
                },
                "yMMMM": {
                  "M": "MMMM-MMMM y G",
                  "y": "MMMM y - MMMM y G"
                },
                "yMMMd": {
                  "M": "dd MMM - dd MMM y G",
                  "d": "dd-dd MMM y G",
                  "y": "dd MMM y - dd MMM y G"
                },
                "yMd": {
                  "M": "dd/MM/y - dd/MM/y G",
                  "d": "dd/MM/y - dd/MM/y G",
                  "y": "dd/MM/y - dd/MM/y G"
                }
              }
            }
          }
        }
      }
    }
  }
}
