{
  "main": {
    "it-SM": {
      "identity": {
        "version": {
          "_cldrVersion": "26",
          "_number": "$Revision: 10669 $"
        },
        "generation": {
          "_date": "$Date: 2014-07-23 16:10:33 -0500 (Wed, 23 Jul 2014) $"
        },
        "language": "it",
        "territory": "SM"
      },
      "localeDisplayNames": {
        "localeDisplayPattern": {
          "localePattern": "{0} ({1})",
          "localeSeparator": "{0}, {1}",
          "localeKeyTypePattern": "{0}: {1}"
        },
        "keys": {
          "calendar": "Calendario",
          "colAlternate": "Ordinamento Ignora simboli",
          "colBackwards": "Ordinamento Accento capovolto",
          "colCaseFirst": "Ordinamento Maiuscole/Minuscole",
          "colCaseLevel": "Ordinamento Distinzione fra maiuscole e minuscole",
          "colHiraganaQuaternary": "Ordinamento Kana",
          "colNormalization": "Ordinamento normalizzato",
          "colNumeric": "Ordinamento numerico",
          "colStrength": "Sicurezza ordinamento",
          "collation": "Ordinamento",
          "currency": "Valuta",
          "numbers": "Numeri",
          "timezone": "Fuso orario",
          "va": "Variante lingua",
          "variableTop": "Ordina come simboli",
          "x": "Uso privato"
        },
        "types": {
          "numbers": {
            "arab": "Cifre indo-arabe",
            "arabext": "Cifre indo-arabe estese",
            "armn": "Numeri armeni",
            "armnlow": "Numeri armeni minuscoli",
            "bali": "Cifre balinesi",
            "beng": "Cifre bengalesi"
          },
          "collation": {
            "big5han": "cinese tradizionale"
          },
          "numbers": {
            "brah": "Cifre brahmi"
          },
          "calendar": {
            "buddhist": "Calendario buddista"
          },
          "numbers": {
            "cakm": "Cifre chakma",
            "cham": "Cifre cham"
          },
          "calendar": {
            "chinese": "Calendario cinese",
            "coptic": "Calendario copto",
            "dangi": "Calendario Dangi"
          },
          "numbers": {
            "deva": "Cifre devanagari"
          },
          "collation": {
            "dictionary": "Ordinamento dizionario",
            "ducet": "Ordinamento Unicode predefinito",
            "eor": "eor"
          },
          "numbers": {
            "ethi": "Numeri etiopi"
          },
          "calendar": {
            "ethiopic": "Calendario etiope",
            "ethiopic-amete-alem": "Calendario etiope Amete Alem"
          },
          "numbers": {
            "finance": "Numeri finanziari",
            "fullwide": "Cifre a larghezza intera"
          },
          "collation": {
            "gb2312han": "cinese semplificato"
          },
          "numbers": {
            "geor": "Numeri georgiani"
          },
          "calendar": {
            "gregorian": "Calendario gregoriano"
          },
          "numbers": {
            "grek": "Numeri greci",
            "greklow": "Numeri greci minuscoli",
            "gujr": "Cifre gujarati",
            "guru": "Cifre gurmukhi",
            "hanidec": "Numeri decimali cinesi",
            "hans": "Numeri in cinese semplificato",
            "hansfin": "Numeri finanziari in cinese semplificato",
            "hant": "Numeri in cinese tradizionale",
            "hantfin": "Numeri finanziari in cinese tradizionale",
            "hebr": "Numeri ebraici"
          },
          "calendar": {
            "hebrew": "Calendario ebraico"
          },
          "colStrength": {
            "identical": "Ordina tutto"
          },
          "calendar": {
            "indian": "calendario nazionale indiano",
            "islamic": "Calendario islamico",
            "islamic-civil": "calendario civile islamico",
            "islamic-rgsa": "Calendario islamico (Arabia Saudita, osservazione)",
            "islamic-tbla": "Calendario islamico (tabulare, era astronomica)",
            "islamic-umalqura": "Calendario islamico (Umm al-Qura)",
            "iso8601": "Calendario ISO-8601",
            "japanese": "Calendario giapponese"
          },
          "numbers": {
            "java": "Cifre giavanesi",
            "jpan": "Numeri giapponesi",
            "jpanfin": "Numeri finanziari giapponesi",
            "kali": "Cifre Kayah Li",
            "khmr": "Cifre khmer",
            "knda": "Cifre kannada",
            "lana": "Cifre tai tham hora",
            "lanatham": "Cifre tai tham tham",
            "laoo": "Cifre lao",
            "latn": "Cifre occidentali",
            "lepc": "Cifre lepcha",
            "limb": "Cifre limbu"
          },
          "colCaseFirst": {
            "lower": "Ordina prima lettere minuscole"
          },
          "numbers": {
            "mlym": "Cifre malayalam",
            "mong": "Numeri mongoli",
            "mtei": "Cifre Meetei Mayek",
            "mymr": "Cifre birmane",
            "mymrshan": "Cifre shan birmane",
            "native": "Cifre native",
            "nkoo": "Cifre N’Ko"
          },
          "colBackwards": {
            "no": "Ordina accenti normalmente"
          },
          "colCaseFirst": {
            "no": "Ordina lettere maiuscole/minuscole normalmente"
          },
          "colCaseLevel": {
            "no": "Ordina senza distinzione tra maiuscole e minuscole"
          },
          "colHiraganaQuaternary": {
            "no": "Ordina Kana separatamente"
          },
          "colNormalization": {
            "no": "Ordina senza normalizzazione"
          },
          "colNumeric": {
            "no": "Ordina cifre individualmente"
          },
          "colAlternate": {
            "non-ignorable": "Ordina simboli"
          },
          "numbers": {
            "olck": "Cifre Ol Chiki",
            "orya": "Cifre oriya",
            "osma": "Cifre osmanya"
          },
          "calendar": {
            "persian": "Calendario persiano"
          },
          "collation": {
            "phonebook": "ordine elenco telefonico",
            "phonetic": "Ordinamento fonetico",
            "pinyin": "ordine pinyin"
          },
          "colStrength": {
            "primary": "Ordina solo lettere di base",
            "quaternary": "Ordina accenti/lettere/larghezza/Kana"
          },
          "collation": {
            "reformed": "Ordinamento riformato"
          },
          "calendar": {
            "roc": "Calendario Minguo"
          },
          "numbers": {
            "roman": "Numeri romani",
            "romanlow": "Numeri romani minuscoli",
            "saur": "Cifre saurashtra"
          },
          "collation": {
            "search": "Ricerca generica",
            "searchjl": "Cerca per consonante hangul iniziale"
          },
          "colStrength": {
            "secondary": "Ordina accenti"
          },
          "colAlternate": {
            "shifted": "Ordina ignorando i simboli"
          },
          "numbers": {
            "shrd": "Cifre sharada",
            "sora": "Cifre Sora Sompeng"
          },
          "collation": {
            "standard": "Ordinamento standard",
            "stroke": "ordine segni"
          },
          "numbers": {
            "sund": "Cifre sundanesi",
            "takr": "Cifre takri",
            "talu": "Cifre nuovo Tai Lue",
            "taml": "Numeri tamil tradizionali",
            "tamldec": "Cifre tamil",
            "telu": "Cifre telugu"
          },
          "colStrength": {
            "tertiary": "Ordina accenti/lettere/larghezza"
          },
          "numbers": {
            "thai": "Cifre thailandesi",
            "tibt": "Cifre tibetane"
          },
          "collation": {
            "traditional": "ordine tradizionale"
          },
          "numbers": {
            "traditional": "Numeri tradizionali"
          },
          "collation": {
            "unihan": "Ordinamento in base ai radicali"
          },
          "colCaseFirst": {
            "upper": "Ordina prima lettere minuscole"
          },
          "numbers": {
            "vaii": "Cifre Vai"
          },
          "colBackwards": {
            "yes": "Ordina accenti capovolti"
          },
          "colCaseLevel": {
            "yes": "Ordina distinzione tra maiuscole e minuscole"
          },
          "colHiraganaQuaternary": {
            "yes": "Ordina Kana diversamente"
          },
          "colNormalization": {
            "yes": "Ordina Unicode normalizzato"
          },
          "colNumeric": {
            "yes": "Ordina cifre numericamente"
          },
          "collation": {
            "zhuyin": "Ordinamento Zhuyin"
          }
        },
        "codePatterns": {
          "language": "Lingua: {0}",
          "script": "Scrittura: {0}",
          "territory": "Regione: {0}"
        }
      }
    }
  }
}
