{
  "main": {
    "is": {
      "identity": {
        "version": {
          "_cldrVersion": "26",
          "_number": "$Revision: 10809 $"
        },
        "generation": {
          "_date": "$Date: 2014-08-14 15:10:07 -0500 (Thu, 14 Aug 2014) $"
        },
        "language": "is"
      },
      "units": {
        "long": {
          "per": {
            "compoundUnitPattern": "{0} á {1}"
          },
          "acceleration-g-force": {
            "displayName": "þyngdarhröðun",
            "unitPattern-count-one": "{0} þyngdarhröðun",
            "unitPattern-count-other": "{0} þyngdarhröðun"
          },
          "acceleration-meter-per-second-squared": {
            "displayName": "metrar á sekúndu, á sekúndu",
            "unitPattern-count-one": "{0} metri á sekúndu, á sekúndu",
            "unitPattern-count-other": "{0} metrar á sekúndu, á sekúndu"
          },
          "angle-arc-minute": {
            "displayName": "bogamínútur",
            "unitPattern-count-one": "{0} bogamínúta",
            "unitPattern-count-other": "{0} bogamínútur"
          },
          "angle-arc-second": {
            "displayName": "bogasekúndur",
            "unitPattern-count-one": "{0} bogasekúnda",
            "unitPattern-count-other": "{0} bogasekúndur"
          },
          "angle-degree": {
            "displayName": "gráður",
            "unitPattern-count-one": "{0} gráða",
            "unitPattern-count-other": "{0} gráður"
          },
          "angle-radian": {
            "displayName": "bogaeiningar",
            "unitPattern-count-one": "{0} bogaeining",
            "unitPattern-count-other": "{0} bogaeiningar"
          },
          "area-acre": {
            "displayName": "ekrur",
            "unitPattern-count-one": "{0} ekra",
            "unitPattern-count-other": "{0} ekrur"
          },
          "area-hectare": {
            "displayName": "hektarar",
            "unitPattern-count-one": "{0} hektari",
            "unitPattern-count-other": "{0} hektarar"
          },
          "area-square-centimeter": {
            "displayName": "fersentimetrar",
            "unitPattern-count-one": "{0} fersentimetri",
            "unitPattern-count-other": "{0} fersentimetrar"
          },
          "area-square-foot": {
            "displayName": "ferfet",
            "unitPattern-count-one": "{0} ferfet",
            "unitPattern-count-other": "{0} ferfet"
          },
          "area-square-inch": {
            "displayName": "fertommur",
            "unitPattern-count-one": "{0} fertomma",
            "unitPattern-count-other": "{0} fertommur"
          },
          "area-square-kilometer": {
            "displayName": "ferkílómetrar",
            "unitPattern-count-one": "{0} ferkílómetri",
            "unitPattern-count-other": "{0} ferkílómetrar"
          },
          "area-square-meter": {
            "displayName": "fermetrar",
            "unitPattern-count-one": "{0} fermetri",
            "unitPattern-count-other": "{0} fermetrar"
          },
          "area-square-mile": {
            "displayName": "fermílur",
            "unitPattern-count-one": "{0} fermíla",
            "unitPattern-count-other": "{0} fermílur"
          },
          "area-square-yard": {
            "displayName": "feryardar",
            "unitPattern-count-one": "{0} feryard",
            "unitPattern-count-other": "{0} feryardar"
          },
          "consumption-liter-per-kilometer": {
            "displayName": "lítrar á kílómetra",
            "unitPattern-count-one": "{0} lítri á kílómetra",
            "unitPattern-count-other": "{0} lítrar á kílómetra"
          },
          "consumption-mile-per-gallon": {
            "displayName": "mílur á gallon",
            "unitPattern-count-one": "{0} míla á gallon",
            "unitPattern-count-other": "{0} mílur á gallon"
          },
          "digital-bit": {
            "displayName": "bitar",
            "unitPattern-count-one": "{0} biti",
            "unitPattern-count-other": "{0} bitar"
          },
          "digital-byte": {
            "displayName": "bæti",
            "unitPattern-count-one": "{0} bæti",
            "unitPattern-count-other": "{0} bæti"
          },
          "digital-gigabit": {
            "displayName": "gígabitar",
            "unitPattern-count-one": "{0} gígabiti",
            "unitPattern-count-other": "{0} gígabitar"
          },
          "digital-gigabyte": {
            "displayName": "gígabæti",
            "unitPattern-count-one": "{0} gígabæti",
            "unitPattern-count-other": "{0} gígabæti"
          },
          "digital-kilobit": {
            "displayName": "kílóbitar",
            "unitPattern-count-one": "{0} kílóbiti",
            "unitPattern-count-other": "{0} kílóbitar"
          },
          "digital-kilobyte": {
            "displayName": "kílóbæti",
            "unitPattern-count-one": "{0} kílóbæti",
            "unitPattern-count-other": "{0} kílóbæti"
          },
          "digital-megabit": {
            "displayName": "megabitar",
            "unitPattern-count-one": "{0} megabiti",
            "unitPattern-count-other": "{0} megabitar"
          },
          "digital-megabyte": {
            "displayName": "megabæti",
            "unitPattern-count-one": "{0} megabæti",
            "unitPattern-count-other": "{0} megabæti"
          },
          "digital-terabit": {
            "displayName": "terabitar",
            "unitPattern-count-one": "{0} terabiti",
            "unitPattern-count-other": "{0} terabitar"
          },
          "digital-terabyte": {
            "displayName": "terabæti",
            "unitPattern-count-one": "{0} terabæti",
            "unitPattern-count-other": "{0} terabæti"
          },
          "duration-day": {
            "displayName": "dagar",
            "unitPattern-count-one": "{0} dagur",
            "unitPattern-count-other": "{0} dagar"
          },
          "duration-hour": {
            "displayName": "klukkustundir",
            "unitPattern-count-one": "{0} klukkustund",
            "unitPattern-count-other": "{0} klukkustundir",
            "perUnitPattern": "{0} á klst."
          },
          "duration-microsecond": {
            "displayName": "míkrósekúndur",
            "unitPattern-count-one": "{0} míkrósekúnda",
            "unitPattern-count-other": "{0} míkrósekúndur"
          },
          "duration-millisecond": {
            "displayName": "millisekúndur",
            "unitPattern-count-one": "{0} millisekúnda",
            "unitPattern-count-other": "{0} millisekúndur"
          },
          "duration-minute": {
            "displayName": "mínútur",
            "unitPattern-count-one": "{0} mínúta",
            "unitPattern-count-other": "{0} mínútur"
          },
          "duration-month": {
            "displayName": "mánuðir",
            "unitPattern-count-one": "{0} mánuður",
            "unitPattern-count-other": "{0} mánuðir"
          },
          "duration-nanosecond": {
            "displayName": "nanósekúndur",
            "unitPattern-count-one": "{0} nanósekúnda",
            "unitPattern-count-other": "{0} nanósekúndur"
          },
          "duration-second": {
            "displayName": "sekúndur",
            "unitPattern-count-one": "{0} sekúnda",
            "unitPattern-count-other": "{0} sekúndur",
            "perUnitPattern": "{0} á sekúndu"
          },
          "duration-week": {
            "displayName": "vikur",
            "unitPattern-count-one": "{0} vika",
            "unitPattern-count-other": "{0} vikur"
          },
          "duration-year": {
            "displayName": "ár",
            "unitPattern-count-one": "{0} ár",
            "unitPattern-count-other": "{0} ár"
          },
          "electric-ampere": {
            "displayName": "amper",
            "unitPattern-count-one": "{0} amper",
            "unitPattern-count-other": "{0} amper"
          },
          "electric-milliampere": {
            "displayName": "milliamper",
            "unitPattern-count-one": "{0} milliamper",
            "unitPattern-count-other": "{0} milliamper"
          },
          "electric-ohm": {
            "displayName": "ohm",
            "unitPattern-count-one": "{0} ohm",
            "unitPattern-count-other": "{0} ohm"
          },
          "electric-volt": {
            "displayName": "volt",
            "unitPattern-count-one": "{0} volt",
            "unitPattern-count-other": "{0} volt"
          },
          "energy-calorie": {
            "displayName": "kaloríur",
            "unitPattern-count-one": "{0} kaloría",
            "unitPattern-count-other": "{0} kaloríur"
          },
          "energy-foodcalorie": {
            "displayName": "hitaeiningar",
            "unitPattern-count-one": "{0} hitaeining",
            "unitPattern-count-other": "{0} hitaeiningar"
          },
          "energy-joule": {
            "displayName": "júl",
            "unitPattern-count-one": "{0} júl",
            "unitPattern-count-other": "{0} júl"
          },
          "energy-kilocalorie": {
            "displayName": "kílókaloríur",
            "unitPattern-count-one": "{0} kílókaloría",
            "unitPattern-count-other": "{0} kílókaloríur"
          },
          "energy-kilojoule": {
            "displayName": "kílójúl",
            "unitPattern-count-one": "{0} kílójúl",
            "unitPattern-count-other": "{0} kílójúl"
          },
          "energy-kilowatt-hour": {
            "displayName": "kílóvattstundir",
            "unitPattern-count-one": "{0} kílóvattstund",
            "unitPattern-count-other": "{0} kílóvattstundir"
          },
          "frequency-gigahertz": {
            "displayName": "gígahertz",
            "unitPattern-count-one": "{0} gígahertz",
            "unitPattern-count-other": "{0} gígahertz"
          },
          "frequency-hertz": {
            "displayName": "hertz",
            "unitPattern-count-one": "{0} hertz",
            "unitPattern-count-other": "{0} hertz"
          },
          "frequency-kilohertz": {
            "displayName": "kílóhertz",
            "unitPattern-count-one": "{0} kílóhertz",
            "unitPattern-count-other": "{0} kílóhertz"
          },
          "frequency-megahertz": {
            "displayName": "megahertz",
            "unitPattern-count-one": "{0} megahertz",
            "unitPattern-count-other": "{0} megahertz"
          },
          "length-astronomical-unit": {
            "displayName": "stjarnfræðieiningar",
            "unitPattern-count-one": "{0} stjarnfræðieining",
            "unitPattern-count-other": "{0} stjarnfræðieiningar"
          },
          "length-centimeter": {
            "displayName": "sentimetrar",
            "unitPattern-count-one": "{0} sentimetri",
            "unitPattern-count-other": "{0} sentimetrar"
          },
          "length-decimeter": {
            "displayName": "desimetrar",
            "unitPattern-count-one": "{0} desimetri",
            "unitPattern-count-other": "{0} desimetrar"
          },
          "length-fathom": {
            "displayName": "fm",
            "unitPattern-count-other": "{0} fm"
          },
          "length-foot": {
            "displayName": "fet",
            "unitPattern-count-one": "{0} fet",
            "unitPattern-count-other": "{0} fet"
          },
          "length-furlong": {
            "displayName": "fur",
            "unitPattern-count-other": "{0} fur"
          },
          "length-inch": {
            "displayName": "tommur",
            "unitPattern-count-one": "{0} tomma",
            "unitPattern-count-other": "{0} tommur"
          },
          "length-kilometer": {
            "displayName": "kílómetrar",
            "unitPattern-count-one": "{0} kílómetri",
            "unitPattern-count-other": "{0} kílómetrar"
          },
          "length-light-year": {
            "displayName": "ljósár",
            "unitPattern-count-one": "{0} ljósár",
            "unitPattern-count-other": "{0} ljósár"
          },
          "length-meter": {
            "displayName": "metrar",
            "unitPattern-count-one": "{0} metri",
            "unitPattern-count-other": "{0} metrar"
          },
          "length-micrometer": {
            "displayName": "míkrómetrar",
            "unitPattern-count-one": "{0} míkrómetri",
            "unitPattern-count-other": "{0} míkrómetrar"
          },
          "length-mile": {
            "displayName": "mílur",
            "unitPattern-count-one": "{0} míla",
            "unitPattern-count-other": "{0} mílur"
          },
          "length-millimeter": {
            "displayName": "millimetrar",
            "unitPattern-count-one": "{0} millimetri",
            "unitPattern-count-other": "{0} millimetrar"
          },
          "length-nanometer": {
            "displayName": "nanómetrar",
            "unitPattern-count-one": "{0} nanómetri",
            "unitPattern-count-other": "{0} nanómetrar"
          },
          "length-nautical-mile": {
            "displayName": "sjómílur",
            "unitPattern-count-one": "{0} sjómíla",
            "unitPattern-count-other": "{0} sjómílur"
          },
          "length-parsec": {
            "displayName": "parsek",
            "unitPattern-count-one": "{0} parsek",
            "unitPattern-count-other": "{0} parsek"
          },
          "length-picometer": {
            "displayName": "píkómetrar",
            "unitPattern-count-one": "{0} píkómetri",
            "unitPattern-count-other": "{0} píkómetrar"
          },
          "length-yard": {
            "displayName": "yardar",
            "unitPattern-count-one": "{0} yard",
            "unitPattern-count-other": "{0} yardar"
          },
          "light-lux": {
            "displayName": "lúx",
            "unitPattern-count-one": "{0} lúx",
            "unitPattern-count-other": "{0} lúx"
          },
          "mass-carat": {
            "displayName": "karöt",
            "unitPattern-count-one": "{0} karat",
            "unitPattern-count-other": "{0} karöt"
          },
          "mass-gram": {
            "displayName": "grömm",
            "unitPattern-count-one": "{0} gramm",
            "unitPattern-count-other": "{0} grömm"
          },
          "mass-kilogram": {
            "displayName": "kílógrömm",
            "unitPattern-count-one": "{0} kílógramm",
            "unitPattern-count-other": "{0} kílógrömm"
          },
          "mass-metric-ton": {
            "displayName": "tonn",
            "unitPattern-count-one": "{0} tonn",
            "unitPattern-count-other": "{0} tonn"
          },
          "mass-microgram": {
            "displayName": "míkrógrömm",
            "unitPattern-count-one": "{0} míkrógramm",
            "unitPattern-count-other": "{0} míkrógrömm"
          },
          "mass-milligram": {
            "displayName": "milligrömm",
            "unitPattern-count-one": "{0} milligramm",
            "unitPattern-count-other": "{0} milligrömm"
          },
          "mass-ounce": {
            "displayName": "únsur",
            "unitPattern-count-one": "{0} únsa",
            "unitPattern-count-other": "{0} únsur"
          },
          "mass-ounce-troy": {
            "displayName": "troyesúnsur",
            "unitPattern-count-one": "{0} troyesúnsa",
            "unitPattern-count-other": "{0} troyesúnsur"
          },
          "mass-pound": {
            "displayName": "pund",
            "unitPattern-count-one": "{0} pund",
            "unitPattern-count-other": "{0} pund"
          },
          "mass-stone": {
            "displayName": "st",
            "unitPattern-count-other": "{0} st"
          },
          "mass-ton": {
            "displayName": "bandarískt tonn",
            "unitPattern-count-one": "{0} bandarískt tonn",
            "unitPattern-count-other": "{0} bandarísk tonn"
          },
          "power-gigawatt": {
            "displayName": "gígavött",
            "unitPattern-count-one": "{0} gígavatt",
            "unitPattern-count-other": "{0} gígavött"
          },
          "power-horsepower": {
            "displayName": "hestöfl",
            "unitPattern-count-one": "{0} hestafl",
            "unitPattern-count-other": "{0} hestöfl"
          },
          "power-kilowatt": {
            "displayName": "kílóvött",
            "unitPattern-count-one": "{0} kílóvatt",
            "unitPattern-count-other": "{0} kílóvött"
          },
          "power-megawatt": {
            "displayName": "megavött",
            "unitPattern-count-one": "{0} megavatt",
            "unitPattern-count-other": "{0} megavött"
          },
          "power-milliwatt": {
            "displayName": "millivött",
            "unitPattern-count-one": "{0} millivatt",
            "unitPattern-count-other": "{0} millivött"
          },
          "power-watt": {
            "displayName": "vött",
            "unitPattern-count-one": "{0} vatt",
            "unitPattern-count-other": "{0} vött"
          },
          "pressure-hectopascal": {
            "displayName": "hektópasköl",
            "unitPattern-count-one": "{0} hektópaskal",
            "unitPattern-count-other": "{0} hektópasköl"
          },
          "pressure-inch-hg": {
            "displayName": "tommur af kvikvasilfri",
            "unitPattern-count-one": "{0} tomma af kvikasilfri",
            "unitPattern-count-other": "{0} tommur af kvikvasilfri"
          },
          "pressure-millibar": {
            "displayName": "millibör",
            "unitPattern-count-one": "{0} millibar",
            "unitPattern-count-other": "{0} millibör"
          },
          "pressure-millimeter-of-mercury": {
            "displayName": "millimetrar af kvikasilfri",
            "unitPattern-count-one": "{0} millimetrar af kvikasilfri",
            "unitPattern-count-other": "{0} millimetrar af kvikasilfri"
          },
          "pressure-pound-per-square-inch": {
            "displayName": "pund á fertommu",
            "unitPattern-count-one": "{0} pund á fertommu",
            "unitPattern-count-other": "{0} pund á fertommu"
          },
          "proportion-karat": {
            "displayName": "karöt",
            "unitPattern-count-one": "{0} karat",
            "unitPattern-count-other": "{0} karöt"
          },
          "speed-kilometer-per-hour": {
            "displayName": "kílómetrar á klukkustund",
            "unitPattern-count-one": "{0} kílómetri á klukkustund",
            "unitPattern-count-other": "{0} kílómetrar á klukkustund"
          },
          "speed-meter-per-second": {
            "displayName": "metrar á sekúndu",
            "unitPattern-count-one": "{0} metri á sekúndu",
            "unitPattern-count-other": "{0} metrar á sekúndu"
          },
          "speed-mile-per-hour": {
            "displayName": "mílur á klukkustund",
            "unitPattern-count-one": "{0} míla á klukkustund",
            "unitPattern-count-other": "{0} mílur á klukkustund"
          },
          "temperature-celsius": {
            "displayName": "gráður á Celsíus",
            "unitPattern-count-one": "{0} gráða á Celsíus",
            "unitPattern-count-other": "{0} gráður á Celsíus"
          },
          "temperature-fahrenheit": {
            "displayName": "gráður á Fahrenheit",
            "unitPattern-count-one": "{0} gráða á Fahrenheit",
            "unitPattern-count-other": "{0} gráður á Fahrenheit"
          },
          "temperature-kelvin": {
            "displayName": "kelvin",
            "unitPattern-count-one": "{0} kelvin",
            "unitPattern-count-other": "{0} kelvin"
          },
          "volume-acre-foot": {
            "displayName": "ekrufet",
            "unitPattern-count-one": "{0} ekrufet",
            "unitPattern-count-other": "{0} ekrufet"
          },
          "volume-bushel": {
            "displayName": "bu",
            "unitPattern-count-other": "{0} bu"
          },
          "volume-centiliter": {
            "displayName": "sentilítrar",
            "unitPattern-count-one": "{0} sentilítri",
            "unitPattern-count-other": "{0} sentilítrar"
          },
          "volume-cubic-centimeter": {
            "displayName": "rúmsentimetrar",
            "unitPattern-count-one": "{0} rúmsentimetri",
            "unitPattern-count-other": "{0} rúmsentimetrar"
          },
          "volume-cubic-foot": {
            "displayName": "rúmfet",
            "unitPattern-count-one": "{0} rúmfet",
            "unitPattern-count-other": "{0} rúmfet"
          },
          "volume-cubic-inch": {
            "displayName": "rúmtommur",
            "unitPattern-count-one": "{0} rúmtomma",
            "unitPattern-count-other": "{0} rúmtommur"
          },
          "volume-cubic-kilometer": {
            "displayName": "rúmkílómetrar",
            "unitPattern-count-one": "{0} rúmkílómetri",
            "unitPattern-count-other": "{0} rúmkílómetrar"
          },
          "volume-cubic-meter": {
            "displayName": "rúmmetrar",
            "unitPattern-count-one": "{0} rúmmetri",
            "unitPattern-count-other": "{0} rúmmetrar"
          },
          "volume-cubic-mile": {
            "displayName": "rúmmílur",
            "unitPattern-count-one": "{0} rúmmíla",
            "unitPattern-count-other": "{0} rúmmílur"
          },
          "volume-cubic-yard": {
            "displayName": "rúmyardar",
            "unitPattern-count-one": "{0} rúmyard",
            "unitPattern-count-other": "{0} rúmyardar"
          },
          "volume-cup": {
            "displayName": "bollar",
            "unitPattern-count-one": "{0} bolli",
            "unitPattern-count-other": "{0} bollar"
          },
          "volume-deciliter": {
            "displayName": "desilítrar",
            "unitPattern-count-one": "{0} desilítri",
            "unitPattern-count-other": "{0} desilítrar"
          },
          "volume-fluid-ounce": {
            "displayName": "vökvaúnsur",
            "unitPattern-count-one": "{0} vökvaúnsa",
            "unitPattern-count-other": "{0} vökvaúnsur"
          },
          "volume-gallon": {
            "displayName": "gallon",
            "unitPattern-count-one": "{0} gallon",
            "unitPattern-count-other": "{0} gallon"
          },
          "volume-hectoliter": {
            "displayName": "hektólítrar",
            "unitPattern-count-one": "{0} hektólítri",
            "unitPattern-count-other": "{0} hektólítrar"
          },
          "volume-liter": {
            "displayName": "lítrar",
            "unitPattern-count-one": "{0} lítri",
            "unitPattern-count-other": "{0} lítrar"
          },
          "volume-megaliter": {
            "displayName": "megalítrar",
            "unitPattern-count-one": "{0} megalítri",
            "unitPattern-count-other": "{0} megalítrar"
          },
          "volume-milliliter": {
            "displayName": "millilítrar",
            "unitPattern-count-one": "{0} millilítri",
            "unitPattern-count-other": "{0} millilítrar"
          },
          "volume-pint": {
            "displayName": "hálfpottar",
            "unitPattern-count-one": "{0} hálfpottur",
            "unitPattern-count-other": "{0} hálfpottar"
          },
          "volume-quart": {
            "displayName": "kvartar",
            "unitPattern-count-one": "{0} kvart",
            "unitPattern-count-other": "{0} kvartar"
          },
          "volume-tablespoon": {
            "displayName": "matskeiðar",
            "unitPattern-count-one": "{0} matskeið",
            "unitPattern-count-other": "{0} matskeiðar"
          },
          "volume-teaspoon": {
            "displayName": "teskeiðar",
            "unitPattern-count-one": "{0} teskeið",
            "unitPattern-count-other": "{0} teskeiðar"
          }
        },
        "short": {
          "per": {
            "compoundUnitPattern": "{0}/{1}"
          },
          "acceleration-g-force": {
            "displayName": "g-hröðun",
            "unitPattern-count-one": "{0} G",
            "unitPattern-count-other": "{0} G"
          },
          "acceleration-meter-per-second-squared": {
            "displayName": "metrar/sek²",
            "unitPattern-count-one": "{0} m/s²",
            "unitPattern-count-other": "{0} m/s²"
          },
          "angle-arc-minute": {
            "displayName": "bogamín.",
            "unitPattern-count-one": "{0} bogamín.",
            "unitPattern-count-other": "{0} bogamín."
          },
          "angle-arc-second": {
            "displayName": "bogasek.",
            "unitPattern-count-one": "{0} bogasek.",
            "unitPattern-count-other": "{0} bogasek."
          },
          "angle-degree": {
            "displayName": "gráður",
            "unitPattern-count-one": "{0}°",
            "unitPattern-count-other": "{0}°"
          },
          "angle-radian": {
            "displayName": "rad",
            "unitPattern-count-one": "{0} rad",
            "unitPattern-count-other": "{0} rad"
          },
          "area-acre": {
            "displayName": "ekrur",
            "unitPattern-count-one": "{0} ek.",
            "unitPattern-count-other": "{0} ek."
          },
          "area-hectare": {
            "displayName": "hektarar",
            "unitPattern-count-one": "{0} ha",
            "unitPattern-count-other": "{0} ha"
          },
          "area-square-centimeter": {
            "displayName": "cm²",
            "unitPattern-count-one": "{0} cm²",
            "unitPattern-count-other": "{0} cm²"
          },
          "area-square-foot": {
            "displayName": "ferfet",
            "unitPattern-count-one": "{0} ferfet",
            "unitPattern-count-other": "{0} ferfet"
          },
          "area-square-inch": {
            "displayName": "tommur²",
            "unitPattern-count-one": "{0} t²",
            "unitPattern-count-other": "{0} t²"
          },
          "area-square-kilometer": {
            "displayName": "km²",
            "unitPattern-count-one": "{0} km²",
            "unitPattern-count-other": "{0} km²"
          },
          "area-square-meter": {
            "displayName": "fermetrar",
            "unitPattern-count-one": "{0} m²",
            "unitPattern-count-other": "{0} m²"
          },
          "area-square-mile": {
            "displayName": "fermílur",
            "unitPattern-count-one": "{0} fermíla",
            "unitPattern-count-other": "{0} fermílur"
          },
          "area-square-yard": {
            "displayName": "yardar²",
            "unitPattern-count-one": "{0} yd²",
            "unitPattern-count-other": "{0} yd²"
          },
          "consumption-liter-per-kilometer": {
            "displayName": "lítrar/km",
            "unitPattern-count-one": "{0} l/km",
            "unitPattern-count-other": "{0} l/km"
          },
          "consumption-mile-per-gallon": {
            "displayName": "mílur/gallon",
            "unitPattern-count-one": "{0} mí./gal.",
            "unitPattern-count-other": "{0} mí./gal."
          },
          "digital-bit": {
            "displayName": "biti",
            "unitPattern-count-one": "{0} biti",
            "unitPattern-count-other": "{0} bitar"
          },
          "digital-byte": {
            "displayName": "bæti",
            "unitPattern-count-one": "{0} bæti",
            "unitPattern-count-other": "{0} bæti"
          },
          "digital-gigabit": {
            "displayName": "Gb",
            "unitPattern-count-one": "{0} Gb",
            "unitPattern-count-other": "{0} Gb"
          },
          "digital-gigabyte": {
            "displayName": "GB",
            "unitPattern-count-one": "{0} GB",
            "unitPattern-count-other": "{0} GB"
          },
          "digital-kilobit": {
            "displayName": "kb",
            "unitPattern-count-one": "{0} kb",
            "unitPattern-count-other": "{0} kb"
          },
          "digital-kilobyte": {
            "displayName": "kB",
            "unitPattern-count-one": "{0} kB",
            "unitPattern-count-other": "{0} kB"
          },
          "digital-megabit": {
            "displayName": "Mb",
            "unitPattern-count-one": "{0} Mb",
            "unitPattern-count-other": "{0} Mb"
          },
          "digital-megabyte": {
            "displayName": "MB",
            "unitPattern-count-one": "{0} MB",
            "unitPattern-count-other": "{0} MB"
          },
          "digital-terabit": {
            "displayName": "Tb",
            "unitPattern-count-one": "{0} Tb",
            "unitPattern-count-other": "{0} Tb"
          },
          "digital-terabyte": {
            "displayName": "TB",
            "unitPattern-count-one": "{0} TB",
            "unitPattern-count-other": "{0} TB"
          },
          "duration-day": {
            "displayName": "dagar",
            "unitPattern-count-one": "{0} dagur",
            "unitPattern-count-other": "{0} dagar"
          },
          "duration-hour": {
            "displayName": "klukkustundir",
            "unitPattern-count-one": "{0} klst.",
            "unitPattern-count-other": "{0} klst.",
            "perUnitPattern": "{0}/klst."
          },
          "duration-microsecond": {
            "displayName": "μsek.",
            "unitPattern-count-one": "{0} μs",
            "unitPattern-count-other": "{0} μs"
          },
          "duration-millisecond": {
            "displayName": "millisek.",
            "unitPattern-count-one": "{0} ms",
            "unitPattern-count-other": "{0} ms"
          },
          "duration-minute": {
            "displayName": "mín.",
            "unitPattern-count-one": "{0} mín.",
            "unitPattern-count-other": "{0} mín."
          },
          "duration-month": {
            "displayName": "mánuðir",
            "unitPattern-count-one": "{0} mán.",
            "unitPattern-count-other": "{0} mán."
          },
          "duration-nanosecond": {
            "displayName": "nanósek.",
            "unitPattern-count-one": "{0} ns",
            "unitPattern-count-other": "{0} ns"
          },
          "duration-second": {
            "displayName": "sek.",
            "unitPattern-count-one": "{0} sek.",
            "unitPattern-count-other": "{0} sek.",
            "perUnitPattern": "{0}/sek."
          },
          "duration-week": {
            "displayName": "vikur",
            "unitPattern-count-one": "{0} vika",
            "unitPattern-count-other": "{0} vikur"
          },
          "duration-year": {
            "displayName": "ár",
            "unitPattern-count-one": "{0} ár",
            "unitPattern-count-other": "{0} ár"
          },
          "electric-ampere": {
            "displayName": "A",
            "unitPattern-count-one": "{0} A",
            "unitPattern-count-other": "{0} A"
          },
          "electric-milliampere": {
            "displayName": "mA",
            "unitPattern-count-one": "{0} mA",
            "unitPattern-count-other": "{0} mA"
          },
          "electric-ohm": {
            "displayName": "ohm",
            "unitPattern-count-one": "{0} Ω",
            "unitPattern-count-other": "{0} Ω"
          },
          "electric-volt": {
            "displayName": "volt",
            "unitPattern-count-one": "{0} V",
            "unitPattern-count-other": "{0} V"
          },
          "energy-calorie": {
            "displayName": "cal",
            "unitPattern-count-one": "{0} cal",
            "unitPattern-count-other": "{0} cal"
          },
          "energy-foodcalorie": {
            "displayName": "kal",
            "unitPattern-count-one": "{0} kal",
            "unitPattern-count-other": "{0} kal"
          },
          "energy-joule": {
            "displayName": "júl",
            "unitPattern-count-one": "{0} J",
            "unitPattern-count-other": "{0} J"
          },
          "energy-kilocalorie": {
            "displayName": "kcal",
            "unitPattern-count-one": "{0} kcal",
            "unitPattern-count-other": "{0} kcal"
          },
          "energy-kilojoule": {
            "displayName": "kílójúl",
            "unitPattern-count-one": "{0} kJ",
            "unitPattern-count-other": "{0} kJ"
          },
          "energy-kilowatt-hour": {
            "displayName": "kWh",
            "unitPattern-count-one": "{0} kWh",
            "unitPattern-count-other": "{0} kWh"
          },
          "frequency-gigahertz": {
            "displayName": "GHz",
            "unitPattern-count-one": "{0} GHz",
            "unitPattern-count-other": "{0} GHz"
          },
          "frequency-hertz": {
            "displayName": "Hz",
            "unitPattern-count-one": "{0} Hz",
            "unitPattern-count-other": "{0} Hz"
          },
          "frequency-kilohertz": {
            "displayName": "kHz",
            "unitPattern-count-one": "{0} kHz",
            "unitPattern-count-other": "{0} kHz"
          },
          "frequency-megahertz": {
            "displayName": "MHz",
            "unitPattern-count-one": "{0} MHz",
            "unitPattern-count-other": "{0} MHz"
          },
          "length-astronomical-unit": {
            "displayName": "se",
            "unitPattern-count-one": "{0} se",
            "unitPattern-count-other": "{0} se"
          },
          "length-centimeter": {
            "displayName": "cm",
            "unitPattern-count-one": "{0} cm",
            "unitPattern-count-other": "{0} cm"
          },
          "length-decimeter": {
            "displayName": "dm",
            "unitPattern-count-one": "{0} dm",
            "unitPattern-count-other": "{0} dm"
          },
          "length-fathom": {
            "displayName": "fm",
            "unitPattern-count-other": "{0} fm"
          },
          "length-foot": {
            "displayName": "fet",
            "unitPattern-count-one": "{0} fet",
            "unitPattern-count-other": "{0} fet"
          },
          "length-furlong": {
            "displayName": "fur",
            "unitPattern-count-other": "{0} fur"
          },
          "length-inch": {
            "displayName": "tommur",
            "unitPattern-count-one": "{0} t.",
            "unitPattern-count-other": "{0} t."
          },
          "length-kilometer": {
            "displayName": "km",
            "unitPattern-count-one": "{0} km",
            "unitPattern-count-other": "{0} km"
          },
          "length-light-year": {
            "displayName": "ljósár",
            "unitPattern-count-one": "{0} ljósár",
            "unitPattern-count-other": "{0} ljósár"
          },
          "length-meter": {
            "displayName": "metrar",
            "unitPattern-count-one": "{0} m",
            "unitPattern-count-other": "{0} m"
          },
          "length-micrometer": {
            "displayName": "µmetrar",
            "unitPattern-count-one": "{0} µm",
            "unitPattern-count-other": "{0} µm"
          },
          "length-mile": {
            "displayName": "mílur",
            "unitPattern-count-one": "{0} mí",
            "unitPattern-count-other": "{0} mí"
          },
          "length-millimeter": {
            "displayName": "mm",
            "unitPattern-count-one": "{0} mm",
            "unitPattern-count-other": "{0} mm"
          },
          "length-nanometer": {
            "displayName": "nm",
            "unitPattern-count-one": "{0} nm",
            "unitPattern-count-other": "{0} nm"
          },
          "length-nautical-mile": {
            "displayName": "sml",
            "unitPattern-count-one": "{0} sml",
            "unitPattern-count-other": "{0} sml"
          },
          "length-parsec": {
            "displayName": "parsek",
            "unitPattern-count-one": "{0} pc",
            "unitPattern-count-other": "{0} pc"
          },
          "length-picometer": {
            "displayName": "pm",
            "unitPattern-count-one": "{0} pm",
            "unitPattern-count-other": "{0} pm"
          },
          "length-yard": {
            "displayName": "yardar",
            "unitPattern-count-one": "{0} yd",
            "unitPattern-count-other": "{0} yd"
          },
          "light-lux": {
            "displayName": "lúx",
            "unitPattern-count-one": "{0} lx",
            "unitPattern-count-other": "{0} lx"
          },
          "mass-carat": {
            "displayName": "karöt",
            "unitPattern-count-one": "{0} kt.",
            "unitPattern-count-other": "{0} kt."
          },
          "mass-gram": {
            "displayName": "grömm",
            "unitPattern-count-one": "{0} g",
            "unitPattern-count-other": "{0} g"
          },
          "mass-kilogram": {
            "displayName": "kg",
            "unitPattern-count-one": "{0} kg",
            "unitPattern-count-other": "{0} kg"
          },
          "mass-metric-ton": {
            "displayName": "tonn",
            "unitPattern-count-one": "{0} tn",
            "unitPattern-count-other": "{0} tn"
          },
          "mass-microgram": {
            "displayName": "µg",
            "unitPattern-count-one": "{0} µg",
            "unitPattern-count-other": "{0} µg"
          },
          "mass-milligram": {
            "displayName": "mg",
            "unitPattern-count-one": "{0} mg",
            "unitPattern-count-other": "{0} mg"
          },
          "mass-ounce": {
            "displayName": "únsur",
            "unitPattern-count-one": "{0} únsa",
            "unitPattern-count-other": "{0} únsur"
          },
          "mass-ounce-troy": {
            "displayName": "troyesoz",
            "unitPattern-count-one": "{0} oz t",
            "unitPattern-count-other": "{0} oz t"
          },
          "mass-pound": {
            "displayName": "pund",
            "unitPattern-count-one": "{0} p.",
            "unitPattern-count-other": "{0} p."
          },
          "mass-stone": {
            "displayName": "st",
            "unitPattern-count-other": "{0} st"
          },
          "mass-ton": {
            "displayName": "BNA tonn",
            "unitPattern-count-one": "{0} BNA tn",
            "unitPattern-count-other": "{0} BNA tn"
          },
          "power-gigawatt": {
            "displayName": "GW",
            "unitPattern-count-one": "{0} GW",
            "unitPattern-count-other": "{0} GW"
          },
          "power-horsepower": {
            "displayName": "hö",
            "unitPattern-count-one": "{0} hö",
            "unitPattern-count-other": "{0} hö"
          },
          "power-kilowatt": {
            "displayName": "kW",
            "unitPattern-count-one": "{0} kW",
            "unitPattern-count-other": "{0} kW"
          },
          "power-megawatt": {
            "displayName": "MW",
            "unitPattern-count-one": "{0} MW",
            "unitPattern-count-other": "{0} MW"
          },
          "power-milliwatt": {
            "displayName": "mW",
            "unitPattern-count-one": "{0} mW",
            "unitPattern-count-other": "{0} mW"
          },
          "power-watt": {
            "displayName": "vött",
            "unitPattern-count-one": "{0} W",
            "unitPattern-count-other": "{0} W"
          },
          "pressure-hectopascal": {
            "displayName": "hPa",
            "unitPattern-count-one": "{0} hPa",
            "unitPattern-count-other": "{0} hPa"
          },
          "pressure-inch-hg": {
            "displayName": "inHg",
            "unitPattern-count-one": "{0} inHg",
            "unitPattern-count-other": "{0} inHg"
          },
          "pressure-millibar": {
            "displayName": "mbar",
            "unitPattern-count-one": "{0} mbar",
            "unitPattern-count-other": "{0} mbör"
          },
          "pressure-millimeter-of-mercury": {
            "displayName": "mm Hg",
            "unitPattern-count-one": "{0} mm Hg",
            "unitPattern-count-other": "{0} mm Hg"
          },
          "pressure-pound-per-square-inch": {
            "displayName": "psi",
            "unitPattern-count-one": "{0} psi",
            "unitPattern-count-other": "{0} psi"
          },
          "proportion-karat": {
            "displayName": "kt",
            "unitPattern-count-one": "{0} kt",
            "unitPattern-count-other": "{0} kt"
          },
          "speed-kilometer-per-hour": {
            "displayName": "kílómetrar á klukkustund",
            "unitPattern-count-one": "{0} km/klst.",
            "unitPattern-count-other": "{0} km/klst."
          },
          "speed-meter-per-second": {
            "displayName": "metrar/sek.",
            "unitPattern-count-one": "{0} m/s",
            "unitPattern-count-other": "{0} m/s"
          },
          "speed-mile-per-hour": {
            "displayName": "mílur/klst.",
            "unitPattern-count-one": "{0} míla/klst.",
            "unitPattern-count-other": "{0} mílur/klst."
          },
          "temperature-celsius": {
            "displayName": "gráður á Celsíus",
            "unitPattern-count-one": "{0}°C",
            "unitPattern-count-other": "{0}°C"
          },
          "temperature-fahrenheit": {
            "displayName": "°F",
            "unitPattern-count-one": "{0}°F",
            "unitPattern-count-other": "{0}°F"
          },
          "temperature-kelvin": {
            "displayName": "K",
            "unitPattern-count-one": "{0} K",
            "unitPattern-count-other": "{0} K"
          },
          "volume-acre-foot": {
            "displayName": "ekrufet",
            "unitPattern-count-one": "{0} ekrufet",
            "unitPattern-count-other": "{0} ekrufet"
          },
          "volume-bushel": {
            "displayName": "bu",
            "unitPattern-count-other": "{0} bu"
          },
          "volume-centiliter": {
            "displayName": "cl",
            "unitPattern-count-one": "{0} cl",
            "unitPattern-count-other": "{0} cl"
          },
          "volume-cubic-centimeter": {
            "displayName": "cm³",
            "unitPattern-count-one": "{0} cm³",
            "unitPattern-count-other": "{0} cm³"
          },
          "volume-cubic-foot": {
            "displayName": "fet³",
            "unitPattern-count-one": "{0} fet³",
            "unitPattern-count-other": "{0} fet³"
          },
          "volume-cubic-inch": {
            "displayName": "tommur³",
            "unitPattern-count-one": "{0} t³",
            "unitPattern-count-other": "{0} t³"
          },
          "volume-cubic-kilometer": {
            "displayName": "km³",
            "unitPattern-count-one": "{0} km³",
            "unitPattern-count-other": "{0} km³"
          },
          "volume-cubic-meter": {
            "displayName": "m³",
            "unitPattern-count-one": "{0} m³",
            "unitPattern-count-other": "{0} m³"
          },
          "volume-cubic-mile": {
            "displayName": "mí³",
            "unitPattern-count-one": "{0} rúmmíla",
            "unitPattern-count-other": "{0} rúmmílur"
          },
          "volume-cubic-yard": {
            "displayName": "yardar³",
            "unitPattern-count-one": "{0} yd³",
            "unitPattern-count-other": "{0} yd³"
          },
          "volume-cup": {
            "displayName": "bollar",
            "unitPattern-count-one": "{0} bolli",
            "unitPattern-count-other": "{0} bollar"
          },
          "volume-deciliter": {
            "displayName": "dl",
            "unitPattern-count-one": "{0} dl",
            "unitPattern-count-other": "{0} dl"
          },
          "volume-fluid-ounce": {
            "displayName": "fl oz",
            "unitPattern-count-one": "{0} fl oz",
            "unitPattern-count-other": "{0} fl oz"
          },
          "volume-gallon": {
            "displayName": "gal",
            "unitPattern-count-one": "{0} gal",
            "unitPattern-count-other": "{0} gal"
          },
          "volume-hectoliter": {
            "displayName": "hl",
            "unitPattern-count-one": "{0} hl",
            "unitPattern-count-other": "{0} hl"
          },
          "volume-liter": {
            "displayName": "lítrar",
            "unitPattern-count-one": "{0} l",
            "unitPattern-count-other": "{0} l"
          },
          "volume-megaliter": {
            "displayName": "Ml",
            "unitPattern-count-one": "{0} Ml",
            "unitPattern-count-other": "{0} Ml"
          },
          "volume-milliliter": {
            "displayName": "ml",
            "unitPattern-count-one": "{0} ml",
            "unitPattern-count-other": "{0} ml"
          },
          "volume-pint": {
            "displayName": "hálfp.",
            "unitPattern-count-one": "{0} hálfp.",
            "unitPattern-count-other": "{0} hálfp."
          },
          "volume-quart": {
            "displayName": "qts",
            "unitPattern-count-one": "{0} qt",
            "unitPattern-count-other": "{0} qt"
          },
          "volume-tablespoon": {
            "displayName": "msk",
            "unitPattern-count-one": "{0} msk",
            "unitPattern-count-other": "{0} msk"
          },
          "volume-teaspoon": {
            "displayName": "tsk",
            "unitPattern-count-one": "{0} tsk",
            "unitPattern-count-other": "{0} tsk"
          }
        },
        "narrow": {
          "per": {
            "compoundUnitPattern": "{0}/{1}"
          },
          "acceleration-g-force": {
            "displayName": "g-hröðun",
            "unitPattern-count-one": "{0}G",
            "unitPattern-count-other": "{0}G"
          },
          "acceleration-meter-per-second-squared": {
            "displayName": "metrar/sek²",
            "unitPattern-count-one": "{0} m/s²",
            "unitPattern-count-other": "{0} m/s²"
          },
          "angle-arc-minute": {
            "displayName": "bogamín.",
            "unitPattern-count-one": "{0}′",
            "unitPattern-count-other": "{0}′"
          },
          "angle-arc-second": {
            "displayName": "bogasek.",
            "unitPattern-count-one": "{0}″",
            "unitPattern-count-other": "{0}″"
          },
          "angle-degree": {
            "displayName": "gráður",
            "unitPattern-count-one": "{0}°",
            "unitPattern-count-other": "{0}°"
          },
          "angle-radian": {
            "displayName": "rad",
            "unitPattern-count-one": "{0} rad",
            "unitPattern-count-other": "{0} rad"
          },
          "area-acre": {
            "displayName": "ekrur",
            "unitPattern-count-one": "{0} ek.",
            "unitPattern-count-other": "{0} ek."
          },
          "area-hectare": {
            "displayName": "hektarar",
            "unitPattern-count-one": "{0} ha",
            "unitPattern-count-other": "{0} ha"
          },
          "area-square-centimeter": {
            "displayName": "cm²",
            "unitPattern-count-one": "{0} cm²",
            "unitPattern-count-other": "{0} cm²"
          },
          "area-square-foot": {
            "displayName": "ferfet",
            "unitPattern-count-one": "{0} ferfet",
            "unitPattern-count-other": "{0} ferfet"
          },
          "area-square-inch": {
            "displayName": "tommur²",
            "unitPattern-count-one": "{0} t²",
            "unitPattern-count-other": "{0} t²"
          },
          "area-square-kilometer": {
            "displayName": "km²",
            "unitPattern-count-one": "{0} km²",
            "unitPattern-count-other": "{0} km²"
          },
          "area-square-meter": {
            "displayName": "fermetrar",
            "unitPattern-count-one": "{0} m²",
            "unitPattern-count-other": "{0} m²"
          },
          "area-square-mile": {
            "displayName": "fermílur",
            "unitPattern-count-one": "{0}mí²",
            "unitPattern-count-other": "{0}mí²"
          },
          "area-square-yard": {
            "displayName": "yardar²",
            "unitPattern-count-one": "{0} yd²",
            "unitPattern-count-other": "{0} yd²"
          },
          "consumption-liter-per-kilometer": {
            "displayName": "lítrar/km",
            "unitPattern-count-one": "{0} l/km",
            "unitPattern-count-other": "{0} l/km"
          },
          "consumption-mile-per-gallon": {
            "displayName": "mílur/gallon",
            "unitPattern-count-one": "{0} mí./gal.",
            "unitPattern-count-other": "{0} mí./gal."
          },
          "digital-bit": {
            "displayName": "biti",
            "unitPattern-count-one": "{0} bitar",
            "unitPattern-count-other": "{0} bitar"
          },
          "digital-byte": {
            "displayName": "bæti",
            "unitPattern-count-one": "{0} bæti",
            "unitPattern-count-other": "{0} bæti"
          },
          "digital-gigabit": {
            "displayName": "Gb",
            "unitPattern-count-one": "{0} Gb",
            "unitPattern-count-other": "{0} Gb"
          },
          "digital-gigabyte": {
            "displayName": "GB",
            "unitPattern-count-one": "{0} GB",
            "unitPattern-count-other": "{0} GB"
          },
          "digital-kilobit": {
            "displayName": "kb",
            "unitPattern-count-one": "{0} kb",
            "unitPattern-count-other": "{0} kb"
          },
          "digital-kilobyte": {
            "displayName": "kB",
            "unitPattern-count-one": "{0} kB",
            "unitPattern-count-other": "{0} kB"
          },
          "digital-megabit": {
            "displayName": "Mb",
            "unitPattern-count-one": "{0} Mb",
            "unitPattern-count-other": "{0} Mb"
          },
          "digital-megabyte": {
            "displayName": "MB",
            "unitPattern-count-one": "{0} MB",
            "unitPattern-count-other": "{0} MB"
          },
          "digital-terabit": {
            "displayName": "Tb",
            "unitPattern-count-one": "{0} Tb",
            "unitPattern-count-other": "{0} Tb"
          },
          "digital-terabyte": {
            "displayName": "TB",
            "unitPattern-count-one": "{0} TB",
            "unitPattern-count-other": "{0} TB"
          },
          "duration-day": {
            "displayName": "dagur",
            "unitPattern-count-one": "{0} d.",
            "unitPattern-count-other": "{0} d."
          },
          "duration-hour": {
            "displayName": "klukkustund",
            "unitPattern-count-one": "{0} klst.",
            "unitPattern-count-other": "{0} klst.",
            "perUnitPattern": "{0}/klst."
          },
          "duration-microsecond": {
            "displayName": "μsek.",
            "unitPattern-count-one": "{0} μs",
            "unitPattern-count-other": "{0} μs"
          },
          "duration-millisecond": {
            "displayName": "millisek.",
            "unitPattern-count-one": "{0}ms",
            "unitPattern-count-other": "{0}ms"
          },
          "duration-minute": {
            "displayName": "mín.",
            "unitPattern-count-one": "{0} mín.",
            "unitPattern-count-other": "{0} mín."
          },
          "duration-month": {
            "displayName": "mánuður",
            "unitPattern-count-one": "{0} mán.",
            "unitPattern-count-other": "{0} mán."
          },
          "duration-nanosecond": {
            "displayName": "nanósek.",
            "unitPattern-count-one": "{0} ns",
            "unitPattern-count-other": "{0} ns"
          },
          "duration-second": {
            "displayName": "sek.",
            "unitPattern-count-one": "{0} sek.",
            "unitPattern-count-other": "{0} sek.",
            "perUnitPattern": "{0}/sek."
          },
          "duration-week": {
            "displayName": "vika",
            "unitPattern-count-one": "{0} v.",
            "unitPattern-count-other": "{0} v."
          },
          "duration-year": {
            "displayName": "ár",
            "unitPattern-count-one": "{0}á",
            "unitPattern-count-other": "{0}á"
          },
          "electric-ampere": {
            "displayName": "A",
            "unitPattern-count-one": "{0} A",
            "unitPattern-count-other": "{0} A"
          },
          "electric-milliampere": {
            "displayName": "mA",
            "unitPattern-count-one": "{0} mA",
            "unitPattern-count-other": "{0} mA"
          },
          "electric-ohm": {
            "displayName": "ohm",
            "unitPattern-count-one": "{0} Ω",
            "unitPattern-count-other": "{0} Ω"
          },
          "electric-volt": {
            "displayName": "volt",
            "unitPattern-count-one": "{0} V",
            "unitPattern-count-other": "{0} V"
          },
          "energy-calorie": {
            "displayName": "cal",
            "unitPattern-count-one": "{0} cal",
            "unitPattern-count-other": "{0} cal"
          },
          "energy-foodcalorie": {
            "displayName": "kal",
            "unitPattern-count-one": "{0} kal",
            "unitPattern-count-other": "{0} kal"
          },
          "energy-joule": {
            "displayName": "júl",
            "unitPattern-count-one": "{0} J",
            "unitPattern-count-other": "{0} J"
          },
          "energy-kilocalorie": {
            "displayName": "kcal",
            "unitPattern-count-one": "{0} kcal",
            "unitPattern-count-other": "{0} kcal"
          },
          "energy-kilojoule": {
            "displayName": "kílójúl",
            "unitPattern-count-one": "{0} kJ",
            "unitPattern-count-other": "{0} kJ"
          },
          "energy-kilowatt-hour": {
            "displayName": "kWh",
            "unitPattern-count-one": "{0} kWh",
            "unitPattern-count-other": "{0} kWh"
          },
          "frequency-gigahertz": {
            "displayName": "GHz",
            "unitPattern-count-one": "{0} GHz",
            "unitPattern-count-other": "{0} GHz"
          },
          "frequency-hertz": {
            "displayName": "Hz",
            "unitPattern-count-one": "{0} Hz",
            "unitPattern-count-other": "{0} Hz"
          },
          "frequency-kilohertz": {
            "displayName": "kHz",
            "unitPattern-count-one": "{0} kHz",
            "unitPattern-count-other": "{0} kHz"
          },
          "frequency-megahertz": {
            "displayName": "MHz",
            "unitPattern-count-one": "{0} MHz",
            "unitPattern-count-other": "{0} MHz"
          },
          "length-astronomical-unit": {
            "displayName": "se",
            "unitPattern-count-one": "{0} se",
            "unitPattern-count-other": "{0} se"
          },
          "length-centimeter": {
            "displayName": "cm",
            "unitPattern-count-one": "{0} cm",
            "unitPattern-count-other": "{0} cm"
          },
          "length-decimeter": {
            "displayName": "dm",
            "unitPattern-count-one": "{0} dm",
            "unitPattern-count-other": "{0} dm"
          },
          "length-fathom": {
            "displayName": "fm",
            "unitPattern-count-other": "{0} fm"
          },
          "length-foot": {
            "displayName": "fet",
            "unitPattern-count-one": "{0} fet",
            "unitPattern-count-other": "{0} fet"
          },
          "length-furlong": {
            "displayName": "fur",
            "unitPattern-count-other": "{0} fur"
          },
          "length-inch": {
            "displayName": "tommur",
            "unitPattern-count-one": "{0}″",
            "unitPattern-count-other": "{0}″"
          },
          "length-kilometer": {
            "displayName": "km",
            "unitPattern-count-one": "{0} km",
            "unitPattern-count-other": "{0} km"
          },
          "length-light-year": {
            "displayName": "ljósár",
            "unitPattern-count-one": "{0} lj.",
            "unitPattern-count-other": "{0} lj."
          },
          "length-meter": {
            "displayName": "metri",
            "unitPattern-count-one": "{0}m",
            "unitPattern-count-other": "{0}m"
          },
          "length-micrometer": {
            "displayName": "µmetrar",
            "unitPattern-count-one": "{0} µm",
            "unitPattern-count-other": "{0} µm"
          },
          "length-mile": {
            "displayName": "mílur",
            "unitPattern-count-one": "{0} mí",
            "unitPattern-count-other": "{0} mí"
          },
          "length-millimeter": {
            "displayName": "mm",
            "unitPattern-count-one": "{0}mm",
            "unitPattern-count-other": "{0}mm"
          },
          "length-nanometer": {
            "displayName": "nm",
            "unitPattern-count-one": "{0} nm",
            "unitPattern-count-other": "{0} nm"
          },
          "length-nautical-mile": {
            "displayName": "sml",
            "unitPattern-count-one": "{0} sml",
            "unitPattern-count-other": "{0} sml"
          },
          "length-parsec": {
            "displayName": "parsek",
            "unitPattern-count-one": "{0} pc",
            "unitPattern-count-other": "{0} pc"
          },
          "length-picometer": {
            "displayName": "pm",
            "unitPattern-count-one": "{0} pm",
            "unitPattern-count-other": "{0} pm"
          },
          "length-yard": {
            "displayName": "yardar",
            "unitPattern-count-one": "{0} yd",
            "unitPattern-count-other": "{0} yd"
          },
          "light-lux": {
            "displayName": "lúx",
            "unitPattern-count-one": "{0} lx",
            "unitPattern-count-other": "{0} lx"
          },
          "mass-carat": {
            "displayName": "karöt",
            "unitPattern-count-one": "{0} kt.",
            "unitPattern-count-other": "{0} kt."
          },
          "mass-gram": {
            "displayName": "g",
            "unitPattern-count-one": "{0} g",
            "unitPattern-count-other": "{0} g"
          },
          "mass-kilogram": {
            "displayName": "kg",
            "unitPattern-count-one": "{0} kg",
            "unitPattern-count-other": "{0} kg"
          },
          "mass-metric-ton": {
            "displayName": "tonn",
            "unitPattern-count-one": "{0} tn",
            "unitPattern-count-other": "{0} tn"
          },
          "mass-microgram": {
            "displayName": "µg",
            "unitPattern-count-one": "{0} µg",
            "unitPattern-count-other": "{0} µg"
          },
          "mass-milligram": {
            "displayName": "mg",
            "unitPattern-count-one": "{0} mg",
            "unitPattern-count-other": "{0} mg"
          },
          "mass-ounce": {
            "displayName": "únsur",
            "unitPattern-count-one": "{0} únsa",
            "unitPattern-count-other": "{0} únsur"
          },
          "mass-ounce-troy": {
            "displayName": "troyesoz",
            "unitPattern-count-one": "{0} oz t",
            "unitPattern-count-other": "{0} oz t"
          },
          "mass-pound": {
            "displayName": "pund",
            "unitPattern-count-one": "{0} p.",
            "unitPattern-count-other": "{0} p."
          },
          "mass-stone": {
            "displayName": "st",
            "unitPattern-count-other": "{0} st"
          },
          "mass-ton": {
            "displayName": "BNA tonn",
            "unitPattern-count-one": "{0} BNA tn",
            "unitPattern-count-other": "{0} BNA tn"
          },
          "power-gigawatt": {
            "displayName": "GW",
            "unitPattern-count-one": "{0} GW",
            "unitPattern-count-other": "{0} GW"
          },
          "power-horsepower": {
            "displayName": "hö",
            "unitPattern-count-one": "{0} ek",
            "unitPattern-count-other": "{0} ek"
          },
          "power-kilowatt": {
            "displayName": "kW",
            "unitPattern-count-one": "{0} kW",
            "unitPattern-count-other": "{0} kW"
          },
          "power-megawatt": {
            "displayName": "MW",
            "unitPattern-count-one": "{0} MW",
            "unitPattern-count-other": "{0} MW"
          },
          "power-milliwatt": {
            "displayName": "mW",
            "unitPattern-count-one": "{0} mW",
            "unitPattern-count-other": "{0} mW"
          },
          "power-watt": {
            "displayName": "vött",
            "unitPattern-count-one": "{0} W",
            "unitPattern-count-other": "{0} W"
          },
          "pressure-hectopascal": {
            "displayName": "hPa",
            "unitPattern-count-one": "{0} hPa",
            "unitPattern-count-other": "{0} hPa"
          },
          "pressure-inch-hg": {
            "displayName": "inHg",
            "unitPattern-count-one": "{0}\" Hg",
            "unitPattern-count-other": "{0}\" Hg"
          },
          "pressure-millibar": {
            "displayName": "mbar",
            "unitPattern-count-one": "{0} mbar",
            "unitPattern-count-other": "{0} mbör"
          },
          "pressure-millimeter-of-mercury": {
            "displayName": "mm Hg",
            "unitPattern-count-one": "{0} mm Hg",
            "unitPattern-count-other": "{0} mm Hg"
          },
          "pressure-pound-per-square-inch": {
            "displayName": "psi",
            "unitPattern-count-one": "{0} psi",
            "unitPattern-count-other": "{0} psi"
          },
          "proportion-karat": {
            "displayName": "kt",
            "unitPattern-count-one": "{0} kt",
            "unitPattern-count-other": "{0} kt"
          },
          "speed-kilometer-per-hour": {
            "displayName": "km/klst.",
            "unitPattern-count-one": "{0} km/klst.",
            "unitPattern-count-other": "{0} km/klst."
          },
          "speed-meter-per-second": {
            "displayName": "m/sek.",
            "unitPattern-count-one": "{0} m/s",
            "unitPattern-count-other": "{0} m/s"
          },
          "speed-mile-per-hour": {
            "displayName": "mílur/klst.",
            "unitPattern-count-one": "{0} míla/klst.",
            "unitPattern-count-other": "{0} míl./klst."
          },
          "temperature-celsius": {
            "displayName": "°C",
            "unitPattern-count-one": "{0}°C",
            "unitPattern-count-other": "{0}°C"
          },
          "temperature-fahrenheit": {
            "displayName": "°F",
            "unitPattern-count-one": "{0}°F",
            "unitPattern-count-other": "{0}°F"
          },
          "temperature-kelvin": {
            "displayName": "K",
            "unitPattern-count-one": "{0} K",
            "unitPattern-count-other": "{0} K"
          },
          "volume-acre-foot": {
            "displayName": "ekrufet",
            "unitPattern-count-one": "{0} ekrufet",
            "unitPattern-count-other": "{0} ekrufet"
          },
          "volume-bushel": {
            "displayName": "bu",
            "unitPattern-count-other": "{0} bu"
          },
          "volume-centiliter": {
            "displayName": "cl",
            "unitPattern-count-one": "{0} cl",
            "unitPattern-count-other": "{0} cl"
          },
          "volume-cubic-centimeter": {
            "displayName": "cm³",
            "unitPattern-count-one": "{0} cm³",
            "unitPattern-count-other": "{0} cm³"
          },
          "volume-cubic-foot": {
            "displayName": "fet³",
            "unitPattern-count-one": "{0} fet³",
            "unitPattern-count-other": "{0} fet³"
          },
          "volume-cubic-inch": {
            "displayName": "tommur³",
            "unitPattern-count-one": "{0} t³",
            "unitPattern-count-other": "{0} t³"
          },
          "volume-cubic-kilometer": {
            "displayName": "km³",
            "unitPattern-count-one": "{0} km³",
            "unitPattern-count-other": "{0} km³"
          },
          "volume-cubic-meter": {
            "displayName": "m³",
            "unitPattern-count-one": "{0} m³",
            "unitPattern-count-other": "{0} m³"
          },
          "volume-cubic-mile": {
            "displayName": "mí³",
            "unitPattern-count-one": "{0}mi³",
            "unitPattern-count-other": "{0}mi³"
          },
          "volume-cubic-yard": {
            "displayName": "yardar³",
            "unitPattern-count-one": "{0} yd³",
            "unitPattern-count-other": "{0} yd³"
          },
          "volume-cup": {
            "displayName": "bollar",
            "unitPattern-count-one": "{0} bollar",
            "unitPattern-count-other": "{0} bollar"
          },
          "volume-deciliter": {
            "displayName": "dl",
            "unitPattern-count-one": "{0} dl",
            "unitPattern-count-other": "{0} dl"
          },
          "volume-fluid-ounce": {
            "displayName": "fl oz",
            "unitPattern-count-one": "{0} fl oz",
            "unitPattern-count-other": "{0} fl oz"
          },
          "volume-gallon": {
            "displayName": "gal",
            "unitPattern-count-one": "{0} gal",
            "unitPattern-count-other": "{0} gal"
          },
          "volume-hectoliter": {
            "displayName": "hl",
            "unitPattern-count-one": "{0} hl",
            "unitPattern-count-other": "{0} hl"
          },
          "volume-liter": {
            "displayName": "lítri",
            "unitPattern-count-one": "{0} l",
            "unitPattern-count-other": "{0} l"
          },
          "volume-megaliter": {
            "displayName": "Ml",
            "unitPattern-count-one": "{0} Ml",
            "unitPattern-count-other": "{0} Ml"
          },
          "volume-milliliter": {
            "displayName": "ml",
            "unitPattern-count-one": "{0} ml",
            "unitPattern-count-other": "{0} ml"
          },
          "volume-pint": {
            "displayName": "hálfp.",
            "unitPattern-count-one": "{0} hálfp.",
            "unitPattern-count-other": "{0} hálfp."
          },
          "volume-quart": {
            "displayName": "qts",
            "unitPattern-count-one": "{0} qt",
            "unitPattern-count-other": "{0} qt"
          },
          "volume-tablespoon": {
            "displayName": "msk",
            "unitPattern-count-one": "{0} msk",
            "unitPattern-count-other": "{0} msk"
          },
          "volume-teaspoon": {
            "displayName": "tsk",
            "unitPattern-count-one": "{0} tsk",
            "unitPattern-count-other": "{0} tsk"
          }
        },
        "durationUnit-type-hm": {
          "durationUnitPattern": "h:mm"
        },
        "durationUnit-type-hms": {
          "durationUnitPattern": "h:mm:ss"
        },
        "durationUnit-type-ms": {
          "durationUnitPattern": "m:ss"
        }
      }
    }
  }
}
