{
  "main": {
    "fr-CM": {
      "identity": {
        "version": {
          "_cldrVersion": "26",
          "_number": "$Revision: 10669 $"
        },
        "generation": {
          "_date": "$Date: 2014-07-23 16:10:33 -0500 (Wed, 23 Jul 2014) $"
        },
        "language": "fr",
        "territory": "CM"
      },
      "localeDisplayNames": {
        "variants": {
          "1606NICT": "françoys de 1606",
          "1694ACAD": "françois académique de 1694",
          "1901": "orthographe allemande traditionnelle",
          "1959ACAD": "académique de 1959",
          "1994": "orthographe normalisée de Resia",
          "1996": "orthographe allemande de 1996",
          "ALALC97": "romanisation ALA-LC de 1997",
          "ALUKU": "dialecte aluku",
          "AREVELA": "arménien oriental",
          "AREVMDA": "arménien occidental",
          "BAKU1926": "alphabet latin altaïque unifié",
          "BALANKA": "BALANKA",
          "BARLA": "BARLA",
          "BAUDDHA": "variante hybride bouddhiste",
          "BISCAYAN": "biscayen",
          "BISKE": "dialecte de San Giorgio / Bila",
          "BOHORIC": "alphabet Bohorič",
          "BOONT": "dialecte boontling",
          "DAJNKO": "alphabet Dajnko",
          "EKAVSK": "EKAVSK",
          "EMODENG": "anglais moderne ancien",
          "FONIPA": "alphabet phonétique international",
          "FONUPA": "alphabet phonétique ouralique",
          "FONXSAMP": "alphabet phonétique X-SAMPA",
          "HEPBURN": "romanisation Hepburn",
          "HOGNORSK": "dialecte høgnorsk",
          "IJEKAVSK": "IJEKAVSK",
          "ITIHASA": "variante épique",
          "JAUER": "dialecte jauer",
          "JYUTPING": "romanisation Jyutping",
          "KKCOR": "orthographe commune",
          "KSCOR": "orthographe standard",
          "LAUKIKA": "variante classique",
          "LIPAW": "dialecte lipovaz de Resia",
          "LUNA1918": "orthographe russe réformée de 1918",
          "METELKO": "alphabet Metelko",
          "MONOTON": "monotonique",
          "NDYUKA": "dialecte ndyuka",
          "NEDIS": "dialecte de Natisone",
          "NJIVA": "dialecte de Gniva / Njiva",
          "NULIK": "volapük moderne",
          "OSOJS": "dialecte d’Oseacco / Osojane",
          "PAMAKA": "dialecte pamaka",
          "PETR1708": "orthographe pétrine de 1708",
          "PINYIN": "pinyin",
          "POLYTON": "polytonique",
          "POSIX": "informatique",
          "PUTER": "idiome puter",
          "REVISED": "orthographe révisée",
          "RIGIK": "volapük classique",
          "ROZAJ": "dialecte de Resia",
          "RUMGR": "standard des Grisons",
          "SAAHO": "dialecte saho",
          "SCOTLAND": "anglais standard écossais",
          "SCOUSE": "dialecte scouse",
          "SOLBA": "dialecte de Stolvizza / Solbica",
          "SOTAV": "SOTAV",
          "SURMIRAN": "idiome surmiran",
          "SURSILV": "idiome sursilvan",
          "SUTSILV": "idiome sutsilvan",
          "TARASK": "orthographe taraskievica",
          "UCCOR": "orthographe unifiée",
          "UCRCOR": "orthographe révisée unifiée",
          "ULSTER": "orthographe de l’Ulster",
          "UNIFON": "UNIFON",
          "VAIDIKA": "variante védique",
          "VALENCIA": "valencien",
          "VALLADER": "idiome vallader",
          "WADEGILE": "Wade-Giles"
        }
      }
    }
  }
}
