{
  "main": {
    "zu": {
      "identity": {
        "version": {
          "_cldrVersion": "26",
          "_number": "$Revision: 10818 $"
        },
        "generation": {
          "_date": "$Date: 2014-08-14 22:06:50 -0500 (Thu, 14 Aug 2014) $"
        },
        "language": "root"
      },
      "localeDisplayNames": {
        "transformNames": {
          "BGN": "I-BGN",
          "Numeric": "Okwezinombolo",
          "Tone": "Ithoni",
          "UNGEGN": "I-UNGEGN",
          "x-Accents": "Ama-Accent",
          "x-Fullwidth": "i-Fullwidth",
          "x-Halfwidth": "Ubude obuhhafu",
          "x-Jamo": "i-Jamo",
          "x-Pinyin": "i-Pinyin",
          "x-Publishing": "Ukushicilela"
        }
      }
    }
  }
}
