{
  "main": {
    "ky-Cyrl": {
      "identity": {
        "version": {
          "_cldrVersion": "26",
          "_number": "$Revision: 10669 $"
        },
        "generation": {
          "_date": "$Date: 2014-07-23 16:10:33 -0500 (Wed, 23 Jul 2014) $"
        },
        "language": "ky",
        "script": "Cyrl"
      },
      "characters": {
        "exemplarCharacters": "[а б г д е ё ж з и й к л м н ӊ о ө п р с т у ү х ч ш ъ ы э ю я]",
        "auxiliary": "[в ф ц щ ь]",
        "punctuation": "[\\- ‐ – — , ; \\: ! ? . … ' ‘ ‚ \" “ „ « » ( ) \\[ \\] \\{ \\} § @ * / \\& #]",
        "index": "[А Б Г Д Е Ж З И Й К Л М Н Ӊ О Ө П Р С Т У Ү Х Ч Ш Ъ Ы Э Ю Я]",
        "ellipsis": {
          "initial": "…{0}",
          "medial": "{0}…{1}",
          "final": "{0}…",
          "word-initial": "… {0}",
          "word-medial": "{0} … {1}",
          "word-final": "{0} …"
        },
        "moreInformation": "?"
      }
    }
  }
}
