{
  "main": {
    "ja-JP": {
      "identity": {
        "version": {
          "_cldrVersion": "26",
          "_number": "$Revision: 10669 $"
        },
        "generation": {
          "_date": "$Date: 2014-07-23 16:10:33 -0500 (Wed, 23 Jul 2014) $"
        },
        "language": "ja",
        "territory": "JP"
      },
      "localeDisplayNames": {
        "variants": {
          "1606NICT": "後期中世フランス語(〜1606)",
          "1694ACAD": "初期現代フランス語",
          "1901": "ドイツ語旧正書法",
          "1959ACAD": "標準ベラルーシ語 (1959)",
          "1994": "標準レージア方言正書法",
          "1996": "ドイツ語正書法(1996)",
          "ALALC97": "ALA-LCラテン文字化(1997)",
          "ALUKU": "アロコ方言",
          "AREVELA": "東アルメニア文語",
          "AREVMDA": "西アルメニア文語",
          "BAKU1926": "統一トルコラテン文字",
          "BALANKA": "BALANKA",
          "BARLA": "BARLA",
          "BAUDDHA": "バウッダ",
          "BISCAYAN": "ビスカヤ語",
          "BISKE": "サン・ジョルジョ/ビーラ方言",
          "BOHORIC": "ボホリッツ・アルファベット",
          "BOONT": "ブーントリング",
          "DAJNKO": "ダインチッツァ",
          "EKAVSK": "EKAVSK",
          "EMODENG": "初期近代英語",
          "FONIPA": "国際音声記号",
          "FONUPA": "ウラル音声記号",
          "FONXSAMP": "フォンクサンプ",
          "HEPBURN": "ヘボン式ローマ字",
          "HOGNORSK": "ヘグノシュク",
          "IJEKAVSK": "IJEKAVSK",
          "ITIHASA": "イティハーサ",
          "JAUER": "ヤウエル",
          "JYUTPING": "略称粤拼",
          "KKCOR": "共通コーンウォール語正書法",
          "KSCOR": "標準コーンウォール語正書法",
          "LAUKIKA": "ラウキカ",
          "LIPAW": "レージア方言 リポヴァツ方言",
          "LUNA1918": "LUNA1918",
          "METELKO": "メテルチッツァ",
          "MONOTON": "モノトニック",
          "NDYUKA": "ンジュカ方言",
          "NEDIS": "ナティゾーネ方言",
          "NJIVA": "ニヴァ方言",
          "NULIK": "現代ヴォラピュク語",
          "OSOJS": "オゼアッコ/オソヤネ方言",
          "PAMAKA": "パマカ方言",
          "PETR1708": "PETR1708",
          "PINYIN": "ピン音(ローマ字表記法)",
          "POLYTON": "ポリトニック",
          "POSIX": "コンピュータ",
          "PUTER": "プーター",
          "REVISED": "改訂版",
          "RIGIK": "古典ヴォラピュク語",
          "ROZAJ": "レシア方言",
          "RUMGR": "RUMGR",
          "SAAHO": "サホ語",
          "SCOTLAND": "スコットランド標準英語",
          "SCOUSE": "リバプール方言",
          "SOLBA": "ストルヴィッツァ/ソルビツァ方言",
          "SOTAV": "SOTAV",
          "SURMIRAN": "スルミラン",
          "SURSILV": "スルシルヴァン",
          "SUTSILV": "ストシルヴァン",
          "TARASK": "タラシケヴィツァ正書法",
          "UCCOR": "統一コーンウォール語正書法",
          "UCRCOR": "改訂統一コーンウォール語正書法",
          "ULSTER": "アルスター",
          "UNIFON": "UNIFON",
          "VAIDIKA": "ヴァイディカ",
          "VALENCIA": "バレンシア方言",
          "VALLADER": "ヴァラダー",
          "WADEGILE": "ウェード式ローマ字表記法"
        }
      }
    }
  }
}
