{
  "main": {
    "sr-Cyrl-XK": {
      "identity": {
        "version": {
          "_cldrVersion": "26",
          "_number": "$Revision: 10669 $"
        },
        "generation": {
          "_date": "$Date: 2014-07-23 16:10:33 -0500 (Wed, 23 Jul 2014) $"
        },
        "language": "root",
        "script": "Cyrl",
        "territory": "XK"
      },
      "dates": {
        "calendars": {
          "japanese": {
            "months": {
              "format": {
                "abbreviated": {
                  "1": "јан",
                  "2": "феб",
                  "3": "мар",
                  "4": "апр",
                  "5": "мај",
                  "6": "јун",
                  "7": "јул",
                  "8": "авг",
                  "9": "сеп",
                  "10": "окт",
                  "11": "нов",
                  "12": "дец"
                },
                "narrow": {
                  "1": "ј",
                  "2": "ф",
                  "3": "м",
                  "4": "а",
                  "5": "м",
                  "6": "ј",
                  "7": "ј",
                  "8": "а",
                  "9": "с",
                  "10": "о",
                  "11": "н",
                  "12": "д"
                },
                "wide": {
                  "1": "јануар",
                  "2": "фебруар",
                  "3": "март",
                  "4": "април",
                  "5": "мај",
                  "6": "јун",
                  "7": "јул",
                  "8": "август",
                  "9": "септембар",
                  "10": "октобар",
                  "11": "новембар",
                  "12": "децембар"
                }
              },
              "stand-alone": {
                "abbreviated": {
                  "1": "јан",
                  "2": "феб",
                  "3": "мар",
                  "4": "апр",
                  "5": "мај",
                  "6": "јун",
                  "7": "јул",
                  "8": "авг",
                  "9": "сеп",
                  "10": "окт",
                  "11": "нов",
                  "12": "дец"
                },
                "narrow": {
                  "1": "ј",
                  "2": "ф",
                  "3": "м",
                  "4": "а",
                  "5": "м",
                  "6": "ј",
                  "7": "ј",
                  "8": "а",
                  "9": "с",
                  "10": "о",
                  "11": "н",
                  "12": "д"
                },
                "wide": {
                  "1": "јануар",
                  "2": "фебруар",
                  "3": "март",
                  "4": "април",
                  "5": "мај",
                  "6": "јун",
                  "7": "јул",
                  "8": "август",
                  "9": "септембар",
                  "10": "октобар",
                  "11": "новембар",
                  "12": "децембар"
                }
              }
            },
            "days": {
              "format": {
                "abbreviated": {
                  "sun": "нед",
                  "mon": "пон",
                  "tue": "уто",
                  "wed": "сре",
                  "thu": "чет",
                  "fri": "пет",
                  "sat": "суб"
                },
                "narrow": {
                  "sun": "н",
                  "mon": "п",
                  "tue": "у",
                  "wed": "с",
                  "thu": "ч",
                  "fri": "п",
                  "sat": "с"
                },
                "short": {
                  "sun": "нед",
                  "mon": "пон",
                  "tue": "уто",
                  "wed": "сре",
                  "thu": "чет",
                  "fri": "пет",
                  "sat": "суб"
                },
                "wide": {
                  "sun": "недеља",
                  "mon": "понедељак",
                  "tue": "уторак",
                  "wed": "среда",
                  "thu": "четвртак",
                  "fri": "петак",
                  "sat": "субота"
                }
              },
              "stand-alone": {
                "abbreviated": {
                  "sun": "нед",
                  "mon": "пон",
                  "tue": "уто",
                  "wed": "сре",
                  "thu": "чет",
                  "fri": "пет",
                  "sat": "суб"
                },
                "narrow": {
                  "sun": "н",
                  "mon": "п",
                  "tue": "у",
                  "wed": "с",
                  "thu": "ч",
                  "fri": "п",
                  "sat": "с"
                },
                "short": {
                  "sun": "не",
                  "mon": "по",
                  "tue": "ут",
                  "wed": "ср",
                  "thu": "че",
                  "fri": "пе",
                  "sat": "су"
                },
                "wide": {
                  "sun": "недеља",
                  "mon": "понедељак",
                  "tue": "уторак",
                  "wed": "среда",
                  "thu": "четвртак",
                  "fri": "петак",
                  "sat": "субота"
                }
              }
            },
            "quarters": {
              "format": {
                "abbreviated": {
                  "1": "К1",
                  "2": "К2",
                  "3": "К3",
                  "4": "К4"
                },
                "narrow": {
                  "1": "1.",
                  "2": "2.",
                  "3": "3.",
                  "4": "4."
                },
                "wide": {
                  "1": "Прво тромесечје",
                  "2": "Друго тромесечје",
                  "3": "Треће тромесечје",
                  "4": "Четврто тромесечје"
                }
              },
              "stand-alone": {
                "abbreviated": {
                  "1": "К1",
                  "2": "К2",
                  "3": "К3",
                  "4": "К4"
                },
                "narrow": {
                  "1": "1.",
                  "2": "2.",
                  "3": "3.",
                  "4": "4."
                },
                "wide": {
                  "1": "Прво тромесечје",
                  "2": "Друго тромесечје",
                  "3": "Треће тромесечје",
                  "4": "Четврто тромесечје"
                }
              }
            },
            "dayPeriods": {
              "format": {
                "abbreviated": {
                  "am": "пре подне",
                  "noon": "у подне",
                  "pm": "по подне"
                },
                "narrow": {
                  "am": "a",
                  "noon": "n",
                  "pm": "p"
                },
                "wide": {
                  "am": "пре подне",
                  "noon": "у подне",
                  "pm": "по подне"
                }
              },
              "stand-alone": {
                "abbreviated": {
                  "am": "пре подне",
                  "noon": "у подне",
                  "pm": "по подне"
                },
                "narrow": {
                  "am": "a",
                  "noon": "n",
                  "pm": "p"
                },
                "wide": {
                  "am": "пре подне",
                  "noon": "у подне",
                  "pm": "по подне"
                }
              }
            },
            "eras": {
              "eraNames": {
                "0": "Таика (645-650)",
                "1": "Хакучи (650-671)",
                "10": "Темпио (729-749)",
                "100": "Као (1169-1171)",
                "101": "Шоан (1171-1175)",
                "102": "Анген (1175-1177)",
                "103": "Ђишо (1177-1181)",
                "104": "Јова (1181-1182)",
                "105": "Ђуеи (1182-1184)",
                "106": "Генрјуку (1184-1185)",
                "107": "Бунђи (1185-1190)",
                "108": "Кенкју (1190-1199)",
                "109": "Шођи (1199-1201)",
                "11": "Темпио-кампо (749-749)",
                "110": "Кенин (1201-1204)",
                "111": "Генкју (1204-1206)",
                "112": "Кен-еи (1206-1207)",
                "113": "Шоген (1207-1211)",
                "114": "Кенрјаку (1211-1213)",
                "115": "Кенпо (1213-1219)",
                "116": "Шокју (1219-1222)",
                "117": "Ђу (1222-1224)",
                "118": "Ђенин (1224-1225)",
                "119": "Кароку (1225-1227)",
                "12": "Темпио-шохо (749-757)",
                "120": "Антеи (1227-1229)",
                "121": "Канки (1229-1232)",
                "122": "Ђоеи (1232-1233)",
                "123": "Темпуку (1233-1234)",
                "124": "Бунрјаку (1234-1235)",
                "125": "Катеи (1235-1238)",
                "126": "Рјакунин (1238-1239)",
                "127": "Ен-о (1239-1240)",
                "128": "Нињи (1240-1243)",
                "129": "Канген (1243-1247)",
                "13": "Темпио-хођи (757-765)",
                "130": "Хођи (1247-1249)",
                "131": "Кенчо (1249-1256)",
                "132": "Коген (1256-1257)",
                "133": "Шока (1257-1259)",
                "134": "Шоген (1259-1260)",
                "135": "Бун-о (1260-1261)",
                "136": "Кочо (1261-1264)",
                "137": "Бун-еи (1264-1275)",
                "138": "Кенђи (1275-1278)",
                "139": "Коан (1278-1288)",
                "14": "Темпо-ђинго (765-767)",
                "140": "Шу (1288-1293)",
                "141": "Еинин (1293-1299)",
                "142": "Шоан (1299-1302)",
                "143": "Кенген (1302-1303)",
                "144": "Каген (1303-1306)",
                "145": "Токуђи (1306-1308)",
                "146": "Енкеи (1308-1311)",
                "147": "Очо (1311-1312)",
                "148": "Шова (1312-1317)",
                "149": "Бунпо (1317-1319)",
                "15": "Ђинго-кеиун (767-770)",
                "150": "Ђено (1319-1321)",
                "151": "Ђенкјо (1321-1324)",
                "152": "Шочу (1324-1326)",
                "153": "Кареки (1326-1329)",
                "154": "Гентоку (1329-1331)",
                "155": "Генко (1331-1334)",
                "156": "Кему (1334-1336)",
                "157": "Енген (1336-1340)",
                "158": "Кококу (1340-1346)",
                "159": "Шохеи (1346-1370)",
                "16": "Хоки (770-780)",
                "160": "Кентоку (1370-1372)",
                "161": "Бучу (1372-1375)",
                "162": "Тењу (1375-1379)",
                "163": "Корјаку (1379-1381)",
                "164": "Кова (1381-1384)",
                "165": "Генчу (1384-1392)",
                "166": "Меитоку (1384-1387)",
                "167": "Какеи (1387-1389)",
                "168": "Ку (1389-1390)",
                "169": "Меитоку (1390-1394)",
                "17": "Тен-о (781-782)",
                "170": "Оеи (1394-1428)",
                "171": "Шочо (1428-1429)",
                "172": "Еикјо (1429-1441)",
                "173": "Какитсу (1441-1444)",
                "174": "Бун-ан (1444-1449)",
                "175": "Хотоку (1449-1452)",
                "176": "Кјотоку (1452-1455)",
                "177": "Кошо (1455-1457)",
                "178": "Чороку (1457-1460)",
                "179": "Каншо (1460-1466)",
                "18": "Енрјаку (782-806)",
                "180": "Буншо (1466-1467)",
                "181": "Онин (1467-1469)",
                "182": "Бунмеи (1469-1487)",
                "183": "Чокјо (1487-1489)",
                "184": "Ентоку (1489-1492)",
                "185": "Меио (1492-1501)",
                "186": "Бунки (1501-1504)",
                "187": "Еишо (1504-1521)",
                "188": "Таиеи (1521-1528)",
                "189": "Кјороку (1528-1532)",
                "19": "Даидо (806-810)",
                "190": "Тенмон (1532-1555)",
                "191": "Кођи (1555-1558)",
                "192": "Еироку (1558-1570)",
                "193": "Генки (1570-1573)",
                "194": "Теншо (1573-1592)",
                "195": "Бунроку (1592-1596)",
                "196": "Кеичо (1596-1615)",
                "197": "Генва (1615-1624)",
                "198": "Кан-еи (1624-1644)",
                "199": "Шохо (1644-1648)",
                "2": "Хакухо (672-686)",
                "20": "Конин (810-824)",
                "200": "Кеиан (1648-1652)",
                "201": "Шу (1652-1655)",
                "202": "Меирјаку (1655-1658)",
                "203": "Мањи (1658-1661)",
                "204": "Канбун (1661-1673)",
                "205": "Енпо (1673-1681)",
                "206": "Тенва (1681-1684)",
                "207": "Јокјо (1684-1688)",
                "208": "Генроку (1688-1704)",
                "209": "Хоеи (1704-1711)",
                "21": "Тенчо (824-834)",
                "210": "Шотоку (1711-1716)",
                "211": "Кјохо (1716-1736)",
                "212": "Генбун (1736-1741)",
                "213": "Канпо (1741-1744)",
                "214": "Енкјо (1744-1748)",
                "215": "Кан-ен (1748-1751)",
                "216": "Хорјаку (1751-1764)",
                "217": "Меива (1764-1772)",
                "218": "Ан-еи (1772-1781)",
                "219": "Тенмеи (1781-1789)",
                "22": "Шова (834-848)",
                "220": "Кансеи (1789-1801)",
                "221": "Кјова (1801-1804)",
                "222": "Бунка (1804-1818)",
                "223": "Бунсеи (1818-1830)",
                "224": "Тенпо (1830-1844)",
                "225": "Кока (1844-1848)",
                "226": "Каеи (1848-1854)",
                "227": "Ансеи (1854-1860)",
                "228": "Ман-ен (1860-1861)",
                "229": "Бункју (1861-1864)",
                "23": "Кајо (848-851)",
                "230": "Генђи (1864-1865)",
                "231": "Кеико (1865-1868)",
                "232": "Меиђи",
                "233": "Таишо",
                "234": "Шова",
                "235": "Хаисеи",
                "24": "Нињу (851-854)",
                "25": "Саико (854-857)",
                "26": "Тенан (857-859)",
                "27": "Јоган (859-877)",
                "28": "Генкеи (877-885)",
                "29": "Ниња (885-889)",
                "3": "Шучо (686-701)",
                "30": "Кампјо (889-898)",
                "31": "Шотаи (898-901)",
                "32": "Енђи (901-923)",
                "33": "Енчо (923-931)",
                "34": "Шохеи (931-938)",
                "35": "Тенгјо (938-947)",
                "36": "Тенриаку (947-957)",
                "37": "Тентоку (957-961)",
                "38": "Ова (961-964)",
                "39": "Кохо (964-968)",
                "4": "Таихо (701-704)",
                "40": "Ана (968-970)",
                "41": "Тенроку (970-973)",
                "42": "Тен-ен (973-976)",
                "43": "Јоген (976-978)",
                "44": "Тенген (978-983)",
                "45": "Еикан (983-985)",
                "46": "Кана (985-987)",
                "47": "Еи-ен (987-989)",
                "48": "Еисо (989-990)",
                "49": "Шорјаку (990-995)",
                "5": "Кеиун (704-708)",
                "50": "Чотоку (995-999)",
                "51": "Чохо (999-1004)",
                "52": "Канко (1004-1012)",
                "53": "Чова (1012-1017)",
                "54": "Канин (1017-1021)",
                "55": "Ђиан (1021-1024)",
                "56": "Мању (1024-1028)",
                "57": "Чоген (1028-1037)",
                "58": "Чорјаку (1037-1040)",
                "59": "Чокју (1040-1044)",
                "6": "Вадо (708-715)",
                "60": "Кантоку (1044-1046)",
                "61": "Еишо (1046-1053)",
                "62": "Тенђи (1053-1058)",
                "63": "Кохеи (1058-1065)",
                "64": "Ђирјаку (1065-1069)",
                "65": "Енкју (1069-1074)",
                "66": "Шохо (1074-1077)",
                "67": "Шорјаку (1077-1081)",
                "68": "Еишо (1081-1084)",
                "69": "Отоку (1084-1087)",
                "7": "Реики (715-717)",
                "70": "Канђи (1087-1094)",
                "71": "Кахо (1094-1096)",
                "72": "Еичо (1096-1097)",
                "73": "Шотоку (1097-1099)",
                "74": "Кова (1099-1104)",
                "75": "Чођи (1104-1106)",
                "76": "Кашо (1106-1108)",
                "77": "Тенин (1108-1110)",
                "78": "Тен-еи (1110-1113)",
                "79": "Еикју (1113-1118)",
                "8": "Јоро (717-724)",
                "80": "Ђен-еи (1118-1120)",
                "81": "Хоан (1120-1124)",
                "82": "Тенђи (1124-1126)",
                "83": "Даиђи (1126-1131)",
                "84": "Теншо (1131-1132)",
                "85": "Чошао (1132-1135)",
                "86": "Хоен (1135-1141)",
                "87": "Еиђи (1141-1142)",
                "88": "Кођи (1142-1144)",
                "89": "Тењо (1144-1145)",
                "9": "Јинки (724-729)",
                "90": "Кјуан (1145-1151)",
                "91": "Нинпеи (1151-1154)",
                "92": "Кјују (1154-1156)",
                "93": "Хоген (1156-1159)",
                "94": "Хеиђи (1159-1160)",
                "95": "Еирјаку (1160-1161)",
                "96": "Охо (1161-1163)",
                "97": "Чокан (1163-1165)",
                "98": "Еиман (1165-1166)",
                "99": "Нин-ан (1166-1169)"
              },
              "eraAbbr": {
                "0": "Таика (645-650)",
                "1": "Хакучи (650-671)",
                "10": "Темпио (729-749)",
                "100": "Као (1169-1171)",
                "101": "Шоан (1171-1175)",
                "102": "Анген (1175-1177)",
                "103": "Ђишо (1177-1181)",
                "104": "Јова (1181-1182)",
                "105": "Ђуеи (1182-1184)",
                "106": "Генрјуку (1184-1185)",
                "107": "Бунђи (1185-1190)",
                "108": "Кенкју (1190-1199)",
                "109": "Шођи (1199-1201)",
                "11": "Темпио-кампо (749-749)",
                "110": "Кенин (1201-1204)",
                "111": "Генкју (1204-1206)",
                "112": "Кен-еи (1206-1207)",
                "113": "Шоген (1207-1211)",
                "114": "Кенрјаку (1211-1213)",
                "115": "Кенпо (1213-1219)",
                "116": "Шокју (1219-1222)",
                "117": "Ђу (1222-1224)",
                "118": "Ђенин (1224-1225)",
                "119": "Кароку (1225-1227)",
                "12": "Темпио-шохо (749-757)",
                "120": "Антеи (1227-1229)",
                "121": "Канки (1229-1232)",
                "122": "Ђоеи (1232-1233)",
                "123": "Темпуку (1233-1234)",
                "124": "Бунрјаку (1234-1235)",
                "125": "Катеи (1235-1238)",
                "126": "Рјакунин (1238-1239)",
                "127": "Ен-о (1239-1240)",
                "128": "Нињи (1240-1243)",
                "129": "Канген (1243-1247)",
                "13": "Темпио-хођи (757-765)",
                "130": "Хођи (1247-1249)",
                "131": "Кенчо (1249-1256)",
                "132": "Коген (1256-1257)",
                "133": "Шока (1257-1259)",
                "134": "Шоген (1259-1260)",
                "135": "Бун-о (1260-1261)",
                "136": "Кочо (1261-1264)",
                "137": "Бун-еи (1264-1275)",
                "138": "Кенђи (1275-1278)",
                "139": "Коан (1278-1288)",
                "14": "Темпо-ђинго (765-767)",
                "140": "Шу (1288-1293)",
                "141": "Еинин (1293-1299)",
                "142": "Шоан (1299-1302)",
                "143": "Кенген (1302-1303)",
                "144": "Каген (1303-1306)",
                "145": "Токуђи (1306-1308)",
                "146": "Енкеи (1308-1311)",
                "147": "Очо (1311-1312)",
                "148": "Шова (1312-1317)",
                "149": "Бунпо (1317-1319)",
                "15": "Ђинго-кеиун (767-770)",
                "150": "Ђено (1319-1321)",
                "151": "Ђенкјо (1321-1324)",
                "152": "Шочу (1324-1326)",
                "153": "Кареки (1326-1329)",
                "154": "Гентоку (1329-1331)",
                "155": "Генко (1331-1334)",
                "156": "Кему (1334-1336)",
                "157": "Енген (1336-1340)",
                "158": "Кококу (1340-1346)",
                "159": "Шохеи (1346-1370)",
                "16": "Хоки (770-780)",
                "160": "Кентоку (1370-1372)",
                "161": "Бучу (1372-1375)",
                "162": "Тењу (1375-1379)",
                "163": "Корјаку (1379-1381)",
                "164": "Кова (1381-1384)",
                "165": "Генчу (1384-1392)",
                "166": "Меитоку (1384-1387)",
                "167": "Какеи (1387-1389)",
                "168": "Ку (1389-1390)",
                "169": "Меитоку (1390-1394)",
                "17": "Тен-о (781-782)",
                "170": "Оеи (1394-1428)",
                "171": "Шочо (1428-1429)",
                "172": "Еикјо (1429-1441)",
                "173": "Какитсу (1441-1444)",
                "174": "Бун-ан (1444-1449)",
                "175": "Хотоку (1449-1452)",
                "176": "Кјотоку (1452-1455)",
                "177": "Кошо (1455-1457)",
                "178": "Чороку (1457-1460)",
                "179": "Каншо (1460-1466)",
                "18": "Енрјаку (782-806)",
                "180": "Буншо (1466-1467)",
                "181": "Онин (1467-1469)",
                "182": "Бунмеи (1469-1487)",
                "183": "Чокјо (1487-1489)",
                "184": "Ентоку (1489-1492)",
                "185": "Меио (1492-1501)",
                "186": "Бунки (1501-1504)",
                "187": "Еишо (1504-1521)",
                "188": "Таиеи (1521-1528)",
                "189": "Кјороку (1528-1532)",
                "19": "Даидо (806-810)",
                "190": "Тенмон (1532-1555)",
                "191": "Кођи (1555-1558)",
                "192": "Еироку (1558-1570)",
                "193": "Генки (1570-1573)",
                "194": "Теншо (1573-1592)",
                "195": "Бунроку (1592-1596)",
                "196": "Кеичо (1596-1615)",
                "197": "Генва (1615-1624)",
                "198": "Кан-еи (1624-1644)",
                "199": "Шохо (1644-1648)",
                "2": "Хакухо (672-686)",
                "20": "Конин (810-824)",
                "200": "Кеиан (1648-1652)",
                "201": "Шу (1652-1655)",
                "202": "Меирјаку (1655-1658)",
                "203": "Мањи (1658-1661)",
                "204": "Канбун (1661-1673)",
                "205": "Енпо (1673-1681)",
                "206": "Тенва (1681-1684)",
                "207": "Јокјо (1684-1688)",
                "208": "Генроку (1688-1704)",
                "209": "Хоеи (1704-1711)",
                "21": "Тенчо (824-834)",
                "210": "Шотоку (1711-1716)",
                "211": "Кјохо (1716-1736)",
                "212": "Генбун (1736-1741)",
                "213": "Канпо (1741-1744)",
                "214": "Енкјо (1744-1748)",
                "215": "Кан-ен (1748-1751)",
                "216": "Хорјаку (1751-1764)",
                "217": "Меива (1764-1772)",
                "218": "Ан-еи (1772-1781)",
                "219": "Тенмеи (1781-1789)",
                "22": "Шова (834-848)",
                "220": "Кансеи (1789-1801)",
                "221": "Кјова (1801-1804)",
                "222": "Бунка (1804-1818)",
                "223": "Бунсеи (1818-1830)",
                "224": "Тенпо (1830-1844)",
                "225": "Кока (1844-1848)",
                "226": "Каеи (1848-1854)",
                "227": "Ансеи (1854-1860)",
                "228": "Ман-ен (1860-1861)",
                "229": "Бункју (1861-1864)",
                "23": "Кајо (848-851)",
                "230": "Генђи (1864-1865)",
                "231": "Кеико (1865-1868)",
                "232": "Меиђи",
                "233": "Таишо",
                "234": "Шова",
                "235": "Хаисеи",
                "24": "Нињу (851-854)",
                "25": "Саико (854-857)",
                "26": "Тенан (857-859)",
                "27": "Јоган (859-877)",
                "28": "Генкеи (877-885)",
                "29": "Ниња (885-889)",
                "3": "Шучо (686-701)",
                "30": "Кампјо (889-898)",
                "31": "Шотаи (898-901)",
                "32": "Енђи (901-923)",
                "33": "Енчо (923-931)",
                "34": "Шохеи (931-938)",
                "35": "Тенгјо (938-947)",
                "36": "Тенриаку (947-957)",
                "37": "Тентоку (957-961)",
                "38": "Ова (961-964)",
                "39": "Кохо (964-968)",
                "4": "Таихо (701-704)",
                "40": "Ана (968-970)",
                "41": "Тенроку (970-973)",
                "42": "Тен-ен (973-976)",
                "43": "Јоген (976-978)",
                "44": "Тенген (978-983)",
                "45": "Еикан (983-985)",
                "46": "Кана (985-987)",
                "47": "Еи-ен (987-989)",
                "48": "Еисо (989-990)",
                "49": "Шорјаку (990-995)",
                "5": "Кеиун (704-708)",
                "50": "Чотоку (995-999)",
                "51": "Чохо (999-1004)",
                "52": "Канко (1004-1012)",
                "53": "Чова (1012-1017)",
                "54": "Канин (1017-1021)",
                "55": "Ђиан (1021-1024)",
                "56": "Мању (1024-1028)",
                "57": "Чоген (1028-1037)",
                "58": "Чорјаку (1037-1040)",
                "59": "Чокју (1040-1044)",
                "6": "Вадо (708-715)",
                "60": "Кантоку (1044-1046)",
                "61": "Еишо (1046-1053)",
                "62": "Тенђи (1053-1058)",
                "63": "Кохеи (1058-1065)",
                "64": "Ђирјаку (1065-1069)",
                "65": "Енкју (1069-1074)",
                "66": "Шохо (1074-1077)",
                "67": "Шорјаку (1077-1081)",
                "68": "Еишо (1081-1084)",
                "69": "Отоку (1084-1087)",
                "7": "Реики (715-717)",
                "70": "Канђи (1087-1094)",
                "71": "Кахо (1094-1096)",
                "72": "Еичо (1096-1097)",
                "73": "Шотоку (1097-1099)",
                "74": "Кова (1099-1104)",
                "75": "Чођи (1104-1106)",
                "76": "Кашо (1106-1108)",
                "77": "Тенин (1108-1110)",
                "78": "Тен-еи (1110-1113)",
                "79": "Еикју (1113-1118)",
                "8": "Јоро (717-724)",
                "80": "Ђен-еи (1118-1120)",
                "81": "Хоан (1120-1124)",
                "82": "Тенђи (1124-1126)",
                "83": "Даиђи (1126-1131)",
                "84": "Теншо (1131-1132)",
                "85": "Чошао (1132-1135)",
                "86": "Хоен (1135-1141)",
                "87": "Еиђи (1141-1142)",
                "88": "Кођи (1142-1144)",
                "89": "Тењо (1144-1145)",
                "9": "Јинки (724-729)",
                "90": "Кјуан (1145-1151)",
                "91": "Нинпеи (1151-1154)",
                "92": "Кјују (1154-1156)",
                "93": "Хоген (1156-1159)",
                "94": "Хеиђи (1159-1160)",
                "95": "Еирјаку (1160-1161)",
                "96": "Охо (1161-1163)",
                "97": "Чокан (1163-1165)",
                "98": "Еиман (1165-1166)",
                "99": "Нин-ан (1166-1169)"
              },
              "eraNarrow": {
                "0": "Taika (645-650)",
                "1": "Hakuchi (650-671)",
                "10": "Tempyō (729-749)",
                "100": "Kaō (1169-1171)",
                "101": "Shōan (1171-1175)",
                "102": "Angen (1175-1177)",
                "103": "Jishō (1177-1181)",
                "104": "Yōwa (1181-1182)",
                "105": "Juei (1182-1184)",
                "106": "Genryuku (1184-1185)",
                "107": "Bunji (1185-1190)",
                "108": "Kenkyū (1190-1199)",
                "109": "Shōji (1199-1201)",
                "11": "Tempyō-kampō (749-749)",
                "110": "Kennin (1201-1204)",
                "111": "Genkyū (1204-1206)",
                "112": "Ken-ei (1206-1207)",
                "113": "Shōgen (1207-1211)",
                "114": "Kenryaku (1211-1213)",
                "115": "Kenpō (1213-1219)",
                "116": "Shōkyū (1219-1222)",
                "117": "Jōō (1222-1224)",
                "118": "Gennin (1224-1225)",
                "119": "Karoku (1225-1227)",
                "12": "Tempyō-shōhō (749-757)",
                "120": "Antei (1227-1229)",
                "121": "Kanki (1229-1232)",
                "122": "Jōei (1232-1233)",
                "123": "Tempuku (1233-1234)",
                "124": "Bunryaku (1234-1235)",
                "125": "Katei (1235-1238)",
                "126": "Ryakunin (1238-1239)",
                "127": "En-ō (1239-1240)",
                "128": "Ninji (1240-1243)",
                "129": "Kangen (1243-1247)",
                "13": "Tempyō-hōji (757-765)",
                "130": "Hōji (1247-1249)",
                "131": "Kenchō (1249-1256)",
                "132": "Kōgen (1256-1257)",
                "133": "Shōka (1257-1259)",
                "134": "Shōgen (1259-1260)",
                "135": "Bun-ō (1260-1261)",
                "136": "Kōchō (1261-1264)",
                "137": "Bun-ei (1264-1275)",
                "138": "Kenji (1275-1278)",
                "139": "Kōan (1278-1288)",
                "14": "Temphō-jingo (765-767)",
                "140": "Shōō (1288-1293)",
                "141": "Einin (1293-1299)",
                "142": "Shōan (1299-1302)",
                "143": "Kengen (1302-1303)",
                "144": "Kagen (1303-1306)",
                "145": "Tokuji (1306-1308)",
                "146": "Enkei (1308-1311)",
                "147": "Ōchō (1311-1312)",
                "148": "Shōwa (1312-1317)",
                "149": "Bunpō (1317-1319)",
                "15": "Jingo-keiun (767-770)",
                "150": "Genō (1319-1321)",
                "151": "Genkyō (1321-1324)",
                "152": "Shōchū (1324-1326)",
                "153": "Kareki (1326-1329)",
                "154": "Gentoku (1329-1331)",
                "155": "Genkō (1331-1334)",
                "156": "Kemmu (1334-1336)",
                "157": "Engen (1336-1340)",
                "158": "Kōkoku (1340-1346)",
                "159": "Shōhei (1346-1370)",
                "16": "Hōki (770-780)",
                "160": "Kentoku (1370-1372)",
                "161": "Bunchũ (1372-1375)",
                "162": "Tenju (1375-1379)",
                "163": "Kōryaku (1379-1381)",
                "164": "Kōwa (1381-1384)",
                "165": "Genchũ (1384-1392)",
                "166": "Meitoku (1384-1387)",
                "167": "Kakei (1387-1389)",
                "168": "Kōō (1389-1390)",
                "169": "Meitoku (1390-1394)",
                "17": "Ten-ō (781-782)",
                "170": "Ōei (1394-1428)",
                "171": "Shōchō (1428-1429)",
                "172": "Eikyō (1429-1441)",
                "173": "Kakitsu (1441-1444)",
                "174": "Bun-an (1444-1449)",
                "175": "Hōtoku (1449-1452)",
                "176": "Kyōtoku (1452-1455)",
                "177": "Kōshō (1455-1457)",
                "178": "Chōroku (1457-1460)",
                "179": "Kanshō (1460-1466)",
                "18": "Enryaku (782-806)",
                "180": "Bunshō (1466-1467)",
                "181": "Ōnin (1467-1469)",
                "182": "Bunmei (1469-1487)",
                "183": "Chōkyō (1487-1489)",
                "184": "Entoku (1489-1492)",
                "185": "Meiō (1492-1501)",
                "186": "Bunki (1501-1504)",
                "187": "Eishō (1504-1521)",
                "188": "Taiei (1521-1528)",
                "189": "Kyōroku (1528-1532)",
                "19": "Daidō (806-810)",
                "190": "Tenmon (1532-1555)",
                "191": "Kōji (1555-1558)",
                "192": "Eiroku (1558-1570)",
                "193": "Genki (1570-1573)",
                "194": "Tenshō (1573-1592)",
                "195": "Bunroku (1592-1596)",
                "196": "Keichō (1596-1615)",
                "197": "Genwa (1615-1624)",
                "198": "Kan-ei (1624-1644)",
                "199": "Shōho (1644-1648)",
                "2": "Hakuhō (672-686)",
                "20": "Kōnin (810-824)",
                "200": "Keian (1648-1652)",
                "201": "Shōō (1652-1655)",
                "202": "Meiryaku (1655-1658)",
                "203": "Manji (1658-1661)",
                "204": "Kanbun (1661-1673)",
                "205": "Enpō (1673-1681)",
                "206": "Tenwa (1681-1684)",
                "207": "Jōkyō (1684-1688)",
                "208": "Genroku (1688-1704)",
                "209": "Hōei (1704-1711)",
                "21": "Tenchō (824-834)",
                "210": "Shōtoku (1711-1716)",
                "211": "Kyōhō (1716-1736)",
                "212": "Genbun (1736-1741)",
                "213": "Kanpō (1741-1744)",
                "214": "Enkyō (1744-1748)",
                "215": "Kan-en (1748-1751)",
                "216": "Hōryaku (1751-1764)",
                "217": "Meiwa (1764-1772)",
                "218": "An-ei (1772-1781)",
                "219": "Tenmei (1781-1789)",
                "22": "Jōwa (834-848)",
                "220": "Kansei (1789-1801)",
                "221": "Kyōwa (1801-1804)",
                "222": "Bunka (1804-1818)",
                "223": "Bunsei (1818-1830)",
                "224": "Tenpō (1830-1844)",
                "225": "Kōka (1844-1848)",
                "226": "Kaei (1848-1854)",
                "227": "Ansei (1854-1860)",
                "228": "Man-en (1860-1861)",
                "229": "Bunkyū (1861-1864)",
                "23": "Kajō (848-851)",
                "230": "Genji (1864-1865)",
                "231": "Keiō (1865-1868)",
                "232": "M",
                "233": "T",
                "234": "S",
                "235": "H",
                "24": "Ninju (851-854)",
                "25": "Saiko (854-857)",
                "26": "Tennan (857-859)",
                "27": "Jōgan (859-877)",
                "28": "Genkei (877-885)",
                "29": "Ninna (885-889)",
                "3": "Shuchō (686-701)",
                "30": "Kampyō (889-898)",
                "31": "Shōtai (898-901)",
                "32": "Engi (901-923)",
                "33": "Enchō (923-931)",
                "34": "Shōhei (931-938)",
                "35": "Tengyō (938-947)",
                "36": "Tenryaku (947-957)",
                "37": "Tentoku (957-961)",
                "38": "Ōwa (961-964)",
                "39": "Kōhō (964-968)",
                "4": "Taihō (701-704)",
                "40": "Anna (968-970)",
                "41": "Tenroku (970-973)",
                "42": "Ten-en (973-976)",
                "43": "Jōgen (976-978)",
                "44": "Tengen (978-983)",
                "45": "Eikan (983-985)",
                "46": "Kanna (985-987)",
                "47": "Ei-en (987-989)",
                "48": "Eiso (989-990)",
                "49": "Shōryaku (990-995)",
                "5": "Keiun (704-708)",
                "50": "Chōtoku (995-999)",
                "51": "Chōhō (999-1004)",
                "52": "Kankō (1004-1012)",
                "53": "Chōwa (1012-1017)",
                "54": "Kannin (1017-1021)",
                "55": "Jian (1021-1024)",
                "56": "Manju (1024-1028)",
                "57": "Chōgen (1028-1037)",
                "58": "Chōryaku (1037-1040)",
                "59": "Chōkyū (1040-1044)",
                "6": "Wadō (708-715)",
                "60": "Kantoku (1044-1046)",
                "61": "Eishō (1046-1053)",
                "62": "Tengi (1053-1058)",
                "63": "Kōhei (1058-1065)",
                "64": "Jiryaku (1065-1069)",
                "65": "Enkyū (1069-1074)",
                "66": "Shōho (1074-1077)",
                "67": "Shōryaku (1077-1081)",
                "68": "Eiho (1081-1084)",
                "69": "Ōtoku (1084-1087)",
                "7": "Reiki (715-717)",
                "70": "Kanji (1087-1094)",
                "71": "Kaho (1094-1096)",
                "72": "Eichō (1096-1097)",
                "73": "Shōtoku (1097-1099)",
                "74": "Kōwa (1099-1104)",
                "75": "Chōji (1104-1106)",
                "76": "Kashō (1106-1108)",
                "77": "Tennin (1108-1110)",
                "78": "Ten-ei (1110-1113)",
                "79": "Eikyū (1113-1118)",
                "8": "Yōrō (717-724)",
                "80": "Gen-ei (1118-1120)",
                "81": "Hoan (1120-1124)",
                "82": "Tenji (1124-1126)",
                "83": "Daiji (1126-1131)",
                "84": "Tenshō (1131-1132)",
                "85": "Chōshō (1132-1135)",
                "86": "Hoen (1135-1141)",
                "87": "Eiji (1141-1142)",
                "88": "Kōji (1142-1144)",
                "89": "Tenyō (1144-1145)",
                "9": "Jinki (724-729)",
                "90": "Kyūan (1145-1151)",
                "91": "Ninpei (1151-1154)",
                "92": "Kyūju (1154-1156)",
                "93": "Hogen (1156-1159)",
                "94": "Heiji (1159-1160)",
                "95": "Eiryaku (1160-1161)",
                "96": "Ōho (1161-1163)",
                "97": "Chōkan (1163-1165)",
                "98": "Eiman (1165-1166)",
                "99": "Nin-an (1166-1169)"
              }
            },
            "dateFormats": {
              "full": "EEEE, MMMM d, y G",
              "long": "MMMM d, y G",
              "medium": "MMM d, y G",
              "short": "M/d/yy G"
            },
            "timeFormats": {
              "full": "HH.mm.ss zzzz",
              "long": "HH.mm.ss z",
              "medium": "HH.mm.ss",
              "short": "HH.mm"
            },
            "dateTimeFormats": {
              "full": "{1} {0}",
              "long": "{1} {0}",
              "medium": "{1} {0}",
              "short": "{1} {0}",
              "availableFormats": {
                "E": "ccc",
                "EHm": "E HH:mm",
                "EHms": "E HH:mm:ss",
                "Ed": "E d.",
                "Ehm": "E h:mm a",
                "Ehms": "E h:mm:ss a",
                "Gy": "y. G",
                "GyMMM": "MMM y. G",
                "GyMMMEd": "E, d. MMM y. G",
                "GyMMMd": "d. MMM y. G",
                "H": "HH",
                "Hm": "HH.mm",
                "Hms": "HH.mm.ss",
                "M": "L",
                "MEd": "E, M-d",
                "MMM": "LLL",
                "MMMEd": "E d. MMM",
                "MMMMEd": "E d. MMMM",
                "MMMMd": "d. MMMM",
                "MMMd": "d. MMM",
                "MMMdd": "dd.MMM",
                "MMdd": "MM-dd",
                "Md": "d/M",
                "d": "d",
                "h": "hh a",
                "hm": "hh.mm a",
                "hms": "hh.mm.ss a",
                "ms": "mm.ss",
                "y": "y. G",
                "yyyy": "y. G",
                "yyyyM": "M.y. G",
                "yyyyMEd": "E, d.M.y. G",
                "yyyyMM": "MM.y. G",
                "yyyyMMM": "MMM y. G",
                "yyyyMMMEd": "E, d. MMM y. G",
                "yyyyMMMM": "MMMM y. G",
                "yyyyMMMd": "d. MMM y. G",
                "yyyyMMdd": "dd.MM.y. G",
                "yyyyMd": "d.M.y. G",
                "yyyyQQQ": "QQQ, y. G",
                "yyyyQQQQ": "QQQQ y. G"
              },
              "appendItems": {
                "Day": "{0} ({2}: {1})",
                "Day-Of-Week": "{0} {1}",
                "Era": "{1} {0}",
                "Hour": "{0} ({2}: {1})",
                "Minute": "{0} ({2}: {1})",
                "Month": "{0} ({2}: {1})",
                "Quarter": "{0} ({2}: {1})",
                "Second": "{0} ({2}: {1})",
                "Timezone": "{0} {1}",
                "Week": "{0} ({2}: {1})",
                "Year": "{1} {0}"
              },
              "intervalFormats": {
                "intervalFormatFallback": "{0} - {1}",
                "H": {
                  "H": "HH-HH"
                },
                "Hm": {
                  "H": "HH.mm-HH.mm",
                  "m": "HH.mm-HH.mm"
                },
                "Hmv": {
                  "H": "HH.mm-HH.mm v",
                  "m": "HH.mm-HH.mm v"
                },
                "Hv": {
                  "H": "HH-HH v"
                },
                "M": {
                  "M": "M-M"
                },
                "MEd": {
                  "M": "E, d.M - E, d.M",
                  "d": "E, d.M - E, d.M"
                },
                "MMM": {
                  "M": "MMM-MMM"
                },
                "MMMEd": {
                  "M": "E, dd. MMM - E, dd. MMM",
                  "d": "E, dd. - E, dd. MMM"
                },
                "MMMd": {
                  "M": "dd. MMM - dd. MMM",
                  "d": "dd.-dd. MMM"
                },
                "Md": {
                  "M": "d.M - d.M",
                  "d": "d.M - d.M"
                },
                "d": {
                  "d": "d-d"
                },
                "h": {
                  "a": "h a - h a",
                  "h": "h-h a"
                },
                "hm": {
                  "a": "h.mm a - h.mm a",
                  "h": "h.mm-h.mm a",
                  "m": "h.mm-h.mm a"
                },
                "hmv": {
                  "a": "h.mm a - h.mm a v",
                  "h": "h.mm-h.mm a v",
                  "m": "h.mm-h.mm a v"
                },
                "hv": {
                  "a": "h a - h a v",
                  "h": "h-h a v"
                },
                "y": {
                  "y": "y-y"
                },
                "yM": {
                  "M": "y M - M",
                  "y": "M.y - M.y"
                },
                "yMEd": {
                  "M": "E, d.M.y. - E, d.M.y.",
                  "d": "E, d.M.y. - E, d.M.y.",
                  "y": "E, d.M.y. - E, d.M.y."
                },
                "yMMM": {
                  "M": "MMM-MMM y.",
                  "y": "MMM y. - MMM y."
                },
                "yMMMEd": {
                  "M": "E, dd. MMM - E, dd. MMM y.",
                  "d": "E, dd. - E, dd. MMM y.",
                  "y": "E, dd. MMM y. - E, dd. MMM y."
                },
                "yMMMM": {
                  "M": "y-MM – MM",
                  "y": "y-MM – y-MM"
                },
                "yMMMd": {
                  "M": "dd. MMM - dd. MMM y.",
                  "d": "dd.-dd. MMM y.",
                  "y": "dd. MMM y. - dd. MMM y."
                },
                "yMd": {
                  "M": "d.M.y. - d.M.y.",
                  "d": "d.M.y. - d.M.y.",
                  "y": "d.M.y. - d.M.y."
                }
              }
            }
          }
        }
      }
    }
  }
}
