{
  "main": {
    "lag": {
      "identity": {
        "version": {
          "_cldrVersion": "26",
          "_number": "$Revision: 10669 $"
        },
        "generation": {
          "_date": "$Date: 2014-07-23 16:10:33 -0500 (Wed, 23 Jul 2014) $"
        },
        "language": "lag"
      },
      "localeDisplayNames": {
        "territories": {
          "001": "001",
          "002": "002",
          "003": "003",
          "005": "005",
          "009": "009",
          "011": "011",
          "013": "013",
          "014": "014",
          "015": "015",
          "017": "017",
          "018": "018",
          "019": "019",
          "021": "021",
          "029": "029",
          "030": "030",
          "034": "034",
          "035": "035",
          "039": "039",
          "053": "053",
          "054": "054",
          "057": "057",
          "061": "061",
          "142": "142",
          "143": "143",
          "145": "145",
          "150": "150",
          "151": "151",
          "154": "154",
          "155": "155",
          "419": "419",
          "AC": "AC",
          "AD": "Andóra",
          "AE": "Ʉtemi wa Kɨaráabu",
          "AF": "Afuganisitáani",
          "AG": "Antigúua na Baribúuda",
          "AI": "Anguíila",
          "AL": "Alubánia",
          "AM": "Ariménia",
          "AN": "Antili ya Ʉholáanzi",
          "AO": "Angóola",
          "AQ": "AQ",
          "AR": "Ajentíina",
          "AS": "Samóoa ya Amerɨ́ka",
          "AT": "Áusitiria",
          "AU": "Ausiteréelia",
          "AW": "Arúuba",
          "AX": "AX",
          "AZ": "Azabajáani",
          "BA": "Bósinia",
          "BB": "Babadóosi",
          "BD": "Bangaladéeshi",
          "BE": "Ʉbeligíiji",
          "BF": "Bukinafáaso",
          "BG": "Buligaría",
          "BH": "Baharéeni",
          "BI": "Burúundi",
          "BJ": "Beníini",
          "BL": "BL",
          "BM": "Berimúuda",
          "BN": "Burunéei",
          "BO": "Bolívia",
          "BQ": "BQ",
          "BR": "Brasíili",
          "BS": "Baháama",
          "BT": "Butáani",
          "BV": "BV",
          "BW": "Botiswáana",
          "BY": "Belarúusi",
          "BZ": "Belíise",
          "CA": "Kánada",
          "CC": "CC",
          "CD": "Jamuhúuri ya Kɨdemokurasía ya Kóongo",
          "CD-alt-variant": "CD",
          "CF": "Juhúuri ya Afɨrɨka ya katɨ katɨ",
          "CG": "Kóongo",
          "CG-alt-variant": "CG",
          "CH": "Uswíisi",
          "CI": "Ivori Kositi",
          "CI-alt-variant": "CI",
          "CK": "Visíiwa vya Kúuku",
          "CL": "Chíile",
          "CM": "Kamerúuni",
          "CN": "Chíina",
          "CO": "Kolómbia",
          "CP": "CP",
          "CR": "Kósita Rɨ́ɨka",
          "CU": "Kyúuba",
          "CV": "Kepuvéede",
          "CW": "CW",
          "CX": "CX",
          "CY": "Kupuróosi",
          "CZ": "Jamuhúuri ya Chéeki",
          "DE": "Ʉjerumáani",
          "DG": "DG",
          "DJ": "Jibúuti",
          "DK": "Denimaki",
          "DM": "Domínɨka",
          "DO": "Jamuhúuri ya Dominɨka",
          "DZ": "Alijéria",
          "EA": "EA",
          "EC": "Íkwado",
          "EE": "Estonía",
          "EG": "Mísiri",
          "EH": "EH",
          "ER": "Eriterea",
          "ES": "Hisipánia",
          "ET": "Ʉhabéeshi",
          "EU": "EU",
          "FI": "Ufíini",
          "FJ": "Fíiji",
          "FK": "Visíiwa vya Fakulandi",
          "FK-alt-variant": "FK",
          "FM": "Mikironésia",
          "FO": "FO",
          "FR": "Ʉfaráansa",
          "GA": "Gabóoni",
          "GB": "Ʉɨngeréesa",
          "GB-alt-short": "GB",
          "GD": "Girenáada",
          "GE": "Jójia",
          "GF": "Gwiyáana yʉ Ʉfaráansa",
          "GG": "GG",
          "GH": "Gáana",
          "GI": "Jiburálita",
          "GL": "Giriniláandi",
          "GM": "Gámbia",
          "GN": "Gíine",
          "GP": "Gwadelúupe",
          "GQ": "Gíine Ikwéeta",
          "GR": "Ugiríki",
          "GS": "GS",
          "GT": "Gwatemáala",
          "GU": "Gwani",
          "GW": "Gíine Bisáau",
          "GY": "Guyáana",
          "HK": "HK",
          "HK-alt-short": "HK",
          "HM": "HM",
          "HN": "Honduráasi",
          "HR": "Koréshia",
          "HT": "Haíiti",
          "HU": "Hungária",
          "IC": "IC",
          "ID": "Indonésia",
          "IE": "Ayaláandi",
          "IL": "Isiraéeli",
          "IM": "IM",
          "IN": "Índia",
          "IO": "Ɨsɨ yʉ Ʉɨngeréesa irivii ra Híindi",
          "IQ": "Iráaki",
          "IR": "Ʉajéemi",
          "IS": "Aisiláandi",
          "IT": "Itália",
          "JE": "JE",
          "JM": "Jamáika",
          "JO": "Jódani",
          "JP": "Japáani",
          "KE": "Kéenya",
          "KG": "Kirigisitáani",
          "KH": "Kambódia",
          "KI": "Kiribáati",
          "KM": "Komóoro",
          "KN": "Mʉtakatíifu kitisi na Nevíisi",
          "KP": "Koréa yʉ ʉtʉrʉko",
          "KR": "Koréa ya Saame",
          "KW": "Kʉwáiti",
          "KY": "Visíiwa vya Kayimani",
          "KZ": "Kazakasitáani",
          "LA": "Laóosi",
          "LB": "Lebanóoni",
          "LC": "Mʉtakatíifu Lusíia",
          "LI": "Lishentéeni",
          "LK": "Siriláanka",
          "LR": "Liibéria",
          "LS": "Lesóoto",
          "LT": "Lisuánia",
          "LU": "Lasembáagi",
          "LV": "Lativia",
          "LY": "Líbia",
          "MA": "Moróoko",
          "MC": "Monáako",
          "MD": "Molidóova",
          "ME": "ME",
          "MF": "MF",
          "MG": "Bukíini",
          "MH": "Visíiwa vya Marisháali",
          "MK": "Masedónia",
          "MK-alt-variant": "MK",
          "ML": "Máali",
          "MM": "Miáama",
          "MN": "Mongólia",
          "MO": "MO",
          "MO-alt-short": "MO",
          "MP": "Visiwa vya Mariana vya Kaskazini",
          "MQ": "Maritiníiki",
          "MR": "Moritánia",
          "MS": "Monteráati",
          "MT": "Málita",
          "MU": "Moríisi",
          "MV": "Modíivu",
          "MW": "Maláawi",
          "MX": "Mekisiko",
          "MY": "Maleísia",
          "MZ": "Musumbíiji",
          "NA": "Namíbia",
          "NC": "Kaledónia Ifya",
          "NE": "Níija",
          "NF": "Kisíiwa cha Nofifóoki",
          "NG": "Niijéria",
          "NI": "Nikarágʉa",
          "NL": "Ʉholáanzi",
          "NO": "Norwe",
          "NP": "Nepáali",
          "NR": "Naúuru",
          "NU": "Niúue",
          "NZ": "Nyuzílandi",
          "OM": "Ómani",
          "PA": "Panáama",
          "PE": "Péeru",
          "PF": "Polinésia yʉ Ʉfaráansa",
          "PG": "Papúua",
          "PH": "Ufilipíino",
          "PK": "Pakisitáani",
          "PL": "Pólandi",
          "PM": "Mʉtakatíifu Peéteri na Mɨkaéeli",
          "PN": "Patikaírini",
          "PR": "Pwetorɨ́ɨko",
          "PS": "Mweemberera wa kʉmweeri wa Gáaza",
          "PS-alt-short": "PS",
          "PT": "Ʉréeno",
          "PW": "Paláau",
          "PY": "Paraguáai",
          "QA": "Katáari",
          "QO": "QO",
          "RE": "Reyunióoni",
          "RO": "Romaníia",
          "RS": "RS",
          "RU": "Urúusi",
          "RW": "Rwáanda",
          "SA": "Saudíia Arabíia",
          "SB": "Visíiwa vya Solomóoni",
          "SC": "Shelishéeli",
          "SD": "Sudáani",
          "SE": "Uswíidi",
          "SG": "Singapoo",
          "SH": "Mʉtakatíifu Heléena",
          "SI": "Sulovénia",
          "SJ": "SJ",
          "SK": "Sulováakia",
          "SL": "Seraleóoni",
          "SM": "Samaríino",
          "SN": "Senegáali",
          "SO": "Somália",
          "SR": "Surináamu",
          "SS": "SS",
          "ST": "Sao Tóome na Pirinsipe",
          "SV": "Elisalivado",
          "SX": "SX",
          "SY": "Síria",
          "SZ": "Ʉswáazi",
          "TA": "TA",
          "TC": "Visíiwa vya Turíiki na Kaíiko",
          "TD": "Cháadi",
          "TF": "TF",
          "TG": "Tóogo",
          "TH": "Táilandi",
          "TJ": "Tajikisitáani",
          "TK": "Tokeláau",
          "TL": "Timóori yi Itʉʉmba",
          "TL-alt-variant": "TL",
          "TM": "Uturukimenisitáani",
          "TN": "Tunísia",
          "TO": "Tóonga",
          "TR": "Uturúuki",
          "TT": "Tiriníida ya Tobáago",
          "TV": "Tuváalu",
          "TW": "Taiwáani",
          "TZ": "Taansanía",
          "UA": "Ʉkɨréeni",
          "UG": "Ʉgáanda",
          "UM": "UM",
          "US": "Amerɨka",
          "US-alt-short": "US",
          "UY": "Uruguáai",
          "UZ": "Usibekisitáani",
          "VA": "Vatikáani",
          "VC": "Mʉtakatíifu Viséenti na Gernadíini",
          "VE": "Venezuéela",
          "VG": "Visíiwa vya Vigíini vya Ʉɨngeréesa",
          "VI": "Visíiwa vya Vigíini vya Amerɨ́ka",
          "VN": "Vietináamu",
          "VU": "Vanuáatu",
          "WF": "Walíisi na Futúuna",
          "WS": "Samóoa",
          "XK": "XK",
          "YE": "Yémeni",
          "YT": "Mayóote",
          "ZA": "Afɨrɨka ya Saame",
          "ZM": "Sámbia",
          "ZW": "Simbáabwe",
          "ZZ": "ZZ"
        }
      }
    }
  }
}
