{
  "main": {
    "ky": {
      "identity": {
        "version": {
          "_cldrVersion": "26",
          "_number": "$Revision: 10809 $"
        },
        "generation": {
          "_date": "$Date: 2014-08-14 15:10:07 -0500 (Thu, 14 Aug 2014) $"
        },
        "language": "ky"
      },
      "localeDisplayNames": {
        "transformNames": {
          "Numeric": "Сандык",
          "Tone": "Тондук",
          "x-Accents": "Диакриттик белгилер",
          "x-Fullwidth": "Кең формат",
          "x-Halfwidth": "Кыска формат",
          "x-Jamo": "Джамо",
          "x-Pinyin": "Пиньин",
          "x-Publishing": "Басмаканалык"
        }
      }
    }
  }
}
