{
  "main": {
    "fr-CD": {
      "identity": {
        "version": {
          "_cldrVersion": "26",
          "_number": "$Revision: 10669 $"
        },
        "generation": {
          "_date": "$Date: 2014-07-23 16:10:33 -0500 (Wed, 23 Jul 2014) $"
        },
        "language": "fr",
        "territory": "CD"
      },
      "dates": {
        "calendars": {
          "gregorian": {
            "months": {
              "format": {
                "abbreviated": {
                  "1": "janv.",
                  "2": "févr.",
                  "3": "mars",
                  "4": "avr.",
                  "5": "mai",
                  "6": "juin",
                  "7": "juil.",
                  "8": "août",
                  "9": "sept.",
                  "10": "oct.",
                  "11": "nov.",
                  "12": "déc."
                },
                "narrow": {
                  "1": "J",
                  "2": "F",
                  "3": "M",
                  "4": "A",
                  "5": "M",
                  "6": "J",
                  "7": "J",
                  "8": "A",
                  "9": "S",
                  "10": "O",
                  "11": "N",
                  "12": "D"
                },
                "wide": {
                  "1": "janvier",
                  "2": "février",
                  "3": "mars",
                  "4": "avril",
                  "5": "mai",
                  "6": "juin",
                  "7": "juillet",
                  "8": "août",
                  "9": "septembre",
                  "10": "octobre",
                  "11": "novembre",
                  "12": "décembre"
                }
              },
              "stand-alone": {
                "abbreviated": {
                  "1": "Janv.",
                  "2": "Févr.",
                  "3": "Mars",
                  "4": "Avr.",
                  "5": "Mai",
                  "6": "Juin",
                  "7": "Juil.",
                  "8": "Août",
                  "9": "Sept.",
                  "10": "Oct.",
                  "11": "Nov.",
                  "12": "Déc."
                },
                "narrow": {
                  "1": "J",
                  "2": "F",
                  "3": "M",
                  "4": "A",
                  "5": "M",
                  "6": "J",
                  "7": "J",
                  "8": "A",
                  "9": "S",
                  "10": "O",
                  "11": "N",
                  "12": "D"
                },
                "wide": {
                  "1": "Janvier",
                  "2": "Février",
                  "3": "Mars",
                  "4": "Avril",
                  "5": "Mai",
                  "6": "Juin",
                  "7": "Juillet",
                  "8": "Août",
                  "9": "Septembre",
                  "10": "Octobre",
                  "11": "Novembre",
                  "12": "Décembre"
                }
              }
            },
            "days": {
              "format": {
                "abbreviated": {
                  "sun": "dim.",
                  "mon": "lun.",
                  "tue": "mar.",
                  "wed": "mer.",
                  "thu": "jeu.",
                  "fri": "ven.",
                  "sat": "sam."
                },
                "narrow": {
                  "sun": "D",
                  "mon": "L",
                  "tue": "M",
                  "wed": "M",
                  "thu": "J",
                  "fri": "V",
                  "sat": "S"
                },
                "short": {
                  "sun": "di",
                  "mon": "lu",
                  "tue": "ma",
                  "wed": "me",
                  "thu": "je",
                  "fri": "ve",
                  "sat": "sa"
                },
                "wide": {
                  "sun": "dimanche",
                  "mon": "lundi",
                  "tue": "mardi",
                  "wed": "mercredi",
                  "thu": "jeudi",
                  "fri": "vendredi",
                  "sat": "samedi"
                }
              },
              "stand-alone": {
                "abbreviated": {
                  "sun": "Dim.",
                  "mon": "Lun.",
                  "tue": "Mar.",
                  "wed": "Mer.",
                  "thu": "Jeu.",
                  "fri": "Ven.",
                  "sat": "Sam."
                },
                "narrow": {
                  "sun": "D",
                  "mon": "L",
                  "tue": "M",
                  "wed": "M",
                  "thu": "J",
                  "fri": "V",
                  "sat": "S"
                },
                "short": {
                  "sun": "Di",
                  "mon": "Lu",
                  "tue": "Ma",
                  "wed": "Me",
                  "thu": "Je",
                  "fri": "Ve",
                  "sat": "Sa"
                },
                "wide": {
                  "sun": "Dimanche",
                  "mon": "Lundi",
                  "tue": "Mardi",
                  "wed": "Mercredi",
                  "thu": "Jeudi",
                  "fri": "Vendredi",
                  "sat": "Samedi"
                }
              }
            },
            "quarters": {
              "format": {
                "abbreviated": {
                  "1": "T1",
                  "2": "T2",
                  "3": "T3",
                  "4": "T4"
                },
                "narrow": {
                  "1": "1",
                  "2": "2",
                  "3": "3",
                  "4": "4"
                },
                "wide": {
                  "1": "1er trimestre",
                  "2": "2e trimestre",
                  "3": "3e trimestre",
                  "4": "4e trimestre"
                }
              },
              "stand-alone": {
                "abbreviated": {
                  "1": "T1",
                  "2": "T2",
                  "3": "T3",
                  "4": "T4"
                },
                "narrow": {
                  "1": "1",
                  "2": "2",
                  "3": "3",
                  "4": "4"
                },
                "wide": {
                  "1": "1er trimestre",
                  "2": "2e trimestre",
                  "3": "3e trimestre",
                  "4": "4e trimestre"
                }
              }
            },
            "dayPeriods": {
              "format": {
                "abbreviated": {
                  "afternoon": "ap.m.",
                  "am": "AM",
                  "morning": "matin",
                  "night": "soir",
                  "noon": "midi",
                  "pm": "PM"
                },
                "narrow": {
                  "afternoon": "ap.-m.",
                  "am": "AM",
                  "morning": "matin",
                  "night": "soir",
                  "noon": "midi",
                  "pm": "p"
                },
                "wide": {
                  "afternoon": "après-midi",
                  "am": "AM",
                  "morning": "matin",
                  "night": "soir",
                  "noon": "midi",
                  "pm": "PM"
                }
              },
              "stand-alone": {
                "abbreviated": {
                  "afternoon": "ap.m.",
                  "am": "av.m.",
                  "morning": "matin",
                  "night": "soir",
                  "noon": "midi",
                  "pm": "ap.m."
                },
                "narrow": {
                  "afternoon": "ap.-m.",
                  "am": "AM",
                  "morning": "matin",
                  "night": "soir",
                  "noon": "midi",
                  "pm": "p"
                },
                "wide": {
                  "afternoon": "après-midi",
                  "am": "avant-midi",
                  "morning": "matin",
                  "night": "soir",
                  "noon": "midi",
                  "pm": "après-midi"
                }
              }
            },
            "eras": {
              "eraNames": {
                "0": "avant Jésus-Christ",
                "0-alt-variant": "AEC",
                "1": "après Jésus-Christ",
                "1-alt-variant": "EC"
              },
              "eraAbbr": {
                "0": "av. J.-C.",
                "0-alt-variant": "AEC",
                "1": "ap. J.-C.",
                "1-alt-variant": "EC"
              },
              "eraNarrow": {
                "0": "av. J.-C.",
                "0-alt-variant": "AEC",
                "1": "ap. J.-C.",
                "1-alt-variant": "EC"
              }
            },
            "dateFormats": {
              "full": "EEEE d MMMM y",
              "long": "d MMMM y",
              "medium": "d MMM y",
              "short": "dd/MM/y"
            },
            "timeFormats": {
              "full": "HH:mm:ss zzzz",
              "long": "HH:mm:ss z",
              "medium": "HH:mm:ss",
              "short": "HH:mm"
            },
            "dateTimeFormats": {
              "full": "{1} {0}",
              "long": "{1} {0}",
              "medium": "{1} {0}",
              "short": "{1} {0}",
              "availableFormats": {
                "E": "E",
                "EHm": "E HH:mm",
                "EHms": "E HH:mm:ss",
                "Ed": "E d",
                "Ehm": "E h:mm a",
                "Ehms": "E h:mm:ss a",
                "Gy": "y G",
                "GyMMM": "MMM y G",
                "GyMMMEd": "E d MMM y G",
                "GyMMMd": "d MMM y G",
                "H": "HH 'h'",
                "Hm": "HH:mm",
                "Hms": "HH:mm:ss",
                "M": "L",
                "MEd": "E d/M",
                "MMM": "LLL",
                "MMMEd": "E d MMM",
                "MMMd": "d MMM",
                "Md": "d/M",
                "d": "d",
                "h": "h a",
                "hm": "h:mm a",
                "hms": "h:mm:ss a",
                "ms": "mm:ss",
                "y": "y",
                "yM": "M/y",
                "yMEd": "E d/M/y",
                "yMMM": "MMM y",
                "yMMMEd": "E d MMM y",
                "yMMMM": "MMMM y",
                "yMMMd": "d MMM y",
                "yMd": "d/M/y",
                "yQQQ": "QQQ y",
                "yQQQQ": "QQQQ y"
              },
              "appendItems": {
                "Day": "{0} ({2}: {1})",
                "Day-Of-Week": "{0} {1}",
                "Era": "{1} {0}",
                "Hour": "{0} ({2}: {1})",
                "Minute": "{0} ({2}: {1})",
                "Month": "{0} ({2}: {1})",
                "Quarter": "{0} ({2}: {1})",
                "Second": "{0} ({2}: {1})",
                "Timezone": "{0} {1}",
                "Week": "{0} ({2}: {1})",
                "Year": "{1} {0}"
              },
              "intervalFormats": {
                "intervalFormatFallback": "{0} – {1}",
                "H": {
                  "H": "HH – HH"
                },
                "Hm": {
                  "H": "HH:mm – HH:mm",
                  "m": "HH:mm – HH:mm"
                },
                "Hmv": {
                  "H": "HH:mm – HH:mm v",
                  "m": "HH:mm – HH:mm v"
                },
                "Hv": {
                  "H": "HH – HH v"
                },
                "M": {
                  "M": "M–M"
                },
                "MEd": {
                  "M": "E dd/MM - E dd/MM",
                  "d": "E dd/MM - E dd/MM"
                },
                "MMM": {
                  "M": "MMM–MMM"
                },
                "MMMEd": {
                  "M": "E d MMM – E d MMM",
                  "d": "E d – E d MMM"
                },
                "MMMd": {
                  "M": "d MMM – d MMM",
                  "d": "d–d MMM"
                },
                "Md": {
                  "M": "dd/MM - dd/MM",
                  "d": "dd/MM – dd/MM"
                },
                "d": {
                  "d": "d-d"
                },
                "h": {
                  "a": "h a – h a",
                  "h": "h – h a"
                },
                "hm": {
                  "a": "h:mm a – h:mm a",
                  "h": "h:mm – h:mm a",
                  "m": "h:mm – h:mm a"
                },
                "hmv": {
                  "a": "h:mm a – h:mm a v",
                  "h": "h:mm – h:mm a v",
                  "m": "h:mm – h:mm a v"
                },
                "hv": {
                  "a": "h a – h a v",
                  "h": "h – h a v"
                },
                "y": {
                  "y": "y–y"
                },
                "yM": {
                  "M": "MM/y – MM/y",
                  "y": "M/y – M/y"
                },
                "yMEd": {
                  "M": "E dd/MM/y – E dd/MM/y",
                  "d": "E dd/MM/y – E dd/MM/y",
                  "y": "E dd/MM/y – E dd/MM/y"
                },
                "yMMM": {
                  "M": "MMM–MMM y",
                  "y": "MMM y – MMM y"
                },
                "yMMMEd": {
                  "M": "E d MMM – E d MMM y",
                  "d": "E d – E d MMM y",
                  "y": "E d MMM y – E d MMM y"
                },
                "yMMMM": {
                  "M": "MMMM – MMMM y",
                  "y": "MMMM y – MMMM y"
                },
                "yMMMd": {
                  "M": "d MMM – d MMM y",
                  "d": "d–d MMM y",
                  "y": "d MMM y – d MMM y"
                },
                "yMd": {
                  "M": "d/M/y – d/M/y",
                  "d": "d/M/y – d/M/y",
                  "y": "dd/MM/y – dd/MM/y"
                }
              }
            }
          }
        }
      }
    }
  }
}
