{
  "main": {
    "nus-SD": {
      "identity": {
        "version": {
          "_cldrVersion": "26",
          "_number": "$Revision: 10669 $"
        },
        "generation": {
          "_date": "$Date: 2014-07-23 16:10:33 -0500 (Wed, 23 Jul 2014) $"
        },
        "language": "nus",
        "territory": "SD"
      },
      "characters": {
        "exemplarCharacters": "[a ä {a\u0331} b c d e ë {e\u0331} ɛ {ɛ\u0308} {ɛ\u0331} {ɛ\u0331\u0308} f g ɣ h i ï {i\u0331} j k l m n ŋ o ö {o\u0331} ɔ {ɔ\u0308} {ɔ\u0331} p q r s t u v w x y z]",
        "auxiliary": "[]",
        "punctuation": "[\\- , ; \\: ! ? . ( ) \\[ \\] \\{ \\}]",
        "index": "[A B C D E Ɛ F G Ɣ H I J K L M N Ŋ O Ɔ P Q R S T U V W X Y Z]",
        "ellipsis": {
          "initial": "…{0}",
          "medial": "{0}…{1}",
          "final": "{0}…",
          "word-initial": "… {0}",
          "word-medial": "{0} … {1}",
          "word-final": "{0} …"
        },
        "moreInformation": "?"
      }
    }
  }
}
