{
  "main": {
    "ewo": {
      "identity": {
        "version": {
          "_cldrVersion": "26",
          "_number": "$Revision: 10669 $"
        },
        "generation": {
          "_date": "$Date: 2014-07-23 16:10:33 -0500 (Wed, 23 Jul 2014) $"
        },
        "language": "ewo"
      },
      "dates": {
        "calendars": {
          "roc": {
            "months": {
              "format": {
                "abbreviated": {
                  "1": "ngo",
                  "2": "ngb",
                  "3": "ngl",
                  "4": "ngn",
                  "5": "ngt",
                  "6": "ngs",
                  "7": "ngz",
                  "8": "ngm",
                  "9": "nge",
                  "10": "nga",
                  "11": "ngad",
                  "12": "ngab"
                },
                "narrow": {
                  "1": "o",
                  "2": "b",
                  "3": "l",
                  "4": "n",
                  "5": "t",
                  "6": "s",
                  "7": "z",
                  "8": "m",
                  "9": "e",
                  "10": "a",
                  "11": "d",
                  "12": "b"
                },
                "wide": {
                  "1": "ngɔn osú",
                  "2": "ngɔn bɛ̌",
                  "3": "ngɔn lála",
                  "4": "ngɔn nyina",
                  "5": "ngɔn tána",
                  "6": "ngɔn saməna",
                  "7": "ngɔn zamgbála",
                  "8": "ngɔn mwom",
                  "9": "ngɔn ebulú",
                  "10": "ngɔn awóm",
                  "11": "ngɔn awóm ai dziá",
                  "12": "ngɔn awóm ai bɛ̌"
                }
              },
              "stand-alone": {
                "abbreviated": {
                  "1": "ngo",
                  "2": "ngb",
                  "3": "ngl",
                  "4": "ngn",
                  "5": "ngt",
                  "6": "ngs",
                  "7": "ngz",
                  "8": "ngm",
                  "9": "nge",
                  "10": "nga",
                  "11": "ngad",
                  "12": "ngab"
                },
                "narrow": {
                  "1": "o",
                  "2": "b",
                  "3": "l",
                  "4": "n",
                  "5": "t",
                  "6": "s",
                  "7": "z",
                  "8": "m",
                  "9": "e",
                  "10": "a",
                  "11": "d",
                  "12": "b"
                },
                "wide": {
                  "1": "ngɔn osú",
                  "2": "ngɔn bɛ̌",
                  "3": "ngɔn lála",
                  "4": "ngɔn nyina",
                  "5": "ngɔn tána",
                  "6": "ngɔn saməna",
                  "7": "ngɔn zamgbála",
                  "8": "ngɔn mwom",
                  "9": "ngɔn ebulú",
                  "10": "ngɔn awóm",
                  "11": "ngɔn awóm ai dziá",
                  "12": "ngɔn awóm ai bɛ̌"
                }
              }
            },
            "days": {
              "format": {
                "abbreviated": {
                  "sun": "sɔ́n",
                  "mon": "mɔ́n",
                  "tue": "smb",
                  "wed": "sml",
                  "thu": "smn",
                  "fri": "fúl",
                  "sat": "sér"
                },
                "narrow": {
                  "sun": "s",
                  "mon": "m",
                  "tue": "s",
                  "wed": "s",
                  "thu": "s",
                  "fri": "f",
                  "sat": "s"
                },
                "short": {
                  "sun": "sɔ́n",
                  "mon": "mɔ́n",
                  "tue": "smb",
                  "wed": "sml",
                  "thu": "smn",
                  "fri": "fúl",
                  "sat": "sér"
                },
                "wide": {
                  "sun": "sɔ́ndɔ",
                  "mon": "mɔ́ndi",
                  "tue": "sɔ́ndɔ məlú mə́bɛ̌",
                  "wed": "sɔ́ndɔ məlú mə́lɛ́",
                  "thu": "sɔ́ndɔ məlú mə́nyi",
                  "fri": "fúladé",
                  "sat": "séradé"
                }
              },
              "stand-alone": {
                "abbreviated": {
                  "sun": "sɔ́n",
                  "mon": "mɔ́n",
                  "tue": "smb",
                  "wed": "sml",
                  "thu": "smn",
                  "fri": "fúl",
                  "sat": "sér"
                },
                "narrow": {
                  "sun": "s",
                  "mon": "m",
                  "tue": "s",
                  "wed": "s",
                  "thu": "s",
                  "fri": "f",
                  "sat": "s"
                },
                "short": {
                  "sun": "sɔ́n",
                  "mon": "mɔ́n",
                  "tue": "smb",
                  "wed": "sml",
                  "thu": "smn",
                  "fri": "fúl",
                  "sat": "sér"
                },
                "wide": {
                  "sun": "sɔ́ndɔ",
                  "mon": "mɔ́ndi",
                  "tue": "sɔ́ndɔ məlú mə́bɛ̌",
                  "wed": "sɔ́ndɔ məlú mə́lɛ́",
                  "thu": "sɔ́ndɔ məlú mə́nyi",
                  "fri": "fúladé",
                  "sat": "séradé"
                }
              }
            },
            "quarters": {
              "format": {
                "abbreviated": {
                  "1": "nno",
                  "2": "nnb",
                  "3": "nnl",
                  "4": "nnny"
                },
                "narrow": {
                  "1": "1",
                  "2": "2",
                  "3": "3",
                  "4": "4"
                },
                "wide": {
                  "1": "nsámbá ngɔn asú",
                  "2": "nsámbá ngɔn bɛ̌",
                  "3": "nsámbá ngɔn lála",
                  "4": "nsámbá ngɔn nyina"
                }
              },
              "stand-alone": {
                "abbreviated": {
                  "1": "nno",
                  "2": "nnb",
                  "3": "nnl",
                  "4": "nnny"
                },
                "narrow": {
                  "1": "1",
                  "2": "2",
                  "3": "3",
                  "4": "4"
                },
                "wide": {
                  "1": "nsámbá ngɔn asú",
                  "2": "nsámbá ngɔn bɛ̌",
                  "3": "nsámbá ngɔn lála",
                  "4": "nsámbá ngɔn nyina"
                }
              }
            },
            "dayPeriods": {
              "format": {
                "abbreviated": {
                  "am": "kíkíríg",
                  "noon": "noon",
                  "pm": "ngəgógəle"
                },
                "narrow": {
                  "am": "a",
                  "noon": "n",
                  "pm": "p"
                },
                "wide": {
                  "am": "kíkíríg",
                  "noon": "noon",
                  "pm": "ngəgógəle"
                }
              },
              "stand-alone": {
                "abbreviated": {
                  "am": "kíkíríg",
                  "noon": "noon",
                  "pm": "ngəgógəle"
                },
                "narrow": {
                  "am": "a",
                  "noon": "n",
                  "pm": "p"
                },
                "wide": {
                  "am": "kíkíríg",
                  "noon": "noon",
                  "pm": "ngəgógəle"
                }
              }
            },
            "eras": {
              "eraNames": {
                "0": "Before R.O.C.",
                "1": "R.O.C."
              },
              "eraAbbr": {
                "0": "Before R.O.C.",
                "1": "R.O.C."
              },
              "eraNarrow": {
                "0": "Before R.O.C.",
                "1": "R.O.C."
              }
            },
            "dateFormats": {
              "full": "EEEE d MMMM y G",
              "long": "d MMMM y G",
              "medium": "d MMM y G",
              "short": "d/M/y GGGGG"
            },
            "timeFormats": {
              "full": "HH:mm:ss zzzz",
              "long": "HH:mm:ss z",
              "medium": "HH:mm:ss",
              "short": "HH:mm"
            },
            "dateTimeFormats": {
              "full": "{1} {0}",
              "long": "{1} {0}",
              "medium": "{1} {0}",
              "short": "{1} {0}",
              "availableFormats": {
                "E": "ccc",
                "EHm": "E HH:mm",
                "EHms": "E HH:mm:ss",
                "Ed": "d E",
                "Ehm": "E h:mm a",
                "Ehms": "E h:mm:ss a",
                "Gy": "G y",
                "GyMMM": "G y MMM",
                "GyMMMEd": "G y MMM d, E",
                "GyMMMd": "G y MMM d",
                "H": "HH",
                "Hm": "HH:mm",
                "Hms": "HH:mm:ss",
                "M": "L",
                "MEd": "E d/M",
                "MMM": "LLL",
                "MMMEd": "E d MMM",
                "MMMd": "d MMM",
                "Md": "d/M",
                "d": "d",
                "h": "h a",
                "hm": "h:mm a",
                "hms": "h:mm:ss a",
                "ms": "m:ss",
                "y": "y",
                "yM": "M/y",
                "yMEd": "E d/M/y",
                "yMMM": "MMM y",
                "yMMMEd": "E d MMM y",
                "yMMMd": "d MMM y",
                "yMd": "d/M/y",
                "yQQQ": "QQQ y",
                "yQQQQ": "QQQQ y",
                "yyyy": "G y",
                "yyyyM": "GGGGG y-MM",
                "yyyyMEd": "GGGGG y-MM-dd, E",
                "yyyyMMM": "G y MMM",
                "yyyyMMMEd": "G y MMM d, E",
                "yyyyMMMd": "G y MMM d",
                "yyyyMd": "GGGGG y-MM-dd",
                "yyyyQQQ": "G y QQQ",
                "yyyyQQQQ": "G y QQQQ"
              },
              "appendItems": {
                "Day": "{0} ({2}: {1})",
                "Day-Of-Week": "{0} {1}",
                "Era": "{1} {0}",
                "Hour": "{0} ({2}: {1})",
                "Minute": "{0} ({2}: {1})",
                "Month": "{0} ({2}: {1})",
                "Quarter": "{0} ({2}: {1})",
                "Second": "{0} ({2}: {1})",
                "Timezone": "{0} {1}",
                "Week": "{0} ({2}: {1})",
                "Year": "{1} {0}"
              },
              "intervalFormats": {
                "intervalFormatFallback": "{0} – {1}",
                "H": {
                  "H": "HH–HH"
                },
                "Hm": {
                  "H": "HH:mm–HH:mm",
                  "m": "HH:mm–HH:mm"
                },
                "Hmv": {
                  "H": "HH:mm–HH:mm v",
                  "m": "HH:mm–HH:mm v"
                },
                "Hv": {
                  "H": "HH–HH v"
                },
                "M": {
                  "M": "MM–MM"
                },
                "MEd": {
                  "M": "MM-dd, E – MM-dd, E",
                  "d": "MM-dd, E – MM-dd, E"
                },
                "MMM": {
                  "M": "LLL–LLL"
                },
                "MMMEd": {
                  "M": "MMM d, E – MMM d, E",
                  "d": "MMM d, E – MMM d, E"
                },
                "MMMd": {
                  "M": "MMM d – MMM d",
                  "d": "MMM d–d"
                },
                "Md": {
                  "M": "MM-dd – MM-dd",
                  "d": "MM-dd – MM-dd"
                },
                "d": {
                  "d": "d–d"
                },
                "h": {
                  "a": "h a – h a",
                  "h": "h–h a"
                },
                "hm": {
                  "a": "h:mm a – h:mm a",
                  "h": "h:mm–h:mm a",
                  "m": "h:mm–h:mm a"
                },
                "hmv": {
                  "a": "h:mm a – h:mm a v",
                  "h": "h:mm–h:mm a v",
                  "m": "h:mm–h:mm a v"
                },
                "hv": {
                  "a": "h a – h a v",
                  "h": "h–h a v"
                },
                "y": {
                  "y": "G y–y"
                },
                "yM": {
                  "M": "GGGGG y-MM – y-MM",
                  "y": "GGGGG y-MM – y-MM"
                },
                "yMEd": {
                  "M": "GGGGG y-MM-dd, E – y-MM-dd, E",
                  "d": "GGGGG y-MM-dd, E – y-MM-dd, E",
                  "y": "GGGGG y-MM-dd, E – y-MM-dd, E"
                },
                "yMMM": {
                  "M": "G y MMM–MMM",
                  "y": "G y MMM – y MMM"
                },
                "yMMMEd": {
                  "M": "G y MMM d, E – MMM d, E",
                  "d": "G y MMM d, E – MMM d, E",
                  "y": "G y MMM d, E – y MMM d, E"
                },
                "yMMMM": {
                  "M": "G y MMMM–MMMM",
                  "y": "G y MMMM – y MMMM"
                },
                "yMMMd": {
                  "M": "G y MMM d – MMM d",
                  "d": "G y MMM d–d",
                  "y": "G y MMM d – y MMM d"
                },
                "yMd": {
                  "M": "GGGGG y-MM-dd – y-MM-dd",
                  "d": "GGGGG y-MM-dd – y-MM-dd",
                  "y": "GGGGG y-MM-dd – y-MM-dd"
                }
              }
            }
          }
        }
      }
    }
  }
}
