{
  "main": {
    "ewo": {
      "identity": {
        "version": {
          "_cldrVersion": "26",
          "_number": "$Revision: 10669 $"
        },
        "generation": {
          "_date": "$Date: 2014-07-23 16:10:33 -0500 (Wed, 23 Jul 2014) $"
        },
        "language": "ewo"
      },
      "characters": {
        "exemplarCharacters": "[a á à â ǎ b d {dz} e é è ê ě ə {ə\u0301} {ə\u0300} {ə\u0302} {ə\u030C} ɛ {ɛ\u0301} {ɛ\u0300} {ɛ\u0302} {ɛ\u030C} f g h i í ì î ǐ k {kp} l m n ń ǹ {ng} {nk} ŋ o ó ò ô ǒ ɔ {ɔ\u0301} {ɔ\u0300} {ɔ\u0302} {ɔ\u030C} p r s t {ts} u ú ù û ǔ v w y z]",
        "auxiliary": "[c j q x]",
        "punctuation": "[\\- , ; \\: ! ? . ( ) \\[ \\] \\{ \\}]",
        "index": "[A B D E Ə Ɛ F G H I K L M N Ŋ O Ɔ P R S T U V W Y Z]",
        "ellipsis": {
          "initial": "…{0}",
          "medial": "{0}…{1}",
          "final": "{0}…",
          "word-initial": "… {0}",
          "word-medial": "{0} … {1}",
          "word-final": "{0} …"
        },
        "moreInformation": "?"
      }
    }
  }
}
