{
  "main": {
    "uz-Latn-UZ": {
      "identity": {
        "version": {
          "_cldrVersion": "26",
          "_number": "$Revision: 10669 $"
        },
        "generation": {
          "_date": "$Date: 2014-07-23 16:10:33 -0500 (Wed, 23 Jul 2014) $"
        },
        "language": "root",
        "script": "Latn",
        "territory": "UZ"
      },
      "dates": {
        "calendars": {
          "gregorian": {
            "months": {
              "format": {
                "abbreviated": {
                  "1": "Yanv",
                  "2": "Fev",
                  "3": "Mar",
                  "4": "Apr",
                  "5": "May",
                  "6": "Iyun",
                  "7": "Iyul",
                  "8": "Avg",
                  "9": "Sen",
                  "10": "Okt",
                  "11": "Noya",
                  "12": "Dek"
                },
                "narrow": {
                  "1": "Y",
                  "2": "F",
                  "3": "M",
                  "4": "A",
                  "5": "M",
                  "6": "I",
                  "7": "I",
                  "8": "A",
                  "9": "S",
                  "10": "O",
                  "11": "N",
                  "12": "D"
                },
                "wide": {
                  "1": "Yanvar",
                  "2": "Fevral",
                  "3": "Mart",
                  "4": "Aprel",
                  "5": "May",
                  "6": "Iyun",
                  "7": "Iyul",
                  "8": "Avgust",
                  "9": "Sentabr",
                  "10": "Oktabr",
                  "11": "Noyabr",
                  "12": "Dekabr"
                }
              },
              "stand-alone": {
                "abbreviated": {
                  "1": "Yanv",
                  "2": "Fev",
                  "3": "Mar",
                  "4": "Apr",
                  "5": "May",
                  "6": "Iyun",
                  "7": "Iyul",
                  "8": "Avg",
                  "9": "Sen",
                  "10": "Okt",
                  "11": "Noya",
                  "12": "Dek"
                },
                "narrow": {
                  "1": "Y",
                  "2": "F",
                  "3": "M",
                  "4": "A",
                  "5": "M",
                  "6": "I",
                  "7": "I",
                  "8": "A",
                  "9": "S",
                  "10": "O",
                  "11": "N",
                  "12": "D"
                },
                "wide": {
                  "1": "Yanvar",
                  "2": "Fevral",
                  "3": "Mart",
                  "4": "Aprel",
                  "5": "May",
                  "6": "Iyun",
                  "7": "Iyul",
                  "8": "Avgust",
                  "9": "Sentabr",
                  "10": "Oktabr",
                  "11": "Noyabr",
                  "12": "Dekabr"
                }
              }
            },
            "days": {
              "format": {
                "abbreviated": {
                  "sun": "Yaksh",
                  "mon": "Dush",
                  "tue": "Sesh",
                  "wed": "Chor",
                  "thu": "Pay",
                  "fri": "Jum",
                  "sat": "Shan"
                },
                "narrow": {
                  "sun": "Y",
                  "mon": "D",
                  "tue": "S",
                  "wed": "C",
                  "thu": "P",
                  "fri": "J",
                  "sat": "S"
                },
                "short": {
                  "sun": "Yaksh",
                  "mon": "Dush",
                  "tue": "Sesh",
                  "wed": "Chor",
                  "thu": "Pay",
                  "fri": "Jum",
                  "sat": "Shan"
                },
                "wide": {
                  "sun": "yakshanba",
                  "mon": "dushanba",
                  "tue": "seshanba",
                  "wed": "chorshanba",
                  "thu": "payshanba",
                  "fri": "juma",
                  "sat": "shanba"
                }
              },
              "stand-alone": {
                "abbreviated": {
                  "sun": "Yaksh",
                  "mon": "Dush",
                  "tue": "Sesh",
                  "wed": "Chor",
                  "thu": "Pay",
                  "fri": "Jum",
                  "sat": "Shan"
                },
                "narrow": {
                  "sun": "Y",
                  "mon": "D",
                  "tue": "S",
                  "wed": "C",
                  "thu": "P",
                  "fri": "J",
                  "sat": "S"
                },
                "short": {
                  "sun": "Ya",
                  "mon": "Du",
                  "tue": "Se",
                  "wed": "Cho",
                  "thu": "Pa",
                  "fri": "Ju",
                  "sat": "Sha"
                },
                "wide": {
                  "sun": "yakshanba",
                  "mon": "dushanba",
                  "tue": "seshanba",
                  "wed": "chorshanba",
                  "thu": "payshanba",
                  "fri": "juma",
                  "sat": "shanba"
                }
              }
            },
            "quarters": {
              "format": {
                "abbreviated": {
                  "1": "1-ch",
                  "2": "2-ch",
                  "3": "3-ch",
                  "4": "4-ch"
                },
                "narrow": {
                  "1": "1",
                  "2": "2",
                  "3": "3",
                  "4": "4"
                },
                "wide": {
                  "1": "1-chorak",
                  "2": "2-chorak",
                  "3": "3-chorak",
                  "4": "4-chorak"
                }
              },
              "stand-alone": {
                "abbreviated": {
                  "1": "1-ch",
                  "2": "2-ch",
                  "3": "3-ch",
                  "4": "4-ch"
                },
                "narrow": {
                  "1": "1",
                  "2": "2",
                  "3": "3",
                  "4": "4"
                },
                "wide": {
                  "1": "1-chorak",
                  "2": "2-chorak",
                  "3": "3-chorak",
                  "4": "4-chorak"
                }
              }
            },
            "dayPeriods": {
              "format": {
                "abbreviated": {
                  "am": "TO",
                  "noon": "tush payti",
                  "pm": "TK"
                },
                "narrow": {
                  "am": "o",
                  "noon": "t.p.",
                  "pm": "k"
                },
                "wide": {
                  "am": "TO",
                  "noon": "tush payti",
                  "pm": "TK"
                }
              },
              "stand-alone": {
                "abbreviated": {
                  "am": "TO",
                  "noon": "tush payti",
                  "pm": "TK"
                },
                "narrow": {
                  "am": "o",
                  "noon": "t.p.",
                  "pm": "k"
                },
                "wide": {
                  "am": "TO",
                  "noon": "tush payti",
                  "pm": "TK"
                }
              }
            },
            "eras": {
              "eraNames": {
                "0": "M.A.",
                "0-alt-variant": "Eramizdan avvalgi",
                "1": "E",
                "1-alt-variant": "CE"
              },
              "eraAbbr": {
                "0": "M.A.",
                "0-alt-variant": "Eramizdan avvalgi",
                "1": "E",
                "1-alt-variant": "CE"
              },
              "eraNarrow": {
                "0": "M.A.",
                "0-alt-variant": "Eramizdan avvalgi",
                "1": "E",
                "1-alt-variant": "CE"
              }
            },
            "dateFormats": {
              "full": "EEEE, y MMMM dd",
              "long": "y MMMM d",
              "medium": "y MMM d",
              "short": "yy/MM/dd"
            },
            "timeFormats": {
              "full": "HH:mm:ss zzzz",
              "long": "HH:mm:ss z",
              "medium": "HH:mm:ss",
              "short": "HH:mm"
            },
            "dateTimeFormats": {
              "full": "{1} {0}",
              "long": "{1} {0}",
              "medium": "{1} {0}",
              "short": "{1} {0}",
              "availableFormats": {
                "E": "ccc",
                "EHm": "E HH:mm",
                "EHms": "E HH:mm:ss",
                "Ed": "d, E",
                "Ehm": "E h:mm a",
                "Ehms": "E h:mm:ss a",
                "Gy": "G y",
                "GyMMM": "G y MMM",
                "GyMMMEd": "G y MMM d, E",
                "GyMMMd": "G y MMM d",
                "H": "HH",
                "Hm": "HH:mm",
                "Hms": "HH:mm:ss",
                "M": "L",
                "MEd": "MM-dd, E",
                "MMM": "LLL",
                "MMMEd": "MMM d, E",
                "MMMd": "MMM d",
                "Md": "MM-dd",
                "d": "d",
                "h": "h a",
                "hm": "h:mm a",
                "hms": "h:mm:ss a",
                "ms": "mm:ss",
                "y": "y",
                "yM": "y-MM",
                "yMEd": "y-MM-dd, E",
                "yMMM": "y MMM",
                "yMMMEd": "y MMM d, E",
                "yMMMd": "y MMM d",
                "yMd": "y-MM-dd",
                "yQQQ": "y QQQ",
                "yQQQQ": "y QQQQ"
              },
              "appendItems": {
                "Day": "{0} ({2}: {1})",
                "Day-Of-Week": "{0} {1}",
                "Era": "{1} {0}",
                "Hour": "{0} ({2}: {1})",
                "Minute": "{0} ({2}: {1})",
                "Month": "{0} ({2}: {1})",
                "Quarter": "{0} ({2}: {1})",
                "Second": "{0} ({2}: {1})",
                "Timezone": "{0} {1}",
                "Week": "{0} ({2}: {1})",
                "Year": "{1} {0}"
              },
              "intervalFormats": {
                "intervalFormatFallback": "{0} – {1}",
                "H": {
                  "H": "HH–HH"
                },
                "Hm": {
                  "H": "HH:mm–HH:mm",
                  "m": "HH:mm–HH:mm"
                },
                "Hmv": {
                  "H": "HH:mm–HH:mm v",
                  "m": "HH:mm–HH:mm v"
                },
                "Hv": {
                  "H": "HH–HH v"
                },
                "M": {
                  "M": "MM–MM"
                },
                "MEd": {
                  "M": "MM-dd, E – MM-dd, E",
                  "d": "MM-dd, E – MM-dd, E"
                },
                "MMM": {
                  "M": "LLL–LLL"
                },
                "MMMEd": {
                  "M": "MMM d, E – MMM d, E",
                  "d": "MMM d, E – MMM d, E"
                },
                "MMMd": {
                  "M": "MMM d – MMM d",
                  "d": "MMM d–d"
                },
                "Md": {
                  "M": "MM-dd – MM-dd",
                  "d": "MM-dd – MM-dd"
                },
                "d": {
                  "d": "d–d"
                },
                "h": {
                  "a": "h a – h a",
                  "h": "h–h a"
                },
                "hm": {
                  "a": "h:mm a – h:mm a",
                  "h": "h:mm–h:mm a",
                  "m": "h:mm–h:mm a"
                },
                "hmv": {
                  "a": "h:mm a – h:mm a v",
                  "h": "h:mm–h:mm a v",
                  "m": "h:mm–h:mm a v"
                },
                "hv": {
                  "a": "h a – h a v",
                  "h": "h–h a v"
                },
                "y": {
                  "y": "y–y"
                },
                "yM": {
                  "M": "y-MM – y-MM",
                  "y": "y-MM – y-MM"
                },
                "yMEd": {
                  "M": "y-MM-dd, E – y-MM-dd, E",
                  "d": "y-MM-dd, E – y-MM-dd, E",
                  "y": "y-MM-dd, E – y-MM-dd, E"
                },
                "yMMM": {
                  "M": "y MMM–MMM",
                  "y": "y MMM – y MMM"
                },
                "yMMMEd": {
                  "M": "y MMM d, E – MMM d, E",
                  "d": "y MMM d, E – MMM d, E",
                  "y": "y MMM d, E – y MMM d, E"
                },
                "yMMMM": {
                  "M": "y MMMM–MMMM",
                  "y": "y MMMM – y MMMM"
                },
                "yMMMd": {
                  "M": "y MMM d – MMM d",
                  "d": "y MMM d–d",
                  "y": "y MMM d – y MMM d"
                },
                "yMd": {
                  "M": "y-MM-dd – y-MM-dd",
                  "d": "y-MM-dd – y-MM-dd",
                  "y": "y-MM-dd – y-MM-dd"
                }
              }
            }
          }
        }
      }
    }
  }
}
