{
  "main": {
    "dsb": {
      "identity": {
        "version": {
          "_cldrVersion": "26",
          "_number": "$Revision: 10809 $"
        },
        "generation": {
          "_date": "$Date: 2014-08-14 15:10:07 -0500 (Thu, 14 Aug 2014) $"
        },
        "language": "dsb"
      },
      "characters": {
        "exemplarCharacters": "[a b c č ć d e ě f g h {ch} i j k ł l m n ń o ó p q r ŕ s š ś t u v w x y z ž ź]",
        "auxiliary": "[á à ă â å ä ã ą ā æ ç ď đ é è ĕ ê ë ė ę ē ğ í ì ĭ î ï İ ī ı ĺ ľ ň ñ ò ŏ ô ö ő ø ō œ ř ş ß ť ú ù ŭ û ů ü ű ū ý ÿ ż]",
        "punctuation": "[\\- ‐ – — , ; \\: ! ? . … ' ‘ ’ ‚ \" “ „ « » ( ) \\[ \\] \\{ \\} § @ * / \\& #]",
        "index": "[A B C Č Ć D E F G H {Ch} I J K Ł L M N O P Q R S Š Ś T U V W X Y Z Ž Ź]",
        "ellipsis": {
          "initial": "…{0}",
          "medial": "{0}…{1}",
          "final": "{0}…",
          "word-initial": "… {0}",
          "word-medial": "{0} … {1}",
          "word-final": "{0} …"
        },
        "moreInformation": "?"
      }
    }
  }
}
