{
  "main": {
    "nl-CW": {
      "identity": {
        "version": {
          "_cldrVersion": "26",
          "_number": "$Revision: 10669 $"
        },
        "generation": {
          "_date": "$Date: 2014-07-23 16:10:33 -0500 (Wed, 23 Jul 2014) $"
        },
        "language": "nl",
        "territory": "CW"
      },
      "localeDisplayNames": {
        "variants": {
          "1606NICT": "Laat Middelfrans tot 1606",
          "1694ACAD": "Vroeg modern Frans",
          "1901": "Traditionele Duitse spelling",
          "1959ACAD": "Academisch",
          "1994": "Gestandaardiseerde Resiaanse spelling",
          "1996": "Duitse spelling van 1996",
          "ALALC97": "Romanisering ALA-LC, editie 1997",
          "ALUKU": "Aloekoe dialect",
          "AREVELA": "Oost-Armeens",
          "AREVMDA": "West-Armeens",
          "BAKU1926": "Eenvormig Turkse Latijnse alfabet",
          "BALANKA": "Balanka-dialect van Anii",
          "BARLA": "Barlavento-dialectgroep van Kabuverdianu",
          "BAUDDHA": "Bauddha",
          "BISCAYAN": "Biskajaans",
          "BISKE": "San Giorgio/Bila-dialect",
          "BOHORIC": "Bohorič-alfabet",
          "BOONT": "Boontling",
          "DAJNKO": "Dajnko-alfabet",
          "EKAVSK": "Servisch met Ekaviaanse uitspraak",
          "EMODENG": "Vroegmodern Engels",
          "FONIPA": "Internationaal Fonetisch Alfabet",
          "FONUPA": "Oeralisch Fonetisch Alfabet",
          "FONXSAMP": "Fonxsamp",
          "HEPBURN": "Hepburn-romanisering",
          "HOGNORSK": "Hoognoors",
          "IJEKAVSK": "Servisch met Ijekaviaanse uitspraak",
          "ITIHASA": "Itihasa",
          "JAUER": "Jauer",
          "JYUTPING": "Jyutping",
          "KKCOR": "Algemene spelling",
          "KSCOR": "Standaardspelling",
          "LAUKIKA": "Laukika",
          "LIPAW": "Het Lipovaz-dialect van het Resiaans",
          "LUNA1918": "Luna1918",
          "METELKO": "Metelko-alfabet",
          "MONOTON": "Monotonaal",
          "NDYUKA": "Ndyuka",
          "NEDIS": "Natisone-dialect",
          "NJIVA": "Gniva/Njiva-dialect",
          "NULIK": "Modern Volapük",
          "OSOJS": "Oseacco/Osojane-dialect",
          "PAMAKA": "Pamaka",
          "PETR1708": "Petr1708",
          "PINYIN": "Pinyin",
          "POLYTON": "Polytonaal",
          "POSIX": "Computer",
          "PUTER": "Puter",
          "REVISED": "Gewijzigde spelling",
          "RIGIK": "Klassiek Volapük",
          "ROZAJ": "Resiaans",
          "RUMGR": "Rumgr",
          "SAAHO": "Saho",
          "SCOTLAND": "Schots standaard-Engels",
          "SCOUSE": "Liverpools (Scouse)",
          "SOLBA": "Stolvizza/Solbica-dialect",
          "SOTAV": "Sotavento-dialectgroep van Kabuverdianu",
          "SURMIRAN": "Surmiran",
          "SURSILV": "Sursilvan",
          "SUTSILV": "Sutsilvan",
          "TARASK": "Taraskievica-spelling",
          "UCCOR": "Eenvormige spelling",
          "UCRCOR": "Eenvormig herziene spelling",
          "ULSTER": "Ulster",
          "UNIFON": "Unifon fonetisch alfabet",
          "VAIDIKA": "Vaidika",
          "VALENCIA": "Valenciaans",
          "VALLADER": "Vallader",
          "WADEGILE": "Wade-Giles-romanisering"
        }
      }
    }
  }
}
