{
  "main": {
    "seh": {
      "identity": {
        "version": {
          "_cldrVersion": "26",
          "_number": "$Revision: 10669 $"
        },
        "generation": {
          "_date": "$Date: 2014-07-23 16:10:33 -0500 (Wed, 23 Jul 2014) $"
        },
        "language": "root"
      },
      "dates": {
        "calendars": {
          "roc": {
            "months": {
              "format": {
                "abbreviated": {
                  "1": "Jan",
                  "2": "Fev",
                  "3": "Mar",
                  "4": "Abr",
                  "5": "Mai",
                  "6": "Jun",
                  "7": "Jul",
                  "8": "Aug",
                  "9": "Set",
                  "10": "Otu",
                  "11": "Nov",
                  "12": "Dec"
                },
                "narrow": {
                  "1": "J",
                  "2": "F",
                  "3": "M",
                  "4": "A",
                  "5": "M",
                  "6": "J",
                  "7": "J",
                  "8": "A",
                  "9": "S",
                  "10": "O",
                  "11": "N",
                  "12": "D"
                },
                "wide": {
                  "1": "Janeiro",
                  "2": "Fevreiro",
                  "3": "Marco",
                  "4": "Abril",
                  "5": "Maio",
                  "6": "Junho",
                  "7": "Julho",
                  "8": "Augusto",
                  "9": "Setembro",
                  "10": "Otubro",
                  "11": "Novembro",
                  "12": "Decembro"
                }
              },
              "stand-alone": {
                "abbreviated": {
                  "1": "Jan",
                  "2": "Fev",
                  "3": "Mar",
                  "4": "Abr",
                  "5": "Mai",
                  "6": "Jun",
                  "7": "Jul",
                  "8": "Aug",
                  "9": "Set",
                  "10": "Otu",
                  "11": "Nov",
                  "12": "Dec"
                },
                "narrow": {
                  "1": "J",
                  "2": "F",
                  "3": "M",
                  "4": "A",
                  "5": "M",
                  "6": "J",
                  "7": "J",
                  "8": "A",
                  "9": "S",
                  "10": "O",
                  "11": "N",
                  "12": "D"
                },
                "wide": {
                  "1": "Janeiro",
                  "2": "Fevreiro",
                  "3": "Marco",
                  "4": "Abril",
                  "5": "Maio",
                  "6": "Junho",
                  "7": "Julho",
                  "8": "Augusto",
                  "9": "Setembro",
                  "10": "Otubro",
                  "11": "Novembro",
                  "12": "Decembro"
                }
              }
            },
            "days": {
              "format": {
                "abbreviated": {
                  "sun": "Dim",
                  "mon": "Pos",
                  "tue": "Pir",
                  "wed": "Tat",
                  "thu": "Nai",
                  "fri": "Sha",
                  "sat": "Sab"
                },
                "narrow": {
                  "sun": "D",
                  "mon": "P",
                  "tue": "C",
                  "wed": "T",
                  "thu": "N",
                  "fri": "S",
                  "sat": "S"
                },
                "short": {
                  "sun": "Dim",
                  "mon": "Pos",
                  "tue": "Pir",
                  "wed": "Tat",
                  "thu": "Nai",
                  "fri": "Sha",
                  "sat": "Sab"
                },
                "wide": {
                  "sun": "Dimingu",
                  "mon": "Chiposi",
                  "tue": "Chipiri",
                  "wed": "Chitatu",
                  "thu": "Chinai",
                  "fri": "Chishanu",
                  "sat": "Sabudu"
                }
              },
              "stand-alone": {
                "abbreviated": {
                  "sun": "Dim",
                  "mon": "Pos",
                  "tue": "Pir",
                  "wed": "Tat",
                  "thu": "Nai",
                  "fri": "Sha",
                  "sat": "Sab"
                },
                "narrow": {
                  "sun": "D",
                  "mon": "P",
                  "tue": "C",
                  "wed": "T",
                  "thu": "N",
                  "fri": "S",
                  "sat": "S"
                },
                "short": {
                  "sun": "Dim",
                  "mon": "Pos",
                  "tue": "Pir",
                  "wed": "Tat",
                  "thu": "Nai",
                  "fri": "Sha",
                  "sat": "Sab"
                },
                "wide": {
                  "sun": "Dimingu",
                  "mon": "Chiposi",
                  "tue": "Chipiri",
                  "wed": "Chitatu",
                  "thu": "Chinai",
                  "fri": "Chishanu",
                  "sat": "Sabudu"
                }
              }
            },
            "quarters": {
              "format": {
                "abbreviated": {
                  "1": "Q1",
                  "2": "Q2",
                  "3": "Q3",
                  "4": "Q4"
                },
                "narrow": {
                  "1": "1",
                  "2": "2",
                  "3": "3",
                  "4": "4"
                },
                "wide": {
                  "1": "Q1",
                  "2": "Q2",
                  "3": "Q3",
                  "4": "Q4"
                }
              },
              "stand-alone": {
                "abbreviated": {
                  "1": "Q1",
                  "2": "Q2",
                  "3": "Q3",
                  "4": "Q4"
                },
                "narrow": {
                  "1": "1",
                  "2": "2",
                  "3": "3",
                  "4": "4"
                },
                "wide": {
                  "1": "Q1",
                  "2": "Q2",
                  "3": "Q3",
                  "4": "Q4"
                }
              }
            },
            "dayPeriods": {
              "format": {
                "abbreviated": {
                  "am": "AM",
                  "noon": "noon",
                  "pm": "PM"
                },
                "narrow": {
                  "am": "a",
                  "noon": "n",
                  "pm": "p"
                },
                "wide": {
                  "am": "AM",
                  "noon": "noon",
                  "pm": "PM"
                }
              },
              "stand-alone": {
                "abbreviated": {
                  "am": "AM",
                  "noon": "noon",
                  "pm": "PM"
                },
                "narrow": {
                  "am": "a",
                  "noon": "n",
                  "pm": "p"
                },
                "wide": {
                  "am": "AM",
                  "noon": "noon",
                  "pm": "PM"
                }
              }
            },
            "eras": {
              "eraNames": {
                "0": "Before R.O.C.",
                "1": "R.O.C."
              },
              "eraAbbr": {
                "0": "Before R.O.C.",
                "1": "R.O.C."
              },
              "eraNarrow": {
                "0": "Before R.O.C.",
                "1": "R.O.C."
              }
            },
            "dateFormats": {
              "full": "EEEE, d 'de' MMMM 'de' y G",
              "long": "d 'de' MMMM 'de' y G",
              "medium": "d 'de' MMM 'de' y G",
              "short": "d/M/y GGGGG"
            },
            "timeFormats": {
              "full": "HH:mm:ss zzzz",
              "long": "HH:mm:ss z",
              "medium": "HH:mm:ss",
              "short": "HH:mm"
            },
            "dateTimeFormats": {
              "full": "{1} {0}",
              "long": "{1} {0}",
              "medium": "{1} {0}",
              "short": "{1} {0}",
              "availableFormats": {
                "E": "ccc",
                "EHm": "E HH:mm",
                "EHms": "E HH:mm:ss",
                "Ed": "d, E",
                "Ehm": "E h:mm a",
                "Ehms": "E h:mm:ss a",
                "Gy": "G y",
                "GyMMM": "G y MMM",
                "GyMMMEd": "G y MMM d, E",
                "GyMMMd": "G y MMM d",
                "H": "HH",
                "HHmm": "HH:mm",
                "HHmmss": "HH:mm:ss",
                "Hm": "H:mm",
                "Hms": "HH:mm:ss",
                "M": "L",
                "MEd": "E, dd/MM",
                "MMM": "LLL",
                "MMMEd": "E, d MMM",
                "MMMMEd": "E, d MMMM",
                "MMMMd": "d MMMM",
                "MMMd": "d MMM",
                "MMdd": "dd/MM",
                "Md": "d/M",
                "d": "d",
                "h": "h a",
                "hm": "h:mm a",
                "hms": "h:mm:ss a",
                "mmss": "mm:ss",
                "ms": "mm:ss",
                "y": "y",
                "yM": "MM/y",
                "yMEd": "E, dd/MM/y",
                "yMM": "MM/y",
                "yMMM": "MMM 'de' y",
                "yMMMEd": "E, d 'de' MMM 'de' y",
                "yMMMM": "MMMM 'de' y",
                "yMMMd": "d 'de' MMM 'de' y",
                "yQQQ": "y QQQ",
                "yQQQQ": "y QQQQ",
                "yyyy": "G y",
                "yyyyM": "GGGGG y-MM",
                "yyyyMEd": "GGGGG y-MM-dd, E",
                "yyyyMMM": "G y MMM",
                "yyyyMMMEd": "G y MMM d, E",
                "yyyyMMMd": "G y MMM d",
                "yyyyMd": "GGGGG y-MM-dd",
                "yyyyQQQ": "G y QQQ",
                "yyyyQQQQ": "G y QQQQ"
              },
              "appendItems": {
                "Day": "{0} ({2}: {1})",
                "Day-Of-Week": "{0} {1}",
                "Era": "{1} {0}",
                "Hour": "{0} ({2}: {1})",
                "Minute": "{0} ({2}: {1})",
                "Month": "{0} ({2}: {1})",
                "Quarter": "{0} ({2}: {1})",
                "Second": "{0} ({2}: {1})",
                "Timezone": "{0} {1}",
                "Week": "{0} ({2}: {1})",
                "Year": "{1} {0}"
              },
              "intervalFormats": {
                "intervalFormatFallback": "{0} – {1}",
                "H": {
                  "H": "HH–HH"
                },
                "Hm": {
                  "H": "HH:mm–HH:mm",
                  "m": "HH:mm–HH:mm"
                },
                "Hmv": {
                  "H": "HH:mm–HH:mm v",
                  "m": "HH:mm–HH:mm v"
                },
                "Hv": {
                  "H": "HH–HH v"
                },
                "M": {
                  "M": "MM–MM"
                },
                "MEd": {
                  "M": "MM-dd, E – MM-dd, E",
                  "d": "MM-dd, E – MM-dd, E"
                },
                "MMM": {
                  "M": "LLL–LLL"
                },
                "MMMEd": {
                  "M": "MMM d, E – MMM d, E",
                  "d": "MMM d, E – MMM d, E"
                },
                "MMMd": {
                  "M": "MMM d – MMM d",
                  "d": "MMM d–d"
                },
                "Md": {
                  "M": "MM-dd – MM-dd",
                  "d": "MM-dd – MM-dd"
                },
                "d": {
                  "d": "d–d"
                },
                "h": {
                  "a": "h a – h a",
                  "h": "h–h a"
                },
                "hm": {
                  "a": "h:mm a – h:mm a",
                  "h": "h:mm–h:mm a",
                  "m": "h:mm–h:mm a"
                },
                "hmv": {
                  "a": "h:mm a – h:mm a v",
                  "h": "h:mm–h:mm a v",
                  "m": "h:mm–h:mm a v"
                },
                "hv": {
                  "a": "h a – h a v",
                  "h": "h–h a v"
                },
                "y": {
                  "y": "G y–y"
                },
                "yM": {
                  "M": "GGGGG y-MM – y-MM",
                  "y": "GGGGG y-MM – y-MM"
                },
                "yMEd": {
                  "M": "GGGGG y-MM-dd, E – y-MM-dd, E",
                  "d": "GGGGG y-MM-dd, E – y-MM-dd, E",
                  "y": "GGGGG y-MM-dd, E – y-MM-dd, E"
                },
                "yMMM": {
                  "M": "G y MMM–MMM",
                  "y": "G y MMM – y MMM"
                },
                "yMMMEd": {
                  "M": "G y MMM d, E – MMM d, E",
                  "d": "G y MMM d, E – MMM d, E",
                  "y": "G y MMM d, E – y MMM d, E"
                },
                "yMMMM": {
                  "M": "G y MMMM–MMMM",
                  "y": "G y MMMM – y MMMM"
                },
                "yMMMd": {
                  "M": "G y MMM d – MMM d",
                  "d": "G y MMM d–d",
                  "y": "G y MMM d – y MMM d"
                },
                "yMd": {
                  "M": "GGGGG y-MM-dd – y-MM-dd",
                  "d": "GGGGG y-MM-dd – y-MM-dd",
                  "y": "GGGGG y-MM-dd – y-MM-dd"
                }
              }
            }
          }
        }
      }
    }
  }
}
