{
  "main": {
    "ru-KG": {
      "identity": {
        "version": {
          "_cldrVersion": "26",
          "_number": "$Revision: 10669 $"
        },
        "generation": {
          "_date": "$Date: 2014-07-23 16:10:33 -0500 (Wed, 23 Jul 2014) $"
        },
        "language": "root",
        "territory": "KG"
      },
      "dates": {
        "calendars": {
          "buddhist": {
            "months": {
              "format": {
                "abbreviated": {
                  "1": "янв.",
                  "2": "февр.",
                  "3": "марта",
                  "4": "апр.",
                  "5": "мая",
                  "6": "июня",
                  "7": "июля",
                  "8": "авг.",
                  "9": "сент.",
                  "10": "окт.",
                  "11": "нояб.",
                  "12": "дек."
                },
                "narrow": {
                  "1": "Я",
                  "2": "Ф",
                  "3": "М",
                  "4": "А",
                  "5": "М",
                  "6": "И",
                  "7": "И",
                  "8": "А",
                  "9": "С",
                  "10": "О",
                  "11": "Н",
                  "12": "Д"
                },
                "wide": {
                  "1": "января",
                  "2": "февраля",
                  "3": "марта",
                  "4": "апреля",
                  "5": "мая",
                  "6": "июня",
                  "7": "июля",
                  "8": "августа",
                  "9": "сентября",
                  "10": "октября",
                  "11": "ноября",
                  "12": "декабря"
                }
              },
              "stand-alone": {
                "abbreviated": {
                  "1": "янв.",
                  "2": "февр.",
                  "3": "март",
                  "4": "апр.",
                  "5": "май",
                  "6": "июнь",
                  "7": "июль",
                  "8": "авг.",
                  "9": "сент.",
                  "10": "окт.",
                  "11": "нояб.",
                  "12": "дек."
                },
                "narrow": {
                  "1": "Я",
                  "2": "Ф",
                  "3": "М",
                  "4": "А",
                  "5": "М",
                  "6": "И",
                  "7": "И",
                  "8": "А",
                  "9": "С",
                  "10": "О",
                  "11": "Н",
                  "12": "Д"
                },
                "wide": {
                  "1": "январь",
                  "2": "февраль",
                  "3": "март",
                  "4": "апрель",
                  "5": "май",
                  "6": "июнь",
                  "7": "июль",
                  "8": "август",
                  "9": "сентябрь",
                  "10": "октябрь",
                  "11": "ноябрь",
                  "12": "декабрь"
                }
              }
            },
            "days": {
              "format": {
                "abbreviated": {
                  "sun": "вс",
                  "mon": "пн",
                  "tue": "вт",
                  "wed": "ср",
                  "thu": "чт",
                  "fri": "пт",
                  "sat": "сб"
                },
                "narrow": {
                  "sun": "вс",
                  "mon": "пн",
                  "tue": "вт",
                  "wed": "ср",
                  "thu": "чт",
                  "fri": "пт",
                  "sat": "сб"
                },
                "short": {
                  "sun": "вс",
                  "mon": "пн",
                  "tue": "вт",
                  "wed": "ср",
                  "thu": "чт",
                  "fri": "пт",
                  "sat": "сб"
                },
                "wide": {
                  "sun": "воскресенье",
                  "mon": "понедельник",
                  "tue": "вторник",
                  "wed": "среда",
                  "thu": "четверг",
                  "fri": "пятница",
                  "sat": "суббота"
                }
              },
              "stand-alone": {
                "abbreviated": {
                  "sun": "Вс",
                  "mon": "Пн",
                  "tue": "Вт",
                  "wed": "Ср",
                  "thu": "Чт",
                  "fri": "Пт",
                  "sat": "Сб"
                },
                "narrow": {
                  "sun": "В",
                  "mon": "П",
                  "tue": "В",
                  "wed": "С",
                  "thu": "Ч",
                  "fri": "П",
                  "sat": "С"
                },
                "short": {
                  "sun": "вс",
                  "mon": "пн",
                  "tue": "вт",
                  "wed": "ср",
                  "thu": "чт",
                  "fri": "пт",
                  "sat": "сб"
                },
                "wide": {
                  "sun": "Воскресенье",
                  "mon": "Понедельник",
                  "tue": "Вторник",
                  "wed": "Среда",
                  "thu": "Четверг",
                  "fri": "Пятница",
                  "sat": "Суббота"
                }
              }
            },
            "quarters": {
              "format": {
                "abbreviated": {
                  "1": "1-й кв.",
                  "2": "2-й кв.",
                  "3": "3-й кв.",
                  "4": "4-й кв."
                },
                "narrow": {
                  "1": "1",
                  "2": "2",
                  "3": "3",
                  "4": "4"
                },
                "wide": {
                  "1": "1-й квартал",
                  "2": "2-й квартал",
                  "3": "3-й квартал",
                  "4": "4-й квартал"
                }
              },
              "stand-alone": {
                "abbreviated": {
                  "1": "1-й кв.",
                  "2": "2-й кв.",
                  "3": "3-й кв.",
                  "4": "4-й кв."
                },
                "narrow": {
                  "1": "1",
                  "2": "2",
                  "3": "3",
                  "4": "4"
                },
                "wide": {
                  "1": "1-й квартал",
                  "2": "2-й квартал",
                  "3": "3-й квартал",
                  "4": "4-й квартал"
                }
              }
            },
            "dayPeriods": {
              "format": {
                "abbreviated": {
                  "am": "AM",
                  "noon": "полдень",
                  "pm": "PM"
                },
                "narrow": {
                  "am": "AM",
                  "noon": "полдень",
                  "pm": "PM"
                },
                "wide": {
                  "am": "AM",
                  "noon": "полдень",
                  "pm": "PM"
                }
              },
              "stand-alone": {
                "abbreviated": {
                  "am": "AM",
                  "noon": "полдень",
                  "pm": "PM"
                },
                "narrow": {
                  "am": "AM",
                  "noon": "полдень",
                  "pm": "PM"
                },
                "wide": {
                  "am": "AM",
                  "noon": "полдень",
                  "pm": "PM"
                }
              }
            },
            "eras": {
              "eraNames": {
                "0": "BE"
              },
              "eraAbbr": {
                "0": "BE"
              },
              "eraNarrow": {
                "0": "BE"
              }
            },
            "dateFormats": {
              "full": "EEEE, d MMMM y 'г'. G",
              "long": "d MMMM y 'г'. G",
              "medium": "dd.MM.y G",
              "short": "dd.MM.y G"
            },
            "timeFormats": {
              "full": "H:mm:ss zzzz",
              "long": "H:mm:ss z",
              "medium": "H:mm:ss",
              "short": "H:mm"
            },
            "dateTimeFormats": {
              "full": "{1}, {0}",
              "long": "{1}, {0}",
              "medium": "{1}, {0}",
              "short": "{1}, {0}",
              "availableFormats": {
                "E": "ccc",
                "EHm": "E HH:mm",
                "EHms": "E HH:mm:ss",
                "Ed": "E, d",
                "Ehm": "E h:mm a",
                "Ehms": "E h:mm:ss a",
                "Gy": "y G",
                "GyMMM": "LLL y G",
                "GyMMMEd": "E, d MMM y G",
                "GyMMMd": "d MMM y G",
                "H": "H",
                "Hm": "H:mm",
                "Hms": "H:mm:ss",
                "M": "L",
                "MEd": "E, dd.MM",
                "MMM": "LLL",
                "MMMEd": "ccc, d MMM",
                "MMMd": "d MMM",
                "Md": "dd.MM",
                "d": "d",
                "h": "h a",
                "hm": "h:mm a",
                "hms": "h:mm:ss a",
                "ms": "mm:ss",
                "y": "y G",
                "yyyy": "y G",
                "yyyyM": "MM.y G",
                "yyyyMEd": "E, dd.MM.y G",
                "yyyyMMM": "LLL y G",
                "yyyyMMMEd": "E, d MMM y G",
                "yyyyMMMM": "LLLL y G",
                "yyyyMMMd": "d MMM y G",
                "yyyyMd": "dd.MM.y G",
                "yyyyQQQ": "QQQ y G",
                "yyyyQQQQ": "QQQQ y 'г'. G"
              },
              "appendItems": {
                "Day": "{0} ({2}: {1})",
                "Day-Of-Week": "{0} {1}",
                "Era": "{1} {0}",
                "Hour": "{0} ({2}: {1})",
                "Minute": "{0} ({2}: {1})",
                "Month": "{0} ({2}: {1})",
                "Quarter": "{0} ({2}: {1})",
                "Second": "{0} ({2}: {1})",
                "Timezone": "{0} {1}",
                "Week": "{0} ({2}: {1})",
                "Year": "{1} {0}"
              },
              "intervalFormats": {
                "intervalFormatFallback": "{0} - {1}",
                "H": {
                  "H": "H-H"
                },
                "Hm": {
                  "H": "H:mm-H:mm",
                  "m": "H:mm-H:mm"
                },
                "Hmv": {
                  "H": "H:mm-H:mm v",
                  "m": "H:mm-H:mm v"
                },
                "Hv": {
                  "H": "H-H v"
                },
                "M": {
                  "M": "M-M"
                },
                "MEd": {
                  "M": "E, dd.MM - E, dd.MM",
                  "d": "E, dd.MM - E, dd.MM"
                },
                "MMM": {
                  "M": "LLL-MMM"
                },
                "MMMEd": {
                  "M": "ccc, d MMM - ccc, d MMM",
                  "d": "ccc, d - E, d MMM"
                },
                "MMMM": {
                  "M": "LLLL-LLLL"
                },
                "MMMd": {
                  "M": "d MMM - d MMM",
                  "d": "d-d MMM"
                },
                "Md": {
                  "M": "dd.MM - dd.MM",
                  "d": "dd.MM - dd.MM"
                },
                "d": {
                  "d": "d-d"
                },
                "h": {
                  "a": "h a - h a",
                  "h": "h-h a"
                },
                "hm": {
                  "a": "h:mm a - h:mm a",
                  "h": "h:mm-h:mm a",
                  "m": "h:mm-h:mm a"
                },
                "hmv": {
                  "a": "h:mm a - h:mm a v",
                  "h": "h:mm-h:mm a v",
                  "m": "h:mm-h:mm a v"
                },
                "hv": {
                  "a": "h a - h a v",
                  "h": "h-h a v"
                },
                "y": {
                  "y": "y-y G"
                },
                "yM": {
                  "M": "MM.y - MM.y G",
                  "y": "MM.y - MM.y G"
                },
                "yMEd": {
                  "M": "ccc, dd.MM.y - ccc, dd.MM.y G",
                  "d": "ccc, dd.MM.y - ccc, dd.MM.y G",
                  "y": "ccc, dd.MM.y - ccc, dd.MM.y G"
                },
                "yMMM": {
                  "M": "LLL-LLL y 'г'. G",
                  "y": "LLL y - LLL y 'г'. G"
                },
                "yMMMEd": {
                  "M": "ccc, d MMM - ccc, d MMM y 'г'. G",
                  "d": "ccc, d - ccc, d MMM y 'г'. G",
                  "y": "ccc, d MMM y - ccc, d MMM y 'г'. G"
                },
                "yMMMM": {
                  "M": "LLLL-LLLL y 'г'. G",
                  "y": "LLLL y - LLLL y 'г'. G"
                },
                "yMMMd": {
                  "M": "d MMM - d MMM y 'г'. G",
                  "d": "d-d MMM y 'г'. G",
                  "y": "d MMM y - d MMM y 'г'. G"
                },
                "yMd": {
                  "M": "dd.MM.y - dd.MM.y G",
                  "d": "dd.MM.y - dd.MM.y G",
                  "y": "dd.MM.y - dd.MM.y G"
                }
              }
            }
          }
        }
      }
    }
  }
}
