{
  "main": {
    "ru-KG": {
      "identity": {
        "version": {
          "_cldrVersion": "26",
          "_number": "$Revision: 10669 $"
        },
        "generation": {
          "_date": "$Date: 2014-07-23 16:10:33 -0500 (Wed, 23 Jul 2014) $"
        },
        "language": "root",
        "territory": "KG"
      },
      "localeDisplayNames": {
        "localeDisplayPattern": {
          "localePattern": "{0} ({1})",
          "localeSeparator": "{0}, {1}",
          "localeKeyTypePattern": "{0}: {1}"
        },
        "keys": {
          "calendar": "календарь",
          "colAlternate": "Игнорировать символы при сортировке",
          "colBackwards": "Обратная сортировка по акценту",
          "colCaseFirst": "Сортировка по верхнему или нижнему регистру",
          "colCaseLevel": "Сортировка с учетом регистра",
          "colHiraganaQuaternary": "Сортировка каны",
          "colNormalization": "Нормализованная сортировка",
          "colNumeric": "Сортировка чисел",
          "colStrength": "Эффективность сортировки",
          "collation": "порядок сортировки",
          "currency": "валюта",
          "numbers": "цифры",
          "timezone": "Часовой пояс",
          "va": "Вариант региональных настроек",
          "variableTop": "Сортировать как символьный массив",
          "x": "Частное"
        },
        "types": {
          "numbers": {
            "arab": "арабско-индийские цифры",
            "arabext": "расширенная система арабско-индийских цифр",
            "armn": "армянские цифры",
            "armnlow": "армянские цифры в нижнем регистре",
            "bali": "балийские цифры",
            "beng": "бенгальские цифры"
          },
          "collation": {
            "big5han": "Сортировка традиционного китайского языка – Big5"
          },
          "numbers": {
            "brah": "цифры брахми"
          },
          "calendar": {
            "buddhist": "буддийский календарь"
          },
          "numbers": {
            "cakm": "цифры чакма",
            "cham": "чамские цифры"
          },
          "calendar": {
            "chinese": "китайский календарь",
            "coptic": "Коптский календарь",
            "dangi": "календарь данги"
          },
          "numbers": {
            "deva": "цифры деванагари"
          },
          "collation": {
            "dictionary": "словарный порядок сортировки",
            "ducet": "cтандартная сортировка Unicode",
            "eor": "европейские правила сортировки"
          },
          "numbers": {
            "ethi": "эфиопские цифры"
          },
          "calendar": {
            "ethiopic": "эфиопский календарь",
            "ethiopic-amete-alem": "Эфиопский календарь \"Амете Алем\""
          },
          "numbers": {
            "finance": "Символы обозначения финансовых показателей",
            "fullwide": "полноширинные цифры"
          },
          "collation": {
            "gb2312han": "упрощенный китайский - GB2312"
          },
          "numbers": {
            "geor": "грузинские цифры"
          },
          "calendar": {
            "gregorian": "григорианский календарь"
          },
          "numbers": {
            "grek": "греческие цифры",
            "greklow": "греческие цифры в нижнем регистре",
            "gujr": "цифры гуджарати",
            "guru": "цифры гурмукхи",
            "hanidec": "китайские десятичные цифры",
            "hans": "китайские упрощенные цифры",
            "hansfin": "китайские упрощенные цифры (финансы)",
            "hant": "китайские традиционные цифры",
            "hantfin": "китайские традиционные цифры (финансы)",
            "hebr": "цифры на иврите"
          },
          "calendar": {
            "hebrew": "еврейский календарь"
          },
          "colStrength": {
            "identical": "Полная сортировка"
          },
          "calendar": {
            "indian": "Национальный календарь Индии",
            "islamic": "исламский календарь",
            "islamic-civil": "Исламский гражданский календарь",
            "islamic-rgsa": "исламский календарь (Саудовская Аравия)",
            "islamic-tbla": "исламский календарь (табличный, астрономическая эпоха)",
            "islamic-umalqura": "исламский календарь (Умм аль-Кура)",
            "iso8601": "календарь ISO-8601",
            "japanese": "японский календарь"
          },
          "numbers": {
            "java": "яванские цифры",
            "jpan": "японские цифры",
            "jpanfin": "японские цифры (финансы)",
            "kali": "цифры кайя ли",
            "khmr": "кхмерские цифры",
            "knda": "цифры каннада",
            "lana": "цифры тай там хора",
            "lanatham": "цифры тай там там",
            "laoo": "лаосские цифры",
            "latn": "современные арабские цифры",
            "lepc": "цифры лепча",
            "limb": "цифры лимбу"
          },
          "colCaseFirst": {
            "lower": "Приоритетная сортировка слов в нижнем регистре"
          },
          "numbers": {
            "mlym": "цифры малаялам",
            "mong": "Монгольские цифры",
            "mtei": "цифры манипури",
            "mymr": "бирманские цифры",
            "mymrshan": "бирманские шанские цифры",
            "native": "Обозначения цифр коренного населения",
            "nkoo": "цифры нко"
          },
          "colBackwards": {
            "no": "Сортировка по акцентам в обычном порядке"
          },
          "colCaseFirst": {
            "no": "Сортировка по стандартным правилам"
          },
          "colCaseLevel": {
            "no": "Сортировка вне зависимости от регистра"
          },
          "colHiraganaQuaternary": {
            "no": "Отдельная сортировка каны"
          },
          "colNormalization": {
            "no": "Сортировка без нормализации"
          },
          "colNumeric": {
            "no": "Отдельная сортировка числовых значений"
          },
          "colAlternate": {
            "non-ignorable": "Сортировка символов"
          },
          "numbers": {
            "olck": "цифры ол-чики",
            "orya": "цифры ория",
            "osma": "цифры османья"
          },
          "calendar": {
            "persian": "персидский календарь"
          },
          "collation": {
            "phonebook": "порядок телефонной книги",
            "phonetic": "Фонетический порядок сортировки",
            "pinyin": "пиньинь"
          },
          "colStrength": {
            "primary": "Сортировка только по символам, обозначающим разрядность",
            "quaternary": "Сортировка по акцентам/регистрам/длине строки/кане"
          },
          "collation": {
            "reformed": "реформированный порядок сортировки"
          },
          "calendar": {
            "roc": "китайский календарь"
          },
          "numbers": {
            "roman": "римские цифры",
            "romanlow": "римские цифры в нижнем регистре",
            "saur": "цифры саураштра"
          },
          "collation": {
            "search": "поиск",
            "searchjl": "Поиск по первой согласной хангыль"
          },
          "colStrength": {
            "secondary": "Сортировка по акцентам"
          },
          "colAlternate": {
            "shifted": "Сортировка без учета символов"
          },
          "numbers": {
            "shrd": "цифры шарада",
            "sora": "цифры сора-сомпенг"
          },
          "collation": {
            "standard": "стандартная сортировка",
            "stroke": "по чертам"
          },
          "numbers": {
            "sund": "суданские цифры",
            "takr": "цифры такри",
            "talu": "цифры новой тай-лю",
            "taml": "тамильские традиционные цифры",
            "tamldec": "тамильские цифры",
            "telu": "цифры телугу"
          },
          "colStrength": {
            "tertiary": "Сортировка по акцентам/регистру/длине строки"
          },
          "numbers": {
            "thai": "тайские цифры",
            "tibt": "тибетские цифры"
          },
          "collation": {
            "traditional": "традиционный порядок"
          },
          "numbers": {
            "traditional": "Традиционная система нумерации"
          },
          "collation": {
            "unihan": "сортировка по ключам, затем по чертам"
          },
          "colCaseFirst": {
            "upper": "Приоритетная сортировка слов в верхнем регистре"
          },
          "numbers": {
            "vaii": "Цифры языка вай"
          },
          "colBackwards": {
            "yes": "Сортировка по акцентам в обратном порядке"
          },
          "colCaseLevel": {
            "yes": "Сортировка с учетом регистра"
          },
          "colHiraganaQuaternary": {
            "yes": "Сортировка каны другим способом"
          },
          "colNormalization": {
            "yes": "Сортировка нормализованных символов Unicode"
          },
          "colNumeric": {
            "yes": "Сортировка численных значений"
          },
          "collation": {
            "zhuyin": "чжуинь"
          }
        },
        "codePatterns": {
          "language": "Язык: {0}",
          "script": "Письменность: {0}",
          "territory": "Регион: {0}"
        }
      }
    }
  }
}
