{
  "main": {
    "ug-Arab-CN": {
      "identity": {
        "version": {
          "_cldrVersion": "26",
          "_number": "$Revision: 10669 $"
        },
        "generation": {
          "_date": "$Date: 2014-07-23 16:10:33 -0500 (Wed, 23 Jul 2014) $"
        },
        "language": "root",
        "script": "Arab",
        "territory": "CN"
      },
      "localeDisplayNames": {
        "territories": {
          "001": "دۇنيا",
          "002": "ئافرىقا",
          "003": "شىمالىي ئامېرىكا",
          "005": "جەنۇبىي ئامېرىكا",
          "009": "ئوكيانىيە",
          "011": "غەربىي ئافرىقا",
          "013": "ئوتتۇرا ئامېرىكا",
          "014": "شەرقىي ئافرىقا",
          "015": "شىمالىي ئافرىقا",
          "017": "ئوتتۇرا ئافرىقا",
          "018": "جەنۇبىي ئافرىقا رايونى",
          "019": "ئامېرىكا",
          "021": "شىمالىي ئامېرىكا رايونى",
          "029": "كارىب دېڭىزى",
          "030": "شەرقىي ئاسىيا",
          "034": "جەنۇبىي ئاسىيا",
          "035": "شەرقىي جەنۇبىي ئاسىيا",
          "039": "جەنۇبىي ياۋروپا",
          "053": "ئاۋسترالئاسىيا",
          "054": "مېلانېسىيە",
          "057": "مىكرونېزىيە رايونى",
          "061": "پولىنىزىيە",
          "142": "ئاسىيا",
          "143": "ئوتتۇرا ئاسىيا",
          "145": "غەربىي ئاسىيا",
          "150": "ياۋروپا",
          "151": "شەرقىي ياۋروپا",
          "154": "شىمالىي ياۋروپا",
          "155": "غەربىي ياۋروپا",
          "419": "لاتىن ئامېرىكا",
          "AC": "ئاسسېنسىيون ئارىلى",
          "AD": "ئاندوررا",
          "AE": "ئەرەب بىرلەشمە خەلىپىلىكى",
          "AF": "ئافغانىستان",
          "AG": "ئانتىگۋا ۋە باربۇدا",
          "AI": "ئانگۋىللا",
          "AL": "ئالبانىيە",
          "AM": "ئەرمېنىيە",
          "AO": "ئانگولا",
          "AQ": "ئانتاركتىكا",
          "AR": "ئارگېنتىنا",
          "AS": "ئامېرىكا تەۋەلىكىدىكى ساموئا",
          "AT": "ئاۋسترىيە",
          "AU": "ئاۋسترالىيە",
          "AW": "ئارۇبا",
          "AX": "ئالاند ئاراللىرى",
          "AZ": "ئەزەربەيجان",
          "BA": "بوسنىيە-گېرتسېگوۋىنا",
          "BB": "باربادوس",
          "BD": "باڭلادىش",
          "BE": "بېلگىيە",
          "BF": "بۇركىنا-فاسو",
          "BG": "بۇلغارىيە",
          "BH": "بەھرەين",
          "BI": "بۇرۇندى",
          "BJ": "بېنىن",
          "BL": "ساينىت-بارتھېلەمي ئاراللىرى",
          "BM": "بېرمۇدا",
          "BN": "بىرۇنېي",
          "BO": "بولىۋىيە",
          "BQ": "كارىب دېڭىزى گوللاندىيە",
          "BR": "بىرازىلىيە",
          "BS": "باھاما",
          "BT": "بۇتان",
          "BV": "بۇۋېت ئاراللىرى",
          "BW": "بوتسۋانا",
          "BY": "بېلارۇسىيە",
          "BZ": "بېلىز",
          "CA": "كانادا",
          "CC": "كەئەلىڭ كوكۇس ئاراللىرى",
          "CD": "كونگو - كىنشاسا",
          "CD-alt-variant": "كونگو (دېموكراتىك كونگو جۇمھۇرىيىتى)",
          "CF": "ئوتتۇرا ئافرىقا جۇمھۇرىيىتى",
          "CG": "كونگو - بىراززاۋىل",
          "CG-alt-variant": "كونگو (جۇمھۇرىيىتى)",
          "CH": "شىۋىتسارىيە",
          "CI": "كوتې دې ئىۋوئىر",
          "CI-alt-variant": "پىل چىشى قىرغىقى",
          "CK": "كۇك ئاراللىرى",
          "CL": "چىلى",
          "CM": "كامېرون",
          "CN": "جۇڭگو",
          "CO": "كولومبىيە",
          "CP": "كىلىپپېرتون ئاراللىرى",
          "CR": "كوستارىكا",
          "CU": "كۇبا",
          "CV": "يېشىل تۇمشۇق",
          "CW": "كۇراسو",
          "CX": "روژدېستۋو ئارىلى",
          "CY": "سىپرۇس",
          "CZ": "چېخ جۇمھۇرىيىتى",
          "DE": "گېرمانىيە",
          "DG": "دېگو-گارشىيا",
          "DJ": "جىبۇتى",
          "DK": "دانىيە",
          "DM": "دومىنىكا",
          "DO": "دومىنىكا جۇمھۇرىيىتى",
          "DZ": "ئالجىرىيە",
          "EA": "سېيتا ۋە مېلىلا",
          "EC": "ئېكۋادور",
          "EE": "ئېستونىيە",
          "EG": "مىسىر",
          "EH": "غەربىي ساخارا",
          "ER": "ئېرىترېيە",
          "ES": "ئىسپانىيە",
          "ET": "ئېفىيوپىيە",
          "EU": "ياۋروپا ئىتتىپاقى",
          "FI": "فىنلاندىيە",
          "FJ": "فىجى",
          "FK": "فالكلاند ئاراللىرى",
          "FK-alt-variant": "فالكلاند ئاراللىرى (ئىسلاس مالۋىناس)",
          "FM": "مىكرونېزىيە",
          "FO": "فائېرو ئاراللىرى",
          "FR": "فىرانسىيە",
          "GA": "گابون",
          "GB": "ئەنگلىيە پادىشاھلىقى",
          "GB-alt-short": "ئەنگلىيە",
          "GD": "گىرېنادا",
          "GE": "گىروزىيە",
          "GF": "فىرانسىيەگە قاراشلىق گىۋىيانا",
          "GG": "گېرىنسى",
          "GH": "گانا",
          "GI": "جەبىلتارىق",
          "GL": "گىرېنلاند",
          "GM": "گامبىيە",
          "GN": "گىۋىنېيە",
          "GP": "گىۋادېلۇپ",
          "GQ": "ئېكۋاتور گىۋىنېيەسى",
          "GR": "گىرېتسىيە",
          "GS": "جەنۇبىي جورجىيە ۋە جەنۇبىي ساندىۋىچ ئاراللىرى",
          "GT": "گىۋاتېمالا",
          "GU": "گۇئام",
          "GW": "گىۋىنېيە-بىسسائۇ",
          "GY": "گىۋىيانا",
          "HK": "شياڭگاڭ ئالاھىدە مەمۇرىي رايونى (جۇڭگو)",
          "HK-alt-short": "شياڭگاڭ",
          "HM": "خېرد ۋە ماك-دونالد ئارىلى",
          "HN": "ھوندۇراس",
          "HR": "كىرودىيە",
          "HT": "ھايتى",
          "HU": "ۋېنگىرىيە",
          "IC": "كانارى ئاراللىرى",
          "ID": "ھىندونېزىيە",
          "IE": "ئىرېلاندىيە",
          "IL": "ئىسرائىلىيە",
          "IM": "مېن ئارىلى",
          "IN": "ھىندىستان",
          "IO": "ئەنگلىيەنىڭ ھىندى ئوكياندىكى تەۋەلىكى",
          "IQ": "ئىراق",
          "IR": "ئىران",
          "IS": "ئىسلاندىيە",
          "IT": "ئىتالىيە",
          "JE": "جېرسېي",
          "JM": "يامايكا",
          "JO": "ئىيوردانىيە",
          "JP": "ياپونىيە",
          "KE": "كېنىيە",
          "KG": "قىرغىزىستان",
          "KH": "كامبودژا",
          "KI": "كىرىباتى",
          "KM": "كومورو",
          "KN": "ساينىت-كىرىستوفېر ۋە نېۋىس",
          "KP": "شىمالىي كورىيە",
          "KR": "جەنۇبىي كورىيە",
          "KW": "كۇۋەيت",
          "KY": "كايمان ئاراللىرى",
          "KZ": "قازاقىستان",
          "LA": "لائوس",
          "LB": "لىۋان",
          "LC": "ساينىت-لۇسىيە",
          "LI": "لىچتېنشتېين بەگلىكى",
          "LK": "سىرىلانكا",
          "LR": "لىبېرىيە",
          "LS": "لېسوتو",
          "LT": "لىتۋانىيە",
          "LU": "لىيۇكسېمبۇرگ",
          "LV": "لاتۋىيە",
          "LY": "لىۋىيە",
          "MA": "ماراكەش",
          "MC": "موناكو",
          "MD": "مولدوۋا",
          "ME": "مونتېنېگرو",
          "MF": "ساينىت-مارتېن",
          "MG": "ماداغاسقار",
          "MH": "مارشال ئاراللىرى",
          "MK": "ماكېدونىيە",
          "MK-alt-variant": "ماكېدونىيە (سابىق يۇگۇسلاۋىيە ماكېدونىيە جۇمھۇرىيىتى)",
          "ML": "مالى",
          "MM": "بىرما",
          "MN": "موڭغۇلىيە",
          "MO": "ئاۋمېن ئالاھىدە مەمۇرىي رايونى (جۇڭگو)",
          "MO-alt-short": "ئاۋمېن",
          "MP": "شىمالىي مارىيانا ئاراللىرى",
          "MQ": "مارتىنىكا",
          "MR": "ماۋرىتانىيە",
          "MS": "مونتسېررات",
          "MT": "مالتا",
          "MU": "ماۋرىتىئۇس",
          "MV": "مالدىۋې",
          "MW": "مالاۋى",
          "MX": "مېكسىكا",
          "MY": "مالايشىيا",
          "MZ": "موزامبىك",
          "NA": "نامىبىيە",
          "NC": "يېڭى كالېدونىيە",
          "NE": "نېگىر",
          "NF": "نورفولك ئارىلى",
          "NG": "نىگېرىيە",
          "NI": "نىكاراگۇئا",
          "NL": "گوللاندىيە",
          "NO": "نورۋېگىيە",
          "NP": "نېپال",
          "NR": "ناۋرۇ",
          "NU": "نىيۇئې",
          "NZ": "يېڭى زېلاندىيە",
          "OM": "ئومان",
          "PA": "پاناما",
          "PE": "پېرۇ",
          "PF": "فىرانسىيەگە قاراشلىق پولىنېزىيە",
          "PG": "پاپۇئا يېڭى گىۋىنېيەسى",
          "PH": "فىلىپپىن",
          "PK": "پاكىستان",
          "PL": "پولشا",
          "PM": "ساينىت-پىئېر ۋە مىكېلون ئاراللىرى",
          "PN": "پىتكاير ئاراللىرى",
          "PR": "پۇئېرتو-رىكو",
          "PS": "پەلەستىن زېمىنى",
          "PS-alt-short": "پەلەستىن",
          "PT": "پورتۇگالىيە",
          "PW": "پالاۋ",
          "PY": "پاراگۋاي",
          "QA": "قاتار",
          "QO": "ئوكيانىيە ئەتراپىدىكى ئاراللار",
          "RE": "رېئونىيون",
          "RO": "رۇمىنىيە",
          "RS": "سېربىيە",
          "RU": "رۇسىيە",
          "RW": "رىۋاندا",
          "SA": "سەئۇدى ئەرەبىستان",
          "SB": "سولومون ئاراللىرى",
          "SC": "سېيشېل",
          "SD": "سۇدان",
          "SE": "شىۋېتسىيە",
          "SG": "سىنگاپور",
          "SH": "ساينىت ھېلېنا",
          "SI": "سىلوۋېنىيە",
          "SJ": "سىۋالبارد ۋە يان-مايېن ئارىلى",
          "SK": "سىلوۋاكىيە",
          "SL": "سېررالېئون",
          "SM": "سان-مارىنو",
          "SN": "سېنېگال",
          "SO": "سومالى",
          "SR": "سۇرىنام",
          "SS": "جەنۇبىي سۇدان",
          "ST": "سان تومې ۋە پرىنسىپې",
          "SV": "ئەل سالۋادور",
          "SX": "سىنت مارتېن",
          "SY": "سۈرىيە",
          "SZ": "سىۋېزىلاند",
          "TA": "ترىستان داكۇنھا",
          "TC": "تۇركس ۋە كايكوس ئاراللىرى",
          "TD": "چاد",
          "TF": "فىرانسىيەگە قاراشلىق جەنۇبتىكى زېمىنلىرى",
          "TG": "توگو",
          "TH": "تايلاند",
          "TJ": "تاجىكىستان",
          "TK": "توكېلاۋ",
          "TL": "شەرقىي تىمور",
          "TL-alt-variant": "TL",
          "TM": "تۈركمەنىستان",
          "TN": "تۇنىس",
          "TO": "تونگا",
          "TR": "تۈركىيە",
          "TT": "تىرىنىداد ۋە توباگو",
          "TV": "تۇۋالۇ",
          "TW": "تەيۋەن",
          "TZ": "تانزانىيە",
          "UA": "ئۇكرائىنا",
          "UG": "ئۇگاندا",
          "UM": "ئامېرىكا تەۋەلىكىدىكى سىرتقى كىچىك ئاراللار",
          "US": "ئامېرىكا قوشما شتاتلىرى",
          "US-alt-short": "ئا ق ش",
          "UY": "ئۇرۇگۋاي",
          "UZ": "ئۆزبېكىستان",
          "VA": "ۋاتىكان شەھىرى",
          "VC": "ساينىت-ۋىنسېنت ۋە گىرېنادىنېس",
          "VE": "ۋېنېزۇئېلا",
          "VG": "ئەنگلىيەگە قاراشلىق ۋىرجىن ئارىلى",
          "VI": "ئامېرىكا تەۋەلىكىدىكى ۋىرجىن تاقىم ئاراللىرى",
          "VN": "ۋىيېتنام",
          "VU": "ۋانۇئاتۇ",
          "WF": "ۋالىس ۋە فۇتۇنا",
          "WS": "ساموئا",
          "XK": "كوسوۋو",
          "YE": "يەمەن",
          "YT": "مايوتتې",
          "ZA": "جەنۇبىي ئافرىقا",
          "ZM": "زامبىيە",
          "ZW": "زىمبابۋې",
          "ZZ": "يوچۇن جاي"
        }
      }
    }
  }
}
