{
  "main": {
    "ug-Arab-CN": {
      "identity": {
        "version": {
          "_cldrVersion": "26",
          "_number": "$Revision: 10669 $"
        },
        "generation": {
          "_date": "$Date: 2014-07-23 16:10:33 -0500 (Wed, 23 Jul 2014) $"
        },
        "language": "root",
        "script": "Arab",
        "territory": "CN"
      },
      "localeDisplayNames": {
        "variants": {
          "1606NICT": "ئوتتۇرا ئاخىرقى دەۋردىكى فىرانسۇزچە 1606",
          "1694ACAD": "دەسلەپكى مەزگىلدىكى زامانىۋى فىرانسۇزچە",
          "1901": "ئەنئەنىۋى گېرمانچە ئىملا قائىدىسى",
          "1959ACAD": "ئاكادېمىك",
          "1994": "ئۆلچەملەشتۈرۈلگەن رېسىيان ئىملا قائىدىسى",
          "1996": "گېرمانچە ئىملا قائىدىسى 1996",
          "ALALC97": "ALA-LC لاتىنلاشتۇرۇش، 1997 نەشرى",
          "ALUKU": "ئالۇكۇ شىۋەسى",
          "AREVELA": "شەرقىي ئەرمەنچە",
          "AREVMDA": "غەربىي ئەرمەنچە",
          "BAKU1926": "بىرلىككە كەلگەن تۈرك لاتىن ئېلىپبەسى",
          "BALANKA": "BALANKA",
          "BARLA": "BARLA",
          "BAUDDHA": "BAUDDHA",
          "BISCAYAN": "BISCAYAN",
          "BISKE": "سان گىيورگىيو/بىلا شىۋەسى",
          "BOHORIC": "بوخورىچ ئېلىپبەسى",
          "BOONT": "بۇنتلىڭچە",
          "DAJNKO": "داژىنكو ئېلىپبەسى",
          "EKAVSK": "EKAVSK",
          "EMODENG": "دەسلەپكى مەزگىلدىكى زامانىۋى ئىنگلىزچە",
          "FONIPA": "IPA تاۋۇشلىرى",
          "FONUPA": "UPA تاۋۇشلىرى",
          "FONXSAMP": "FONXSAMP",
          "HEPBURN": "خېپبۇرن لاتىنلاشتۇرۇش",
          "HOGNORSK": "HOGNORSK",
          "IJEKAVSK": "IJEKAVSK",
          "ITIHASA": "ITIHASA",
          "JAUER": "JAUER",
          "JYUTPING": "JYUTPING",
          "KKCOR": "ئورتاق ئىملا قائىدىسى",
          "KSCOR": "ئۆلچەملىك ئىملا قائىدىسى",
          "LAUKIKA": "LAUKIKA",
          "LIPAW": "رېسىياننىڭ لىپوۋاز شىۋەسى",
          "LUNA1918": "LUNA1918",
          "METELKO": "مېتېلكو ئېلىپبەسى",
          "MONOTON": "ئاددىي",
          "NDYUKA": "نىديۇكا شىۋەسى",
          "NEDIS": "ناتىسون شىۋەسى",
          "NJIVA": "گىنىۋا/نىجىۋا شىۋەسى",
          "NULIK": "زامانىۋى ۋولاپۇكچە",
          "OSOJS": "ئوسېئاككو/ئوسوجەن شىۋەسى",
          "PAMAKA": "پاماكا شىۋەسى",
          "PETR1708": "PETR1708",
          "PINYIN": "پىنيىن لاتىنلاشتۇرۇش",
          "POLYTON": "پولىتونىك",
          "POSIX": "كومپيۇتېر",
          "PUTER": "PUTER",
          "REVISED": "تۈزىتىلگەن ئىملا قائىدىسى",
          "RIGIK": "ئەنئەنىۋى ۋولاپۇكچە",
          "ROZAJ": "رېسىيان",
          "RUMGR": "RUMGR",
          "SAAHO": "ساخوچە",
          "SCOTLAND": "شوتلاندىيە ئۆلچەملىك ئىنگلىزچە",
          "SCOUSE": "سىكاۋۇز",
          "SOLBA": "سىتولۋىززا/سولبىكا شىۋەسى",
          "SOTAV": "SOTAV",
          "SURMIRAN": "SURMIRAN",
          "SURSILV": "SURSILV",
          "SUTSILV": "SUTSILV",
          "TARASK": "تاراسكىۋىتسا ئىملا قائىدىسى",
          "UCCOR": "بىرلىككە كەلگەن ئىملا قائىدىسى",
          "UCRCOR": "بىرلىككە كەلگەن تۈزىتىلگەن ئىملا قائىدىسى",
          "ULSTER": "ULSTER",
          "UNIFON": "UNIFON",
          "VAIDIKA": "VAIDIKA",
          "VALENCIA": "ۋالېنسىيە",
          "VALLADER": "VALLADER",
          "WADEGILE": "ۋېي ئائىلىسى پىنيىن لاتىنلاشتۇرۇش"
        }
      }
    }
  }
}
