{
  "main": {
    "mua": {
      "identity": {
        "version": {
          "_cldrVersion": "26",
          "_number": "$Revision: 10739 $"
        },
        "generation": {
          "_date": "$Date: 2014-08-07 12:54:13 -0500 (Thu, 07 Aug 2014) $"
        },
        "language": "mua"
      },
      "dates": {
        "calendars": {
          "roc": {
            "months": {
              "format": {
                "abbreviated": {
                  "1": "FLO",
                  "2": "CLA",
                  "3": "CKI",
                  "4": "FMF",
                  "5": "MAD",
                  "6": "MBI",
                  "7": "MLI",
                  "8": "MAM",
                  "9": "FDE",
                  "10": "FMU",
                  "11": "FGW",
                  "12": "FYU"
                },
                "narrow": {
                  "1": "O",
                  "2": "A",
                  "3": "I",
                  "4": "F",
                  "5": "D",
                  "6": "B",
                  "7": "L",
                  "8": "M",
                  "9": "E",
                  "10": "U",
                  "11": "W",
                  "12": "Y"
                },
                "wide": {
                  "1": "Fĩi Loo",
                  "2": "Cokcwaklaŋne",
                  "3": "Cokcwaklii",
                  "4": "Fĩi Marfoo",
                  "5": "Madǝǝuutǝbijaŋ",
                  "6": "Mamǝŋgwãafahbii",
                  "7": "Mamǝŋgwãalii",
                  "8": "Madǝmbii",
                  "9": "Fĩi Dǝɓlii",
                  "10": "Fĩi Mundaŋ",
                  "11": "Fĩi Gwahlle",
                  "12": "Fĩi Yuru"
                }
              },
              "stand-alone": {
                "abbreviated": {
                  "1": "FLO",
                  "2": "CLA",
                  "3": "CKI",
                  "4": "FMF",
                  "5": "MAD",
                  "6": "MBI",
                  "7": "MLI",
                  "8": "MAM",
                  "9": "FDE",
                  "10": "FMU",
                  "11": "FGW",
                  "12": "FYU"
                },
                "narrow": {
                  "1": "O",
                  "2": "A",
                  "3": "I",
                  "4": "F",
                  "5": "D",
                  "6": "B",
                  "7": "L",
                  "8": "M",
                  "9": "E",
                  "10": "U",
                  "11": "W",
                  "12": "Y"
                },
                "wide": {
                  "1": "Fĩi Loo",
                  "2": "Cokcwaklaŋne",
                  "3": "Cokcwaklii",
                  "4": "Fĩi Marfoo",
                  "5": "Madǝǝuutǝbijaŋ",
                  "6": "Mamǝŋgwãafahbii",
                  "7": "Mamǝŋgwãalii",
                  "8": "Madǝmbii",
                  "9": "Fĩi Dǝɓlii",
                  "10": "Fĩi Mundaŋ",
                  "11": "Fĩi Gwahlle",
                  "12": "Fĩi Yuru"
                }
              }
            },
            "days": {
              "format": {
                "abbreviated": {
                  "sun": "Cya",
                  "mon": "Cla",
                  "tue": "Czi",
                  "wed": "Cko",
                  "thu": "Cka",
                  "fri": "Cga",
                  "sat": "Cze"
                },
                "narrow": {
                  "sun": "Y",
                  "mon": "L",
                  "tue": "Z",
                  "wed": "O",
                  "thu": "A",
                  "fri": "G",
                  "sat": "E"
                },
                "short": {
                  "sun": "Cya",
                  "mon": "Cla",
                  "tue": "Czi",
                  "wed": "Cko",
                  "thu": "Cka",
                  "fri": "Cga",
                  "sat": "Cze"
                },
                "wide": {
                  "sun": "Com’yakke",
                  "mon": "Comlaaɗii",
                  "tue": "Comzyiiɗii",
                  "wed": "Comkolle",
                  "thu": "Comkaldǝɓlii",
                  "fri": "Comgaisuu",
                  "sat": "Comzyeɓsuu"
                }
              },
              "stand-alone": {
                "abbreviated": {
                  "sun": "Cya",
                  "mon": "Cla",
                  "tue": "Czi",
                  "wed": "Cko",
                  "thu": "Cka",
                  "fri": "Cga",
                  "sat": "Cze"
                },
                "narrow": {
                  "sun": "Y",
                  "mon": "L",
                  "tue": "Z",
                  "wed": "O",
                  "thu": "A",
                  "fri": "G",
                  "sat": "E"
                },
                "short": {
                  "sun": "Cya",
                  "mon": "Cla",
                  "tue": "Czi",
                  "wed": "Cko",
                  "thu": "Cka",
                  "fri": "Cga",
                  "sat": "Cze"
                },
                "wide": {
                  "sun": "Com’yakke",
                  "mon": "Comlaaɗii",
                  "tue": "Comzyiiɗii",
                  "wed": "Comkolle",
                  "thu": "Comkaldǝɓlii",
                  "fri": "Comgaisuu",
                  "sat": "Comzyeɓsuu"
                }
              }
            },
            "quarters": {
              "format": {
                "abbreviated": {
                  "1": "F1",
                  "2": "F2",
                  "3": "F3",
                  "4": "F4"
                },
                "narrow": {
                  "1": "1",
                  "2": "2",
                  "3": "3",
                  "4": "4"
                },
                "wide": {
                  "1": "Tai fĩi sai ma tǝn kee zah",
                  "2": "Tai fĩi sai zah lǝn gwa ma kee",
                  "3": "Tai fĩi sai zah lǝn sai ma kee",
                  "4": "Tai fĩi sai ma coo kee zah ‘na"
                }
              },
              "stand-alone": {
                "abbreviated": {
                  "1": "F1",
                  "2": "F2",
                  "3": "F3",
                  "4": "F4"
                },
                "narrow": {
                  "1": "1",
                  "2": "2",
                  "3": "3",
                  "4": "4"
                },
                "wide": {
                  "1": "Tai fĩi sai ma tǝn kee zah",
                  "2": "Tai fĩi sai zah lǝn gwa ma kee",
                  "3": "Tai fĩi sai zah lǝn sai ma kee",
                  "4": "Tai fĩi sai ma coo kee zah ‘na"
                }
              }
            },
            "dayPeriods": {
              "format": {
                "abbreviated": {
                  "am": "comme",
                  "noon": "noon",
                  "pm": "lilli"
                },
                "narrow": {
                  "am": "a",
                  "noon": "n",
                  "pm": "p"
                },
                "wide": {
                  "am": "comme",
                  "noon": "noon",
                  "pm": "lilli"
                }
              },
              "stand-alone": {
                "abbreviated": {
                  "am": "comme",
                  "noon": "noon",
                  "pm": "lilli"
                },
                "narrow": {
                  "am": "a",
                  "noon": "n",
                  "pm": "p"
                },
                "wide": {
                  "am": "comme",
                  "noon": "noon",
                  "pm": "lilli"
                }
              }
            },
            "eras": {
              "eraNames": {
                "0": "Before R.O.C.",
                "1": "R.O.C."
              },
              "eraAbbr": {
                "0": "Before R.O.C.",
                "1": "R.O.C."
              },
              "eraNarrow": {
                "0": "Before R.O.C.",
                "1": "R.O.C."
              }
            },
            "dateFormats": {
              "full": "EEEE d MMMM y G",
              "long": "d MMMM y G",
              "medium": "d MMM y G",
              "short": "d/M/y GGGGG"
            },
            "timeFormats": {
              "full": "HH:mm:ss zzzz",
              "long": "HH:mm:ss z",
              "medium": "HH:mm:ss",
              "short": "HH:mm"
            },
            "dateTimeFormats": {
              "full": "{1} {0}",
              "long": "{1} {0}",
              "medium": "{1} {0}",
              "short": "{1} {0}",
              "availableFormats": {
                "E": "ccc",
                "EHm": "E HH:mm",
                "EHms": "E HH:mm:ss",
                "Ed": "E d",
                "Ehm": "E h:mm a",
                "Ehms": "E h:mm:ss a",
                "Gy": "G y",
                "GyMMM": "G y MMM",
                "GyMMMEd": "G y MMM d, E",
                "GyMMMd": "G y MMM d",
                "H": "HH",
                "Hm": "HH:mm",
                "Hms": "HH:mm:ss",
                "M": "L",
                "MEd": "E d/M",
                "MMM": "LLL",
                "MMMEd": "E d MMM",
                "MMMd": "d MMM",
                "Md": "d/M",
                "d": "d",
                "h": "h a",
                "hm": "h:mm a",
                "hms": "h:mm:ss a",
                "ms": "m:ss",
                "y": "y",
                "yM": "M/y",
                "yMEd": "E d/M/y",
                "yMMM": "MMM y",
                "yMMMEd": "E d MMM y",
                "yMMMd": "d MMM y",
                "yMd": "d/M/y",
                "yQQQ": "QQQ y",
                "yQQQQ": "QQQQ y",
                "yyyy": "G y",
                "yyyyM": "GGGGG y-MM",
                "yyyyMEd": "GGGGG y-MM-dd, E",
                "yyyyMMM": "G y MMM",
                "yyyyMMMEd": "G y MMM d, E",
                "yyyyMMMd": "G y MMM d",
                "yyyyMd": "GGGGG y-MM-dd",
                "yyyyQQQ": "G y QQQ",
                "yyyyQQQQ": "G y QQQQ"
              },
              "appendItems": {
                "Day": "{0} ({2}: {1})",
                "Day-Of-Week": "{0} {1}",
                "Era": "{1} {0}",
                "Hour": "{0} ({2}: {1})",
                "Minute": "{0} ({2}: {1})",
                "Month": "{0} ({2}: {1})",
                "Quarter": "{0} ({2}: {1})",
                "Second": "{0} ({2}: {1})",
                "Timezone": "{0} {1}",
                "Week": "{0} ({2}: {1})",
                "Year": "{1} {0}"
              },
              "intervalFormats": {
                "intervalFormatFallback": "{0} – {1}",
                "H": {
                  "H": "HH–HH"
                },
                "Hm": {
                  "H": "HH:mm–HH:mm",
                  "m": "HH:mm–HH:mm"
                },
                "Hmv": {
                  "H": "HH:mm–HH:mm v",
                  "m": "HH:mm–HH:mm v"
                },
                "Hv": {
                  "H": "HH–HH v"
                },
                "M": {
                  "M": "MM–MM"
                },
                "MEd": {
                  "M": "MM-dd, E – MM-dd, E",
                  "d": "MM-dd, E – MM-dd, E"
                },
                "MMM": {
                  "M": "LLL–LLL"
                },
                "MMMEd": {
                  "M": "MMM d, E – MMM d, E",
                  "d": "MMM d, E – MMM d, E"
                },
                "MMMd": {
                  "M": "MMM d – MMM d",
                  "d": "MMM d–d"
                },
                "Md": {
                  "M": "MM-dd – MM-dd",
                  "d": "MM-dd – MM-dd"
                },
                "d": {
                  "d": "d–d"
                },
                "h": {
                  "a": "h a – h a",
                  "h": "h–h a"
                },
                "hm": {
                  "a": "h:mm a – h:mm a",
                  "h": "h:mm–h:mm a",
                  "m": "h:mm–h:mm a"
                },
                "hmv": {
                  "a": "h:mm a – h:mm a v",
                  "h": "h:mm–h:mm a v",
                  "m": "h:mm–h:mm a v"
                },
                "hv": {
                  "a": "h a – h a v",
                  "h": "h–h a v"
                },
                "y": {
                  "y": "G y–y"
                },
                "yM": {
                  "M": "GGGGG y-MM – y-MM",
                  "y": "GGGGG y-MM – y-MM"
                },
                "yMEd": {
                  "M": "GGGGG y-MM-dd, E – y-MM-dd, E",
                  "d": "GGGGG y-MM-dd, E – y-MM-dd, E",
                  "y": "GGGGG y-MM-dd, E – y-MM-dd, E"
                },
                "yMMM": {
                  "M": "G y MMM–MMM",
                  "y": "G y MMM – y MMM"
                },
                "yMMMEd": {
                  "M": "G y MMM d, E – MMM d, E",
                  "d": "G y MMM d, E – MMM d, E",
                  "y": "G y MMM d, E – y MMM d, E"
                },
                "yMMMM": {
                  "M": "G y MMMM–MMMM",
                  "y": "G y MMMM – y MMMM"
                },
                "yMMMd": {
                  "M": "G y MMM d – MMM d",
                  "d": "G y MMM d–d",
                  "y": "G y MMM d – y MMM d"
                },
                "yMd": {
                  "M": "GGGGG y-MM-dd – y-MM-dd",
                  "d": "GGGGG y-MM-dd – y-MM-dd",
                  "y": "GGGGG y-MM-dd – y-MM-dd"
                }
              }
            }
          }
        }
      }
    }
  }
}
