{
  "main": {
    "ko-KP": {
      "identity": {
        "version": {
          "_cldrVersion": "26",
          "_number": "$Revision: 10669 $"
        },
        "generation": {
          "_date": "$Date: 2014-07-23 16:10:33 -0500 (Wed, 23 Jul 2014) $"
        },
        "language": "ko",
        "territory": "KP"
      },
      "dates": {
        "calendars": {
          "islamic-tbla": {
            "months": {
              "format": {
                "abbreviated": {
                  "1": "Muh.",
                  "2": "Saf.",
                  "3": "Rab. I",
                  "4": "Rab. II",
                  "5": "Jum. I",
                  "6": "Jum. II",
                  "7": "Raj.",
                  "8": "Sha.",
                  "9": "Ram.",
                  "10": "Shaw.",
                  "11": "Dhuʻl-Q.",
                  "12": "Dhuʻl-H."
                },
                "narrow": {
                  "1": "1",
                  "2": "2",
                  "3": "3",
                  "4": "4",
                  "5": "5",
                  "6": "6",
                  "7": "7",
                  "8": "8",
                  "9": "9",
                  "10": "10",
                  "11": "11",
                  "12": "12"
                },
                "wide": {
                  "1": "Muharram",
                  "2": "Safar",
                  "3": "Rabiʻ I",
                  "4": "Rabiʻ II",
                  "5": "Jumada I",
                  "6": "Jumada II",
                  "7": "Rajab",
                  "8": "Shaʻban",
                  "9": "Ramadan",
                  "10": "Shawwal",
                  "11": "Dhuʻl-Qiʻdah",
                  "12": "Dhuʻl-Hijjah"
                }
              },
              "stand-alone": {
                "abbreviated": {
                  "1": "Muh.",
                  "2": "Saf.",
                  "3": "Rab. I",
                  "4": "Rab. II",
                  "5": "Jum. I",
                  "6": "Jum. II",
                  "7": "Raj.",
                  "8": "Sha.",
                  "9": "Ram.",
                  "10": "Shaw.",
                  "11": "Dhuʻl-Q.",
                  "12": "Dhuʻl-H."
                },
                "narrow": {
                  "1": "1",
                  "2": "2",
                  "3": "3",
                  "4": "4",
                  "5": "5",
                  "6": "6",
                  "7": "7",
                  "8": "8",
                  "9": "9",
                  "10": "10",
                  "11": "11",
                  "12": "12"
                },
                "wide": {
                  "1": "Muharram",
                  "2": "Safar",
                  "3": "Rabiʻ I",
                  "4": "Rabiʻ II",
                  "5": "Jumada I",
                  "6": "Jumada II",
                  "7": "Rajab",
                  "8": "Shaʻban",
                  "9": "Ramadan",
                  "10": "Shawwal",
                  "11": "Dhuʻl-Qiʻdah",
                  "12": "Dhuʻl-Hijjah"
                }
              }
            },
            "days": {
              "format": {
                "abbreviated": {
                  "sun": "일",
                  "mon": "월",
                  "tue": "화",
                  "wed": "수",
                  "thu": "목",
                  "fri": "금",
                  "sat": "토"
                },
                "narrow": {
                  "sun": "일",
                  "mon": "월",
                  "tue": "화",
                  "wed": "수",
                  "thu": "목",
                  "fri": "금",
                  "sat": "토"
                },
                "short": {
                  "sun": "일",
                  "mon": "월",
                  "tue": "화",
                  "wed": "수",
                  "thu": "목",
                  "fri": "금",
                  "sat": "토"
                },
                "wide": {
                  "sun": "일요일",
                  "mon": "월요일",
                  "tue": "화요일",
                  "wed": "수요일",
                  "thu": "목요일",
                  "fri": "금요일",
                  "sat": "토요일"
                }
              },
              "stand-alone": {
                "abbreviated": {
                  "sun": "일",
                  "mon": "월",
                  "tue": "화",
                  "wed": "수",
                  "thu": "목",
                  "fri": "금",
                  "sat": "토"
                },
                "narrow": {
                  "sun": "일",
                  "mon": "월",
                  "tue": "화",
                  "wed": "수",
                  "thu": "목",
                  "fri": "금",
                  "sat": "토"
                },
                "short": {
                  "sun": "일",
                  "mon": "월",
                  "tue": "화",
                  "wed": "수",
                  "thu": "목",
                  "fri": "금",
                  "sat": "토"
                },
                "wide": {
                  "sun": "일요일",
                  "mon": "월요일",
                  "tue": "화요일",
                  "wed": "수요일",
                  "thu": "목요일",
                  "fri": "금요일",
                  "sat": "토요일"
                }
              }
            },
            "quarters": {
              "format": {
                "abbreviated": {
                  "1": "1분기",
                  "2": "2분기",
                  "3": "3분기",
                  "4": "4분기"
                },
                "narrow": {
                  "1": "1",
                  "2": "2",
                  "3": "3",
                  "4": "4"
                },
                "wide": {
                  "1": "제 1/4분기",
                  "2": "제 2/4분기",
                  "3": "제 3/4분기",
                  "4": "제 4/4분기"
                }
              },
              "stand-alone": {
                "abbreviated": {
                  "1": "1분기",
                  "2": "2분기",
                  "3": "3분기",
                  "4": "4분기"
                },
                "narrow": {
                  "1": "1",
                  "2": "2",
                  "3": "3",
                  "4": "4"
                },
                "wide": {
                  "1": "제 1/4분기",
                  "2": "제 2/4분기",
                  "3": "제 3/4분기",
                  "4": "제 4/4분기"
                }
              }
            },
            "dayPeriods": {
              "format": {
                "abbreviated": {
                  "am": "오전",
                  "noon": "정오",
                  "pm": "오후"
                },
                "narrow": {
                  "am": "오전",
                  "noon": "정오",
                  "pm": "오후"
                },
                "wide": {
                  "am": "오전",
                  "noon": "정오",
                  "pm": "오후"
                }
              },
              "stand-alone": {
                "abbreviated": {
                  "am": "오전",
                  "noon": "정오",
                  "pm": "오후"
                },
                "narrow": {
                  "am": "오전",
                  "noon": "정오",
                  "pm": "오후"
                },
                "wide": {
                  "am": "오전",
                  "noon": "정오",
                  "pm": "오후"
                }
              }
            },
            "eras": {
              "eraNames": {
                "0": "AH"
              },
              "eraAbbr": {
                "0": "AH"
              },
              "eraNarrow": {
                "0": "AH"
              }
            },
            "dateFormats": {
              "full": "G y년 M월 d일 EEEE",
              "long": "G y년 M월 d일",
              "medium": "G y. M. d.",
              "short": "G y. M. d."
            },
            "timeFormats": {
              "full": "a h시 m분 s초 zzzz",
              "long": "a h시 m분 s초 z",
              "medium": "a h:mm:ss",
              "short": "a h:mm"
            },
            "dateTimeFormats": {
              "full": "{1} {0}",
              "long": "{1} {0}",
              "medium": "{1} {0}",
              "short": "{1} {0}",
              "availableFormats": {
                "E": "ccc",
                "EEEEd": "d일 EEEE",
                "EHm": "E HH:mm",
                "EHms": "E HH:mm:ss",
                "Ed": "d일 (E)",
                "Ehm": "E h:mm a",
                "Ehms": "E h:mm:ss a",
                "Gy": "G y년",
                "GyMMM": "G y년 MMM",
                "GyMMMEEEEd": "G y년 MMM d일 EEEE",
                "GyMMMEd": "G y년 MMM d일 (E)",
                "GyMMMd": "G y년 MMM d일",
                "H": "H시",
                "HHmmss": "HH:mm:ss",
                "Hm": "HH:mm",
                "Hms": "H시 m분 s초",
                "M": "M월",
                "MEEEEd": "M. d. EEEE",
                "MEd": "M. d. (E)",
                "MMM": "LLL",
                "MMMEEEEd": "MMM d일 EEEE",
                "MMMEd": "MMM d일 (E)",
                "MMMd": "MMM d일",
                "Md": "M. d.",
                "d": "d일",
                "h": "a h시",
                "hm": "a h:mm",
                "hms": "a h:mm:ss",
                "ms": "mm:ss",
                "y": "G y년",
                "yyyy": "G y년",
                "yyyyM": "G y. M.",
                "yyyyMEEEEd": "G y. M. d. EEEE",
                "yyyyMEd": "G y. M. d. (E)",
                "yyyyMMM": "G y년 MMM",
                "yyyyMMMEEEEd": "G y년 MMM d일 EEEE",
                "yyyyMMMEd": "G y년 MMM d일 (E)",
                "yyyyMMMd": "G y년 MMM d일",
                "yyyyMd": "G y. M. d.",
                "yyyyQQQ": "G y년 QQQ",
                "yyyyQQQQ": "G y년 QQQQ"
              },
              "appendItems": {
                "Day": "{0} ({2}: {1})",
                "Day-Of-Week": "{0} {1}",
                "Era": "{1} {0}",
                "Hour": "{0} ({2}: {1})",
                "Minute": "{0} ({2}: {1})",
                "Month": "{0} ({2}: {1})",
                "Quarter": "{0} ({2}: {1})",
                "Second": "{0} ({2}: {1})",
                "Timezone": "{0} {1}",
                "Week": "{0} ({2}: {1})",
                "Year": "{1} {0}"
              },
              "intervalFormats": {
                "intervalFormatFallback": "{0} ~ {1}",
                "H": {
                  "H": "HH ~ HH시"
                },
                "Hm": {
                  "H": "HH:mm ~ HH:mm",
                  "m": "HH:mm ~ HH:mm"
                },
                "Hmv": {
                  "H": "HH:mm ~ HH:mm v",
                  "m": "HH:mm ~ HH:mm v"
                },
                "Hv": {
                  "H": "HH ~ HH시 v"
                },
                "M": {
                  "M": "M월 ~ M월"
                },
                "MEd": {
                  "M": "M. d (E) ~ M. d (E)",
                  "d": "M. d (E) ~ M. d (E)"
                },
                "MMM": {
                  "M": "MMM ~ MMM"
                },
                "MMMEEEEd": {
                  "M": "M월 d일 EEEE ~ M월 d일 EEEE",
                  "d": "M월 d일 EEEE ~ d일 EEEE"
                },
                "MMMEd": {
                  "M": "M월 d일 (E) ~ M월 d일 (E)",
                  "d": "M월 d일 (E) ~ d일 (E)"
                },
                "MMMM": {
                  "M": "LLLL-LLLL"
                },
                "MMMd": {
                  "M": "M월 d일 ~ M월 d일",
                  "d": "M월 d일 ~ d일"
                },
                "Md": {
                  "M": "M. d ~ M. d",
                  "d": "M. d ~ M. d"
                },
                "d": {
                  "d": "d일 ~ d일"
                },
                "h": {
                  "a": "a h시 ~ a h시",
                  "h": "a h시 ~ h시"
                },
                "hm": {
                  "a": "a h:mm ~ a h:mm",
                  "h": "a h:mm~h:mm",
                  "m": "a h:mm~h:mm"
                },
                "hmv": {
                  "a": "a h:mm ~ a h:mm v",
                  "h": "a h:mm~h:mm v",
                  "m": "a h:mm~h:mm v"
                },
                "hv": {
                  "a": "a h시 ~ a h시(v)",
                  "h": "a h시 ~ h시(v)"
                },
                "y": {
                  "y": "G y년 ~ y년"
                },
                "yM": {
                  "M": "G y. M ~ y. M",
                  "y": "G y. M ~ y. M"
                },
                "yMEd": {
                  "M": "G y. M. d. (E) ~ y. M. d. (E)",
                  "d": "G y. M. d. (E) ~ y. M. d. (E)",
                  "y": "G y. M. d. (E) ~ y. M. d. (E)"
                },
                "yMMM": {
                  "M": "G y년 M월~M월",
                  "y": "G y년 M월 ~ y년 M월"
                },
                "yMMMEEEEd": {
                  "M": "G y년 M월 d일 EEEE ~ M월 d일 EEEE",
                  "d": "G y년 M월 d일 EEEE ~ d일 EEEE",
                  "y": "G y년 M월 d일 EEEE ~ y년 M월 d일 EEEE"
                },
                "yMMMEd": {
                  "M": "G y년 M월 d일 (E) ~ M월 d일 (E)",
                  "d": "G y년 M월 d일 (E) ~ d일 (E)",
                  "y": "G y년 M월 d일 (E) ~ y년 M월 d일 (E)"
                },
                "yMMMM": {
                  "M": "G y년 MM월 ~ MM월",
                  "y": "G y년 MM월 ~ y년 MM월"
                },
                "yMMMd": {
                  "M": "G y년 M월 d일 ~ M월 d일",
                  "d": "G y년 M월 d일~d일",
                  "y": "G y년 M월 d일 ~ y년 M월 d일"
                },
                "yMd": {
                  "M": "G y. M. d. ~ y. M. d.",
                  "d": "G y. M. d. ~ y. M. d.",
                  "y": "G y. M. d. ~ y. M. d."
                }
              }
            }
          }
        }
      }
    }
  }
}
