{
  "main": {
    "ko-KP": {
      "identity": {
        "version": {
          "_cldrVersion": "26",
          "_number": "$Revision: 10669 $"
        },
        "generation": {
          "_date": "$Date: 2014-07-23 16:10:33 -0500 (Wed, 23 Jul 2014) $"
        },
        "language": "ko",
        "territory": "KP"
      },
      "localeDisplayNames": {
        "transformNames": {
          "BGN": "미국 지명위원회(BGN)",
          "Numeric": "숫자",
          "Tone": "성조",
          "UNGEGN": "유엔지명전문가회의(UNGEGN)",
          "x-Accents": "악센트",
          "x-Fullwidth": "전각",
          "x-Halfwidth": "반각",
          "x-Jamo": "자모",
          "x-Pinyin": "병음",
          "x-Publishing": "게시"
        }
      }
    }
  }
}
