{
  "main": {
    "se": {
      "identity": {
        "version": {
          "_cldrVersion": "26",
          "_number": "$Revision: 10753 $"
        },
        "generation": {
          "_date": "$Date: 2014-08-11 11:10:03 -0500 (Mon, 11 Aug 2014) $"
        },
        "language": "root"
      },
      "characters": {
        "exemplarCharacters": "[a á b c č d đ e f g h i j k l m n ŋ o p r s š t ŧ u v z ž]",
        "auxiliary": "[à ç é è í ń ñ ó ò q ú w x y ü ø æ å ä ã ö]",
        "punctuation": "[\\- , ; \\: ! ? . ( ) \\[ \\] \\{ \\}]",
        "index": "[A Á B C Č D Đ E É F G H I J K L M N Ŋ O P Q R S Š T Ŧ U V W X Y Z Ž Ø Æ Å Ä Ö]",
        "ellipsis": {
          "initial": "…{0}",
          "medial": "{0}…{1}",
          "final": "{0}…",
          "word-initial": "… {0}",
          "word-medial": "{0} … {1}",
          "word-final": "{0} …"
        },
        "moreInformation": "?"
      }
    }
  }
}
