{
  "main": {
    "zh-Hans-HK": {
      "identity": {
        "version": {
          "_cldrVersion": "26",
          "_number": "$Revision: 10819 $"
        },
        "generation": {
          "_date": "$Date: 2014-08-14 22:53:08 -0500 (Thu, 14 Aug 2014) $"
        },
        "language": "root",
        "script": "Hans",
        "territory": "HK"
      },
      "dates": {
        "calendars": {
          "japanese": {
            "months": {
              "format": {
                "abbreviated": {
                  "1": "1月",
                  "2": "2月",
                  "3": "3月",
                  "4": "4月",
                  "5": "5月",
                  "6": "6月",
                  "7": "7月",
                  "8": "8月",
                  "9": "9月",
                  "10": "10月",
                  "11": "11月",
                  "12": "12月"
                },
                "narrow": {
                  "1": "1",
                  "2": "2",
                  "3": "3",
                  "4": "4",
                  "5": "5",
                  "6": "6",
                  "7": "7",
                  "8": "8",
                  "9": "9",
                  "10": "10",
                  "11": "11",
                  "12": "12"
                },
                "wide": {
                  "1": "一月",
                  "2": "二月",
                  "3": "三月",
                  "4": "四月",
                  "5": "五月",
                  "6": "六月",
                  "7": "七月",
                  "8": "八月",
                  "9": "九月",
                  "10": "十月",
                  "11": "十一月",
                  "12": "十二月"
                }
              },
              "stand-alone": {
                "abbreviated": {
                  "1": "1月",
                  "2": "2月",
                  "3": "3月",
                  "4": "4月",
                  "5": "5月",
                  "6": "6月",
                  "7": "7月",
                  "8": "8月",
                  "9": "9月",
                  "10": "10月",
                  "11": "11月",
                  "12": "12月"
                },
                "narrow": {
                  "1": "1",
                  "2": "2",
                  "3": "3",
                  "4": "4",
                  "5": "5",
                  "6": "6",
                  "7": "7",
                  "8": "8",
                  "9": "9",
                  "10": "10",
                  "11": "11",
                  "12": "12"
                },
                "wide": {
                  "1": "一月",
                  "2": "二月",
                  "3": "三月",
                  "4": "四月",
                  "5": "五月",
                  "6": "六月",
                  "7": "七月",
                  "8": "八月",
                  "9": "九月",
                  "10": "十月",
                  "11": "十一月",
                  "12": "十二月"
                }
              }
            },
            "days": {
              "format": {
                "abbreviated": {
                  "sun": "周日",
                  "mon": "周一",
                  "tue": "周二",
                  "wed": "周三",
                  "thu": "周四",
                  "fri": "周五",
                  "sat": "周六"
                },
                "narrow": {
                  "sun": "日",
                  "mon": "一",
                  "tue": "二",
                  "wed": "三",
                  "thu": "四",
                  "fri": "五",
                  "sat": "六"
                },
                "short": {
                  "sun": "周日",
                  "mon": "周一",
                  "tue": "周二",
                  "wed": "周三",
                  "thu": "周四",
                  "fri": "周五",
                  "sat": "周六"
                },
                "wide": {
                  "sun": "星期日",
                  "mon": "星期一",
                  "tue": "星期二",
                  "wed": "星期三",
                  "thu": "星期四",
                  "fri": "星期五",
                  "sat": "星期六"
                }
              },
              "stand-alone": {
                "abbreviated": {
                  "sun": "周日",
                  "mon": "周一",
                  "tue": "周二",
                  "wed": "周三",
                  "thu": "周四",
                  "fri": "周五",
                  "sat": "周六"
                },
                "narrow": {
                  "sun": "日",
                  "mon": "一",
                  "tue": "二",
                  "wed": "三",
                  "thu": "四",
                  "fri": "五",
                  "sat": "六"
                },
                "short": {
                  "sun": "周日",
                  "mon": "周一",
                  "tue": "周二",
                  "wed": "周三",
                  "thu": "周四",
                  "fri": "周五",
                  "sat": "周六"
                },
                "wide": {
                  "sun": "星期日",
                  "mon": "星期一",
                  "tue": "星期二",
                  "wed": "星期三",
                  "thu": "星期四",
                  "fri": "星期五",
                  "sat": "星期六"
                }
              }
            },
            "quarters": {
              "format": {
                "abbreviated": {
                  "1": "1季度",
                  "2": "2季度",
                  "3": "3季度",
                  "4": "4季度"
                },
                "narrow": {
                  "1": "1",
                  "2": "2",
                  "3": "3",
                  "4": "4"
                },
                "wide": {
                  "1": "第一季度",
                  "2": "第二季度",
                  "3": "第三季度",
                  "4": "第四季度"
                }
              },
              "stand-alone": {
                "abbreviated": {
                  "1": "1季度",
                  "2": "2季度",
                  "3": "3季度",
                  "4": "4季度"
                },
                "narrow": {
                  "1": "1",
                  "2": "2",
                  "3": "3",
                  "4": "4"
                },
                "wide": {
                  "1": "第一季度",
                  "2": "第二季度",
                  "3": "第三季度",
                  "4": "第四季度"
                }
              }
            },
            "dayPeriods": {
              "format": {
                "abbreviated": {
                  "afternoon": "下午",
                  "am": "上午",
                  "earlyMorning": "清晨",
                  "midDay": "中午",
                  "morning": "上午",
                  "night": "晚上",
                  "noon": "中午",
                  "pm": "下午",
                  "weeHours": "凌晨"
                },
                "narrow": {
                  "afternoon": "下午",
                  "am": "上午",
                  "earlyMorning": "清晨",
                  "midDay": "中午",
                  "morning": "上午",
                  "night": "晚上",
                  "noon": "中午",
                  "pm": "下午",
                  "weeHours": "凌晨"
                },
                "wide": {
                  "afternoon": "下午",
                  "am": "上午",
                  "earlyMorning": "清晨",
                  "midDay": "中午",
                  "morning": "上午",
                  "night": "晚上",
                  "noon": "中午",
                  "pm": "下午",
                  "weeHours": "凌晨"
                }
              },
              "stand-alone": {
                "abbreviated": {
                  "afternoon": "下午",
                  "am": "上午",
                  "earlyMorning": "清晨",
                  "midDay": "中午",
                  "morning": "上午",
                  "night": "晚上",
                  "noon": "中午",
                  "pm": "下午",
                  "weeHours": "凌晨"
                },
                "narrow": {
                  "afternoon": "下午",
                  "am": "上午",
                  "earlyMorning": "清晨",
                  "midDay": "中午",
                  "morning": "上午",
                  "night": "晚上",
                  "noon": "中午",
                  "pm": "下午",
                  "weeHours": "凌晨"
                },
                "wide": {
                  "afternoon": "下午",
                  "am": "上午",
                  "earlyMorning": "清晨",
                  "midDay": "中午",
                  "morning": "上午",
                  "night": "晚上",
                  "noon": "中午",
                  "pm": "下午",
                  "weeHours": "凌晨"
                }
              }
            },
            "eras": {
              "eraNames": {
                "0": "大化 (645–650)",
                "1": "白雉 (650–671)",
                "10": "天平 (729–749)",
                "100": "嘉应 (1169–1171)",
                "101": "承安 (1171–1175)",
                "102": "安元 (1175–1177)",
                "103": "治承 (1177–1181)",
                "104": "养和 (1181–1182)",
                "105": "寿永 (1182–1184)",
                "106": "元历 (1184–1185)",
                "107": "文治 (1185–1190)",
                "108": "建久 (1190–1199)",
                "109": "正治 (1199–1201)",
                "11": "天平感宝 (749–749)",
                "110": "建仁 (1201–1204)",
                "111": "元久 (1204–1206)",
                "112": "建永 (1206–1207)",
                "113": "承元 (1207–1211)",
                "114": "建历 (1211–1213)",
                "115": "建保 (1213–1219)",
                "116": "承久 (1219–1222)",
                "117": "贞应 (1222–1224)",
                "118": "元仁 (1224–1225)",
                "119": "嘉禄 (1225–1227)",
                "12": "天平胜宝 (749–757)",
                "120": "安贞 (1227–1229)",
                "121": "宽喜 (1229–1232)",
                "122": "贞永 (1232–1233)",
                "123": "天福 (1233–1234)",
                "124": "文历 (1234–1235)",
                "125": "嘉祯 (1235–1238)",
                "126": "历仁 (1238–1239)",
                "127": "延应 (1239–1240)",
                "128": "仁治 (1240–1243)",
                "129": "宽元 (1243–1247)",
                "13": "天平宝字 (757–765)",
                "130": "宝治 (1247–1249)",
                "131": "建长 (1249–1256)",
                "132": "康元 (1256–1257)",
                "133": "正嘉 (1257–1259)",
                "134": "正元 (1259–1260)",
                "135": "文应 (1260–1261)",
                "136": "弘长 (1261–1264)",
                "137": "文永 (1264–1275)",
                "138": "建治 (1275–1278)",
                "139": "弘安 (1278–1288)",
                "14": "天平神护 (765–767)",
                "140": "正应 (1288–1293)",
                "141": "永仁 (1293–1299)",
                "142": "正安 (1299–1302)",
                "143": "干元 (1302–1303)",
                "144": "嘉元 (1303–1306)",
                "145": "德治 (1306–1308)",
                "146": "延庆 (1308–1311)",
                "147": "应长 (1311–1312)",
                "148": "正和 (1312–1317)",
                "149": "文保 (1317–1319)",
                "15": "神护景云 (767–770)",
                "150": "元应 (1319–1321)",
                "151": "元亨 (1321–1324)",
                "152": "正中 (1324–1326)",
                "153": "嘉历 (1326–1329)",
                "154": "元德 (1329–1331)",
                "155": "元弘 (1331–1334)",
                "156": "建武 (1334–1336)",
                "157": "延元 (1336–1340)",
                "158": "兴国 (1340–1346)",
                "159": "正平 (1346–1370)",
                "16": "宝龟 (770–780)",
                "160": "建德 (1370–1372)",
                "161": "文中 (1372–1375)",
                "162": "天授 (1375–1379)",
                "163": "康历 (1379–1381)",
                "164": "弘和 (1381–1384)",
                "165": "元中 (1384–1392)",
                "166": "至德 (1384–1387)",
                "167": "嘉庆 (1387–1389)",
                "168": "康应 (1389–1390)",
                "169": "明德 (1390–1394)",
                "17": "天应 (781–782)",
                "170": "应永 (1394–1428)",
                "171": "正长 (1428–1429)",
                "172": "永享 (1429–1441)",
                "173": "嘉吉 (1441–1444)",
                "174": "文安 (1444–1449)",
                "175": "宝德 (1449–1452)",
                "176": "享德 (1452–1455)",
                "177": "康正 (1455–1457)",
                "178": "长禄 (1457–1460)",
                "179": "宽正 (1460–1466)",
                "18": "延历 (782–806)",
                "180": "文正 (1466–1467)",
                "181": "应仁 (1467–1469)",
                "182": "文明 (1469–1487)",
                "183": "长享 (1487–1489)",
                "184": "延德 (1489–1492)",
                "185": "明应 (1492–1501)",
                "186": "文龟 (1501–1504)",
                "187": "永正 (1504–1521)",
                "188": "大永 (1521–1528)",
                "189": "享禄 (1528–1532)",
                "19": "大同 (806–810)",
                "190": "天文 (1532–1555)",
                "191": "弘治 (1555–1558)",
                "192": "永禄 (1558–1570)",
                "193": "元龟 (1570–1573)",
                "194": "天正 (1573–1592)",
                "195": "文禄 (1592–1596)",
                "196": "庆长 (1596–1615)",
                "197": "元和 (1615–1624)",
                "198": "宽永 (1624–1644)",
                "199": "正保 (1644–1648)",
                "2": "白凤 (672–686)",
                "20": "弘仁 (810–824)",
                "200": "庆安 (1648–1652)",
                "201": "承应 (1652–1655)",
                "202": "明历 (1655–1658)",
                "203": "万治 (1658–1661)",
                "204": "宽文 (1661–1673)",
                "205": "延宝 (1673–1681)",
                "206": "天和 (1681–1684)",
                "207": "贞享 (1684–1688)",
                "208": "元禄 (1688–1704)",
                "209": "宝永 (1704–1711)",
                "21": "天长 (824–834)",
                "210": "正德 (1711–1716)",
                "211": "享保 (1716–1736)",
                "212": "元文 (1736–1741)",
                "213": "宽保 (1741–1744)",
                "214": "延享 (1744–1748)",
                "215": "宽延 (1748–1751)",
                "216": "宝历 (1751–1764)",
                "217": "明和 (1764–1772)",
                "218": "安永 (1772–1781)",
                "219": "天明 (1781–1789)",
                "22": "承和 (834–848)",
                "220": "宽政 (1789–1801)",
                "221": "享和 (1801–1804)",
                "222": "文化 (1804–1818)",
                "223": "文政 (1818–1830)",
                "224": "天保 (1830–1844)",
                "225": "弘化 (1844–1848)",
                "226": "嘉永 (1848–1854)",
                "227": "安政 (1854–1860)",
                "228": "万延 (1860–1861)",
                "229": "文久 (1861–1864)",
                "23": "嘉祥 (848–851)",
                "230": "元治 (1864–1865)",
                "231": "庆应 (1865–1868)",
                "232": "明治",
                "233": "大正",
                "234": "昭和",
                "235": "平成",
                "24": "仁寿 (851–854)",
                "25": "齐衡 (854–857)",
                "26": "天安 (857–859)",
                "27": "贞观 (859–877)",
                "28": "元庆 (877–885)",
                "29": "仁和 (885–889)",
                "3": "朱鸟 (686–701)",
                "30": "宽平 (889–898)",
                "31": "昌泰 (898–901)",
                "32": "延喜 (901–923)",
                "33": "延长 (923–931)",
                "34": "承平 (931–938)",
                "35": "天庆 (938–947)",
                "36": "天历 (947–957)",
                "37": "天德 (957–961)",
                "38": "应和 (961–964)",
                "39": "康保 (964–968)",
                "4": "大宝 (701–704)",
                "40": "安和 (968–970)",
                "41": "天禄 (970–973)",
                "42": "天延 (973–976)",
                "43": "贞元 (976–978)",
                "44": "天元 (978–983)",
                "45": "永观 (983–985)",
                "46": "宽和 (985–987)",
                "47": "永延 (987–989)",
                "48": "永祚 (989–990)",
                "49": "正历 (990–995)",
                "5": "庆云 (704–708)",
                "50": "长德 (995–999)",
                "51": "长保 (999–1004)",
                "52": "宽弘 (1004–1012)",
                "53": "长和 (1012–1017)",
                "54": "宽仁 (1017–1021)",
                "55": "治安 (1021–1024)",
                "56": "万寿 (1024–1028)",
                "57": "长元 (1028–1037)",
                "58": "长历 (1037–1040)",
                "59": "长久 (1040–1044)",
                "6": "和铜 (708–715)",
                "60": "宽德 (1044–1046)",
                "61": "永承 (1046–1053)",
                "62": "天喜 (1053–1058)",
                "63": "康平 (1058–1065)",
                "64": "治历 (1065–1069)",
                "65": "延久 (1069–1074)",
                "66": "承保 (1074–1077)",
                "67": "正历 (1077–1081)",
                "68": "永保 (1081–1084)",
                "69": "应德 (1084–1087)",
                "7": "灵龟 (715–717)",
                "70": "宽治 (1087–1094)",
                "71": "嘉保 (1094–1096)",
                "72": "永长 (1096–1097)",
                "73": "承德 (1097–1099)",
                "74": "康和 (1099–1104)",
                "75": "长治 (1104–1106)",
                "76": "嘉承 (1106–1108)",
                "77": "天仁 (1108–1110)",
                "78": "天永 (1110–1113)",
                "79": "永久 (1113–1118)",
                "8": "养老 (717–724)",
                "80": "元永 (1118–1120)",
                "81": "保安 (1120–1124)",
                "82": "天治 (1124–1126)",
                "83": "大治 (1126–1131)",
                "84": "天承 (1131–1132)",
                "85": "长承 (1132–1135)",
                "86": "保延 (1135–1141)",
                "87": "永治 (1141–1142)",
                "88": "康治 (1142–1144)",
                "89": "天养 (1144–1145)",
                "9": "神龟 (724–729)",
                "90": "久安 (1145–1151)",
                "91": "仁平 (1151–1154)",
                "92": "久寿 (1154–1156)",
                "93": "保元 (1156–1159)",
                "94": "平治 (1159–1160)",
                "95": "永历 (1160–1161)",
                "96": "应保 (1161–1163)",
                "97": "长宽 (1163–1165)",
                "98": "永万 (1165–1166)",
                "99": "仁安 (1166–1169)"
              },
              "eraAbbr": {
                "0": "大化 (645–650)",
                "1": "白雉 (650–671)",
                "10": "天平 (729–749)",
                "100": "嘉应 (1169–1171)",
                "101": "承安 (1171–1175)",
                "102": "安元 (1175–1177)",
                "103": "治承 (1177–1181)",
                "104": "养和 (1181–1182)",
                "105": "寿永 (1182–1184)",
                "106": "元历 (1184–1185)",
                "107": "文治 (1185–1190)",
                "108": "建久 (1190–1199)",
                "109": "正治 (1199–1201)",
                "11": "天平感宝 (749–749)",
                "110": "建仁 (1201–1204)",
                "111": "元久 (1204–1206)",
                "112": "建永 (1206–1207)",
                "113": "承元 (1207–1211)",
                "114": "建历 (1211–1213)",
                "115": "建保 (1213–1219)",
                "116": "承久 (1219–1222)",
                "117": "贞应 (1222–1224)",
                "118": "元仁 (1224–1225)",
                "119": "嘉禄 (1225–1227)",
                "12": "天平胜宝 (749–757)",
                "120": "安贞 (1227–1229)",
                "121": "宽喜 (1229–1232)",
                "122": "贞永 (1232–1233)",
                "123": "天福 (1233–1234)",
                "124": "文历 (1234–1235)",
                "125": "嘉祯 (1235–1238)",
                "126": "历仁 (1238–1239)",
                "127": "延应 (1239–1240)",
                "128": "仁治 (1240–1243)",
                "129": "宽元 (1243–1247)",
                "13": "天平宝字 (757–765)",
                "130": "宝治 (1247–1249)",
                "131": "建长 (1249–1256)",
                "132": "康元 (1256–1257)",
                "133": "正嘉 (1257–1259)",
                "134": "正元 (1259–1260)",
                "135": "文应 (1260–1261)",
                "136": "弘长 (1261–1264)",
                "137": "文永 (1264–1275)",
                "138": "建治 (1275–1278)",
                "139": "弘安 (1278–1288)",
                "14": "天平神护 (765–767)",
                "140": "正应 (1288–1293)",
                "141": "永仁 (1293–1299)",
                "142": "正安 (1299–1302)",
                "143": "干元 (1302–1303)",
                "144": "嘉元 (1303–1306)",
                "145": "德治 (1306–1308)",
                "146": "延庆 (1308–1311)",
                "147": "应长 (1311–1312)",
                "148": "正和 (1312–1317)",
                "149": "文保 (1317–1319)",
                "15": "神护景云 (767–770)",
                "150": "元应 (1319–1321)",
                "151": "元亨 (1321–1324)",
                "152": "正中 (1324–1326)",
                "153": "嘉历 (1326–1329)",
                "154": "元德 (1329–1331)",
                "155": "元弘 (1331–1334)",
                "156": "建武 (1334–1336)",
                "157": "延元 (1336–1340)",
                "158": "兴国 (1340–1346)",
                "159": "正平 (1346–1370)",
                "16": "宝龟 (770–780)",
                "160": "建德 (1370–1372)",
                "161": "文中 (1372–1375)",
                "162": "天授 (1375–1379)",
                "163": "康历 (1379–1381)",
                "164": "弘和 (1381–1384)",
                "165": "元中 (1384–1392)",
                "166": "至德 (1384–1387)",
                "167": "嘉庆 (1387–1389)",
                "168": "康应 (1389–1390)",
                "169": "明德 (1390–1394)",
                "17": "天应 (781–782)",
                "170": "应永 (1394–1428)",
                "171": "正长 (1428–1429)",
                "172": "永享 (1429–1441)",
                "173": "嘉吉 (1441–1444)",
                "174": "文安 (1444–1449)",
                "175": "宝德 (1449–1452)",
                "176": "享德 (1452–1455)",
                "177": "康正 (1455–1457)",
                "178": "长禄 (1457–1460)",
                "179": "宽正 (1460–1466)",
                "18": "延历 (782–806)",
                "180": "文正 (1466–1467)",
                "181": "应仁 (1467–1469)",
                "182": "文明 (1469–1487)",
                "183": "长享 (1487–1489)",
                "184": "延德 (1489–1492)",
                "185": "明应 (1492–1501)",
                "186": "文龟 (1501–1504)",
                "187": "永正 (1504–1521)",
                "188": "大永 (1521–1528)",
                "189": "享禄 (1528–1532)",
                "19": "大同 (806–810)",
                "190": "天文 (1532–1555)",
                "191": "弘治 (1555–1558)",
                "192": "永禄 (1558–1570)",
                "193": "元龟 (1570–1573)",
                "194": "天正 (1573–1592)",
                "195": "文禄 (1592–1596)",
                "196": "庆长 (1596–1615)",
                "197": "元和 (1615–1624)",
                "198": "宽永 (1624–1644)",
                "199": "正保 (1644–1648)",
                "2": "白凤 (672–686)",
                "20": "弘仁 (810–824)",
                "200": "庆安 (1648–1652)",
                "201": "承应 (1652–1655)",
                "202": "明历 (1655–1658)",
                "203": "万治 (1658–1661)",
                "204": "宽文 (1661–1673)",
                "205": "延宝 (1673–1681)",
                "206": "天和 (1681–1684)",
                "207": "贞享 (1684–1688)",
                "208": "元禄 (1688–1704)",
                "209": "宝永 (1704–1711)",
                "21": "天长 (824–834)",
                "210": "正德 (1711–1716)",
                "211": "享保 (1716–1736)",
                "212": "元文 (1736–1741)",
                "213": "宽保 (1741–1744)",
                "214": "延享 (1744–1748)",
                "215": "宽延 (1748–1751)",
                "216": "宝历 (1751–1764)",
                "217": "明和 (1764–1772)",
                "218": "安永 (1772–1781)",
                "219": "天明 (1781–1789)",
                "22": "承和 (834–848)",
                "220": "宽政 (1789–1801)",
                "221": "享和 (1801–1804)",
                "222": "文化 (1804–1818)",
                "223": "文政 (1818–1830)",
                "224": "天保 (1830–1844)",
                "225": "弘化 (1844–1848)",
                "226": "嘉永 (1848–1854)",
                "227": "安政 (1854–1860)",
                "228": "万延 (1860–1861)",
                "229": "文久 (1861–1864)",
                "23": "嘉祥 (848–851)",
                "230": "元治 (1864–1865)",
                "231": "庆应 (1865–1868)",
                "232": "明治",
                "233": "大正",
                "234": "昭和",
                "235": "平成",
                "24": "仁寿 (851–854)",
                "25": "齐衡 (854–857)",
                "26": "天安 (857–859)",
                "27": "贞观 (859–877)",
                "28": "元庆 (877–885)",
                "29": "仁和 (885–889)",
                "3": "朱鸟 (686–701)",
                "30": "宽平 (889–898)",
                "31": "昌泰 (898–901)",
                "32": "延喜 (901–923)",
                "33": "延长 (923–931)",
                "34": "承平 (931–938)",
                "35": "天庆 (938–947)",
                "36": "天历 (947–957)",
                "37": "天德 (957–961)",
                "38": "应和 (961–964)",
                "39": "康保 (964–968)",
                "4": "大宝 (701–704)",
                "40": "安和 (968–970)",
                "41": "天禄 (970–973)",
                "42": "天延 (973–976)",
                "43": "贞元 (976–978)",
                "44": "天元 (978–983)",
                "45": "永观 (983–985)",
                "46": "宽和 (985–987)",
                "47": "永延 (987–989)",
                "48": "永祚 (989–990)",
                "49": "正历 (990–995)",
                "5": "庆云 (704–708)",
                "50": "长德 (995–999)",
                "51": "长保 (999–1004)",
                "52": "宽弘 (1004–1012)",
                "53": "长和 (1012–1017)",
                "54": "宽仁 (1017–1021)",
                "55": "治安 (1021–1024)",
                "56": "万寿 (1024–1028)",
                "57": "长元 (1028–1037)",
                "58": "长历 (1037–1040)",
                "59": "长久 (1040–1044)",
                "6": "和铜 (708–715)",
                "60": "宽德 (1044–1046)",
                "61": "永承 (1046–1053)",
                "62": "天喜 (1053–1058)",
                "63": "康平 (1058–1065)",
                "64": "治历 (1065–1069)",
                "65": "延久 (1069–1074)",
                "66": "承保 (1074–1077)",
                "67": "正历 (1077–1081)",
                "68": "永保 (1081–1084)",
                "69": "应德 (1084–1087)",
                "7": "灵龟 (715–717)",
                "70": "宽治 (1087–1094)",
                "71": "嘉保 (1094–1096)",
                "72": "永长 (1096–1097)",
                "73": "承德 (1097–1099)",
                "74": "康和 (1099–1104)",
                "75": "长治 (1104–1106)",
                "76": "嘉承 (1106–1108)",
                "77": "天仁 (1108–1110)",
                "78": "天永 (1110–1113)",
                "79": "永久 (1113–1118)",
                "8": "养老 (717–724)",
                "80": "元永 (1118–1120)",
                "81": "保安 (1120–1124)",
                "82": "天治 (1124–1126)",
                "83": "大治 (1126–1131)",
                "84": "天承 (1131–1132)",
                "85": "长承 (1132–1135)",
                "86": "保延 (1135–1141)",
                "87": "永治 (1141–1142)",
                "88": "康治 (1142–1144)",
                "89": "天养 (1144–1145)",
                "9": "神龟 (724–729)",
                "90": "久安 (1145–1151)",
                "91": "仁平 (1151–1154)",
                "92": "久寿 (1154–1156)",
                "93": "保元 (1156–1159)",
                "94": "平治 (1159–1160)",
                "95": "永历 (1160–1161)",
                "96": "应保 (1161–1163)",
                "97": "长宽 (1163–1165)",
                "98": "永万 (1165–1166)",
                "99": "仁安 (1166–1169)"
              },
              "eraNarrow": {
                "0": "Taika (645-650)",
                "1": "Hakuchi (650-671)",
                "10": "Tempyō (729-749)",
                "100": "Kaō (1169-1171)",
                "101": "Shōan (1171-1175)",
                "102": "Angen (1175-1177)",
                "103": "Jishō (1177-1181)",
                "104": "Yōwa (1181-1182)",
                "105": "Juei (1182-1184)",
                "106": "Genryuku (1184-1185)",
                "107": "Bunji (1185-1190)",
                "108": "Kenkyū (1190-1199)",
                "109": "Shōji (1199-1201)",
                "11": "Tempyō-kampō (749-749)",
                "110": "Kennin (1201-1204)",
                "111": "Genkyū (1204-1206)",
                "112": "Ken-ei (1206-1207)",
                "113": "Shōgen (1207-1211)",
                "114": "Kenryaku (1211-1213)",
                "115": "Kenpō (1213-1219)",
                "116": "Shōkyū (1219-1222)",
                "117": "Jōō (1222-1224)",
                "118": "Gennin (1224-1225)",
                "119": "Karoku (1225-1227)",
                "12": "Tempyō-shōhō (749-757)",
                "120": "Antei (1227-1229)",
                "121": "Kanki (1229-1232)",
                "122": "Jōei (1232-1233)",
                "123": "Tempuku (1233-1234)",
                "124": "Bunryaku (1234-1235)",
                "125": "Katei (1235-1238)",
                "126": "Ryakunin (1238-1239)",
                "127": "En-ō (1239-1240)",
                "128": "Ninji (1240-1243)",
                "129": "Kangen (1243-1247)",
                "13": "Tempyō-hōji (757-765)",
                "130": "Hōji (1247-1249)",
                "131": "Kenchō (1249-1256)",
                "132": "Kōgen (1256-1257)",
                "133": "Shōka (1257-1259)",
                "134": "Shōgen (1259-1260)",
                "135": "Bun-ō (1260-1261)",
                "136": "Kōchō (1261-1264)",
                "137": "Bun-ei (1264-1275)",
                "138": "Kenji (1275-1278)",
                "139": "Kōan (1278-1288)",
                "14": "Temphō-jingo (765-767)",
                "140": "Shōō (1288-1293)",
                "141": "Einin (1293-1299)",
                "142": "Shōan (1299-1302)",
                "143": "Kengen (1302-1303)",
                "144": "Kagen (1303-1306)",
                "145": "Tokuji (1306-1308)",
                "146": "Enkei (1308-1311)",
                "147": "Ōchō (1311-1312)",
                "148": "Shōwa (1312-1317)",
                "149": "Bunpō (1317-1319)",
                "15": "Jingo-keiun (767-770)",
                "150": "Genō (1319-1321)",
                "151": "Genkyō (1321-1324)",
                "152": "Shōchū (1324-1326)",
                "153": "Kareki (1326-1329)",
                "154": "Gentoku (1329-1331)",
                "155": "Genkō (1331-1334)",
                "156": "Kemmu (1334-1336)",
                "157": "Engen (1336-1340)",
                "158": "Kōkoku (1340-1346)",
                "159": "Shōhei (1346-1370)",
                "16": "Hōki (770-780)",
                "160": "Kentoku (1370-1372)",
                "161": "Bunchũ (1372-1375)",
                "162": "Tenju (1375-1379)",
                "163": "Kōryaku (1379-1381)",
                "164": "Kōwa (1381-1384)",
                "165": "Genchũ (1384-1392)",
                "166": "Meitoku (1384-1387)",
                "167": "Kakei (1387-1389)",
                "168": "Kōō (1389-1390)",
                "169": "Meitoku (1390-1394)",
                "17": "Ten-ō (781-782)",
                "170": "Ōei (1394-1428)",
                "171": "Shōchō (1428-1429)",
                "172": "Eikyō (1429-1441)",
                "173": "Kakitsu (1441-1444)",
                "174": "Bun-an (1444-1449)",
                "175": "Hōtoku (1449-1452)",
                "176": "Kyōtoku (1452-1455)",
                "177": "Kōshō (1455-1457)",
                "178": "Chōroku (1457-1460)",
                "179": "Kanshō (1460-1466)",
                "18": "Enryaku (782-806)",
                "180": "Bunshō (1466-1467)",
                "181": "Ōnin (1467-1469)",
                "182": "Bunmei (1469-1487)",
                "183": "Chōkyō (1487-1489)",
                "184": "Entoku (1489-1492)",
                "185": "Meiō (1492-1501)",
                "186": "Bunki (1501-1504)",
                "187": "Eishō (1504-1521)",
                "188": "Taiei (1521-1528)",
                "189": "Kyōroku (1528-1532)",
                "19": "Daidō (806-810)",
                "190": "Tenmon (1532-1555)",
                "191": "Kōji (1555-1558)",
                "192": "Eiroku (1558-1570)",
                "193": "Genki (1570-1573)",
                "194": "Tenshō (1573-1592)",
                "195": "Bunroku (1592-1596)",
                "196": "Keichō (1596-1615)",
                "197": "Genwa (1615-1624)",
                "198": "Kan-ei (1624-1644)",
                "199": "Shōho (1644-1648)",
                "2": "Hakuhō (672-686)",
                "20": "Kōnin (810-824)",
                "200": "Keian (1648-1652)",
                "201": "Shōō (1652-1655)",
                "202": "Meiryaku (1655-1658)",
                "203": "Manji (1658-1661)",
                "204": "Kanbun (1661-1673)",
                "205": "Enpō (1673-1681)",
                "206": "Tenwa (1681-1684)",
                "207": "Jōkyō (1684-1688)",
                "208": "Genroku (1688-1704)",
                "209": "Hōei (1704-1711)",
                "21": "Tenchō (824-834)",
                "210": "Shōtoku (1711-1716)",
                "211": "Kyōhō (1716-1736)",
                "212": "Genbun (1736-1741)",
                "213": "Kanpō (1741-1744)",
                "214": "Enkyō (1744-1748)",
                "215": "Kan-en (1748-1751)",
                "216": "Hōryaku (1751-1764)",
                "217": "Meiwa (1764-1772)",
                "218": "An-ei (1772-1781)",
                "219": "Tenmei (1781-1789)",
                "22": "Jōwa (834-848)",
                "220": "Kansei (1789-1801)",
                "221": "Kyōwa (1801-1804)",
                "222": "Bunka (1804-1818)",
                "223": "Bunsei (1818-1830)",
                "224": "Tenpō (1830-1844)",
                "225": "Kōka (1844-1848)",
                "226": "Kaei (1848-1854)",
                "227": "Ansei (1854-1860)",
                "228": "Man-en (1860-1861)",
                "229": "Bunkyū (1861-1864)",
                "23": "Kajō (848-851)",
                "230": "Genji (1864-1865)",
                "231": "Keiō (1865-1868)",
                "232": "M",
                "233": "T",
                "234": "S",
                "235": "H",
                "24": "Ninju (851-854)",
                "25": "Saiko (854-857)",
                "26": "Tennan (857-859)",
                "27": "Jōgan (859-877)",
                "28": "Genkei (877-885)",
                "29": "Ninna (885-889)",
                "3": "Shuchō (686-701)",
                "30": "Kampyō (889-898)",
                "31": "Shōtai (898-901)",
                "32": "Engi (901-923)",
                "33": "Enchō (923-931)",
                "34": "Shōhei (931-938)",
                "35": "Tengyō (938-947)",
                "36": "Tenryaku (947-957)",
                "37": "Tentoku (957-961)",
                "38": "Ōwa (961-964)",
                "39": "Kōhō (964-968)",
                "4": "Taihō (701-704)",
                "40": "Anna (968-970)",
                "41": "Tenroku (970-973)",
                "42": "Ten-en (973-976)",
                "43": "Jōgen (976-978)",
                "44": "Tengen (978-983)",
                "45": "Eikan (983-985)",
                "46": "Kanna (985-987)",
                "47": "Ei-en (987-989)",
                "48": "Eiso (989-990)",
                "49": "Shōryaku (990-995)",
                "5": "Keiun (704-708)",
                "50": "Chōtoku (995-999)",
                "51": "Chōhō (999-1004)",
                "52": "Kankō (1004-1012)",
                "53": "Chōwa (1012-1017)",
                "54": "Kannin (1017-1021)",
                "55": "Jian (1021-1024)",
                "56": "Manju (1024-1028)",
                "57": "Chōgen (1028-1037)",
                "58": "Chōryaku (1037-1040)",
                "59": "Chōkyū (1040-1044)",
                "6": "Wadō (708-715)",
                "60": "Kantoku (1044-1046)",
                "61": "Eishō (1046-1053)",
                "62": "Tengi (1053-1058)",
                "63": "Kōhei (1058-1065)",
                "64": "Jiryaku (1065-1069)",
                "65": "Enkyū (1069-1074)",
                "66": "Shōho (1074-1077)",
                "67": "Shōryaku (1077-1081)",
                "68": "Eiho (1081-1084)",
                "69": "Ōtoku (1084-1087)",
                "7": "Reiki (715-717)",
                "70": "Kanji (1087-1094)",
                "71": "Kaho (1094-1096)",
                "72": "Eichō (1096-1097)",
                "73": "Shōtoku (1097-1099)",
                "74": "Kōwa (1099-1104)",
                "75": "Chōji (1104-1106)",
                "76": "Kashō (1106-1108)",
                "77": "Tennin (1108-1110)",
                "78": "Ten-ei (1110-1113)",
                "79": "Eikyū (1113-1118)",
                "8": "Yōrō (717-724)",
                "80": "Gen-ei (1118-1120)",
                "81": "Hoan (1120-1124)",
                "82": "Tenji (1124-1126)",
                "83": "Daiji (1126-1131)",
                "84": "Tenshō (1131-1132)",
                "85": "Chōshō (1132-1135)",
                "86": "Hoen (1135-1141)",
                "87": "Eiji (1141-1142)",
                "88": "Kōji (1142-1144)",
                "89": "Tenyō (1144-1145)",
                "9": "Jinki (724-729)",
                "90": "Kyūan (1145-1151)",
                "91": "Ninpei (1151-1154)",
                "92": "Kyūju (1154-1156)",
                "93": "Hogen (1156-1159)",
                "94": "Heiji (1159-1160)",
                "95": "Eiryaku (1160-1161)",
                "96": "Ōho (1161-1163)",
                "97": "Chōkan (1163-1165)",
                "98": "Eiman (1165-1166)",
                "99": "Nin-an (1166-1169)"
              }
            },
            "dateFormats": {
              "full": "Gy年M月d日EEEE",
              "long": "Gy年M月d日",
              "medium": "Gy年M月d日",
              "short": "Gd/M/yy"
            },
            "timeFormats": {
              "full": "zzzzah:mm:ss",
              "long": "zah:mm:ss",
              "medium": "ah:mm:ss",
              "short": "ah:mm"
            },
            "dateTimeFormats": {
              "full": "{1} {0}",
              "long": "{1} {0}",
              "medium": "{1} {0}",
              "short": "{1} {0}",
              "availableFormats": {
                "E": "ccc",
                "EHm": "E HH:mm",
                "EHms": "E HH:mm:ss",
                "Ed": "d日E",
                "Ehm": "E h:mm a",
                "Ehms": "E h:mm:ss a",
                "Gy": "Gy年",
                "GyMMM": "Gy年M月",
                "GyMMMEd": "Gy年M月d日E",
                "GyMMMd": "Gy年M月d日",
                "H": "H时",
                "HHmm": "HH:mm",
                "Hm": "HH:mm",
                "Hms": "HH:mm:ss",
                "M": "M月",
                "MEd": "M/dE",
                "MMM": "LLL",
                "MMMEd": "M月d日E",
                "MMMMdd": "M月d日",
                "MMMd": "M月d日",
                "Md": "M/d",
                "d": "d日",
                "h": "ah时",
                "hm": "ah:mm",
                "hms": "ah:mm:ss",
                "ms": "mm:ss",
                "y": "Gy年",
                "yyyy": "Gy年",
                "yyyyM": "Gy-MM",
                "yyyyMEd": "Gy-M-d（E）",
                "yyyyMMM": "Gy年M月",
                "yyyyMMMEd": "Gy年M月d日E",
                "yyyyMMMM": "Gy年M月",
                "yyyyMMMd": "Gy年M月d日",
                "yyyyMd": "Gy-MM-dd",
                "yyyyQQQ": "Gy年第Q季度",
                "yyyyQQQQ": "Gy年QQQQ"
              },
              "appendItems": {
                "Day": "{0} ({2}: {1})",
                "Day-Of-Week": "{0} {1}",
                "Era": "{1} {0}",
                "Hour": "{0} ({2}: {1})",
                "Minute": "{0} ({2}: {1})",
                "Month": "{0} ({2}: {1})",
                "Quarter": "{0} ({2}: {1})",
                "Second": "{0} ({2}: {1})",
                "Timezone": "{0} {1}",
                "Week": "{0} ({2}: {1})",
                "Year": "{1} {0}"
              },
              "intervalFormats": {
                "intervalFormatFallback": "{0}–{1}",
                "H": {
                  "H": "HH–HH"
                },
                "Hm": {
                  "H": "HH:mm–HH:mm",
                  "m": "HH:mm–HH:mm"
                },
                "Hmv": {
                  "H": "vHH:mm–HH:mm",
                  "m": "vHH:mm–HH:mm"
                },
                "Hv": {
                  "H": "vHH–HH"
                },
                "M": {
                  "M": "M–M月"
                },
                "MEd": {
                  "M": "M/dE至M/dE",
                  "d": "M/dE至M/dE"
                },
                "MMM": {
                  "M": "M月至M月"
                },
                "MMMEd": {
                  "M": "M月d日E至M月d日E",
                  "d": "M月d日E至d日E"
                },
                "MMMd": {
                  "M": "M月d日至M月d日",
                  "d": "M月d日至d日"
                },
                "Md": {
                  "M": "M/d – M/d",
                  "d": "M/d – M/d"
                },
                "d": {
                  "d": "d日至d日"
                },
                "h": {
                  "a": "ah时至ah时",
                  "h": "ah至h时"
                },
                "hm": {
                  "a": "ah:mm至ah:mm",
                  "h": "ah:mm至h:mm",
                  "m": "ah:mm至h:mm"
                },
                "hmv": {
                  "a": "vah:mm至ah:mm",
                  "h": "vah:mm至h:mm",
                  "m": "vah:mm至h:mm"
                },
                "hv": {
                  "a": "vah时至ah时",
                  "h": "vah时至h时"
                },
                "y": {
                  "y": "Gy–y年"
                },
                "yM": {
                  "M": "y年M月至y年M月",
                  "y": "Gy年M月至y年M月"
                },
                "yMEd": {
                  "M": "d/M/yE至d/M/yE",
                  "d": "d/M/yE至d/M/yE",
                  "y": "d/M/yE至d/M/yE"
                },
                "yMMM": {
                  "M": "Gy年M月至M月",
                  "y": "Gy年M月至y年M月"
                },
                "yMMMEd": {
                  "M": "Gy年M月d日E至M月d日E",
                  "d": "y年M月d日E至M月d日E",
                  "y": "Gy年M月d日E至y年M月d日E"
                },
                "yMMMM": {
                  "M": "Gy年M月至M月",
                  "y": "Gy年M月至y年M月"
                },
                "yMMMd": {
                  "M": "Gy年M月d日至M月d日",
                  "d": "Gy年M月d日至d日",
                  "y": "Gy年M月d日至y年M月d日"
                },
                "yMd": {
                  "M": "d/M/y至d/M/y",
                  "d": "d/M/y至d/M/y",
                  "y": "d/M/y至d/M/y"
                }
              }
            }
          }
        }
      }
    }
  }
}
