{
  "main": {
    "zh-Hans-HK": {
      "identity": {
        "version": {
          "_cldrVersion": "26",
          "_number": "$Revision: 10819 $"
        },
        "generation": {
          "_date": "$Date: 2014-08-14 22:53:08 -0500 (Thu, 14 Aug 2014) $"
        },
        "language": "root",
        "script": "Hans",
        "territory": "HK"
      },
      "localeDisplayNames": {
        "variants": {
          "1606NICT": "1606 年前中后期法文",
          "1694ACAD": "早期现代法文",
          "1901": "传统德文拼字",
          "1959ACAD": "学术",
          "1994": "标准雷西亚拼字",
          "1996": "1996 年德文拼字",
          "ALALC97": "1997 版 ALA-LC 罗马字",
          "ALUKU": "阿鲁库方言",
          "AREVELA": "东亚美尼亚文",
          "AREVMDA": "西亚美尼亚文",
          "BAKU1926": "统一土耳其拉丁字母",
          "BALANKA": "BALANKA",
          "BARLA": "BARLA",
          "BAUDDHA": "佛陀梵文",
          "BISCAYAN": "比斯开方言",
          "BISKE": "圣乔治/比拉方言",
          "BOHORIC": "BOHORIC",
          "BOONT": "布恩特林方言",
          "DAJNKO": "DAJNKO",
          "EKAVSK": "EKAVSK",
          "EMODENG": "EMODENG",
          "FONIPA": "国际音标",
          "FONUPA": "UPA 音标",
          "FONXSAMP": "X-SAMPA 音标",
          "HEPBURN": "赫伯恩罗马字",
          "HOGNORSK": "高地挪威文",
          "IJEKAVSK": "IJEKAVSK",
          "ITIHASA": "史诗梵文",
          "JAUER": "米施泰尔方言",
          "JYUTPING": "粤语拼音",
          "KKCOR": "常用拼字",
          "KSCOR": "KSCOR",
          "LAUKIKA": "传统梵文",
          "LIPAW": "雷西亚 Lipovaz 方言",
          "LUNA1918": "俄文拼字（1918年起）",
          "METELKO": "METELKO",
          "MONOTON": "单音字母",
          "NDYUKA": "Ndyuka 方言",
          "NEDIS": "Natisone 方言",
          "NJIVA": "Gniva/Njiva 方言",
          "NULIK": "NULIK",
          "OSOJS": "Oseacco/Osojane 方言",
          "PAMAKA": "Pamaka 方言",
          "PETR1708": "俄文拼字（1708年）",
          "PINYIN": "拼音罗马字",
          "POLYTON": "多音字母",
          "POSIX": "电脑",
          "PUTER": "瑞士普特尔方言",
          "REVISED": "修订的拼字",
          "RIGIK": "RIGIK",
          "ROZAJ": "雷西亚文",
          "RUMGR": "罗曼什文",
          "SAAHO": "萨霍文",
          "SCOTLAND": "苏格兰标准英文",
          "SCOUSE": "利物浦方言",
          "SOLBA": "Stolvizza/Solbica 方言",
          "SOTAV": "SOTAV",
          "SURMIRAN": "瑞士苏迈拉方言",
          "SURSILV": "瑞士苏瑟瓦方言",
          "SUTSILV": "瑞士苏希瓦方言",
          "TARASK": "Taraskievica 拼字",
          "UCCOR": "统一的拼字",
          "UCRCOR": "统一和修订的拼字",
          "ULSTER": "阿尔斯特方言",
          "UNIFON": "UNIFON",
          "VAIDIKA": "吠陀梵文",
          "VALENCIA": "瓦伦西亚文",
          "VALLADER": "瑞士瓦勒德方言",
          "WADEGILE": "韦氏拼音罗马字"
        }
      }
    }
  }
}
