{
  "main": {
    "sr-Latn-ME": {
      "identity": {
        "version": {
          "_cldrVersion": "26",
          "_number": "$Revision: 10820 $"
        },
        "generation": {
          "_date": "$Date: 2014-08-14 23:26:58 -0500 (Thu, 14 Aug 2014) $"
        },
        "language": "root",
        "script": "Latn",
        "territory": "ME"
      },
      "dates": {
        "calendars": {
          "roc": {
            "months": {
              "format": {
                "abbreviated": {
                  "1": "jan",
                  "2": "feb",
                  "3": "mar",
                  "4": "apr",
                  "5": "maj",
                  "6": "jun",
                  "7": "jul",
                  "8": "avg",
                  "9": "sep",
                  "10": "okt",
                  "11": "nov",
                  "12": "dec"
                },
                "narrow": {
                  "1": "j",
                  "2": "f",
                  "3": "m",
                  "4": "a",
                  "5": "m",
                  "6": "j",
                  "7": "j",
                  "8": "a",
                  "9": "s",
                  "10": "o",
                  "11": "n",
                  "12": "d"
                },
                "wide": {
                  "1": "januar",
                  "2": "februar",
                  "3": "mart",
                  "4": "april",
                  "5": "maj",
                  "6": "jun",
                  "7": "jul",
                  "8": "avgust",
                  "9": "septembar",
                  "10": "oktobar",
                  "11": "novembar",
                  "12": "decembar"
                }
              },
              "stand-alone": {
                "abbreviated": {
                  "1": "jan",
                  "2": "feb",
                  "3": "mar",
                  "4": "apr",
                  "5": "maj",
                  "6": "jun",
                  "7": "jul",
                  "8": "avg",
                  "9": "sep",
                  "10": "okt",
                  "11": "nov",
                  "12": "dec"
                },
                "narrow": {
                  "1": "j",
                  "2": "f",
                  "3": "m",
                  "4": "a",
                  "5": "m",
                  "6": "j",
                  "7": "j",
                  "8": "a",
                  "9": "s",
                  "10": "o",
                  "11": "n",
                  "12": "d"
                },
                "wide": {
                  "1": "januar",
                  "2": "februar",
                  "3": "mart",
                  "4": "april",
                  "5": "maj",
                  "6": "jun",
                  "7": "jul",
                  "8": "avgust",
                  "9": "septembar",
                  "10": "oktobar",
                  "11": "novembar",
                  "12": "decembar"
                }
              }
            },
            "days": {
              "format": {
                "abbreviated": {
                  "sun": "ned",
                  "mon": "pon",
                  "tue": "uto",
                  "wed": "sre",
                  "thu": "čet",
                  "fri": "pet",
                  "sat": "sub"
                },
                "narrow": {
                  "sun": "n",
                  "mon": "p",
                  "tue": "u",
                  "wed": "s",
                  "thu": "č",
                  "fri": "p",
                  "sat": "s"
                },
                "short": {
                  "sun": "ned",
                  "mon": "pon",
                  "tue": "uto",
                  "wed": "sre",
                  "thu": "čet",
                  "fri": "pet",
                  "sat": "sub"
                },
                "wide": {
                  "sun": "nedelja",
                  "mon": "ponedeljak",
                  "tue": "utorak",
                  "wed": "sreda",
                  "thu": "četvrtak",
                  "fri": "petak",
                  "sat": "subota"
                }
              },
              "stand-alone": {
                "abbreviated": {
                  "sun": "ned",
                  "mon": "pon",
                  "tue": "uto",
                  "wed": "sre",
                  "thu": "čet",
                  "fri": "pet",
                  "sat": "sub"
                },
                "narrow": {
                  "sun": "n",
                  "mon": "p",
                  "tue": "u",
                  "wed": "s",
                  "thu": "č",
                  "fri": "p",
                  "sat": "s"
                },
                "short": {
                  "sun": "ne",
                  "mon": "po",
                  "tue": "ut",
                  "wed": "sr",
                  "thu": "če",
                  "fri": "pe",
                  "sat": "su"
                },
                "wide": {
                  "sun": "nedelja",
                  "mon": "ponedeljak",
                  "tue": "utorak",
                  "wed": "sreda",
                  "thu": "četvrtak",
                  "fri": "petak",
                  "sat": "subota"
                }
              }
            },
            "quarters": {
              "format": {
                "abbreviated": {
                  "1": "K1",
                  "2": "K2",
                  "3": "K3",
                  "4": "K4"
                },
                "narrow": {
                  "1": "1.",
                  "2": "2.",
                  "3": "3.",
                  "4": "4."
                },
                "wide": {
                  "1": "Prvo tromesečje",
                  "2": "Drugo tromesečje",
                  "3": "Treće tromesečje",
                  "4": "Četvrto tromesečje"
                }
              },
              "stand-alone": {
                "abbreviated": {
                  "1": "K1",
                  "2": "K2",
                  "3": "K3",
                  "4": "K4"
                },
                "narrow": {
                  "1": "1.",
                  "2": "2.",
                  "3": "3.",
                  "4": "4."
                },
                "wide": {
                  "1": "Prvo tromesečje",
                  "2": "Drugo tromesečje",
                  "3": "Treće tromesečje",
                  "4": "Četvrto tromesečje"
                }
              }
            },
            "dayPeriods": {
              "format": {
                "abbreviated": {
                  "am": "pre podne",
                  "noon": "u podne",
                  "pm": "po podne"
                },
                "narrow": {
                  "am": "a",
                  "noon": "n",
                  "pm": "p"
                },
                "wide": {
                  "am": "pre podne",
                  "noon": "u podne",
                  "pm": "po podne"
                }
              },
              "stand-alone": {
                "abbreviated": {
                  "am": "pre podne",
                  "noon": "u podne",
                  "pm": "po podne"
                },
                "narrow": {
                  "am": "a",
                  "noon": "n",
                  "pm": "p"
                },
                "wide": {
                  "am": "pre podne",
                  "noon": "u podne",
                  "pm": "po podne"
                }
              }
            },
            "eras": {
              "eraNames": {
                "0": "Pre RK",
                "1": "RK"
              },
              "eraAbbr": {
                "0": "Pre RK",
                "1": "RK"
              },
              "eraNarrow": {
                "0": "Pre RK",
                "1": "RK"
              }
            },
            "dateFormats": {
              "full": "EEEE, dd. MMMM y. G",
              "long": "dd. MMMM y. G",
              "medium": "dd.MM.y. G",
              "short": "d.M.y. GGGGG"
            },
            "timeFormats": {
              "full": "HH.mm.ss zzzz",
              "long": "HH.mm.ss z",
              "medium": "HH.mm.ss",
              "short": "HH.mm"
            },
            "dateTimeFormats": {
              "full": "{1} {0}",
              "long": "{1} {0}",
              "medium": "{1} {0}",
              "short": "{1} {0}",
              "availableFormats": {
                "E": "ccc",
                "EHm": "E HH:mm",
                "EHms": "E HH:mm:ss",
                "Ed": "E d.",
                "Ehm": "E h:mm a",
                "Ehms": "E h:mm:ss a",
                "Gy": "y. G",
                "GyMMM": "MMM y. G",
                "GyMMMEd": "E, d. MMM y. G",
                "GyMMMd": "d. MMM y. G",
                "H": "HH",
                "Hm": "HH.mm",
                "Hms": "HH.mm.ss",
                "M": "L",
                "MEd": "E, M-d",
                "MMM": "LLL",
                "MMMEd": "E d. MMM",
                "MMMMEd": "E d. MMMM",
                "MMMMd": "d. MMMM",
                "MMMd": "d. MMM",
                "MMMdd": "dd.MMM",
                "MMdd": "MM-dd",
                "Md": "d/M",
                "d": "d",
                "h": "hh a",
                "hm": "hh.mm a",
                "hms": "hh.mm.ss a",
                "ms": "mm.ss",
                "y": "y. G",
                "yyyy": "y. G",
                "yyyyM": "M.y. G",
                "yyyyMEd": "E, d.M.y. G",
                "yyyyMM": "MM.y. G",
                "yyyyMMM": "MMM y. G",
                "yyyyMMMEd": "E, d. MMM y. G",
                "yyyyMMMM": "MMMM y. G",
                "yyyyMMMd": "d. MMM y. G",
                "yyyyMMdd": "dd.MM.y. G",
                "yyyyMd": "d.M.y. G",
                "yyyyQQQ": "QQQ, y. G",
                "yyyyQQQQ": "QQQQ y. G"
              },
              "appendItems": {
                "Day": "{0} ({2}: {1})",
                "Day-Of-Week": "{0} {1}",
                "Era": "{1} {0}",
                "Hour": "{0} ({2}: {1})",
                "Minute": "{0} ({2}: {1})",
                "Month": "{0} ({2}: {1})",
                "Quarter": "{0} ({2}: {1})",
                "Second": "{0} ({2}: {1})",
                "Timezone": "{0} {1}",
                "Week": "{0} ({2}: {1})",
                "Year": "{1} {0}"
              },
              "intervalFormats": {
                "intervalFormatFallback": "{0} - {1}",
                "H": {
                  "H": "HH-HH"
                },
                "Hm": {
                  "H": "HH.mm-HH.mm",
                  "m": "HH.mm-HH.mm"
                },
                "Hmv": {
                  "H": "HH.mm-HH.mm v",
                  "m": "HH.mm-HH.mm v"
                },
                "Hv": {
                  "H": "HH-HH v"
                },
                "M": {
                  "M": "M-M"
                },
                "MEd": {
                  "M": "E, d.M - E, d.M",
                  "d": "E, d.M - E, d.M"
                },
                "MMM": {
                  "M": "MMM-MMM"
                },
                "MMMEd": {
                  "M": "E, dd. MMM - E, dd. MMM",
                  "d": "E, dd. - E, dd. MMM"
                },
                "MMMd": {
                  "M": "dd. MMM - dd. MMM",
                  "d": "dd.-dd. MMM"
                },
                "Md": {
                  "M": "d.M - d.M",
                  "d": "d.M - d.M"
                },
                "d": {
                  "d": "d-d"
                },
                "h": {
                  "a": "h a - h a",
                  "h": "h-h a"
                },
                "hm": {
                  "a": "h.mm a - h.mm a",
                  "h": "h.mm-h.mm a",
                  "m": "h.mm-h.mm a"
                },
                "hmv": {
                  "a": "h.mm a - h.mm a v",
                  "h": "h.mm-h.mm a v",
                  "m": "h.mm-h.mm a v"
                },
                "hv": {
                  "a": "h a - h a v",
                  "h": "h-h a v"
                },
                "y": {
                  "y": "y-y"
                },
                "yM": {
                  "M": "y M - M",
                  "y": "M.y - M.y"
                },
                "yMEd": {
                  "M": "E, d.M.y. - E, d.M.y.",
                  "d": "E, d.M.y. - E, d.M.y.",
                  "y": "E, d.M.y. - E, d.M.y."
                },
                "yMMM": {
                  "M": "MMM-MMM y.",
                  "y": "MMM y. - MMM y."
                },
                "yMMMEd": {
                  "M": "E, dd. MMM - E, dd. MMM y.",
                  "d": "E, dd. - E, dd. MMM y.",
                  "y": "E, dd. MMM y. - E, dd. MMM y."
                },
                "yMMMM": {
                  "M": "y-MM – MM",
                  "y": "y-MM – y-MM"
                },
                "yMMMd": {
                  "M": "dd. MMM - dd. MMM y.",
                  "d": "dd.-dd. MMM y.",
                  "y": "dd. MMM y. - dd. MMM y."
                },
                "yMd": {
                  "M": "d.M.y. - d.M.y.",
                  "d": "d.M.y. - d.M.y.",
                  "y": "d.M.y. - d.M.y."
                }
              }
            }
          }
        }
      }
    }
  }
}
