{
  "main": {
    "sr-Latn-ME": {
      "identity": {
        "version": {
          "_cldrVersion": "26",
          "_number": "$Revision: 10820 $"
        },
        "generation": {
          "_date": "$Date: 2014-08-14 23:26:58 -0500 (Thu, 14 Aug 2014) $"
        },
        "language": "root",
        "script": "Latn",
        "territory": "ME"
      },
      "localeDisplayNames": {
        "variants": {
          "1606NICT": "Francuski iz kasnog srednjeg veka do 1606.",
          "1694ACAD": "Rani moderni francuski",
          "1901": "Tradicionalna nemačka ortografija",
          "1959ACAD": "Akademski",
          "1994": "Standardnizovana resijanska ortografija",
          "1996": "Nemačka ortografija iz 1996",
          "ALALC97": "ALALC97",
          "ALUKU": "ALUKU",
          "AREVELA": "Istočni armenijski",
          "AREVMDA": "Zapadno jermenska",
          "BAKU1926": "Ujedinjen turski latinični alfabet",
          "BALANKA": "BALANKA",
          "BARLA": "BARLA",
          "BAUDDHA": "BAUDDHA",
          "BISCAYAN": "BISCAYAN",
          "BISKE": "San Đorđio/Bila dijalekt",
          "BOHORIC": "BOHORIC",
          "BOONT": "Buntling",
          "DAJNKO": "DAJNKO",
          "EKAVSK": "EKAVSK",
          "EMODENG": "EMODENG",
          "FONIPA": "IPA fonetika",
          "FONUPA": "UPA fonetika",
          "FONXSAMP": "FONXSAMP",
          "HEPBURN": "HEPBURN",
          "HOGNORSK": "HOGNORSK",
          "IJEKAVSK": "IJEKAVSK",
          "ITIHASA": "ITIHASA",
          "JAUER": "JAUER",
          "JYUTPING": "JYUTPING",
          "KKCOR": "Uobičajena ortografija",
          "KSCOR": "KSCOR",
          "LAUKIKA": "LAUKIKA",
          "LIPAW": "Lipovički dijalekt resijanski",
          "LUNA1918": "LUNA1918",
          "METELKO": "METELKO",
          "MONOTON": "Monotonik",
          "NDYUKA": "NDYUKA",
          "NEDIS": "Natisone dijalekt",
          "NJIVA": "Gnjiva/Njiva dijalkekt",
          "NULIK": "NULIK",
          "OSOJS": "Oseako/Osojane dijalekt",
          "PAMAKA": "PAMAKA",
          "PETR1708": "PETR1708",
          "PINYIN": "PINYIN",
          "POLYTON": "Politonik",
          "POSIX": "Kompjuter",
          "PUTER": "PUTER",
          "REVISED": "Revidirana ortografija",
          "RIGIK": "RIGIK",
          "ROZAJ": "Resijan",
          "RUMGR": "RUMGR",
          "SAAHO": "Saho",
          "SCOTLAND": "Škotski standardni Engleski",
          "SCOUSE": "Skauz",
          "SOLBA": "Stolvica/Solbica dijalekt",
          "SOTAV": "SOTAV",
          "SURMIRAN": "SURMIRAN",
          "SURSILV": "SURSILV",
          "SUTSILV": "SUTSILV",
          "TARASK": "Taraskijevička ortografija",
          "UCCOR": "Ujedinjena ortografija",
          "UCRCOR": "Ujedinjena revidirana ortografija",
          "ULSTER": "ULSTER",
          "UNIFON": "UNIFON",
          "VAIDIKA": "VAIDIKA",
          "VALENCIA": "Valencijska",
          "VALLADER": "VALLADER",
          "WADEGILE": "WADEGILE"
        }
      }
    }
  }
}
