{
  "main": {
    "ast-ES": {
      "identity": {
        "version": {
          "_cldrVersion": "26",
          "_number": "$Revision: 10669 $"
        },
        "generation": {
          "_date": "$Date: 2014-07-23 16:10:33 -0500 (Wed, 23 Jul 2014) $"
        },
        "language": "ast",
        "territory": "ES"
      },
      "numbers": {
        "currencies": {
          "ADP": {
            "displayName": "ADP",
            "symbol": "ADP"
          },
          "AED": {
            "displayName": "dirḥam de los Emiratos Árabes Xuníos",
            "displayName-count-one": "dirḥam EAX",
            "displayName-count-other": "dirḥams EAX",
            "symbol": "AED"
          },
          "AFA": {
            "displayName": "AFA",
            "symbol": "AFA"
          },
          "AFN": {
            "displayName": "afganí afganistanu",
            "displayName-count-one": "afganí afganistanu",
            "displayName-count-other": "afganís afganistanos",
            "symbol": "AFN"
          },
          "ALL": {
            "displayName": "lek",
            "displayName-count-one": "lek",
            "displayName-count-other": "leks",
            "symbol": "ALL"
          },
          "AMD": {
            "displayName": "dram armeniu",
            "displayName-count-one": "dram armeniu",
            "displayName-count-other": "drams armenios",
            "symbol": "AMD"
          },
          "ANG": {
            "displayName": "guilder de les Antilles Neerlandeses",
            "displayName-count-one": "guilder de les Antilles Neerlandeses",
            "displayName-count-other": "guilders de les Antilles Neerlandeses",
            "symbol": "ANG"
          },
          "AOA": {
            "displayName": "kwanza angolanu",
            "displayName-count-one": "kwanza angolanu",
            "displayName-count-other": "kwanzas angolanos",
            "symbol": "AOA",
            "symbol-alt-narrow": "Kz"
          },
          "AOK": {
            "displayName": "AOK",
            "symbol": "AOK"
          },
          "AON": {
            "displayName": "AON",
            "symbol": "AON"
          },
          "AOR": {
            "displayName": "AOR",
            "symbol": "AOR"
          },
          "ARA": {
            "displayName": "ARA",
            "symbol": "ARA"
          },
          "ARL": {
            "displayName": "ARL",
            "symbol": "ARL"
          },
          "ARM": {
            "displayName": "ARM",
            "symbol": "ARM"
          },
          "ARP": {
            "displayName": "ARP",
            "symbol": "ARP"
          },
          "ARS": {
            "displayName": "pesu arxentín",
            "displayName-count-one": "pesu arxentín",
            "displayName-count-other": "pesos arxentinos",
            "symbol": "ARS",
            "symbol-alt-narrow": "$"
          },
          "ATS": {
            "displayName": "ATS",
            "symbol": "ATS"
          },
          "AUD": {
            "displayName": "dólar australianu",
            "displayName-count-one": "dólar australianu",
            "displayName-count-other": "dólares australianos",
            "symbol": "A$",
            "symbol-alt-narrow": "$"
          },
          "AWG": {
            "displayName": "florín arubanu",
            "displayName-count-one": "florín arubanu",
            "displayName-count-other": "florines arubanos",
            "symbol": "AWG"
          },
          "AZM": {
            "displayName": "AZM",
            "symbol": "AZM"
          },
          "AZN": {
            "displayName": "manat azerbaixanu",
            "displayName-count-one": "manat azerbaixanu",
            "displayName-count-other": "manats azerbaixanos",
            "symbol": "AZN"
          },
          "BAD": {
            "displayName": "BAD",
            "symbol": "BAD"
          },
          "BAM": {
            "displayName": "marcu convertible de Bosnia-Herzegovina",
            "displayName-count-one": "marcu convertible de Bosnia-Herzegovina",
            "displayName-count-other": "marcos convertibles de Bosnia-Herzegovina",
            "symbol": "BAM",
            "symbol-alt-narrow": "KM"
          },
          "BAN": {
            "displayName": "BAN",
            "symbol": "BAN"
          },
          "BBD": {
            "displayName": "dólar barbadianu",
            "displayName-count-one": "dólar barbadianu",
            "displayName-count-other": "dólares barbadianos",
            "symbol": "BBD",
            "symbol-alt-narrow": "$"
          },
          "BDT": {
            "displayName": "taka bangladexí",
            "displayName-count-one": "taka bangladexí",
            "displayName-count-other": "takas bangladexinos",
            "symbol": "BDT",
            "symbol-alt-narrow": "৳"
          },
          "BEC": {
            "displayName": "BEC",
            "symbol": "BEC"
          },
          "BEF": {
            "displayName": "BEF",
            "symbol": "BEF"
          },
          "BEL": {
            "displayName": "BEL",
            "symbol": "BEL"
          },
          "BGL": {
            "displayName": "BGL",
            "symbol": "BGL"
          },
          "BGM": {
            "displayName": "BGM",
            "symbol": "BGM"
          },
          "BGN": {
            "displayName": "lev",
            "displayName-count-one": "lev",
            "displayName-count-other": "lev",
            "symbol": "BGN"
          },
          "BGO": {
            "displayName": "BGO",
            "symbol": "BGO"
          },
          "BHD": {
            "displayName": "dinar baḥreiní",
            "displayName-count-one": "dinar baḥreiní",
            "displayName-count-other": "dinares baḥreininos",
            "symbol": "BHD"
          },
          "BIF": {
            "displayName": "francu burundianu",
            "displayName-count-one": "francu burundianu",
            "displayName-count-other": "francos burundianos",
            "symbol": "BIF"
          },
          "BMD": {
            "displayName": "dólar bermudianu",
            "displayName-count-one": "dólar bermudianu",
            "displayName-count-other": "dólares bermudianos",
            "symbol": "BMD",
            "symbol-alt-narrow": "$"
          },
          "BND": {
            "displayName": "dólar bruneyanu",
            "displayName-count-one": "dólar bruneyanu",
            "displayName-count-other": "dólares bruneyanos",
            "symbol": "BND",
            "symbol-alt-narrow": "$"
          },
          "BOB": {
            "displayName": "bolivianu",
            "displayName-count-one": "bolivianu",
            "displayName-count-other": "bolivianos",
            "symbol": "BOB",
            "symbol-alt-narrow": "Bs"
          },
          "BOL": {
            "displayName": "BOL",
            "symbol": "BOL"
          },
          "BOP": {
            "displayName": "BOP",
            "symbol": "BOP"
          },
          "BOV": {
            "displayName": "BOV",
            "symbol": "BOV"
          },
          "BRB": {
            "displayName": "BRB",
            "symbol": "BRB"
          },
          "BRC": {
            "displayName": "BRC",
            "symbol": "BRC"
          },
          "BRE": {
            "displayName": "BRE",
            "symbol": "BRE"
          },
          "BRL": {
            "displayName": "real brasilanu",
            "displayName-count-one": "real brasilanu",
            "displayName-count-other": "reales brasilanos",
            "symbol": "R$",
            "symbol-alt-narrow": "R$"
          },
          "BRN": {
            "displayName": "BRN",
            "symbol": "BRN"
          },
          "BRR": {
            "displayName": "BRR",
            "symbol": "BRR"
          },
          "BRZ": {
            "displayName": "BRZ",
            "symbol": "BRZ"
          },
          "BSD": {
            "displayName": "dólar bahamés",
            "displayName-count-one": "dólar bahamés",
            "displayName-count-other": "dólares bahameses",
            "symbol": "BSD",
            "symbol-alt-narrow": "$"
          },
          "BTN": {
            "displayName": "ngultrum butanés",
            "displayName-count-one": "ngultrum butanés",
            "displayName-count-other": "ngultrums butaneses",
            "symbol": "BTN"
          },
          "BUK": {
            "displayName": "BUK",
            "symbol": "BUK"
          },
          "BWP": {
            "displayName": "pula botsuaniana",
            "displayName-count-one": "pula botsuaniana",
            "displayName-count-other": "pulas botsuanianes",
            "symbol": "BWP",
            "symbol-alt-narrow": "P"
          },
          "BYB": {
            "displayName": "BYB",
            "symbol": "BYB"
          },
          "BYR": {
            "displayName": "rublu bielorrusu",
            "displayName-count-one": "rublu bielorrusu",
            "displayName-count-other": "rublos bielorrusos",
            "symbol": "BYR",
            "symbol-alt-narrow": "р."
          },
          "BZD": {
            "displayName": "dólar belizianu",
            "displayName-count-one": "dólar belizianu",
            "displayName-count-other": "dólares belizianos",
            "symbol": "BZD",
            "symbol-alt-narrow": "$"
          },
          "CAD": {
            "displayName": "dólar canadiense",
            "displayName-count-one": "dólar canadiense",
            "displayName-count-other": "dólares canadienses",
            "symbol": "CA$",
            "symbol-alt-narrow": "$"
          },
          "CDF": {
            "displayName": "francu congolés",
            "displayName-count-one": "francu congolés",
            "displayName-count-other": "francos congoleses",
            "symbol": "CDF"
          },
          "CHE": {
            "displayName": "CHE",
            "symbol": "CHE"
          },
          "CHF": {
            "displayName": "francu suizu",
            "displayName-count-one": "francu suizu",
            "displayName-count-other": "francos suizos",
            "symbol": "CHF"
          },
          "CHW": {
            "displayName": "CHW",
            "symbol": "CHW"
          },
          "CLE": {
            "displayName": "CLE",
            "symbol": "CLE"
          },
          "CLF": {
            "displayName": "CLF",
            "symbol": "CLF"
          },
          "CLP": {
            "displayName": "pesu chilenu",
            "displayName-count-one": "pesu chilenu",
            "displayName-count-other": "pesos chilenos",
            "symbol": "CLP",
            "symbol-alt-narrow": "$"
          },
          "CNY": {
            "displayName": "yuan chinu",
            "displayName-count-one": "yuan chinu",
            "displayName-count-other": "yuanes chinos",
            "symbol": "CN¥",
            "symbol-alt-narrow": "¥"
          },
          "COP": {
            "displayName": "pesu colombianu",
            "displayName-count-one": "pesu colombianu",
            "displayName-count-other": "pesos colombianos",
            "symbol": "COP",
            "symbol-alt-narrow": "$"
          },
          "COU": {
            "displayName": "COU",
            "symbol": "COU"
          },
          "CRC": {
            "displayName": "colón costarricanu",
            "displayName-count-one": "colón costarricanu",
            "displayName-count-other": "colones costarricanos",
            "symbol": "CRC",
            "symbol-alt-narrow": "₡"
          },
          "CSD": {
            "displayName": "CSD",
            "symbol": "CSD"
          },
          "CSK": {
            "displayName": "CSK",
            "symbol": "CSK"
          },
          "CUC": {
            "displayName": "pesu convertible cubanu",
            "displayName-count-one": "pesu convertible cubanu",
            "displayName-count-other": "pesos convertibles cubanos",
            "symbol": "CUC",
            "symbol-alt-narrow": "$"
          },
          "CUP": {
            "displayName": "pesu cubanu",
            "displayName-count-one": "pesu cubanu",
            "displayName-count-other": "pesos cubanos",
            "symbol": "CUP",
            "symbol-alt-narrow": "$"
          },
          "CVE": {
            "displayName": "escudu cabuverdianu",
            "displayName-count-one": "escudu cabuverdianu",
            "displayName-count-other": "escudos cabuverdianos",
            "symbol": "CVE"
          },
          "CYP": {
            "displayName": "CYP",
            "symbol": "CYP"
          },
          "CZK": {
            "displayName": "corona checa",
            "displayName-count-one": "corona checa",
            "displayName-count-other": "corones cheques",
            "symbol": "CZK",
            "symbol-alt-narrow": "Kč"
          },
          "DDM": {
            "displayName": "DDM",
            "symbol": "DDM"
          },
          "DEM": {
            "displayName": "DEM",
            "symbol": "DEM"
          },
          "DJF": {
            "displayName": "francu xibutianu",
            "displayName-count-one": "francu xibutianu",
            "displayName-count-other": "francos xibutianos",
            "symbol": "DJF"
          },
          "DKK": {
            "displayName": "corona danesa",
            "displayName-count-one": "corona danesa",
            "displayName-count-other": "corones daneses",
            "symbol": "DKK",
            "symbol-alt-narrow": "kr"
          },
          "DOP": {
            "displayName": "pesu dominicanu",
            "displayName-count-one": "pesu dominicanu",
            "displayName-count-other": "pesos dominicanos",
            "symbol": "DOP",
            "symbol-alt-narrow": "$"
          },
          "DZD": {
            "displayName": "dinar arxelín",
            "displayName-count-one": "dinar arxelín",
            "displayName-count-other": "dinares arxelinos",
            "symbol": "DZD"
          },
          "ECS": {
            "displayName": "ECS",
            "symbol": "ECS"
          },
          "ECV": {
            "displayName": "ECV",
            "symbol": "ECV"
          },
          "EEK": {
            "displayName": "EEK",
            "symbol": "EEK"
          },
          "EGP": {
            "displayName": "llibra exipciana",
            "displayName-count-one": "llibra exipciana",
            "displayName-count-other": "llibres exipcianes",
            "symbol": "EGP",
            "symbol-alt-narrow": "E£"
          },
          "ERN": {
            "displayName": "nakfa eritréu",
            "displayName-count-one": "nakfa eritréu",
            "displayName-count-other": "nafkas eritreos",
            "symbol": "ERN"
          },
          "ESA": {
            "displayName": "ESA",
            "symbol": "ESA"
          },
          "ESB": {
            "displayName": "ESB",
            "symbol": "ESB"
          },
          "ESP": {
            "displayName": "ESP",
            "symbol": "ESP",
            "symbol-alt-narrow": "₧"
          },
          "ETB": {
            "displayName": "birr etíope",
            "displayName-count-one": "birr etíope",
            "displayName-count-other": "birrs etíopes",
            "symbol": "ETB"
          },
          "EUR": {
            "displayName": "euro",
            "displayName-count-one": "euro",
            "displayName-count-other": "euros",
            "symbol": "€",
            "symbol-alt-narrow": "€"
          },
          "FIM": {
            "displayName": "FIM",
            "symbol": "FIM"
          },
          "FJD": {
            "displayName": "dólar fixanu",
            "displayName-count-one": "dólar fixanu",
            "displayName-count-other": "dólares fixanos",
            "symbol": "FJD",
            "symbol-alt-narrow": "$"
          },
          "FKP": {
            "displayName": "llibra malviniana",
            "displayName-count-one": "llibra malviniana",
            "displayName-count-other": "llibres malvinianes",
            "symbol": "FKP",
            "symbol-alt-narrow": "£"
          },
          "FRF": {
            "displayName": "FRF",
            "symbol": "FRF"
          },
          "GBP": {
            "displayName": "llibra esterlina",
            "displayName-count-one": "llibra esterlina",
            "displayName-count-other": "llibres esterlines",
            "symbol": "£",
            "symbol-alt-narrow": "£"
          },
          "GEK": {
            "displayName": "GEK",
            "symbol": "GEK"
          },
          "GEL": {
            "displayName": "lari xeorxanu",
            "displayName-count-one": "lari xeorxanu",
            "displayName-count-other": "laris xeorxanos",
            "symbol": "GEL"
          },
          "GHC": {
            "displayName": "GHC",
            "symbol": "GHC"
          },
          "GHS": {
            "displayName": "cedi ghanianu",
            "displayName-count-one": "cedi ghanianu",
            "displayName-count-other": "cedis ghanianos",
            "symbol": "GHS"
          },
          "GIP": {
            "displayName": "llibra de Xibraltar",
            "displayName-count-one": "llibra de Xibraltar",
            "displayName-count-other": "llibres de Xibraltar",
            "symbol": "GIP",
            "symbol-alt-narrow": "£"
          },
          "GMD": {
            "displayName": "dalasi gambianu",
            "displayName-count-one": "dalasi gambianu",
            "displayName-count-other": "dalasis gambianos",
            "symbol": "GMD"
          },
          "GNF": {
            "displayName": "francu guineanu",
            "displayName-count-one": "francu guineanu",
            "displayName-count-other": "francos guineanos",
            "symbol": "GNF",
            "symbol-alt-narrow": "FG"
          },
          "GNS": {
            "displayName": "syli guineanu",
            "displayName-count-one": "syli guineanu",
            "displayName-count-other": "sylis guineanos",
            "symbol": "GNS"
          },
          "GQE": {
            "displayName": "GQE",
            "symbol": "GQE"
          },
          "GRD": {
            "displayName": "GRD",
            "symbol": "GRD"
          },
          "GTQ": {
            "displayName": "quetzal de Guatemala",
            "displayName-count-one": "quetzal de Guatemala",
            "displayName-count-other": "quetzales de Guatemala",
            "symbol": "GTQ",
            "symbol-alt-narrow": "Q"
          },
          "GWE": {
            "displayName": "GWE",
            "symbol": "GWE"
          },
          "GWP": {
            "displayName": "GWP",
            "symbol": "GWP"
          },
          "GYD": {
            "displayName": "dólar guyanés",
            "displayName-count-one": "dólar guyanés",
            "displayName-count-other": "dólares guyaneses",
            "symbol": "GYD",
            "symbol-alt-narrow": "$"
          },
          "HKD": {
            "displayName": "dólar hongkonés",
            "displayName-count-one": "dólar hongkonés",
            "displayName-count-other": "dólares ḥongkoneses",
            "symbol": "HK$",
            "symbol-alt-narrow": "$"
          },
          "HNL": {
            "displayName": "lempira hondurana",
            "displayName-count-one": "lempira hondurana",
            "displayName-count-other": "lempires honduranes",
            "symbol": "HNL",
            "symbol-alt-narrow": "L"
          },
          "HRD": {
            "displayName": "HRD",
            "symbol": "HRD"
          },
          "HRK": {
            "displayName": "kuna",
            "displayName-count-one": "kuna",
            "displayName-count-other": "kunes",
            "symbol": "HRK",
            "symbol-alt-narrow": "kn"
          },
          "HTG": {
            "displayName": "gourde haitianu",
            "displayName-count-one": "gourde haitianu",
            "displayName-count-other": "gourde haitianos",
            "symbol": "HTG"
          },
          "HUF": {
            "displayName": "forint",
            "displayName-count-one": "forint",
            "displayName-count-other": "forints",
            "symbol": "HUF",
            "symbol-alt-narrow": "Ft"
          },
          "IDR": {
            "displayName": "rupiah indonesia",
            "displayName-count-one": "rupiah indonesia",
            "displayName-count-other": "rupiahs indonesies",
            "symbol": "IDR",
            "symbol-alt-narrow": "Rp"
          },
          "IEP": {
            "displayName": "IEP",
            "symbol": "IEP"
          },
          "ILP": {
            "displayName": "ILP",
            "symbol": "ILP"
          },
          "ILS": {
            "displayName": "xequel nuevu",
            "displayName-count-one": "xequel nuevu",
            "displayName-count-other": "xequels nuevos",
            "symbol": "₪",
            "symbol-alt-narrow": "₪"
          },
          "INR": {
            "displayName": "rupia india",
            "displayName-count-one": "rupia india",
            "displayName-count-other": "rupies indies",
            "symbol": "₹",
            "symbol-alt-narrow": "₹"
          },
          "IQD": {
            "displayName": "dinar iraquín",
            "displayName-count-one": "dinar iraquín",
            "displayName-count-other": "dinares iraquinos",
            "symbol": "IQD"
          },
          "IRR": {
            "displayName": "rial iranín",
            "displayName-count-one": "rial iranín",
            "displayName-count-other": "riales iraninos",
            "symbol": "IRR"
          },
          "ISK": {
            "displayName": "corona islandesa",
            "displayName-count-one": "corona islandesa",
            "displayName-count-other": "corones islandeses",
            "symbol": "ISK",
            "symbol-alt-narrow": "kr"
          },
          "ITL": {
            "displayName": "ITL",
            "symbol": "ITL"
          },
          "JMD": {
            "displayName": "dólar xamaicanu",
            "displayName-count-one": "dólar xamaicanu",
            "displayName-count-other": "dólares xamaicanos",
            "symbol": "JMD",
            "symbol-alt-narrow": "$"
          },
          "JOD": {
            "displayName": "dinar xordanu",
            "displayName-count-one": "dinar xordanu",
            "displayName-count-other": "dinares xordanos",
            "symbol": "JOD"
          },
          "JPY": {
            "displayName": "yen xaponés",
            "displayName-count-one": "yen xaponés",
            "displayName-count-other": "yenes xaponeses",
            "symbol": "¥",
            "symbol-alt-narrow": "¥"
          },
          "KES": {
            "displayName": "shilling kenianu",
            "displayName-count-one": "shilling kenianu",
            "displayName-count-other": "shillings kenianos",
            "symbol": "KES"
          },
          "KGS": {
            "displayName": "som kirguistanín",
            "displayName-count-one": "som kirguistanín",
            "displayName-count-other": "soms kirguistaninos",
            "symbol": "KGS"
          },
          "KHR": {
            "displayName": "riel camboyanu",
            "displayName-count-one": "riel camboyanu",
            "displayName-count-other": "riels camboyanos",
            "symbol": "KHR",
            "symbol-alt-narrow": "៛"
          },
          "KMF": {
            "displayName": "francu comoranu",
            "displayName-count-one": "francu comoranu",
            "displayName-count-other": "francos comoranos",
            "symbol": "KMF",
            "symbol-alt-narrow": "CF"
          },
          "KPW": {
            "displayName": "won norcoreanu",
            "displayName-count-one": "won norcoreanu",
            "displayName-count-other": "wons norcoreanos",
            "symbol": "KPW",
            "symbol-alt-narrow": "₩"
          },
          "KRH": {
            "displayName": "KRH",
            "symbol": "KRH"
          },
          "KRO": {
            "displayName": "KRO",
            "symbol": "KRO"
          },
          "KRW": {
            "displayName": "won surcoreanu",
            "displayName-count-one": "won surcoreanu",
            "displayName-count-other": "wons surcoreanos",
            "symbol": "₩",
            "symbol-alt-narrow": "₩"
          },
          "KWD": {
            "displayName": "dinar kuwaitianu",
            "displayName-count-one": "dinar kuwaitianu",
            "displayName-count-other": "dinares kuwaitianos",
            "symbol": "KWD"
          },
          "KYD": {
            "displayName": "dólar caimanés",
            "displayName-count-one": "dólar caimanés",
            "displayName-count-other": "dólares caimaneses",
            "symbol": "KYD",
            "symbol-alt-narrow": "$"
          },
          "KZT": {
            "displayName": "tenge kazaquistanín",
            "displayName-count-one": "tenge kazaquistanín",
            "displayName-count-other": "tenges kazaquistaninos",
            "symbol": "KZT",
            "symbol-alt-narrow": "₸"
          },
          "LAK": {
            "displayName": "kip laosianu",
            "displayName-count-one": "kip laosianu",
            "displayName-count-other": "kips laosianos",
            "symbol": "LAK",
            "symbol-alt-narrow": "₭"
          },
          "LBP": {
            "displayName": "llibra libanesa",
            "displayName-count-one": "llibra libanesa",
            "displayName-count-other": "llibres libaneses",
            "symbol": "LBP",
            "symbol-alt-narrow": "L£"
          },
          "LKR": {
            "displayName": "rupia de Sri Lanka",
            "displayName-count-one": "rupia de Sri Lanka",
            "displayName-count-other": "rupies de Sri Lanka",
            "symbol": "LKR",
            "symbol-alt-narrow": "Rs"
          },
          "LRD": {
            "displayName": "dólar liberianu",
            "displayName-count-one": "dólar liberianu",
            "displayName-count-other": "dólares liberianos",
            "symbol": "LRD",
            "symbol-alt-narrow": "$"
          },
          "LSL": {
            "displayName": "LSL",
            "symbol": "LSL"
          },
          "LTL": {
            "displayName": "litas",
            "displayName-count-one": "litas",
            "displayName-count-other": "litas",
            "symbol": "LTL",
            "symbol-alt-narrow": "Lt"
          },
          "LTT": {
            "displayName": "LTT",
            "symbol": "LTT"
          },
          "LUC": {
            "displayName": "LUC",
            "symbol": "LUC"
          },
          "LUF": {
            "displayName": "LUF",
            "symbol": "LUF"
          },
          "LUL": {
            "displayName": "LUL",
            "symbol": "LUL"
          },
          "LVL": {
            "displayName": "lats",
            "displayName-count-one": "lats",
            "displayName-count-other": "lats",
            "symbol": "LVL",
            "symbol-alt-narrow": "Ls"
          },
          "LVR": {
            "displayName": "LVR",
            "symbol": "LVR"
          },
          "LYD": {
            "displayName": "dinar libiu",
            "displayName-count-one": "dinar libiu",
            "displayName-count-other": "dinares libios",
            "symbol": "LYD"
          },
          "MAD": {
            "displayName": "dirḥam marroquín",
            "displayName-count-one": "dirḥam marroquín",
            "displayName-count-other": "dirḥams marroquinos",
            "symbol": "MAD"
          },
          "MAF": {
            "displayName": "francu marroquín",
            "displayName-count-one": "francu marroquín",
            "displayName-count-other": "francos marroquinos",
            "symbol": "MAF"
          },
          "MCF": {
            "displayName": "MCF",
            "symbol": "MCF"
          },
          "MDC": {
            "displayName": "MDC",
            "symbol": "MDC"
          },
          "MDL": {
            "displayName": "leu moldavu",
            "displayName-count-one": "leu moldavu",
            "displayName-count-other": "leus moldavos",
            "symbol": "MDL"
          },
          "MGA": {
            "displayName": "ariary malgaxe",
            "displayName-count-one": "ariary malgaxe",
            "displayName-count-other": "ariarys malgaxes",
            "symbol": "MGA",
            "symbol-alt-narrow": "Ar"
          },
          "MGF": {
            "displayName": "MGF",
            "symbol": "MGF"
          },
          "MKD": {
            "displayName": "denar",
            "displayName-count-one": "denar",
            "displayName-count-other": "denares",
            "symbol": "MKD"
          },
          "MKN": {
            "displayName": "MKN",
            "symbol": "MKN"
          },
          "MLF": {
            "displayName": "MLF",
            "symbol": "MLF"
          },
          "MMK": {
            "displayName": "kyat de Myanmar",
            "displayName-count-one": "kyat de Myanmar",
            "displayName-count-other": "kyats de Myanmar",
            "symbol": "MMK",
            "symbol-alt-narrow": "K"
          },
          "MNT": {
            "displayName": "tugrik mongol",
            "displayName-count-one": "tugrik mongol",
            "displayName-count-other": "tugriks mongoles",
            "symbol": "MNT",
            "symbol-alt-narrow": "₮"
          },
          "MOP": {
            "displayName": "pataca de Macáu",
            "displayName-count-one": "pataca de Macáu",
            "displayName-count-other": "pataques de Macáu",
            "symbol": "MOP"
          },
          "MRO": {
            "displayName": "ouguiya mauritanu",
            "displayName-count-one": "ouguiya mauritanu",
            "displayName-count-other": "ouguiyas mauritanos",
            "symbol": "MRO"
          },
          "MTL": {
            "displayName": "MTL",
            "symbol": "MTL"
          },
          "MTP": {
            "displayName": "MTP",
            "symbol": "MTP"
          },
          "MUR": {
            "displayName": "rupia mauriciana",
            "displayName-count-one": "rupia mauriciana",
            "displayName-count-other": "rupies mauricianes",
            "symbol": "MUR",
            "symbol-alt-narrow": "Rs"
          },
          "MVR": {
            "displayName": "rufiyaa maldiviana",
            "displayName-count-one": "rufiyaa maldiviana",
            "displayName-count-other": "rufiyaas maldivianas",
            "symbol": "MVR"
          },
          "MWK": {
            "displayName": "kwacha malauianu",
            "displayName-count-one": "kwacha malauianu",
            "displayName-count-other": "kwachas malauianos",
            "symbol": "MWK"
          },
          "MXN": {
            "displayName": "pesu mexicanu",
            "displayName-count-one": "pesu mexicanu",
            "displayName-count-other": "pesos mexicanos",
            "symbol": "MX$",
            "symbol-alt-narrow": "$"
          },
          "MXP": {
            "displayName": "MXP",
            "symbol": "MXP"
          },
          "MXV": {
            "displayName": "MXV",
            "symbol": "MXV"
          },
          "MYR": {
            "displayName": "ringgit malasiu",
            "displayName-count-one": "ringgit malasiu",
            "displayName-count-other": "ringgits malasios",
            "symbol": "MYR",
            "symbol-alt-narrow": "RM"
          },
          "MZE": {
            "displayName": "MZE",
            "symbol": "MZE"
          },
          "MZM": {
            "displayName": "MZM",
            "symbol": "MZM"
          },
          "MZN": {
            "displayName": "metical mozambicanu",
            "displayName-count-one": "metical mozambicanu",
            "displayName-count-other": "meticales mozambicanos",
            "symbol": "MZN"
          },
          "NAD": {
            "displayName": "dólar namibianu",
            "displayName-count-one": "dólar namibianu",
            "displayName-count-other": "dólares namibianos",
            "symbol": "NAD",
            "symbol-alt-narrow": "$"
          },
          "NGN": {
            "displayName": "naira nixeriana",
            "displayName-count-one": "naira nixeriana",
            "displayName-count-other": "nairas nixerianes",
            "symbol": "NGN",
            "symbol-alt-narrow": "₦"
          },
          "NIC": {
            "displayName": "NIC",
            "symbol": "NIC"
          },
          "NIO": {
            "displayName": "córdoba nicaraguanu",
            "displayName-count-one": "córdoba nicaraguanu",
            "displayName-count-other": "córdobes nicaraguanos",
            "symbol": "NIO",
            "symbol-alt-narrow": "C$"
          },
          "NLG": {
            "displayName": "NLG",
            "symbol": "NLG"
          },
          "NOK": {
            "displayName": "corona noruega",
            "displayName-count-one": "corona noruega",
            "displayName-count-other": "corones noruegues",
            "symbol": "NOK",
            "symbol-alt-narrow": "kr"
          },
          "NPR": {
            "displayName": "rupia nepalesa",
            "displayName-count-one": "rupia nepalesa",
            "displayName-count-other": "rupies nepaleses",
            "symbol": "NPR",
            "symbol-alt-narrow": "Rs"
          },
          "NZD": {
            "displayName": "dólar neozelandés",
            "displayName-count-one": "dólar neozelandés",
            "displayName-count-other": "dólares neozelandeses",
            "symbol": "NZ$",
            "symbol-alt-narrow": "$"
          },
          "OMR": {
            "displayName": "rial omanianu",
            "displayName-count-one": "rial omanianu",
            "displayName-count-other": "riales omanianos",
            "symbol": "OMR"
          },
          "PAB": {
            "displayName": "balboa panamiegu",
            "displayName-count-one": "balboa panamiegu",
            "displayName-count-other": "balboes panamiegos",
            "symbol": "PAB"
          },
          "PEI": {
            "displayName": "PEI",
            "symbol": "PEI"
          },
          "PEN": {
            "displayName": "sol nuevu peruanu",
            "displayName-count-one": "sol nuevu peruanu",
            "displayName-count-other": "soles nuevos peruanos",
            "symbol": "PEN"
          },
          "PES": {
            "displayName": "PES",
            "symbol": "PES"
          },
          "PGK": {
            "displayName": "kina papuana",
            "displayName-count-one": "kina papuana",
            "displayName-count-other": "kines papuanes",
            "symbol": "PGK"
          },
          "PHP": {
            "displayName": "pesu filipín",
            "displayName-count-one": "pesu filipín",
            "displayName-count-other": "pesos filipinos",
            "symbol": "PHP",
            "symbol-alt-narrow": "₱"
          },
          "PKR": {
            "displayName": "rupia paquistanina",
            "displayName-count-one": "rupia paquistanina",
            "displayName-count-other": "rupies paquistanines",
            "symbol": "PKR",
            "symbol-alt-narrow": "Rs"
          },
          "PLN": {
            "displayName": "zloty",
            "displayName-count-one": "zloty",
            "displayName-count-other": "zlotys",
            "symbol": "PLN",
            "symbol-alt-narrow": "zł"
          },
          "PLZ": {
            "displayName": "PLZ",
            "symbol": "PLZ"
          },
          "PTE": {
            "displayName": "PTE",
            "symbol": "PTE"
          },
          "PYG": {
            "displayName": "guaraní paraguayu",
            "displayName-count-one": "guaraní paraguayu",
            "displayName-count-other": "guaranís paraguayos",
            "symbol": "PYG",
            "symbol-alt-narrow": "₲"
          },
          "QAR": {
            "displayName": "rial qatarín",
            "displayName-count-one": "rial qatarín",
            "displayName-count-other": "riales qatarinos",
            "symbol": "QAR"
          },
          "RHD": {
            "displayName": "RHD",
            "symbol": "RHD"
          },
          "ROL": {
            "displayName": "ROL",
            "symbol": "ROL"
          },
          "RON": {
            "displayName": "leu rumanu",
            "displayName-count-one": "leu rumanu",
            "displayName-count-other": "leus rumanos",
            "symbol": "RON"
          },
          "RSD": {
            "displayName": "dinar serbiu",
            "displayName-count-one": "dinar serbiu",
            "displayName-count-other": "dinares serbios",
            "symbol": "RSD"
          },
          "RUB": {
            "displayName": "rublu rusu",
            "displayName-count-one": "rublu rusu",
            "displayName-count-other": "rublos rusos",
            "symbol": "RUB",
            "symbol-alt-variant": "₽"
          },
          "RUR": {
            "displayName": "RUR",
            "symbol": "RUR",
            "symbol-alt-narrow": "р."
          },
          "RWF": {
            "displayName": "francu ruandés",
            "displayName-count-one": "francu ruandés",
            "displayName-count-other": "francos ruandeses",
            "symbol": "RWF",
            "symbol-alt-narrow": "RF"
          },
          "SAR": {
            "displayName": "riyal saudita",
            "displayName-count-one": "riyal saudita",
            "displayName-count-other": "riyales saudites",
            "symbol": "SAR"
          },
          "SBD": {
            "displayName": "dólar salomonés",
            "displayName-count-one": "dólar salomonés",
            "displayName-count-other": "dólares salomoneses",
            "symbol": "SBD",
            "symbol-alt-narrow": "$"
          },
          "SCR": {
            "displayName": "rupia seixelesa",
            "displayName-count-one": "rupia seixelesa",
            "displayName-count-other": "rupies seixeleses",
            "symbol": "SCR"
          },
          "SDD": {
            "displayName": "dinar sudanés (1992–2007)",
            "displayName-count-one": "dinar sudanés (1992–2007)",
            "displayName-count-other": "dinares sudaneses (1992–2007)",
            "symbol": "SDD"
          },
          "SDG": {
            "displayName": "llibra sudanesa",
            "displayName-count-one": "llibra sudanesa",
            "displayName-count-other": "llibres sudaneses",
            "symbol": "SDG"
          },
          "SDP": {
            "displayName": "llibra sudanesa (1957–1998)",
            "displayName-count-one": "llibra sudanesa (1957–1998)",
            "displayName-count-other": "llibres sudaneses (1957–1998)",
            "symbol": "SDP"
          },
          "SEK": {
            "displayName": "corona sueca",
            "displayName-count-one": "corona sueca",
            "displayName-count-other": "corones sueques",
            "symbol": "SEK",
            "symbol-alt-narrow": "kr"
          },
          "SGD": {
            "displayName": "dólar singapuranu",
            "displayName-count-one": "dólar singapuranu",
            "displayName-count-other": "dólares singapuranos",
            "symbol": "SGD",
            "symbol-alt-narrow": "$"
          },
          "SHP": {
            "displayName": "llibra de Santa Lena",
            "displayName-count-one": "llibra de Santa Lena",
            "displayName-count-other": "llibres de Santa Lena",
            "symbol": "SHP",
            "symbol-alt-narrow": "£"
          },
          "SIT": {
            "displayName": "SIT",
            "symbol": "SIT"
          },
          "SKK": {
            "displayName": "SKK",
            "symbol": "SKK"
          },
          "SLL": {
            "displayName": "leone sierralleonés",
            "displayName-count-one": "leone sierralleonés",
            "displayName-count-other": "leones sierralleoneses",
            "symbol": "SLL"
          },
          "SOS": {
            "displayName": "shilling somalín",
            "displayName-count-one": "shilling somalín",
            "displayName-count-other": "shillings somalinos",
            "symbol": "SOS"
          },
          "SRD": {
            "displayName": "dólar surinamés",
            "displayName-count-one": "dólar surinamés",
            "displayName-count-other": "dólares surinameses",
            "symbol": "SRD",
            "symbol-alt-narrow": "$"
          },
          "SRG": {
            "displayName": "SRG",
            "symbol": "SRG"
          },
          "SSP": {
            "displayName": "llibra sursudanesa",
            "displayName-count-one": "llibra sursudanesa",
            "displayName-count-other": "llibres sursudaneses",
            "symbol": "SSP",
            "symbol-alt-narrow": "£"
          },
          "STD": {
            "displayName": "dobra de Santu Tomé y Príncipe",
            "displayName-count-one": "dobra de Santu Tomé y Príncipe",
            "displayName-count-other": "dobras de Santu Tomé y Príncipe",
            "symbol": "STD",
            "symbol-alt-narrow": "Db"
          },
          "SUR": {
            "displayName": "SUR",
            "symbol": "SUR"
          },
          "SVC": {
            "displayName": "SVC",
            "symbol": "SVC"
          },
          "SYP": {
            "displayName": "llibra siria",
            "displayName-count-one": "llibra siria",
            "displayName-count-other": "llibres siries",
            "symbol": "SYP",
            "symbol-alt-narrow": "£"
          },
          "SZL": {
            "displayName": "lilangeni suazilandés",
            "displayName-count-one": "lilangeni suazilandés",
            "displayName-count-other": "lilangenis suazilandeses",
            "symbol": "SZL"
          },
          "THB": {
            "displayName": "baht tailandés",
            "displayName-count-one": "baht tailandés",
            "displayName-count-other": "bahts tailandeses",
            "symbol": "฿",
            "symbol-alt-narrow": "฿"
          },
          "TJR": {
            "displayName": "TJR",
            "symbol": "TJR"
          },
          "TJS": {
            "displayName": "somoni taxiquistanín",
            "displayName-count-one": "somoni taxiquistanín",
            "displayName-count-other": "somonis taxiquistaninos",
            "symbol": "TJS"
          },
          "TMM": {
            "displayName": "TMM",
            "symbol": "TMM"
          },
          "TMT": {
            "displayName": "manat turcomanu",
            "displayName-count-one": "manat turcomanu",
            "displayName-count-other": "manats turcomanos",
            "symbol": "TMT"
          },
          "TND": {
            "displayName": "dinar tunecín",
            "displayName-count-one": "dinar tunecín",
            "displayName-count-other": "dinares tunecinos",
            "symbol": "TND"
          },
          "TOP": {
            "displayName": "paʻanga tonganu",
            "displayName-count-one": "paʻanga tonganu",
            "displayName-count-other": "paʻangas tonganos",
            "symbol": "TOP",
            "symbol-alt-narrow": "T$"
          },
          "TPE": {
            "displayName": "TPE",
            "symbol": "TPE"
          },
          "TRL": {
            "displayName": "TRL",
            "symbol": "TRL"
          },
          "TRY": {
            "displayName": "llira turca",
            "displayName-count-one": "llira turca",
            "displayName-count-other": "llires turques",
            "symbol": "TRY",
            "symbol-alt-narrow": "₺",
            "symbol-alt-variant": "TL"
          },
          "TTD": {
            "displayName": "dólar de Trinidá y Tobagu",
            "displayName-count-one": "dólar de Trinidá y Tobagu",
            "displayName-count-other": "dólares de Trinidá y Tobagu",
            "symbol": "TTD",
            "symbol-alt-narrow": "$"
          },
          "TWD": {
            "displayName": "dólar nuevu taiwanés",
            "displayName-count-one": "dólar nuevu taiwanés",
            "displayName-count-other": "dólares nuevos taiwaneses",
            "symbol": "NT$",
            "symbol-alt-narrow": "NT$"
          },
          "TZS": {
            "displayName": "shilling tanzanianu",
            "displayName-count-one": "shilling tanzanianu",
            "displayName-count-other": "shillings tanzanianos",
            "symbol": "TZS"
          },
          "UAH": {
            "displayName": "grivna",
            "displayName-count-one": "grivna",
            "displayName-count-other": "grivnas",
            "symbol": "UAH",
            "symbol-alt-narrow": "₴"
          },
          "UAK": {
            "displayName": "UAK",
            "symbol": "UAK"
          },
          "UGS": {
            "displayName": "UGS",
            "symbol": "UGS"
          },
          "UGX": {
            "displayName": "shilling ugandés",
            "displayName-count-one": "shilling ugandés",
            "displayName-count-other": "shillings ugandeses",
            "symbol": "UGX"
          },
          "USD": {
            "displayName": "dólar de los Estaos Xuníos",
            "displayName-count-one": "dólar de los Estaos Xuníos",
            "displayName-count-other": "dólares de los Estaos Xuníos",
            "symbol": "$",
            "symbol-alt-narrow": "$"
          },
          "USN": {
            "displayName": "USN",
            "symbol": "USN"
          },
          "USS": {
            "displayName": "USS",
            "symbol": "USS"
          },
          "UYI": {
            "displayName": "UYI",
            "symbol": "UYI"
          },
          "UYP": {
            "displayName": "UYP",
            "symbol": "UYP"
          },
          "UYU": {
            "displayName": "pesu uruguayu",
            "displayName-count-one": "pesu uruguayu",
            "displayName-count-other": "pesos uruguayos",
            "symbol": "UYU",
            "symbol-alt-narrow": "$"
          },
          "UZS": {
            "displayName": "som uzbequistanín",
            "displayName-count-one": "som uzbequistanín",
            "displayName-count-other": "soms uzbequistaninos",
            "symbol": "UZS"
          },
          "VEB": {
            "displayName": "VEB",
            "symbol": "VEB"
          },
          "VEF": {
            "displayName": "bolívar venezolanu",
            "displayName-count-one": "bolívar venezolanu",
            "displayName-count-other": "bolívares venezolanos",
            "symbol": "VEF",
            "symbol-alt-narrow": "Bs"
          },
          "VND": {
            "displayName": "dong vietnamín",
            "displayName-count-one": "dong vietnamín",
            "displayName-count-other": "dongs vietnaminos",
            "symbol": "₫",
            "symbol-alt-narrow": "₫"
          },
          "VNN": {
            "displayName": "VNN",
            "symbol": "VNN"
          },
          "VUV": {
            "displayName": "vatu vanuatuanu",
            "displayName-count-one": "vatu vanuatuanu",
            "displayName-count-other": "vatus vanuatuanos",
            "symbol": "VUV"
          },
          "WST": {
            "displayName": "tala samoanu",
            "displayName-count-one": "tala samoanu",
            "displayName-count-other": "talas samoanos",
            "symbol": "WST"
          },
          "XAF": {
            "displayName": "francu CFA BEAC",
            "displayName-count-one": "francu CFA BEAC",
            "displayName-count-other": "francos CFA BEAC",
            "symbol": "FCFA"
          },
          "XAG": {
            "displayName": "plata",
            "displayName-count-one": "onza troy de plata",
            "displayName-count-other": "onces troy de plata",
            "symbol": "XAG"
          },
          "XAU": {
            "displayName": "oru",
            "displayName-count-one": "onza troy d’oru",
            "displayName-count-other": "onces troy d’oru",
            "symbol": "XAU"
          },
          "XBA": {
            "displayName": "unidá compuesta européa",
            "displayName-count-one": "unidá compuesta européa",
            "displayName-count-other": "unidaes compuestes europées",
            "symbol": "XBA"
          },
          "XBB": {
            "displayName": "unida monetaria européa",
            "displayName-count-one": "unida monetaria européa",
            "displayName-count-other": "unidaes monetaries europées",
            "symbol": "XBB"
          },
          "XBC": {
            "displayName": "unidá de cuenta européa (XBC)",
            "displayName-count-one": "unidá de cuenta européa (XBC)",
            "displayName-count-other": "unidaes de cuenta europées (XBC)",
            "symbol": "XBC"
          },
          "XBD": {
            "displayName": "unidá de cuenta européa (XBD)",
            "displayName-count-one": "unidá de cuenta européa (XBD)",
            "displayName-count-other": "unidaes de cuenta europées (XBD)",
            "symbol": "XBD"
          },
          "XCD": {
            "displayName": "dólar del Caribe Oriental",
            "displayName-count-one": "dólar del Caribe Oriental",
            "displayName-count-other": "dólares del Caribe Oriental",
            "symbol": "EC$",
            "symbol-alt-narrow": "$"
          },
          "XDR": {
            "displayName": "drechos especiales de xiru",
            "displayName-count-one": "drechos especiales de xiru",
            "displayName-count-other": "drechos especiales de xiru",
            "symbol": "XDR"
          },
          "XEU": {
            "displayName": "XEU",
            "symbol": "XEU"
          },
          "XFO": {
            "displayName": "Francu oru francés",
            "displayName-count-one": "francu oru francés",
            "displayName-count-other": "francos oru franceses",
            "symbol": "XFO"
          },
          "XFU": {
            "displayName": "Francu UIC francés",
            "displayName-count-one": "francu UIC francés",
            "displayName-count-other": "francos UIC franceses",
            "symbol": "XFU"
          },
          "XOF": {
            "displayName": "francu CFA BCEAO",
            "displayName-count-one": "francu CFA BCEAO",
            "displayName-count-other": "francos CFA BCEAO",
            "symbol": "CFA"
          },
          "XPD": {
            "displayName": "XPD",
            "displayName-count-one": "onza troy de paladiu",
            "displayName-count-other": "onces troy de paladiu",
            "symbol": "XPD"
          },
          "XPF": {
            "displayName": "francu CFP",
            "displayName-count-one": "francu CFP",
            "displayName-count-other": "francos CFP",
            "symbol": "CFPF"
          },
          "XPT": {
            "displayName": "platín",
            "displayName-count-one": "onza troy de platín",
            "displayName-count-other": "onces troy de platín",
            "symbol": "XPT"
          },
          "XRE": {
            "displayName": "fondos RINET",
            "displayName-count-one": "unidá de fondos RINET",
            "displayName-count-other": "unidaes de fondos RINET",
            "symbol": "XRE"
          },
          "XSU": {
            "displayName": "Sucre",
            "displayName-count-one": "sucre",
            "displayName-count-other": "sucres",
            "symbol": "XSU"
          },
          "XTS": {
            "displayName": "códigu monetariu de prueba",
            "displayName-count-one": "códigu monetariu de prueba",
            "displayName-count-other": "códigos monetarios de prueba",
            "symbol": "XTS"
          },
          "XUA": {
            "displayName": "Unidá de cuenta ADB",
            "displayName-count-one": "unidá de cuenta ADB",
            "displayName-count-other": "unidaes de cuenta ADB",
            "symbol": "XUA"
          },
          "XXX": {
            "displayName": "Divisa desconocida",
            "displayName-count-one": "divisa desconocida",
            "displayName-count-other": "divises desconocíes",
            "symbol": "XXX"
          },
          "YDD": {
            "displayName": "YDD",
            "symbol": "YDD"
          },
          "YER": {
            "displayName": "rial yemenín",
            "displayName-count-one": "rial yemenín",
            "displayName-count-other": "riales yemeninos",
            "symbol": "YER"
          },
          "YUD": {
            "displayName": "YUD",
            "symbol": "YUD"
          },
          "YUM": {
            "displayName": "YUM",
            "symbol": "YUM"
          },
          "YUN": {
            "displayName": "YUN",
            "symbol": "YUN"
          },
          "YUR": {
            "displayName": "YUR",
            "symbol": "YUR"
          },
          "ZAL": {
            "displayName": "ZAL",
            "symbol": "ZAL"
          },
          "ZAR": {
            "displayName": "rand sudafricanu",
            "displayName-count-one": "rand sudafricanu",
            "displayName-count-other": "rands sudafricanos",
            "symbol": "ZAR",
            "symbol-alt-narrow": "R"
          },
          "ZMK": {
            "displayName": "kwacha zambianu (1968–2012)",
            "displayName-count-one": "kwacha zambianu (1968–2012)",
            "displayName-count-other": "kwachas zambianos (1968–2012)",
            "symbol": "ZMK"
          },
          "ZMW": {
            "displayName": "kwacha zambianu",
            "displayName-count-one": "kwacha zambianu",
            "displayName-count-other": "kwachas zambianos",
            "symbol": "ZMW",
            "symbol-alt-narrow": "ZK"
          },
          "ZRN": {
            "displayName": "ZRN",
            "symbol": "ZRN"
          },
          "ZRZ": {
            "displayName": "ZRZ",
            "symbol": "ZRZ"
          },
          "ZWD": {
            "displayName": "ZWD",
            "symbol": "ZWD"
          },
          "ZWL": {
            "displayName": "ZWL",
            "symbol": "ZWL"
          },
          "ZWR": {
            "displayName": "ZWR",
            "symbol": "ZWR"
          }
        }
      }
    }
  }
}
