{
  "main": {
    "hi-IN": {
      "identity": {
        "version": {
          "_cldrVersion": "26",
          "_number": "$Revision: 10669 $"
        },
        "generation": {
          "_date": "$Date: 2014-07-23 16:10:33 -0500 (Wed, 23 Jul 2014) $"
        },
        "language": "hi",
        "territory": "IN"
      },
      "dates": {
        "calendars": {
          "islamic-umalqura": {
            "months": {
              "format": {
                "abbreviated": {
                  "1": "Muh.",
                  "2": "Saf.",
                  "3": "Rab. I",
                  "4": "Rab. II",
                  "5": "Jum. I",
                  "6": "Jum. II",
                  "7": "Raj.",
                  "8": "Sha.",
                  "9": "Ram.",
                  "10": "Shaw.",
                  "11": "Dhuʻl-Q.",
                  "12": "Dhuʻl-H."
                },
                "narrow": {
                  "1": "1",
                  "2": "2",
                  "3": "3",
                  "4": "4",
                  "5": "5",
                  "6": "6",
                  "7": "7",
                  "8": "8",
                  "9": "9",
                  "10": "10",
                  "11": "11",
                  "12": "12"
                },
                "wide": {
                  "1": "मुहर्रम",
                  "2": "सफर",
                  "3": "राबी प्रथम",
                  "4": "राबी द्वितीय",
                  "5": "जुम्डा प्रथम",
                  "6": "जुम्डा द्वितीय",
                  "7": "रजब",
                  "8": "शावन",
                  "9": "रमजान",
                  "10": "शव्व्ल",
                  "11": "जिल-क्दाह",
                  "12": "जिल्-हिज्जाह"
                }
              },
              "stand-alone": {
                "abbreviated": {
                  "1": "Muh.",
                  "2": "Saf.",
                  "3": "Rab. I",
                  "4": "Rab. II",
                  "5": "Jum. I",
                  "6": "Jum. II",
                  "7": "Raj.",
                  "8": "Sha.",
                  "9": "Ram.",
                  "10": "Shaw.",
                  "11": "Dhuʻl-Q.",
                  "12": "Dhuʻl-H."
                },
                "narrow": {
                  "1": "1",
                  "2": "2",
                  "3": "3",
                  "4": "4",
                  "5": "5",
                  "6": "6",
                  "7": "7",
                  "8": "8",
                  "9": "9",
                  "10": "10",
                  "11": "11",
                  "12": "12"
                },
                "wide": {
                  "1": "मुहर्रम",
                  "2": "सफर",
                  "3": "राबी प्रथम",
                  "4": "राबी द्वितीय",
                  "5": "जुम्डा प्रथम",
                  "6": "जुम्डा द्वितीय",
                  "7": "रजब",
                  "8": "शावन",
                  "9": "रमजान",
                  "10": "शव्व्ल",
                  "11": "जिल-क्दाह",
                  "12": "जिल्-हिज्जाह"
                }
              }
            },
            "days": {
              "format": {
                "abbreviated": {
                  "sun": "रवि",
                  "mon": "सोम",
                  "tue": "मंगल",
                  "wed": "बुध",
                  "thu": "गुरु",
                  "fri": "शुक्र",
                  "sat": "शनि"
                },
                "narrow": {
                  "sun": "र",
                  "mon": "सो",
                  "tue": "मं",
                  "wed": "बु",
                  "thu": "गु",
                  "fri": "शु",
                  "sat": "श"
                },
                "short": {
                  "sun": "र",
                  "mon": "सो",
                  "tue": "मं",
                  "wed": "बु",
                  "thu": "गु",
                  "fri": "शु",
                  "sat": "श"
                },
                "wide": {
                  "sun": "रविवार",
                  "mon": "सोमवार",
                  "tue": "मंगलवार",
                  "wed": "बुधवार",
                  "thu": "गुरुवार",
                  "fri": "शुक्रवार",
                  "sat": "शनिवार"
                }
              },
              "stand-alone": {
                "abbreviated": {
                  "sun": "रवि",
                  "mon": "सोम",
                  "tue": "मंगल",
                  "wed": "बुध",
                  "thu": "गुरु",
                  "fri": "शुक्र",
                  "sat": "शनि"
                },
                "narrow": {
                  "sun": "र",
                  "mon": "सो",
                  "tue": "मं",
                  "wed": "बु",
                  "thu": "गु",
                  "fri": "शु",
                  "sat": "श"
                },
                "short": {
                  "sun": "र",
                  "mon": "सो",
                  "tue": "मं",
                  "wed": "बु",
                  "thu": "गु",
                  "fri": "शु",
                  "sat": "श"
                },
                "wide": {
                  "sun": "रविवार",
                  "mon": "सोमवार",
                  "tue": "मंगलवार",
                  "wed": "बुधवार",
                  "thu": "गुरुवार",
                  "fri": "शुक्रवार",
                  "sat": "शनिवार"
                }
              }
            },
            "quarters": {
              "format": {
                "abbreviated": {
                  "1": "ति1",
                  "2": "ति2",
                  "3": "ति3",
                  "4": "ति4"
                },
                "narrow": {
                  "1": "1",
                  "2": "2",
                  "3": "3",
                  "4": "4"
                },
                "wide": {
                  "1": "पहली तिमाही",
                  "2": "दूसरी तिमाही",
                  "3": "तीसरी तिमाही",
                  "4": "चौथी तिमाही"
                }
              },
              "stand-alone": {
                "abbreviated": {
                  "1": "ति1",
                  "2": "ति2",
                  "3": "ति3",
                  "4": "ति4"
                },
                "narrow": {
                  "1": "1",
                  "2": "2",
                  "3": "3",
                  "4": "4"
                },
                "wide": {
                  "1": "पहली तिमाही",
                  "2": "दूसरी तिमाही",
                  "3": "तीसरी तिमाही",
                  "4": "चौथी तिमाही"
                }
              }
            },
            "dayPeriods": {
              "format": {
                "abbreviated": {
                  "am": "पूर्व",
                  "noon": "दोपहर",
                  "pm": "अपर"
                },
                "narrow": {
                  "am": "पू",
                  "noon": "दोप",
                  "pm": "अ"
                },
                "wide": {
                  "am": "पूर्वाह्न",
                  "noon": "दोपहर",
                  "pm": "अपराह्न"
                }
              },
              "stand-alone": {
                "abbreviated": {
                  "am": "पूर्व",
                  "noon": "दोपहर",
                  "pm": "अपर"
                },
                "narrow": {
                  "am": "पू",
                  "noon": "दोप",
                  "pm": "अ"
                },
                "wide": {
                  "am": "पूर्वाह्न",
                  "noon": "दोपहर",
                  "pm": "अपराह्न"
                }
              }
            },
            "eras": {
              "eraNames": {
                "0": "AH"
              },
              "eraAbbr": {
                "0": "AH"
              },
              "eraNarrow": {
                "0": "AH"
              }
            },
            "dateFormats": {
              "full": "G EEEE, d MMMM y",
              "long": "G d MMMM y",
              "medium": "G d MMM y",
              "short": "G d/M/y"
            },
            "timeFormats": {
              "full": "h:mm:ss a zzzz",
              "long": "h:mm:ss a z",
              "medium": "h:mm:ss a",
              "short": "h:mm a"
            },
            "dateTimeFormats": {
              "full": "{1} को {0}",
              "long": "{1} को {0}",
              "medium": "{1}, {0}",
              "short": "{1}, {0}",
              "availableFormats": {
                "E": "ccc",
                "EHm": "E HH:mm",
                "EHms": "E HH:mm:ss",
                "Ed": "d E",
                "Ehm": "E h:mm a",
                "Ehms": "E h:mm:ss a",
                "Gy": "G y",
                "GyMMM": "G y MMM",
                "GyMMMEd": "G E, d MMM y",
                "GyMMMd": "G d MMM y",
                "H": "HH",
                "Hm": "HH:mm",
                "Hms": "HH:mm:ss",
                "M": "M",
                "MEd": "E, d/M",
                "MMM": "MMM",
                "MMMEd": "E, d MMM",
                "MMMd": "d MMM",
                "MMdd": "dd-MM",
                "Md": "d/M",
                "d": "d",
                "h": "h a",
                "hm": "h:mm a",
                "hms": "h:mm:ss a",
                "ms": "mm:ss",
                "y": "G y",
                "yyyy": "G y",
                "yyyyM": "GGGGG M/y",
                "yyyyMEd": "G E, d/M/y",
                "yyyyMMM": "G MMM y",
                "yyyyMMMEd": "G E, d MMM y",
                "yyyyMMMd": "G d MMM y",
                "yyyyMMdd": "dd-MM-y G",
                "yyyyMd": "G d/M/y",
                "yyyyQQQ": "QQQ G y",
                "yyyyQQQQ": "QQQQ G y"
              },
              "appendItems": {
                "Day": "{0} ({2}: {1})",
                "Day-Of-Week": "{0} {1}",
                "Era": "{1} {0}",
                "Hour": "{0} ({2}: {1})",
                "Minute": "{0} ({2}: {1})",
                "Month": "{0} ({2}: {1})",
                "Quarter": "{0} ({2}: {1})",
                "Second": "{0} ({2}: {1})",
                "Timezone": "{0} {1}",
                "Week": "{0} ({2}: {1})",
                "Year": "{1} {0}"
              },
              "intervalFormats": {
                "intervalFormatFallback": "{0} – {1}",
                "H": {
                  "H": "HH–HH"
                },
                "Hm": {
                  "H": "HH:mm–HH:mm",
                  "m": "HH:mm–HH:mm"
                },
                "Hmv": {
                  "H": "HH:mm–HH:mm v",
                  "m": "HH:mm–HH:mm v"
                },
                "Hv": {
                  "H": "HH–HH v"
                },
                "M": {
                  "M": "M–M"
                },
                "MEd": {
                  "M": "E, d/M – E, d/M",
                  "d": "E, d/M – E, d/M"
                },
                "MMM": {
                  "M": "MMM–MMM"
                },
                "MMMEd": {
                  "M": "E, d MMM – E, d MMM",
                  "d": "E, d MMM – E, d MMM"
                },
                "MMMd": {
                  "M": "d MMM – d MMM",
                  "d": "d–d MMM"
                },
                "Md": {
                  "M": "d/M – d/M",
                  "d": "d/M – d/M"
                },
                "d": {
                  "d": "d–d"
                },
                "h": {
                  "a": "h a – h a",
                  "h": "h–h a"
                },
                "hm": {
                  "a": "h:mm a – h:mm a",
                  "h": "h:mm–h:mm a",
                  "m": "h:mm–h:mm a"
                },
                "hmv": {
                  "a": "h:mm a – h:mm a v",
                  "h": "h:mm–h:mm a v",
                  "m": "h:mm–h:mm a v"
                },
                "hv": {
                  "a": "h a – h a v",
                  "h": "h–h a v"
                },
                "y": {
                  "y": "y-y G"
                },
                "yM": {
                  "M": "M/y – M/y G",
                  "y": "M/y – M/y G"
                },
                "yMEd": {
                  "M": "E, d/M/y – E, d/M/y G",
                  "d": "E, d/M/y – E, d/M/y G",
                  "y": "E, d/M/y – E, d/M/y G"
                },
                "yMMM": {
                  "M": "MMM–MMM y G",
                  "y": "MMM y – MMM y G"
                },
                "yMMMEd": {
                  "M": "E, d MMM – E, d MMM y G",
                  "d": "E, d MMM – E, d MMM y G",
                  "y": "E, d MMM y – E, d MMM y G"
                },
                "yMMMM": {
                  "M": "MMMM–MMMM y G",
                  "y": "MMMM y – MMMM y G"
                },
                "yMMMd": {
                  "M": "d MMM – d MMM y G",
                  "d": "d - d MMM y G",
                  "y": "d MMM y – d MMM y G"
                },
                "yMd": {
                  "M": "d/M/y – d/M/y G",
                  "d": "d/M/y – d/M/y G",
                  "y": "d/M/y – d/M/y G"
                }
              }
            }
          }
        }
      }
    }
  }
}
