{
  "main": {
    "hi-IN": {
      "identity": {
        "version": {
          "_cldrVersion": "26",
          "_number": "$Revision: 10669 $"
        },
        "generation": {
          "_date": "$Date: 2014-07-23 16:10:33 -0500 (Wed, 23 Jul 2014) $"
        },
        "language": "hi",
        "territory": "IN"
      },
      "localeDisplayNames": {
        "territories": {
          "001": "विश्व",
          "002": "अफ़्रीका",
          "003": "उत्तर अमेरिका",
          "005": "दक्षिण अमेरिका",
          "009": "ओशिआनिया",
          "011": "पश्चिमी अफ़्रीका",
          "013": "मध्य अमेरिका",
          "014": "पूर्वी अफ़्रीका",
          "015": "उत्तरी अफ़्रीका",
          "017": "मध्य अफ़्रीका",
          "018": "दक्षिणी अफ़्रीका",
          "019": "अमेरिकाज़",
          "021": "उत्तरी अमेरिका",
          "029": "कैरिबियन",
          "030": "पूर्वी एशिया",
          "034": "दक्षिणी एशिया",
          "035": "दक्षिण-पूर्व एशिया",
          "039": "दक्षिणी यूरोप",
          "053": "ऑस्ट्रेलेशिया",
          "054": "मेलानेशिया",
          "057": "माइक्रोनेशियाई क्षेत्र",
          "061": "पोलीनेशिया",
          "142": "एशिया",
          "143": "मध्य एशिया",
          "145": "पश्चिमी एशिया",
          "150": "यूरोप",
          "151": "पूर्वी यूरोप",
          "154": "उत्तरी यूरोप",
          "155": "पश्चिमी यूरोप",
          "419": "लैटिन अमेरिका",
          "AC": "असेंशन द्वीप",
          "AD": "एंडोरा",
          "AE": "संयुक्त अरब अमीरात",
          "AF": "अफ़गानिस्तान",
          "AG": "एंटिगुआ और बरबुडा",
          "AI": "एंग्विला",
          "AL": "अल्बानिया",
          "AM": "आर्मेनिया",
          "AN": "नीदरलैंडी ऐंटील",
          "AO": "अंगोला",
          "AQ": "अंटार्कटिका",
          "AR": "अर्जेंटीना",
          "AS": "अमेरिकी समोआ",
          "AT": "ऑस्ट्रिया",
          "AU": "ऑस्ट्रेलिया",
          "AW": "अरूबा",
          "AX": "एलैंड द्वीपसमूह",
          "AZ": "अज़रबैजान",
          "BA": "बोस्निया और हर्ज़ेगोविना",
          "BB": "बारबाडोस",
          "BD": "बांग्लादेश",
          "BE": "बेल्जियम",
          "BF": "बुर्किना फ़ासो",
          "BG": "बुल्गारिया",
          "BH": "बहरीन",
          "BI": "बुरुंडी",
          "BJ": "बेनिन",
          "BL": "सेंट बार्थेलेमी",
          "BM": "बरमूडा",
          "BN": "ब्रूनेई",
          "BO": "बोलीविया",
          "BQ": "कैरिबियन नीदरलैंड",
          "BR": "ब्राज़ील",
          "BS": "बहामास",
          "BT": "भूटान",
          "BV": "बोवेत द्वीप",
          "BW": "बोत्स्वाना",
          "BY": "बेलारूस",
          "BZ": "बेलीज़",
          "CA": "कनाडा",
          "CC": "कोकोस (कीलिंग) द्वीपसमूह",
          "CD": "कांगो - किंशासा",
          "CD-alt-variant": "कांगो (डीआरसी)",
          "CF": "मध्य अफ़्रीकी गणराज्य",
          "CG": "कांगो – ब्राज़ाविल",
          "CG-alt-variant": "कांगो (गणराज्य)",
          "CH": "स्विट्ज़रलैंड",
          "CI": "कोट डी आइवर",
          "CI-alt-variant": "आइवरी कोस्ट",
          "CK": "कुक द्वीपसमूह",
          "CL": "चिली",
          "CM": "कैमरून",
          "CN": "चीन",
          "CO": "कोलंबिया",
          "CP": "क्लिपर्टन द्वीप",
          "CR": "कोस्टारिका",
          "CU": "क्यूबा",
          "CV": "केप वर्ड",
          "CW": "क्यूरासाओ",
          "CX": "क्रिसमस द्वीप",
          "CY": "साइप्रस",
          "CZ": "चेक गणराज्य",
          "DE": "जर्मनी",
          "DG": "डिएगो गार्सिया",
          "DJ": "जिबूती",
          "DK": "डेनमार्क",
          "DM": "डोमिनिका",
          "DO": "डोमिनिकन गणराज्य",
          "DZ": "अल्जीरिया",
          "EA": "सेउटा और मेलिला",
          "EC": "इक्वाडोर",
          "EE": "एस्टोनिया",
          "EG": "मिस्र",
          "EH": "पश्चिमी सहारा",
          "ER": "इरिट्रिया",
          "ES": "स्पेन",
          "ET": "इथियोपिया",
          "EU": "यूरोपीय संघ",
          "FI": "फ़िनलैंड",
          "FJ": "फ़िजी",
          "FK": "फ़ॉकलैंड द्वीपसमूह",
          "FK-alt-variant": "फ़ॉकलैंड द्वीपसमूह (इज़्लास माल्विनास)",
          "FM": "माइक्रोनेशिया",
          "FO": "फ़ेरो द्वीपसमूह",
          "FR": "फ़्रांस",
          "GA": "गैबॉन",
          "GB": "यूनाइटेड किंगडम",
          "GB-alt-short": "यू.के.",
          "GD": "ग्रेनाडा",
          "GE": "जॉर्जिया",
          "GF": "फ़्रेंच गयाना",
          "GG": "गर्नसी",
          "GH": "घाना",
          "GI": "जिब्राल्टर",
          "GL": "ग्रीनलैंड",
          "GM": "गाम्बिया",
          "GN": "गिनी",
          "GP": "ग्वाडेलूप",
          "GQ": "इक्वेटोरियल गिनी",
          "GR": "यूनान",
          "GS": "दक्षिण जॉर्जिया और दक्षिण सैंडविच द्वीपसमूह",
          "GT": "ग्वाटेमाला",
          "GU": "गुआम",
          "GW": "गिनी-बिसाउ",
          "GY": "गयाना",
          "HK": "हाँग काँग (चीन विशेष प्रशासनिक क्षेत्र)",
          "HK-alt-short": "हाँग काँग",
          "HM": "हर्ड द्वीप और मैकडोनॉल्ड द्वीपसमूह",
          "HN": "होंडूरास",
          "HR": "क्रोएशिया",
          "HT": "हैती",
          "HU": "हंगरी",
          "IC": "कैनेरी द्वीपसमूह",
          "ID": "इंडोनेशिया",
          "IE": "आयरलैंड",
          "IL": "इसराइल",
          "IM": "आइल ऑफ़ मैन",
          "IN": "भारत",
          "IO": "ब्रिटिश हिंद महासागरीय क्षेत्र",
          "IQ": "इराक",
          "IR": "ईरान",
          "IS": "आइसलैंड",
          "IT": "इटली",
          "JE": "जर्सी",
          "JM": "जमैका",
          "JO": "जॉर्डन",
          "JP": "जापान",
          "KE": "केन्या",
          "KG": "किर्गिज़स्तान",
          "KH": "कंबोडिया",
          "KI": "किरिबाती",
          "KM": "कोमोरोस",
          "KN": "सेंट किट्स और नेविस",
          "KP": "उत्तर कोरिया",
          "KR": "दक्षिण कोरिया",
          "KW": "कुवैत",
          "KY": "केमैन द्वीपसमूह",
          "KZ": "कज़ाखस्तान",
          "LA": "लाओस",
          "LB": "लेबनान",
          "LC": "सेंट लूसिया",
          "LI": "लिचेंस्टीन",
          "LK": "श्रीलंका",
          "LR": "लाइबेरिया",
          "LS": "लेसोथो",
          "LT": "लिथुआनिया",
          "LU": "लग्ज़मबर्ग",
          "LV": "लातविया",
          "LY": "लीबिया",
          "MA": "मोरक्को",
          "MC": "मोनाको",
          "MD": "मॉल्डोवा",
          "ME": "मोंटेनेग्रो",
          "MF": "सेंट मार्टिन",
          "MG": "मेडागास्कर",
          "MH": "मार्शल द्वीपसमूह",
          "MK": "मैसिडोनिया",
          "MK-alt-variant": "मैसिडोनिया (FYROM)",
          "ML": "माली",
          "MM": "म्यांमार (बर्मा)",
          "MN": "मंगोलिया",
          "MO": "मकाऊ (विशेष प्रशासनिक क्षेत्र चीन)",
          "MO-alt-short": "मकाऊ",
          "MP": "उत्तरी मारियाना द्वीपसमूह",
          "MQ": "मार्टीनिक",
          "MR": "मॉरिटानिया",
          "MS": "मोंटसेरात",
          "MT": "माल्टा",
          "MU": "मॉरिशस",
          "MV": "मालदीव",
          "MW": "मलावी",
          "MX": "मैक्सिको",
          "MY": "मलेशिया",
          "MZ": "मोज़ांबिक",
          "NA": "नामीबिया",
          "NC": "न्यू कैलेडोनिया",
          "NE": "नाइजर",
          "NF": "नॉरफ़ॉक द्वीप",
          "NG": "नाइजीरिया",
          "NI": "निकारागुआ",
          "NL": "नीदरलैंड",
          "NO": "नॉर्वे",
          "NP": "नेपाल",
          "NR": "नाउरु",
          "NU": "नीयू",
          "NZ": "न्यूज़ीलैंड",
          "OM": "ओमान",
          "PA": "पनामा",
          "PE": "पेरू",
          "PF": "फ़्रेंच पोलिनेशिया",
          "PG": "पापुआ न्यू गिनी",
          "PH": "फ़िलिपींस",
          "PK": "पाकिस्तान",
          "PL": "पोलैंड",
          "PM": "सेंट पिएरे और मिक्वेलान",
          "PN": "पिटकैर्न द्वीपसमूह",
          "PR": "पोर्टो रिको",
          "PS": "फ़िलिस्तीनी क्षेत्र",
          "PS-alt-short": "फ़िलिस्तीन",
          "PT": "पुर्तगाल",
          "PW": "पलाऊ",
          "PY": "पेराग्वे",
          "QA": "क़तर",
          "QO": "आउटलाइंग ओशिनिया",
          "RE": "रियूनियन",
          "RO": "रोमानिया",
          "RS": "सर्बिया",
          "RU": "रूस",
          "RW": "रवांडा",
          "SA": "सऊदी अरब",
          "SB": "सोलोमन द्वीपसमूह",
          "SC": "सेशेल्स",
          "SD": "सूडान",
          "SE": "स्वीडन",
          "SG": "सिंगापुर",
          "SH": "सेंट हेलेना",
          "SI": "स्लोवेनिया",
          "SJ": "स्वालबार्ड और जान मायेन",
          "SK": "स्लोवाकिया",
          "SL": "सिएरा लियोन",
          "SM": "सैन मेरीनो",
          "SN": "सेनेगल",
          "SO": "सोमालिया",
          "SR": "सूरीनाम",
          "SS": "दक्षिण सूडान",
          "ST": "साओ टोम और प्रिंसिपे",
          "SV": "अल सल्वाडोर",
          "SX": "सिंट मार्टिन",
          "SY": "सीरिया",
          "SZ": "स्वाज़ीलैंड",
          "TA": "त्रिस्टान डा कुना",
          "TC": "तुर्क और कैकोज़ द्वीपसमूह",
          "TD": "चाड",
          "TF": "फ़्रांसीसी दक्षिणी क्षेत्र",
          "TG": "टोगो",
          "TH": "थाईलैंड",
          "TJ": "ताजिकिस्तान",
          "TK": "तोकेलाउ",
          "TL": "तिमोर-लेस्त",
          "TL-alt-variant": "पूर्वी तिमोर",
          "TM": "तुर्कमेनिस्तान",
          "TN": "ट्यूनीशिया",
          "TO": "टोंगा",
          "TR": "तुर्की",
          "TT": "त्रिनिदाद और टोबैगो",
          "TV": "तुवालू",
          "TW": "ताइवान",
          "TZ": "तंज़ानिया",
          "UA": "यूक्रेन",
          "UG": "युगांडा",
          "UM": "यू.एस. आउटलाइंग द्वीपसमूह",
          "US": "संयुक्त राज्य",
          "US-alt-short": "अमेरिका",
          "UY": "उरूग्वे",
          "UZ": "उज़्बेकिस्तान",
          "VA": "वेटिकन सिटी",
          "VC": "सेंट विंसेंट और ग्रेनाडाइंस",
          "VE": "वेनेज़ुएला",
          "VG": "ब्रिटिश वर्जिन द्वीपसमूह",
          "VI": "यू.एस. वर्जिन द्वीपसमूह",
          "VN": "वियतनाम",
          "VU": "वनुआतू",
          "WF": "वालिस और फ़्यूचूना",
          "WS": "समोआ",
          "XK": "कोसोवो",
          "YE": "यमन",
          "YT": "मायोते",
          "ZA": "दक्षिण अफ़्रीका",
          "ZM": "ज़ाम्बिया",
          "ZW": "ज़िम्बाब्वे",
          "ZZ": "अज्ञात क्षेत्र"
        }
      }
    }
  }
}
