{
  "main": {
    "wae": {
      "identity": {
        "version": {
          "_cldrVersion": "26",
          "_number": "$Revision: 10753 $"
        },
        "generation": {
          "_date": "$Date: 2014-08-11 11:10:03 -0500 (Mon, 11 Aug 2014) $"
        },
        "language": "root"
      },
      "dates": {
        "calendars": {
          "islamic-umalqura": {
            "months": {
              "format": {
                "abbreviated": {
                  "1": "Muh.",
                  "2": "Saf.",
                  "3": "Rab. I",
                  "4": "Rab. II",
                  "5": "Jum. I",
                  "6": "Jum. II",
                  "7": "Raj.",
                  "8": "Sha.",
                  "9": "Ram.",
                  "10": "Shaw.",
                  "11": "Dhuʻl-Q.",
                  "12": "Dhuʻl-H."
                },
                "narrow": {
                  "1": "1",
                  "2": "2",
                  "3": "3",
                  "4": "4",
                  "5": "5",
                  "6": "6",
                  "7": "7",
                  "8": "8",
                  "9": "9",
                  "10": "10",
                  "11": "11",
                  "12": "12"
                },
                "wide": {
                  "1": "Muharram",
                  "2": "Safar",
                  "3": "Rabiʻ I",
                  "4": "Rabiʻ II",
                  "5": "Jumada I",
                  "6": "Jumada II",
                  "7": "Rajab",
                  "8": "Shaʻban",
                  "9": "Ramadan",
                  "10": "Shawwal",
                  "11": "Dhuʻl-Qiʻdah",
                  "12": "Dhuʻl-Hijjah"
                }
              },
              "stand-alone": {
                "abbreviated": {
                  "1": "Muh.",
                  "2": "Saf.",
                  "3": "Rab. I",
                  "4": "Rab. II",
                  "5": "Jum. I",
                  "6": "Jum. II",
                  "7": "Raj.",
                  "8": "Sha.",
                  "9": "Ram.",
                  "10": "Shaw.",
                  "11": "Dhuʻl-Q.",
                  "12": "Dhuʻl-H."
                },
                "narrow": {
                  "1": "1",
                  "2": "2",
                  "3": "3",
                  "4": "4",
                  "5": "5",
                  "6": "6",
                  "7": "7",
                  "8": "8",
                  "9": "9",
                  "10": "10",
                  "11": "11",
                  "12": "12"
                },
                "wide": {
                  "1": "Muharram",
                  "2": "Safar",
                  "3": "Rabiʻ I",
                  "4": "Rabiʻ II",
                  "5": "Jumada I",
                  "6": "Jumada II",
                  "7": "Rajab",
                  "8": "Shaʻban",
                  "9": "Ramadan",
                  "10": "Shawwal",
                  "11": "Dhuʻl-Qiʻdah",
                  "12": "Dhuʻl-Hijjah"
                }
              }
            },
            "days": {
              "format": {
                "abbreviated": {
                  "sun": "Sun",
                  "mon": "Män",
                  "tue": "Ziš",
                  "wed": "Mit",
                  "thu": "Fró",
                  "fri": "Fri",
                  "sat": "Sam"
                },
                "narrow": {
                  "sun": "S",
                  "mon": "M",
                  "tue": "Z",
                  "wed": "M",
                  "thu": "F",
                  "fri": "F",
                  "sat": "S"
                },
                "short": {
                  "sun": "Sun",
                  "mon": "Män",
                  "tue": "Ziš",
                  "wed": "Mit",
                  "thu": "Fró",
                  "fri": "Fri",
                  "sat": "Sam"
                },
                "wide": {
                  "sun": "Sunntag",
                  "mon": "Mäntag",
                  "tue": "Zištag",
                  "wed": "Mittwuč",
                  "thu": "Fróntag",
                  "fri": "Fritag",
                  "sat": "Samštag"
                }
              },
              "stand-alone": {
                "abbreviated": {
                  "sun": "Sun",
                  "mon": "Män",
                  "tue": "Ziš",
                  "wed": "Mit",
                  "thu": "Fró",
                  "fri": "Fri",
                  "sat": "Sam"
                },
                "narrow": {
                  "sun": "S",
                  "mon": "M",
                  "tue": "Z",
                  "wed": "M",
                  "thu": "F",
                  "fri": "F",
                  "sat": "S"
                },
                "short": {
                  "sun": "Sun",
                  "mon": "Män",
                  "tue": "Ziš",
                  "wed": "Mit",
                  "thu": "Fró",
                  "fri": "Fri",
                  "sat": "Sam"
                },
                "wide": {
                  "sun": "Sunntag",
                  "mon": "Mäntag",
                  "tue": "Zištag",
                  "wed": "Mittwuč",
                  "thu": "Fróntag",
                  "fri": "Fritag",
                  "sat": "Samštag"
                }
              }
            },
            "quarters": {
              "format": {
                "abbreviated": {
                  "1": "Q1",
                  "2": "Q2",
                  "3": "Q3",
                  "4": "Q4"
                },
                "narrow": {
                  "1": "1",
                  "2": "2",
                  "3": "3",
                  "4": "4"
                },
                "wide": {
                  "1": "1. quartal",
                  "2": "2. quartal",
                  "3": "3. quartal",
                  "4": "4. quartal"
                }
              },
              "stand-alone": {
                "abbreviated": {
                  "1": "Q1",
                  "2": "Q2",
                  "3": "Q3",
                  "4": "Q4"
                },
                "narrow": {
                  "1": "1",
                  "2": "2",
                  "3": "3",
                  "4": "4"
                },
                "wide": {
                  "1": "1. quartal",
                  "2": "2. quartal",
                  "3": "3. quartal",
                  "4": "4. quartal"
                }
              }
            },
            "dayPeriods": {
              "format": {
                "abbreviated": {
                  "am": "AM",
                  "noon": "noon",
                  "pm": "PM"
                },
                "narrow": {
                  "am": "a",
                  "noon": "n",
                  "pm": "p"
                },
                "wide": {
                  "am": "AM",
                  "noon": "noon",
                  "pm": "PM"
                }
              },
              "stand-alone": {
                "abbreviated": {
                  "am": "AM",
                  "noon": "noon",
                  "pm": "PM"
                },
                "narrow": {
                  "am": "a",
                  "noon": "n",
                  "pm": "p"
                },
                "wide": {
                  "am": "AM",
                  "noon": "noon",
                  "pm": "PM"
                }
              }
            },
            "eras": {
              "eraNames": {
                "0": "AH"
              },
              "eraAbbr": {
                "0": "AH"
              },
              "eraNarrow": {
                "0": "AH"
              }
            },
            "dateFormats": {
              "full": "EEEE, d. MMMM y G",
              "long": "d. MMMM y G",
              "medium": "d. MMM y G",
              "short": "GGGGG y-MM-dd"
            },
            "timeFormats": {
              "full": "HH:mm:ss zzzz",
              "long": "HH:mm:ss z",
              "medium": "HH:mm:ss",
              "short": "HH:mm"
            },
            "dateTimeFormats": {
              "full": "{1} {0}",
              "long": "{1} {0}",
              "medium": "{1} {0}",
              "short": "{1} {0}",
              "availableFormats": {
                "E": "ccc",
                "EHm": "E HH:mm",
                "EHms": "E HH:mm:ss",
                "Ed": "E d.",
                "Ehm": "E h:mm a",
                "Ehms": "E h:mm:ss a",
                "Gy": "G y",
                "GyMMM": "G y MMM",
                "GyMMMEd": "G y MMM d, E",
                "GyMMMd": "G y MMM d",
                "H": "HH",
                "Hm": "HH:mm",
                "Hms": "HH:mm:ss",
                "M": "LLL",
                "MEd": "E, d. MMM",
                "MMM": "LLL",
                "MMMEd": "E, d. MMM",
                "MMMd": "d. MMM",
                "Md": "d. MMM",
                "d": "d",
                "h": "h a",
                "hm": "h:mm a",
                "hms": "h:mm:ss a",
                "ms": "mm:ss",
                "y": "G y",
                "yMMM": "MMM y",
                "yMMMEd": "E, d. MMM y",
                "yMMMd": "d. MMM y",
                "yyyy": "G y",
                "yyyyM": "GGGGG y-MM",
                "yyyyMEd": "GGGGG y-MM-dd, E",
                "yyyyMMM": "G y MMM",
                "yyyyMMMEd": "G y MMM d, E",
                "yyyyMMMd": "G y MMM d",
                "yyyyMd": "GGGGG y-MM-dd",
                "yyyyQQQ": "G y QQQ",
                "yyyyQQQQ": "G y QQQQ"
              },
              "appendItems": {
                "Day": "{0} ({2}: {1})",
                "Day-Of-Week": "{0} {1}",
                "Era": "{1} {0}",
                "Hour": "{0} ({2}: {1})",
                "Minute": "{0} ({2}: {1})",
                "Month": "{0} ({2}: {1})",
                "Quarter": "{0} ({2}: {1})",
                "Second": "{0} ({2}: {1})",
                "Timezone": "{0} {1}",
                "Week": "{0} ({2}: {1})",
                "Year": "{1} {0}"
              },
              "intervalFormats": {
                "intervalFormatFallback": "{0} - {1}",
                "H": {
                  "H": "HH - HH"
                },
                "Hm": {
                  "H": "HH:mm - HH:mm",
                  "m": "HH:mm - HH:mm"
                },
                "Hmv": {
                  "H": "HH:mm - HH:mm v",
                  "m": "HH:mm - HH:mm v"
                },
                "Hv": {
                  "H": "HH - HH v"
                },
                "M": {
                  "M": "MMM - MMM"
                },
                "MEd": {
                  "M": "E, d. MMM - E, d. MMM",
                  "d": "E, d. MMM - E, d. MMM"
                },
                "MMM": {
                  "M": "MMM - MMM"
                },
                "MMMEd": {
                  "M": "E, d. MMM - E, d. MMM",
                  "d": "E, d. MMM - E, d. MMM"
                },
                "MMMd": {
                  "M": "d. - d. MMM",
                  "d": "d. - d. MMM"
                },
                "Md": {
                  "M": "d. MMM - d. MMM",
                  "d": "d. MMM - d. MMM"
                },
                "d": {
                  "d": "d - d"
                },
                "h": {
                  "a": "h a - h a",
                  "h": "h - h a"
                },
                "hm": {
                  "a": "h:mm a - h:mm a",
                  "h": "h:mm - h:mm a",
                  "m": "h:mm - h:mm a"
                },
                "hmv": {
                  "a": "h:mm a - h:mm a v",
                  "h": "h:mm - h:mm a v",
                  "m": "h:mm - h:mm a v"
                },
                "hv": {
                  "a": "h a - h a v",
                  "h": "h - h a v"
                },
                "y": {
                  "y": "y - y"
                },
                "yM": {
                  "M": "y-MM - y-MM",
                  "y": "y-MM - y-MM"
                },
                "yMEd": {
                  "M": "E, d. MMM y - E, d. MMM y",
                  "d": "E, d. MMM y - E, d. MMM y",
                  "y": "E, d. MMM y - E, d. MMM y"
                },
                "yMMM": {
                  "M": "MMM - MMM y",
                  "y": "MMM y - MMM y"
                },
                "yMMMEd": {
                  "M": "E, d. MMM - E, d. MMM y",
                  "d": "E, d. - E, d. MMM y",
                  "y": "E, d. MMM y - E, d. MMM y"
                },
                "yMMMM": {
                  "M": "MMMM - MMMM y",
                  "y": "MMMM y - MMMM y"
                },
                "yMMMd": {
                  "M": "d. MMM - d. MMM y",
                  "d": "d. - d. MMM y",
                  "y": "d. MMM y - d. MMM y"
                },
                "yMd": {
                  "M": "y-MM-dd - y-MM-dd",
                  "d": "y-MM-dd - y-MM-dd",
                  "y": "y-MM-dd - y-MM-dd"
                }
              }
            }
          }
        }
      }
    }
  }
}
