{
  "main": {
    "ln-CD": {
      "identity": {
        "version": {
          "_cldrVersion": "26",
          "_number": "$Revision: 10669 $"
        },
        "generation": {
          "_date": "$Date: 2014-07-23 16:10:33 -0500 (Wed, 23 Jul 2014) $"
        },
        "language": "ln",
        "territory": "CD"
      },
      "dates": {
        "calendars": {
          "buddhist": {
            "months": {
              "format": {
                "abbreviated": {
                  "1": "yan",
                  "2": "fbl",
                  "3": "msi",
                  "4": "apl",
                  "5": "mai",
                  "6": "yun",
                  "7": "yul",
                  "8": "agt",
                  "9": "stb",
                  "10": "ɔtb",
                  "11": "nvb",
                  "12": "dsb"
                },
                "narrow": {
                  "1": "y",
                  "2": "f",
                  "3": "m",
                  "4": "a",
                  "5": "m",
                  "6": "y",
                  "7": "y",
                  "8": "a",
                  "9": "s",
                  "10": "ɔ",
                  "11": "n",
                  "12": "d"
                },
                "wide": {
                  "1": "sánzá ya yambo",
                  "2": "sánzá ya míbalé",
                  "3": "sánzá ya mísáto",
                  "4": "sánzá ya mínei",
                  "5": "sánzá ya mítáno",
                  "6": "sánzá ya motóbá",
                  "7": "sánzá ya nsambo",
                  "8": "sánzá ya mwambe",
                  "9": "sánzá ya libwa",
                  "10": "sánzá ya zómi",
                  "11": "sánzá ya zómi na mɔ̌kɔ́",
                  "12": "sánzá ya zómi na míbalé"
                }
              },
              "stand-alone": {
                "abbreviated": {
                  "1": "yan",
                  "2": "fbl",
                  "3": "msi",
                  "4": "apl",
                  "5": "mai",
                  "6": "yun",
                  "7": "yul",
                  "8": "agt",
                  "9": "stb",
                  "10": "ɔtb",
                  "11": "nvb",
                  "12": "dsb"
                },
                "narrow": {
                  "1": "y",
                  "2": "f",
                  "3": "m",
                  "4": "a",
                  "5": "m",
                  "6": "y",
                  "7": "y",
                  "8": "a",
                  "9": "s",
                  "10": "ɔ",
                  "11": "n",
                  "12": "d"
                },
                "wide": {
                  "1": "sánzá ya yambo",
                  "2": "sánzá ya míbalé",
                  "3": "sánzá ya mísáto",
                  "4": "sánzá ya mínei",
                  "5": "sánzá ya mítáno",
                  "6": "sánzá ya motóbá",
                  "7": "sánzá ya nsambo",
                  "8": "sánzá ya mwambe",
                  "9": "sánzá ya libwa",
                  "10": "sánzá ya zómi",
                  "11": "sánzá ya zómi na mɔ̌kɔ́",
                  "12": "sánzá ya zómi na míbalé"
                }
              }
            },
            "days": {
              "format": {
                "abbreviated": {
                  "sun": "eye",
                  "mon": "ybo",
                  "tue": "mbl",
                  "wed": "mst",
                  "thu": "min",
                  "fri": "mtn",
                  "sat": "mps"
                },
                "narrow": {
                  "sun": "e",
                  "mon": "y",
                  "tue": "m",
                  "wed": "m",
                  "thu": "m",
                  "fri": "m",
                  "sat": "p"
                },
                "short": {
                  "sun": "eye",
                  "mon": "ybo",
                  "tue": "mbl",
                  "wed": "mst",
                  "thu": "min",
                  "fri": "mtn",
                  "sat": "mps"
                },
                "wide": {
                  "sun": "eyenga",
                  "mon": "mokɔlɔ mwa yambo",
                  "tue": "mokɔlɔ mwa míbalé",
                  "wed": "mokɔlɔ mwa mísáto",
                  "thu": "mokɔlɔ ya mínéi",
                  "fri": "mokɔlɔ ya mítáno",
                  "sat": "mpɔ́sɔ"
                }
              },
              "stand-alone": {
                "abbreviated": {
                  "sun": "eye",
                  "mon": "ybo",
                  "tue": "mbl",
                  "wed": "mst",
                  "thu": "min",
                  "fri": "mtn",
                  "sat": "mps"
                },
                "narrow": {
                  "sun": "e",
                  "mon": "y",
                  "tue": "m",
                  "wed": "m",
                  "thu": "m",
                  "fri": "m",
                  "sat": "p"
                },
                "short": {
                  "sun": "eye",
                  "mon": "ybo",
                  "tue": "mbl",
                  "wed": "mst",
                  "thu": "min",
                  "fri": "mtn",
                  "sat": "mps"
                },
                "wide": {
                  "sun": "eyenga",
                  "mon": "mokɔlɔ mwa yambo",
                  "tue": "mokɔlɔ mwa míbalé",
                  "wed": "mokɔlɔ mwa mísáto",
                  "thu": "mokɔlɔ ya mínéi",
                  "fri": "mokɔlɔ ya mítáno",
                  "sat": "mpɔ́sɔ"
                }
              }
            },
            "quarters": {
              "format": {
                "abbreviated": {
                  "1": "SM1",
                  "2": "SM2",
                  "3": "SM3",
                  "4": "SM4"
                },
                "narrow": {
                  "1": "1",
                  "2": "2",
                  "3": "3",
                  "4": "4"
                },
                "wide": {
                  "1": "sánzá mísáto ya yambo",
                  "2": "sánzá mísáto ya míbalé",
                  "3": "sánzá mísáto ya mísáto",
                  "4": "sánzá mísáto ya mínei"
                }
              },
              "stand-alone": {
                "abbreviated": {
                  "1": "SM1",
                  "2": "SM2",
                  "3": "SM3",
                  "4": "SM4"
                },
                "narrow": {
                  "1": "1",
                  "2": "2",
                  "3": "3",
                  "4": "4"
                },
                "wide": {
                  "1": "sánzá mísáto ya yambo",
                  "2": "sánzá mísáto ya míbalé",
                  "3": "sánzá mísáto ya mísáto",
                  "4": "sánzá mísáto ya mínei"
                }
              }
            },
            "dayPeriods": {
              "format": {
                "abbreviated": {
                  "am": "ntɔ́ngɔ́",
                  "noon": "noon",
                  "pm": "mpókwa"
                },
                "narrow": {
                  "am": "a",
                  "noon": "n",
                  "pm": "p"
                },
                "wide": {
                  "am": "ntɔ́ngɔ́",
                  "noon": "noon",
                  "pm": "mpókwa"
                }
              },
              "stand-alone": {
                "abbreviated": {
                  "am": "ntɔ́ngɔ́",
                  "noon": "noon",
                  "pm": "mpókwa"
                },
                "narrow": {
                  "am": "a",
                  "noon": "n",
                  "pm": "p"
                },
                "wide": {
                  "am": "ntɔ́ngɔ́",
                  "noon": "noon",
                  "pm": "mpókwa"
                }
              }
            },
            "eras": {
              "eraNames": {
                "0": "BE"
              },
              "eraAbbr": {
                "0": "BE"
              },
              "eraNarrow": {
                "0": "BE"
              }
            },
            "dateFormats": {
              "full": "EEEE d MMMM y G",
              "long": "d MMMM y G",
              "medium": "d MMM y G",
              "short": "d/M/y GGGGG"
            },
            "timeFormats": {
              "full": "HH:mm:ss zzzz",
              "long": "HH:mm:ss z",
              "medium": "HH:mm:ss",
              "short": "HH:mm"
            },
            "dateTimeFormats": {
              "full": "{1} {0}",
              "long": "{1} {0}",
              "medium": "{1} {0}",
              "short": "{1} {0}",
              "availableFormats": {
                "E": "ccc",
                "EHm": "E HH:mm",
                "EHms": "E HH:mm:ss",
                "Ed": "E d",
                "Ehm": "E h:mm a",
                "Ehms": "E h:mm:ss a",
                "Gy": "G y",
                "GyMMM": "G y MMM",
                "GyMMMEd": "G y MMM d, E",
                "GyMMMd": "G y MMM d",
                "H": "HH",
                "Hm": "HH:mm",
                "Hms": "HH:mm:ss",
                "M": "L",
                "MEd": "E d/M",
                "MMM": "LLL",
                "MMMEd": "E d MMM",
                "MMMd": "d MMM",
                "Md": "d/M",
                "d": "d",
                "h": "h a",
                "hm": "h:mm a",
                "hms": "h:mm:ss a",
                "ms": "m:ss",
                "y": "y",
                "yM": "M/y",
                "yMEd": "E d/M/y",
                "yMMM": "MMM y",
                "yMMMEd": "E d MMM y",
                "yMMMd": "d MMM y",
                "yMd": "d/M/y",
                "yQQQ": "QQQ y",
                "yQQQQ": "QQQQ y",
                "yyyy": "G y",
                "yyyyM": "GGGGG y-MM",
                "yyyyMEd": "GGGGG y-MM-dd, E",
                "yyyyMMM": "G y MMM",
                "yyyyMMMEd": "G y MMM d, E",
                "yyyyMMMd": "G y MMM d",
                "yyyyMd": "GGGGG y-MM-dd",
                "yyyyQQQ": "G y QQQ",
                "yyyyQQQQ": "G y QQQQ"
              },
              "appendItems": {
                "Day": "{0} ({2}: {1})",
                "Day-Of-Week": "{0} {1}",
                "Era": "{1} {0}",
                "Hour": "{0} ({2}: {1})",
                "Minute": "{0} ({2}: {1})",
                "Month": "{0} ({2}: {1})",
                "Quarter": "{0} ({2}: {1})",
                "Second": "{0} ({2}: {1})",
                "Timezone": "{0} {1}",
                "Week": "{0} ({2}: {1})",
                "Year": "{1} {0}"
              },
              "intervalFormats": {
                "intervalFormatFallback": "{0} – {1}",
                "H": {
                  "H": "HH–HH"
                },
                "Hm": {
                  "H": "HH:mm–HH:mm",
                  "m": "HH:mm–HH:mm"
                },
                "Hmv": {
                  "H": "HH:mm–HH:mm v",
                  "m": "HH:mm–HH:mm v"
                },
                "Hv": {
                  "H": "HH–HH v"
                },
                "M": {
                  "M": "MM–MM"
                },
                "MEd": {
                  "M": "MM-dd, E – MM-dd, E",
                  "d": "MM-dd, E – MM-dd, E"
                },
                "MMM": {
                  "M": "LLL–LLL"
                },
                "MMMEd": {
                  "M": "MMM d, E – MMM d, E",
                  "d": "MMM d, E – MMM d, E"
                },
                "MMMd": {
                  "M": "MMM d – MMM d",
                  "d": "MMM d–d"
                },
                "Md": {
                  "M": "MM-dd – MM-dd",
                  "d": "MM-dd – MM-dd"
                },
                "d": {
                  "d": "d–d"
                },
                "h": {
                  "a": "h a – h a",
                  "h": "h–h a"
                },
                "hm": {
                  "a": "h:mm a – h:mm a",
                  "h": "h:mm–h:mm a",
                  "m": "h:mm–h:mm a"
                },
                "hmv": {
                  "a": "h:mm a – h:mm a v",
                  "h": "h:mm–h:mm a v",
                  "m": "h:mm–h:mm a v"
                },
                "hv": {
                  "a": "h a – h a v",
                  "h": "h–h a v"
                },
                "y": {
                  "y": "G y–y"
                },
                "yM": {
                  "M": "GGGGG y-MM – y-MM",
                  "y": "GGGGG y-MM – y-MM"
                },
                "yMEd": {
                  "M": "GGGGG y-MM-dd, E – y-MM-dd, E",
                  "d": "GGGGG y-MM-dd, E – y-MM-dd, E",
                  "y": "GGGGG y-MM-dd, E – y-MM-dd, E"
                },
                "yMMM": {
                  "M": "G y MMM–MMM",
                  "y": "G y MMM – y MMM"
                },
                "yMMMEd": {
                  "M": "G y MMM d, E – MMM d, E",
                  "d": "G y MMM d, E – MMM d, E",
                  "y": "G y MMM d, E – y MMM d, E"
                },
                "yMMMM": {
                  "M": "G y MMMM–MMMM",
                  "y": "G y MMMM – y MMMM"
                },
                "yMMMd": {
                  "M": "G y MMM d – MMM d",
                  "d": "G y MMM d–d",
                  "y": "G y MMM d – y MMM d"
                },
                "yMd": {
                  "M": "GGGGG y-MM-dd – y-MM-dd",
                  "d": "GGGGG y-MM-dd – y-MM-dd",
                  "y": "GGGGG y-MM-dd – y-MM-dd"
                }
              }
            }
          }
        }
      }
    }
  }
}
