{
  "main": {
    "kn": {
      "identity": {
        "version": {
          "_cldrVersion": "26",
          "_number": "$Revision: 10809 $"
        },
        "generation": {
          "_date": "$Date: 2014-08-14 15:10:07 -0500 (Thu, 14 Aug 2014) $"
        },
        "language": "kn"
      },
      "characters": {
        "exemplarCharacters": "[\u0CBC ೦ ೧ ೨ ೩ ೪ ೫ ೬ ೭ ೮ ೯ ಅ ಆ ಇ ಈ ಉ ಊ ಋ ೠ ಌ ೡ ಎ ಏ ಐ ಒ ಓ ಔ ಂ ಃ ಕ ಖ ಗ ಘ ಙ ಚ ಛ ಜ ಝ ಞ ಟ ಠ ಡ ಢ ಣ ತ ಥ ದ ಧ ನ ಪ ಫ ಬ ಭ ಮ ಯ ರ ಱ ಲ ವ ಶ ಷ ಸ ಹ ಳ ೞ ಽ ಾ \u0CBF ೀ ು ೂ ೃ ೄ \u0CC6 ೇ ೈ ೊ ೋ \u0CCC \u0CCD ೕ ೖ]",
        "auxiliary": "[\u200C\u200D]",
        "punctuation": "[\\- ‐ – — , ; \\: ! ? . … ' ‘ ’ \" “ ” ( ) \\[ \\] @ * / \\& # ′ ″]",
        "index": "[ಅ ಆ ಇ ಈ ಉ ಊ ಋ ೠ ಌ ೡ ಎ ಏ ಐ ಒ ಓ ಔ ಕ ಖ ಗ ಘ ಙ ಚ ಛ ಜ ಝ ಞ ಟ ಠ ಡ ಢ ಣ ತ ಥ ದ ಧ ನ ಪ ಫ ಬ ಭ ಮ ಯ ರ ಱ ಲ ವ ಶ ಷ ಸ ಹ ಳ ೞ]",
        "ellipsis": {
          "initial": "…{0}",
          "medial": "{0}…{1}",
          "final": "{0}…",
          "word-initial": "… {0}",
          "word-medial": "{0} … {1}",
          "word-final": "{0} …"
        },
        "moreInformation": "?"
      }
    }
  }
}
