{
  "main": {
    "sq-XK": {
      "identity": {
        "version": {
          "_cldrVersion": "26",
          "_number": "$Revision: 10669 $"
        },
        "generation": {
          "_date": "$Date: 2014-07-23 16:10:33 -0500 (Wed, 23 Jul 2014) $"
        },
        "language": "root",
        "territory": "XK"
      },
      "dates": {
        "calendars": {
          "islamic-rgsa": {
            "months": {
              "format": {
                "abbreviated": {
                  "1": "Muh.",
                  "2": "Saf.",
                  "3": "Rab. I",
                  "4": "Rab. II",
                  "5": "Jum. I",
                  "6": "Jum. II",
                  "7": "Raj.",
                  "8": "Sha.",
                  "9": "Ram.",
                  "10": "Shaw.",
                  "11": "Dhuʻl-Q.",
                  "12": "Dhuʻl-H."
                },
                "narrow": {
                  "1": "1",
                  "2": "2",
                  "3": "3",
                  "4": "4",
                  "5": "5",
                  "6": "6",
                  "7": "7",
                  "8": "8",
                  "9": "9",
                  "10": "10",
                  "11": "11",
                  "12": "12"
                },
                "wide": {
                  "1": "Muharram",
                  "2": "Safar",
                  "3": "Rabiʻ I",
                  "4": "Rabiʻ II",
                  "5": "Jumada I",
                  "6": "Jumada II",
                  "7": "Rajab",
                  "8": "Shaʻban",
                  "9": "Ramadan",
                  "10": "Shawwal",
                  "11": "Dhuʻl-Qiʻdah",
                  "12": "Dhuʻl-Hijjah"
                }
              },
              "stand-alone": {
                "abbreviated": {
                  "1": "Muh.",
                  "2": "Saf.",
                  "3": "Rab. I",
                  "4": "Rab. II",
                  "5": "Jum. I",
                  "6": "Jum. II",
                  "7": "Raj.",
                  "8": "Sha.",
                  "9": "Ram.",
                  "10": "Shaw.",
                  "11": "Dhuʻl-Q.",
                  "12": "Dhuʻl-H."
                },
                "narrow": {
                  "1": "1",
                  "2": "2",
                  "3": "3",
                  "4": "4",
                  "5": "5",
                  "6": "6",
                  "7": "7",
                  "8": "8",
                  "9": "9",
                  "10": "10",
                  "11": "11",
                  "12": "12"
                },
                "wide": {
                  "1": "Muharram",
                  "2": "Safar",
                  "3": "Rabiʻ I",
                  "4": "Rabiʻ II",
                  "5": "Jumada I",
                  "6": "Jumada II",
                  "7": "Rajab",
                  "8": "Shaʻban",
                  "9": "Ramadan",
                  "10": "Shawwal",
                  "11": "Dhuʻl-Qiʻdah",
                  "12": "Dhuʻl-Hijjah"
                }
              }
            },
            "days": {
              "format": {
                "abbreviated": {
                  "sun": "Die",
                  "mon": "Hën",
                  "tue": "Mar",
                  "wed": "Mër",
                  "thu": "Enj",
                  "fri": "Pre",
                  "sat": "Sht"
                },
                "narrow": {
                  "sun": "D",
                  "mon": "H",
                  "tue": "M",
                  "wed": "M",
                  "thu": "E",
                  "fri": "P",
                  "sat": "S"
                },
                "short": {
                  "sun": "Die",
                  "mon": "Hën",
                  "tue": "Mar",
                  "wed": "Mër",
                  "thu": "Enj",
                  "fri": "Pre",
                  "sat": "Sht"
                },
                "wide": {
                  "sun": "e diel",
                  "mon": "e hënë",
                  "tue": "e martë",
                  "wed": "e mërkurë",
                  "thu": "e enjte",
                  "fri": "e premte",
                  "sat": "e shtunë"
                }
              },
              "stand-alone": {
                "abbreviated": {
                  "sun": "Die",
                  "mon": "Hën",
                  "tue": "Mar",
                  "wed": "Mër",
                  "thu": "Enj",
                  "fri": "Pre",
                  "sat": "Sht"
                },
                "narrow": {
                  "sun": "D",
                  "mon": "H",
                  "tue": "M",
                  "wed": "M",
                  "thu": "E",
                  "fri": "P",
                  "sat": "S"
                },
                "short": {
                  "sun": "Die",
                  "mon": "Hën",
                  "tue": "Mar",
                  "wed": "Mër",
                  "thu": "Enj",
                  "fri": "Pre",
                  "sat": "Sht"
                },
                "wide": {
                  "sun": "E diel",
                  "mon": "E hënë",
                  "tue": "E martë",
                  "wed": "E mërkurë",
                  "thu": "E enjte",
                  "fri": "E premte",
                  "sat": "E shtunë"
                }
              }
            },
            "quarters": {
              "format": {
                "abbreviated": {
                  "1": "tremujori I",
                  "2": "tremujori II",
                  "3": "tremujori III",
                  "4": "tremujori IV"
                },
                "narrow": {
                  "1": "1",
                  "2": "2",
                  "3": "3",
                  "4": "4"
                },
                "wide": {
                  "1": "tremujori i parë",
                  "2": "tremujori i dytë",
                  "3": "tremujori i tretë",
                  "4": "tremujori i katërt"
                }
              },
              "stand-alone": {
                "abbreviated": {
                  "1": "Tremujori I",
                  "2": "Tremujori II",
                  "3": "Tremujori III",
                  "4": "Tremujori IV"
                },
                "narrow": {
                  "1": "1",
                  "2": "2",
                  "3": "3",
                  "4": "4"
                },
                "wide": {
                  "1": "Tremujori i 1-rë",
                  "2": "Tremujori i 2-të",
                  "3": "Tremujori i 3-të",
                  "4": "Tremujori i 4-t"
                }
              }
            },
            "dayPeriods": {
              "format": {
                "abbreviated": {
                  "am": "paradite",
                  "noon": "mesditë",
                  "pm": "pasdite"
                },
                "narrow": {
                  "am": "AM",
                  "noon": "MD",
                  "pm": "PM"
                },
                "wide": {
                  "am": "paradite",
                  "noon": "mesditë",
                  "pm": "pasdite"
                }
              },
              "stand-alone": {
                "abbreviated": {
                  "am": "paradite",
                  "noon": "mesditë",
                  "pm": "pasdite"
                },
                "narrow": {
                  "am": "AM",
                  "noon": "MD",
                  "pm": "PM"
                },
                "wide": {
                  "am": "paradite",
                  "noon": "mesditë",
                  "pm": "pasdite"
                }
              }
            },
            "eras": {
              "eraNames": {
                "0": "AH"
              },
              "eraAbbr": {
                "0": "AH"
              },
              "eraNarrow": {
                "0": "AH"
              }
            },
            "dateFormats": {
              "full": "EEEE, d MMM y G",
              "long": "d MMM y G",
              "medium": "d MMM y G",
              "short": "d.M.y GGGGG"
            },
            "timeFormats": {
              "full": "HH:mm:ss zzzz",
              "long": "HH:mm:ss z",
              "medium": "HH:mm:ss",
              "short": "HH:mm"
            },
            "dateTimeFormats": {
              "full": "{1} 'në' {0}",
              "long": "{1} 'në' {0}",
              "medium": "{1}, {0}",
              "short": "{1}, {0}",
              "availableFormats": {
                "E": "ccc",
                "EHm": "E HH:mm",
                "EHms": "E HH:mm:ss",
                "Ed": "E, d",
                "Ehm": "E h:mm a",
                "Ehms": "E h:mm:ss a",
                "Gy": "y G",
                "GyMMM": "MMM y G",
                "GyMMMEd": "E, d MMM y G",
                "GyMMMd": "d MMM y G",
                "H": "H",
                "Hm": "H.mm",
                "Hms": "H.mm.ss",
                "M": "L",
                "MEd": "E, d.M",
                "MMM": "LLL",
                "MMMEd": "E, d MMM",
                "MMMMEd": "E, d MMM",
                "MMMMd": "d MMM",
                "MMMd": "d MMM",
                "MMdd": "MM-dd",
                "Md": "d.M",
                "d": "d",
                "h": "h.a",
                "hm": "h.mm.a",
                "hms": "h.mm.ss.a",
                "ms": "mm.ss",
                "y": "y G",
                "yyyy": "y G",
                "yyyyM": "M.y GGGGG",
                "yyyyMEd": "E, d.M.y GGGGG",
                "yyyyMMM": "MMM y G",
                "yyyyMMMEd": "E, d MMM y G",
                "yyyyMMMM": "MMMM y G",
                "yyyyMMMd": "d MMM y G",
                "yyyyMd": "d.M.y GGGGG",
                "yyyyQQQ": "QQQ, y G",
                "yyyyQQQQ": "QQQQ, y G"
              },
              "appendItems": {
                "Day": "{0} ({2}: {1})",
                "Day-Of-Week": "{0} {1}",
                "Era": "{1} {0}",
                "Hour": "{0} ({2}: {1})",
                "Minute": "{0} ({2}: {1})",
                "Month": "{0} ({2}: {1})",
                "Quarter": "{0} ({2}: {1})",
                "Second": "{0} ({2}: {1})",
                "Timezone": "{0} {1}",
                "Week": "{0} ({2}: {1})",
                "Year": "{1} {0}"
              },
              "intervalFormats": {
                "intervalFormatFallback": "{0} - {1}",
                "H": {
                  "H": "HH–HH"
                },
                "Hm": {
                  "H": "HH:mm–HH:mm",
                  "m": "HH:mm–HH:mm"
                },
                "Hmv": {
                  "H": "HH:mm–HH:mm v",
                  "m": "HH:mm–HH:mm v"
                },
                "Hv": {
                  "H": "HH–HH v"
                },
                "M": {
                  "M": "M - M"
                },
                "MEd": {
                  "M": "E, d.M - E, d.M",
                  "d": "E, d.M - E, d.M"
                },
                "MMM": {
                  "M": "MMM - MMM"
                },
                "MMMEd": {
                  "M": "E, d MMM - E, d MMM",
                  "d": "E, d MMM - E, d MMM"
                },
                "MMMd": {
                  "M": "d MMM - d MMM",
                  "d": "d - d MMM"
                },
                "Md": {
                  "M": "d.M - d.M",
                  "d": "d.M - d.M"
                },
                "d": {
                  "d": "d - d"
                },
                "h": {
                  "a": "h.a - h.a",
                  "h": "h.-h.a"
                },
                "hm": {
                  "a": "h.mm.a - h.mm.a",
                  "h": "h.mm.-h.mm.a",
                  "m": "h.mm.-h.mm.a"
                },
                "hmv": {
                  "a": "h.mm.a - h.mm.a v",
                  "h": "h.mm.-h.mm.a v",
                  "m": "h.mm.-h.mm.a v"
                },
                "hv": {
                  "a": "h.a - h.a v",
                  "h": "h.-h.a v"
                },
                "y": {
                  "y": "y - y G"
                },
                "yM": {
                  "M": "M.y - M.y GGGGG",
                  "y": "M.y - M.y GGGGG"
                },
                "yMEd": {
                  "M": "E, d.M.y - E, d.M.y GGGGG",
                  "d": "E, d.M.y - E, d.M.y GGGGG",
                  "y": "E, d.M.y - E, d.M.y GGGGG"
                },
                "yMMM": {
                  "M": "MMM - MMM y G",
                  "y": "MMM y - MMM y G"
                },
                "yMMMEd": {
                  "M": "E, d MMM - E, d MMM y G",
                  "d": "E, d MMM - E, d MMM y G",
                  "y": "E, d MMM y - E, d MMM y G"
                },
                "yMMMM": {
                  "M": "MMMM - MMMM y G",
                  "y": "MMMM y - MMMM y G"
                },
                "yMMMd": {
                  "M": "d MMM - d MMM y G",
                  "d": "d - d MMM y G",
                  "y": "d MMM y - d MMM y G"
                },
                "yMd": {
                  "M": "d.M.y - d.M.y GGGGG",
                  "d": "d.M.y - d.M.y GGGGG",
                  "y": "d.M.y - d.M.y GGGGG"
                }
              }
            }
          }
        }
      }
    }
  }
}
