{
  "main": {
    "tzm": {
      "identity": {
        "version": {
          "_cldrVersion": "26",
          "_number": "$Revision: 10669 $"
        },
        "generation": {
          "_date": "$Date: 2014-07-23 16:10:33 -0500 (Wed, 23 Jul 2014) $"
        },
        "language": "root"
      },
      "dates": {
        "calendars": {
          "buddhist": {
            "months": {
              "format": {
                "abbreviated": {
                  "1": "Yen",
                  "2": "Yeb",
                  "3": "Mar",
                  "4": "Ibr",
                  "5": "May",
                  "6": "Yun",
                  "7": "Yul",
                  "8": "Ɣuc",
                  "9": "Cut",
                  "10": "Kṭu",
                  "11": "Nwa",
                  "12": "Duj"
                },
                "narrow": {
                  "1": "Y",
                  "2": "Y",
                  "3": "M",
                  "4": "I",
                  "5": "M",
                  "6": "Y",
                  "7": "Y",
                  "8": "Ɣ",
                  "9": "C",
                  "10": "K",
                  "11": "N",
                  "12": "D"
                },
                "wide": {
                  "1": "Yennayer",
                  "2": "Yebrayer",
                  "3": "Mars",
                  "4": "Ibrir",
                  "5": "Mayyu",
                  "6": "Yunyu",
                  "7": "Yulyuz",
                  "8": "Ɣuct",
                  "9": "Cutanbir",
                  "10": "Kṭuber",
                  "11": "Nwanbir",
                  "12": "Dujanbir"
                }
              },
              "stand-alone": {
                "abbreviated": {
                  "1": "Yen",
                  "2": "Yeb",
                  "3": "Mar",
                  "4": "Ibr",
                  "5": "May",
                  "6": "Yun",
                  "7": "Yul",
                  "8": "Ɣuc",
                  "9": "Cut",
                  "10": "Kṭu",
                  "11": "Nwa",
                  "12": "Duj"
                },
                "narrow": {
                  "1": "Y",
                  "2": "Y",
                  "3": "M",
                  "4": "I",
                  "5": "M",
                  "6": "Y",
                  "7": "Y",
                  "8": "Ɣ",
                  "9": "C",
                  "10": "K",
                  "11": "N",
                  "12": "D"
                },
                "wide": {
                  "1": "Yennayer",
                  "2": "Yebrayer",
                  "3": "Mars",
                  "4": "Ibrir",
                  "5": "Mayyu",
                  "6": "Yunyu",
                  "7": "Yulyuz",
                  "8": "Ɣuct",
                  "9": "Cutanbir",
                  "10": "Kṭuber",
                  "11": "Nwanbir",
                  "12": "Dujanbir"
                }
              }
            },
            "days": {
              "format": {
                "abbreviated": {
                  "sun": "Asa",
                  "mon": "Ayn",
                  "tue": "Asn",
                  "wed": "Akr",
                  "thu": "Akw",
                  "fri": "Asm",
                  "sat": "Asḍ"
                },
                "narrow": {
                  "sun": "A",
                  "mon": "A",
                  "tue": "A",
                  "wed": "A",
                  "thu": "A",
                  "fri": "A",
                  "sat": "A"
                },
                "short": {
                  "sun": "Asa",
                  "mon": "Ayn",
                  "tue": "Asn",
                  "wed": "Akr",
                  "thu": "Akw",
                  "fri": "Asm",
                  "sat": "Asḍ"
                },
                "wide": {
                  "sun": "Asamas",
                  "mon": "Aynas",
                  "tue": "Asinas",
                  "wed": "Akras",
                  "thu": "Akwas",
                  "fri": "Asimwas",
                  "sat": "Asiḍyas"
                }
              },
              "stand-alone": {
                "abbreviated": {
                  "sun": "Asa",
                  "mon": "Ayn",
                  "tue": "Asn",
                  "wed": "Akr",
                  "thu": "Akw",
                  "fri": "Asm",
                  "sat": "Asḍ"
                },
                "narrow": {
                  "sun": "A",
                  "mon": "A",
                  "tue": "A",
                  "wed": "A",
                  "thu": "A",
                  "fri": "A",
                  "sat": "A"
                },
                "short": {
                  "sun": "Asa",
                  "mon": "Ayn",
                  "tue": "Asn",
                  "wed": "Akr",
                  "thu": "Akw",
                  "fri": "Asm",
                  "sat": "Asḍ"
                },
                "wide": {
                  "sun": "Asamas",
                  "mon": "Aynas",
                  "tue": "Asinas",
                  "wed": "Akras",
                  "thu": "Akwas",
                  "fri": "Asimwas",
                  "sat": "Asiḍyas"
                }
              }
            },
            "quarters": {
              "format": {
                "abbreviated": {
                  "1": "IA1",
                  "2": "IA2",
                  "3": "IA3",
                  "4": "IA4"
                },
                "narrow": {
                  "1": "1",
                  "2": "2",
                  "3": "3",
                  "4": "4"
                },
                "wide": {
                  "1": "Imir adamsan 1",
                  "2": "Imir adamsan 2",
                  "3": "Imir adamsan 3",
                  "4": "Imir adamsan 4"
                }
              },
              "stand-alone": {
                "abbreviated": {
                  "1": "IA1",
                  "2": "IA2",
                  "3": "IA3",
                  "4": "IA4"
                },
                "narrow": {
                  "1": "1",
                  "2": "2",
                  "3": "3",
                  "4": "4"
                },
                "wide": {
                  "1": "Imir adamsan 1",
                  "2": "Imir adamsan 2",
                  "3": "Imir adamsan 3",
                  "4": "Imir adamsan 4"
                }
              }
            },
            "dayPeriods": {
              "format": {
                "abbreviated": {
                  "am": "Zdat azal",
                  "noon": "noon",
                  "pm": "Ḍeffir aza"
                },
                "narrow": {
                  "am": "a",
                  "noon": "n",
                  "pm": "p"
                },
                "wide": {
                  "am": "Zdat azal",
                  "noon": "noon",
                  "pm": "Ḍeffir aza"
                }
              },
              "stand-alone": {
                "abbreviated": {
                  "am": "Zdat azal",
                  "noon": "noon",
                  "pm": "Ḍeffir aza"
                },
                "narrow": {
                  "am": "a",
                  "noon": "n",
                  "pm": "p"
                },
                "wide": {
                  "am": "Zdat azal",
                  "noon": "noon",
                  "pm": "Ḍeffir aza"
                }
              }
            },
            "eras": {
              "eraNames": {
                "0": "BE"
              },
              "eraAbbr": {
                "0": "BE"
              },
              "eraNarrow": {
                "0": "BE"
              }
            },
            "dateFormats": {
              "full": "EEEE, d MMMM y G",
              "long": "d MMMM y G",
              "medium": "d MMM y G",
              "short": "dd/MM/y GGGGG"
            },
            "timeFormats": {
              "full": "h:mm:ss a zzzz",
              "long": "h:mm:ss a z",
              "medium": "h:mm:ss a",
              "short": "h:mm a"
            },
            "dateTimeFormats": {
              "full": "{1} {0}",
              "long": "{1} {0}",
              "medium": "{1} {0}",
              "short": "{1} {0}",
              "availableFormats": {
                "E": "ccc",
                "EHm": "E HH:mm",
                "EHms": "E HH:mm:ss",
                "Ed": "d, E",
                "Ehm": "E h:mm a",
                "Ehms": "E h:mm:ss a",
                "Gy": "G y",
                "GyMMM": "G y MMM",
                "GyMMMEd": "G y MMM d, E",
                "GyMMMd": "G y MMM d",
                "H": "HH",
                "Hm": "HH:mm",
                "Hms": "HH:mm:ss",
                "M": "L",
                "MEd": "E, M/d",
                "MMM": "LLL",
                "MMMEd": "E, MMM d",
                "MMMMEd": "E, MMMM d",
                "MMMMd": "MMMM d",
                "MMMd": "MMM d",
                "Md": "M/d",
                "d": "d",
                "h": "h a",
                "hm": "h:mm a",
                "hms": "h:mm:ss a",
                "ms": "mm:ss",
                "y": "y",
                "yM": "M/y",
                "yMEd": "E, M/d/y",
                "yMMM": "MMM y",
                "yMMMEd": "E, MMM d, y",
                "yMMMM": "MMMM y",
                "yQQQ": "QQQ y",
                "yQQQQ": "QQQQ y",
                "yyyy": "G y",
                "yyyyM": "GGGGG y-MM",
                "yyyyMEd": "GGGGG y-MM-dd, E",
                "yyyyMMM": "G y MMM",
                "yyyyMMMEd": "G y MMM d, E",
                "yyyyMMMd": "G y MMM d",
                "yyyyMd": "GGGGG y-MM-dd",
                "yyyyQQQ": "G y QQQ",
                "yyyyQQQQ": "G y QQQQ"
              },
              "appendItems": {
                "Day": "{0} ({2}: {1})",
                "Day-Of-Week": "{0} {1}",
                "Era": "{1} {0}",
                "Hour": "{0} ({2}: {1})",
                "Minute": "{0} ({2}: {1})",
                "Month": "{0} ({2}: {1})",
                "Quarter": "{0} ({2}: {1})",
                "Second": "{0} ({2}: {1})",
                "Timezone": "{0} {1}",
                "Week": "{0} ({2}: {1})",
                "Year": "{1} {0}"
              },
              "intervalFormats": {
                "intervalFormatFallback": "{0} – {1}",
                "H": {
                  "H": "HH–HH"
                },
                "Hm": {
                  "H": "HH:mm–HH:mm",
                  "m": "HH:mm–HH:mm"
                },
                "Hmv": {
                  "H": "HH:mm–HH:mm v",
                  "m": "HH:mm–HH:mm v"
                },
                "Hv": {
                  "H": "HH–HH v"
                },
                "M": {
                  "M": "MM–MM"
                },
                "MEd": {
                  "M": "MM-dd, E – MM-dd, E",
                  "d": "MM-dd, E – MM-dd, E"
                },
                "MMM": {
                  "M": "LLL–LLL"
                },
                "MMMEd": {
                  "M": "MMM d, E – MMM d, E",
                  "d": "MMM d, E – MMM d, E"
                },
                "MMMd": {
                  "M": "MMM d – MMM d",
                  "d": "MMM d–d"
                },
                "Md": {
                  "M": "MM-dd – MM-dd",
                  "d": "MM-dd – MM-dd"
                },
                "d": {
                  "d": "d–d"
                },
                "h": {
                  "a": "h a – h a",
                  "h": "h–h a"
                },
                "hm": {
                  "a": "h:mm a – h:mm a",
                  "h": "h:mm–h:mm a",
                  "m": "h:mm–h:mm a"
                },
                "hmv": {
                  "a": "h:mm a – h:mm a v",
                  "h": "h:mm–h:mm a v",
                  "m": "h:mm–h:mm a v"
                },
                "hv": {
                  "a": "h a – h a v",
                  "h": "h–h a v"
                },
                "y": {
                  "y": "G y–y"
                },
                "yM": {
                  "M": "GGGGG y-MM – y-MM",
                  "y": "GGGGG y-MM – y-MM"
                },
                "yMEd": {
                  "M": "GGGGG y-MM-dd, E – y-MM-dd, E",
                  "d": "GGGGG y-MM-dd, E – y-MM-dd, E",
                  "y": "GGGGG y-MM-dd, E – y-MM-dd, E"
                },
                "yMMM": {
                  "M": "G y MMM–MMM",
                  "y": "G y MMM – y MMM"
                },
                "yMMMEd": {
                  "M": "G y MMM d, E – MMM d, E",
                  "d": "G y MMM d, E – MMM d, E",
                  "y": "G y MMM d, E – y MMM d, E"
                },
                "yMMMM": {
                  "M": "G y MMMM–MMMM",
                  "y": "G y MMMM – y MMMM"
                },
                "yMMMd": {
                  "M": "G y MMM d – MMM d",
                  "d": "G y MMM d–d",
                  "y": "G y MMM d – y MMM d"
                },
                "yMd": {
                  "M": "GGGGG y-MM-dd – y-MM-dd",
                  "d": "GGGGG y-MM-dd – y-MM-dd",
                  "y": "GGGGG y-MM-dd – y-MM-dd"
                }
              }
            }
          }
        }
      }
    }
  }
}
