{
  "main": {
    "lo": {
      "identity": {
        "version": {
          "_cldrVersion": "26",
          "_number": "$Revision: 10809 $"
        },
        "generation": {
          "_date": "$Date: 2014-08-14 15:10:07 -0500 (Thu, 14 Aug 2014) $"
        },
        "language": "lo"
      },
      "dates": {
        "calendars": {
          "ethiopic": {
            "months": {
              "format": {
                "abbreviated": {
                  "1": "ແມສເຄີແຣມ",
                  "2": "ເຕເກມ",
                  "3": "ເຮດາ",
                  "4": "ທາຊັສ",
                  "5": "ເທີ",
                  "6": "ເຍຄາທິດ",
                  "7": "ເມກາບິດ",
                  "8": "ເມຍເຊຍ",
                  "9": "ເຈນບອດ",
                  "10": "ເຊເນ",
                  "11": "ຮຳເລ",
                  "12": "ເນແຮສ໌",
                  "13": "ພາກູເມນ"
                },
                "narrow": {
                  "1": "1",
                  "2": "2",
                  "3": "3",
                  "4": "4",
                  "5": "5",
                  "6": "6",
                  "7": "7",
                  "8": "8",
                  "9": "9",
                  "10": "10",
                  "11": "11",
                  "12": "12",
                  "13": "13"
                },
                "wide": {
                  "1": "ແມສເຄີແຣມ",
                  "2": "ເຕເກມ",
                  "3": "ເຮດາ",
                  "4": "ທາຊັສ",
                  "5": "ເທີ",
                  "6": "ເຍຄາທິດ",
                  "7": "ເມກາບິດ",
                  "8": "ເມຍເຊຍ",
                  "9": "ເຈນບອດ",
                  "10": "ເຊເນ",
                  "11": "ຮຳເລ",
                  "12": "ເນແຮສ໌",
                  "13": "ພາກູເມນ"
                }
              },
              "stand-alone": {
                "abbreviated": {
                  "1": "ແມສເຄີແຣມ",
                  "2": "ເຕເກມ",
                  "3": "ເຮດາ",
                  "4": "ທາຊັສ",
                  "5": "ເທີ",
                  "6": "ເຍຄາທິດ",
                  "7": "ເມກາບິດ",
                  "8": "ເມຍເຊຍ",
                  "9": "ເຈນບອດ",
                  "10": "ເຊເນ",
                  "11": "ຮຳເລ",
                  "12": "ເນແຮສ໌",
                  "13": "ພາກູເມນ"
                },
                "narrow": {
                  "1": "1",
                  "2": "2",
                  "3": "3",
                  "4": "4",
                  "5": "5",
                  "6": "6",
                  "7": "7",
                  "8": "8",
                  "9": "9",
                  "10": "10",
                  "11": "11",
                  "12": "12",
                  "13": "13"
                },
                "wide": {
                  "1": "ແມສເຄີແຣມ",
                  "2": "ເຕເກມ",
                  "3": "ເຮດາ",
                  "4": "ທາຊັສ",
                  "5": "ເທີ",
                  "6": "ເຍຄາທິດ",
                  "7": "ເມກາບິດ",
                  "8": "ເມຍເຊຍ",
                  "9": "ເຈນບອດ",
                  "10": "ເຊເນ",
                  "11": "ຮຳເລ",
                  "12": "ເນແຮສ໌",
                  "13": "ພາກູເມນ"
                }
              }
            },
            "days": {
              "format": {
                "abbreviated": {
                  "sun": "ວັນອາທິດ",
                  "mon": "ວັນຈັນ",
                  "tue": "ວັນອັງຄານ",
                  "wed": "ວັນພຸດ",
                  "thu": "ວັນພະຫັດ",
                  "fri": "ວັນສຸກ",
                  "sat": "ວັນເສົາ"
                },
                "narrow": {
                  "sun": "1",
                  "mon": "2",
                  "tue": "3",
                  "wed": "4",
                  "thu": "5",
                  "fri": "6",
                  "sat": "7"
                },
                "short": {
                  "sun": "ອາ.",
                  "mon": "ຈ.",
                  "tue": "ອ.",
                  "wed": "ພ.",
                  "thu": "ພຫ.",
                  "fri": "ສຸ.",
                  "sat": "ສ."
                },
                "wide": {
                  "sun": "ວັນອາທິດ",
                  "mon": "ວັນຈັນ",
                  "tue": "ວັນອັງຄານ",
                  "wed": "ວັນພຸດ",
                  "thu": "ວັນພະຫັດ",
                  "fri": "ວັນສຸກ",
                  "sat": "ວັນເສົາ"
                }
              },
              "stand-alone": {
                "abbreviated": {
                  "sun": "ອາທິດ",
                  "mon": "ຈັນ",
                  "tue": "ອັງຄານ",
                  "wed": "ພຸດ",
                  "thu": "ພະຫັດ",
                  "fri": "ສຸກ",
                  "sat": "ເສົາ"
                },
                "narrow": {
                  "sun": "ອ",
                  "mon": "ຈ",
                  "tue": "ອ",
                  "wed": "ພ",
                  "thu": "ພຫ",
                  "fri": "ສຸ",
                  "sat": "ສ"
                },
                "short": {
                  "sun": "ອາ.",
                  "mon": "ຈ.",
                  "tue": "ອ.",
                  "wed": "ພ.",
                  "thu": "ພຫ.",
                  "fri": "ສຸ.",
                  "sat": "ສ."
                },
                "wide": {
                  "sun": "ວັນອາທິດ",
                  "mon": "ວັນຈັນ",
                  "tue": "ວັນອັງຄານ",
                  "wed": "ວັນພຸດ",
                  "thu": "ວັນພະຫັດ",
                  "fri": "ວັນສຸກ",
                  "sat": "ວັນເສົາ"
                }
              }
            },
            "quarters": {
              "format": {
                "abbreviated": {
                  "1": "ຕມ1",
                  "2": "ຕມ2",
                  "3": "ຕມ3",
                  "4": "ຕມ4"
                },
                "narrow": {
                  "1": "1",
                  "2": "2",
                  "3": "3",
                  "4": "4"
                },
                "wide": {
                  "1": "ໄຕຣມາດ 1",
                  "2": "ໄຕຣມາດ 2",
                  "3": "ໄຕຣມາດ 3",
                  "4": "ໄຕຣມາດ 4"
                }
              },
              "stand-alone": {
                "abbreviated": {
                  "1": "ຕ1",
                  "2": "ຕ2",
                  "3": "ຕ3",
                  "4": "ຕ4"
                },
                "narrow": {
                  "1": "1",
                  "2": "2",
                  "3": "3",
                  "4": "4"
                },
                "wide": {
                  "1": "ໄຕຣມາດ 1",
                  "2": "ໄຕຣມາດ 2",
                  "3": "ໄຕຣມາດ 3",
                  "4": "ໄຕຣມາດ 4"
                }
              }
            },
            "dayPeriods": {
              "format": {
                "abbreviated": {
                  "am": "ກ່ອນທ່ຽງ",
                  "noon": "ທ່ຽງ",
                  "pm": "ຫຼັງທ່ຽງ"
                },
                "narrow": {
                  "am": "ກທ",
                  "noon": "ທ",
                  "pm": "ຫຼທ"
                },
                "wide": {
                  "am": "ກ່ອນທ່ຽງ",
                  "noon": "ທ່ຽງ",
                  "pm": "ຫຼັງທ່ຽງ"
                }
              },
              "stand-alone": {
                "abbreviated": {
                  "am": "ກ່ອນທ່ຽງ",
                  "noon": "ທ່ຽງ",
                  "pm": "ຫຼັງທ່ຽງ"
                },
                "narrow": {
                  "am": "ກທ",
                  "noon": "ທ",
                  "pm": "ຫຼທ"
                },
                "wide": {
                  "am": "ກ່ອນທ່ຽງ",
                  "noon": "ທ່ຽງ",
                  "pm": "ຫຼັງທ່ຽງ"
                }
              }
            },
            "eras": {
              "eraNames": {
                "0": "ERA0",
                "1": "ERA1"
              },
              "eraAbbr": {
                "0": "ERA0",
                "1": "ERA1"
              },
              "eraNarrow": {
                "0": "ERA0",
                "1": "ERA1"
              }
            },
            "dateFormats": {
              "full": "EEEEທີ d MMMM y G",
              "long": "d MMMM y G",
              "medium": "d MMM y G",
              "short": "d/M/y GGGGG"
            },
            "timeFormats": {
              "full": "H ໂມງ m ນາທີ ss ວິນາທີ zzzz",
              "long": "H ໂມງ m ນາທີ ss ວິນາທີ z",
              "medium": "H:mm:ss",
              "short": "H:mm"
            },
            "dateTimeFormats": {
              "full": "{1}, {0}",
              "long": "{1}, {0}",
              "medium": "{1}, {0}",
              "short": "{1}, {0}",
              "availableFormats": {
                "E": "ccc",
                "EHm": "E HH:mm",
                "EHms": "E HH:mm:ss",
                "Ed": "E d",
                "Ehm": "E h:mm a",
                "Ehms": "E h:mm:ss a",
                "Gy": "G y",
                "GyMMM": "G MMM y",
                "GyMMMEd": "G E, d MMM y",
                "GyMMMd": "G d MMM y",
                "H": "HH",
                "Hm": "HH:mm",
                "Hms": "HH:mm:ss",
                "M": "L",
                "MEd": "E, d/M",
                "MMM": "LLL",
                "MMMEd": "E d MMM",
                "MMMd": "d MMM",
                "Md": "d/M",
                "d": "d",
                "h": "h ໂມງa",
                "hm": "h:mm a",
                "hms": "h:mm:ss a",
                "ms": "mm:ss",
                "y": "G y",
                "yyyy": "G y",
                "yyyyM": "G M/y",
                "yyyyMEd": "E, G d/M/y",
                "yyyyMMM": "G MMM y",
                "yyyyMMMEd": "E, G d MMM y",
                "yyyyMMMd": "G d MMM y",
                "yyyyMd": "G d/M/y",
                "yyyyQQQ": "G QQQ y",
                "yyyyQQQQ": "G y QQQQ"
              },
              "appendItems": {
                "Day": "{0} ({2}: {1})",
                "Day-Of-Week": "{0} {1}",
                "Era": "{1} {0}",
                "Hour": "{0} ({2}: {1})",
                "Minute": "{0} ({2}: {1})",
                "Month": "{0} ({2}: {1})",
                "Quarter": "{0} ({2}: {1})",
                "Second": "{0} ({2}: {1})",
                "Timezone": "{0} {1}",
                "Week": "{0} ({2}: {1})",
                "Year": "{1} {0}"
              },
              "intervalFormats": {
                "intervalFormatFallback": "{0} – {1}",
                "H": {
                  "H": "HH–HH"
                },
                "Hm": {
                  "H": "HH:mm–HH:mm",
                  "m": "HH:mm–HH:mm"
                },
                "Hmv": {
                  "H": "HH:mm–HH:mm v",
                  "m": "HH:mm–HH:mm v"
                },
                "Hv": {
                  "H": "HH–HH v"
                },
                "M": {
                  "M": "M–M"
                },
                "MEd": {
                  "M": "E, MM-dd – E, MM-dd",
                  "d": "E, MM-dd – E, MM-dd"
                },
                "MMM": {
                  "M": "LLL–LLL"
                },
                "MMMEd": {
                  "M": "E, MM-d – E, MM-d",
                  "d": "E, MM-d – E, MM-d"
                },
                "MMMd": {
                  "M": "MM-d – MM-d",
                  "d": "MM-d – d"
                },
                "Md": {
                  "M": "MM-dd – MM-dd",
                  "d": "MM-dd – dd"
                },
                "d": {
                  "d": "d–d"
                },
                "h": {
                  "a": "h a – h a",
                  "h": "h–h a"
                },
                "hm": {
                  "a": "h:mm a – h:mm a",
                  "h": "h:mm–h:mm a",
                  "m": "h:mm–h:mm a"
                },
                "hmv": {
                  "a": "h:mm a – h:mm a v",
                  "h": "h:mm–h:mm a v",
                  "m": "h:mm–h:mm a v"
                },
                "hv": {
                  "a": "h a – h a v",
                  "h": "h–h a v"
                },
                "y": {
                  "y": "G y–y"
                },
                "yM": {
                  "M": "G y-MM – MM",
                  "y": "G y-MM – y-MM"
                },
                "yMEd": {
                  "M": "E, G y-MM-dd – E, y-MM-dd",
                  "d": "E, G y-MM-dd – E, y-MM-dd",
                  "y": "E, G y-MM-dd – E, y-MM-dd"
                },
                "yMMM": {
                  "M": "G y-MM – MM",
                  "y": "G y-MM – y-MM"
                },
                "yMMMEd": {
                  "M": "E, G y-MM-dd – E, y-MM-dd",
                  "d": "E, G y-MM-dd – E, y-MM-dd",
                  "y": "E, G y-MM-dd – E, y-MM-dd"
                },
                "yMMMM": {
                  "M": "G y-MM – MM",
                  "y": "G y-MM – y-MM"
                },
                "yMMMd": {
                  "M": "G y-MM-dd – MM-d",
                  "d": "G y-MM-d – d",
                  "y": "G y-MM-dd – y-MM-dd"
                },
                "yMd": {
                  "M": "G y-MM-dd – MM-dd",
                  "d": "G y-MM-dd – dd",
                  "y": "G y-MM-dd – y-MM-dd"
                }
              }
            }
          }
        }
      }
    }
  }
}
