{
  "main": {
    "sv-FI": {
      "identity": {
        "version": {
          "_cldrVersion": "26",
          "_number": "$Revision: 10819 $"
        },
        "generation": {
          "_date": "$Date: 2014-08-14 22:53:08 -0500 (Thu, 14 Aug 2014) $"
        },
        "language": "root",
        "territory": "FI"
      },
      "localeDisplayNames": {
        "transformNames": {
          "BGN": "BGN",
          "Numeric": "Numerisk",
          "Tone": "Ton",
          "UNGEGN": "UNGEGN",
          "x-Accents": "Accenter",
          "x-Fullwidth": "Helbreda",
          "x-Halfwidth": "Halvbreda",
          "x-Jamo": "Jamo",
          "x-Pinyin": "Pinyin",
          "x-Publishing": "För publicering"
        }
      }
    }
  }
}
