{
  "main": {
    "mas-KE": {
      "identity": {
        "version": {
          "_cldrVersion": "26",
          "_number": "$Revision: 10669 $"
        },
        "generation": {
          "_date": "$Date: 2014-07-23 16:10:33 -0500 (Wed, 23 Jul 2014) $"
        },
        "language": "mas",
        "territory": "KE"
      },
      "dates": {
        "calendars": {
          "gregorian": {
            "months": {
              "format": {
                "abbreviated": {
                  "1": "Dal",
                  "2": "Ará",
                  "3": "Ɔɛn",
                  "4": "Doy",
                  "5": "Lép",
                  "6": "Rok",
                  "7": "Sás",
                  "8": "Bɔ́r",
                  "9": "Kús",
                  "10": "Gís",
                  "11": "Shʉ́",
                  "12": "Ntʉ́"
                },
                "narrow": {
                  "1": "1",
                  "2": "2",
                  "3": "3",
                  "4": "4",
                  "5": "5",
                  "6": "6",
                  "7": "7",
                  "8": "8",
                  "9": "9",
                  "10": "10",
                  "11": "11",
                  "12": "12"
                },
                "wide": {
                  "1": "Oladalʉ́",
                  "2": "Arát",
                  "3": "Ɔɛnɨ́ɔɨŋɔk",
                  "4": "Olodoyíóríê inkókúâ",
                  "5": "Oloilépūnyīē inkókúâ",
                  "6": "Kújúɔrɔk",
                  "7": "Mórusásin",
                  "8": "Ɔlɔ́ɨ́bɔ́rárɛ",
                  "9": "Kúshîn",
                  "10": "Olgísan",
                  "11": "Pʉshʉ́ka",
                  "12": "Ntʉ́ŋʉ́s"
                }
              },
              "stand-alone": {
                "abbreviated": {
                  "1": "Dal",
                  "2": "Ará",
                  "3": "Ɔɛn",
                  "4": "Doy",
                  "5": "Lép",
                  "6": "Rok",
                  "7": "Sás",
                  "8": "Bɔ́r",
                  "9": "Kús",
                  "10": "Gís",
                  "11": "Shʉ́",
                  "12": "Ntʉ́"
                },
                "narrow": {
                  "1": "1",
                  "2": "2",
                  "3": "3",
                  "4": "4",
                  "5": "5",
                  "6": "6",
                  "7": "7",
                  "8": "8",
                  "9": "9",
                  "10": "10",
                  "11": "11",
                  "12": "12"
                },
                "wide": {
                  "1": "Oladalʉ́",
                  "2": "Arát",
                  "3": "Ɔɛnɨ́ɔɨŋɔk",
                  "4": "Olodoyíóríê inkókúâ",
                  "5": "Oloilépūnyīē inkókúâ",
                  "6": "Kújúɔrɔk",
                  "7": "Mórusásin",
                  "8": "Ɔlɔ́ɨ́bɔ́rárɛ",
                  "9": "Kúshîn",
                  "10": "Olgísan",
                  "11": "Pʉshʉ́ka",
                  "12": "Ntʉ́ŋʉ́s"
                }
              }
            },
            "days": {
              "format": {
                "abbreviated": {
                  "sun": "Jpi",
                  "mon": "Jtt",
                  "tue": "Jnn",
                  "wed": "Jtn",
                  "thu": "Alh",
                  "fri": "Iju",
                  "sat": "Jmo"
                },
                "narrow": {
                  "sun": "2",
                  "mon": "3",
                  "tue": "4",
                  "wed": "5",
                  "thu": "6",
                  "fri": "7",
                  "sat": "1"
                },
                "short": {
                  "sun": "Jpi",
                  "mon": "Jtt",
                  "tue": "Jnn",
                  "wed": "Jtn",
                  "thu": "Alh",
                  "fri": "Iju",
                  "sat": "Jmo"
                },
                "wide": {
                  "sun": "Jumapílí",
                  "mon": "Jumatátu",
                  "tue": "Jumane",
                  "wed": "Jumatánɔ",
                  "thu": "Alaámisi",
                  "fri": "Jumáa",
                  "sat": "Jumamósi"
                }
              },
              "stand-alone": {
                "abbreviated": {
                  "sun": "Jpi",
                  "mon": "Jtt",
                  "tue": "Jnn",
                  "wed": "Jtn",
                  "thu": "Alh",
                  "fri": "Iju",
                  "sat": "Jmo"
                },
                "narrow": {
                  "sun": "2",
                  "mon": "3",
                  "tue": "4",
                  "wed": "5",
                  "thu": "6",
                  "fri": "7",
                  "sat": "1"
                },
                "short": {
                  "sun": "Jpi",
                  "mon": "Jtt",
                  "tue": "Jnn",
                  "wed": "Jtn",
                  "thu": "Alh",
                  "fri": "Iju",
                  "sat": "Jmo"
                },
                "wide": {
                  "sun": "Jumapílí",
                  "mon": "Jumatátu",
                  "tue": "Jumane",
                  "wed": "Jumatánɔ",
                  "thu": "Alaámisi",
                  "fri": "Jumáa",
                  "sat": "Jumamósi"
                }
              }
            },
            "quarters": {
              "format": {
                "abbreviated": {
                  "1": "E1",
                  "2": "E2",
                  "3": "E3",
                  "4": "E4"
                },
                "narrow": {
                  "1": "1",
                  "2": "2",
                  "3": "3",
                  "4": "4"
                },
                "wide": {
                  "1": "Erobo 1",
                  "2": "Erobo 2",
                  "3": "Erobo 3",
                  "4": "Erobo 4"
                }
              },
              "stand-alone": {
                "abbreviated": {
                  "1": "E1",
                  "2": "E2",
                  "3": "E3",
                  "4": "E4"
                },
                "narrow": {
                  "1": "1",
                  "2": "2",
                  "3": "3",
                  "4": "4"
                },
                "wide": {
                  "1": "Erobo 1",
                  "2": "Erobo 2",
                  "3": "Erobo 3",
                  "4": "Erobo 4"
                }
              }
            },
            "dayPeriods": {
              "format": {
                "abbreviated": {
                  "am": "Ɛnkakɛnyá",
                  "noon": "noon",
                  "pm": "Ɛndámâ"
                },
                "narrow": {
                  "am": "a",
                  "noon": "n",
                  "pm": "p"
                },
                "wide": {
                  "am": "Ɛnkakɛnyá",
                  "noon": "noon",
                  "pm": "Ɛndámâ"
                }
              },
              "stand-alone": {
                "abbreviated": {
                  "am": "Ɛnkakɛnyá",
                  "noon": "noon",
                  "pm": "Ɛndámâ"
                },
                "narrow": {
                  "am": "a",
                  "noon": "n",
                  "pm": "p"
                },
                "wide": {
                  "am": "Ɛnkakɛnyá",
                  "noon": "noon",
                  "pm": "Ɛndámâ"
                }
              }
            },
            "eras": {
              "eraNames": {
                "0": "Meínō Yɛ́sʉ",
                "0-alt-variant": "BCE",
                "1": "Eínō Yɛ́sʉ",
                "1-alt-variant": "CE"
              },
              "eraAbbr": {
                "0": "MY",
                "0-alt-variant": "BCE",
                "1": "EY",
                "1-alt-variant": "CE"
              },
              "eraNarrow": {
                "0": "MY",
                "0-alt-variant": "BCE",
                "1": "EY",
                "1-alt-variant": "CE"
              }
            },
            "dateFormats": {
              "full": "EEEE, d MMMM y",
              "long": "d MMMM y",
              "medium": "d MMM y",
              "short": "dd/MM/y"
            },
            "timeFormats": {
              "full": "h:mm:ss a zzzz",
              "long": "h:mm:ss a z",
              "medium": "h:mm:ss a",
              "short": "h:mm a"
            },
            "dateTimeFormats": {
              "full": "{1} {0}",
              "long": "{1} {0}",
              "medium": "{1} {0}",
              "short": "{1} {0}",
              "availableFormats": {
                "E": "ccc",
                "EHm": "E HH:mm",
                "EHms": "E HH:mm:ss",
                "Ed": "d, E",
                "Ehm": "E h:mm a",
                "Ehms": "E h:mm:ss a",
                "Gy": "G y",
                "GyMMM": "G y MMM",
                "GyMMMEd": "G y MMM d, E",
                "GyMMMd": "G y MMM d",
                "H": "HH",
                "Hm": "HH:mm",
                "Hms": "HH:mm:ss",
                "M": "L",
                "MEd": "E, M/d",
                "MMM": "LLL",
                "MMMEd": "E, MMM d",
                "MMMMEd": "E, MMMM d",
                "MMMMd": "MMMM d",
                "MMMd": "MMM d",
                "Md": "M/d",
                "d": "d",
                "h": "h a",
                "hm": "h:mm a",
                "hms": "h:mm:ss a",
                "ms": "mm:ss",
                "y": "y",
                "yM": "M/y",
                "yMEd": "E, M/d/y",
                "yMMM": "MMM y",
                "yMMMEd": "E, MMM d, y",
                "yMMMM": "MMMM y",
                "yMMMd": "y MMM d",
                "yMd": "y-MM-dd",
                "yQQQ": "QQQ y",
                "yQQQQ": "QQQQ y"
              },
              "appendItems": {
                "Day": "{0} ({2}: {1})",
                "Day-Of-Week": "{0} {1}",
                "Era": "{1} {0}",
                "Hour": "{0} ({2}: {1})",
                "Minute": "{0} ({2}: {1})",
                "Month": "{0} ({2}: {1})",
                "Quarter": "{0} ({2}: {1})",
                "Second": "{0} ({2}: {1})",
                "Timezone": "{0} {1}",
                "Week": "{0} ({2}: {1})",
                "Year": "{1} {0}"
              },
              "intervalFormats": {
                "intervalFormatFallback": "{0} – {1}",
                "H": {
                  "H": "HH–HH"
                },
                "Hm": {
                  "H": "HH:mm–HH:mm",
                  "m": "HH:mm–HH:mm"
                },
                "Hmv": {
                  "H": "HH:mm–HH:mm v",
                  "m": "HH:mm–HH:mm v"
                },
                "Hv": {
                  "H": "HH–HH v"
                },
                "M": {
                  "M": "MM–MM"
                },
                "MEd": {
                  "M": "MM-dd, E – MM-dd, E",
                  "d": "MM-dd, E – MM-dd, E"
                },
                "MMM": {
                  "M": "LLL–LLL"
                },
                "MMMEd": {
                  "M": "MMM d, E – MMM d, E",
                  "d": "MMM d, E – MMM d, E"
                },
                "MMMd": {
                  "M": "MMM d – MMM d",
                  "d": "MMM d–d"
                },
                "Md": {
                  "M": "MM-dd – MM-dd",
                  "d": "MM-dd – MM-dd"
                },
                "d": {
                  "d": "d–d"
                },
                "h": {
                  "a": "h a – h a",
                  "h": "h–h a"
                },
                "hm": {
                  "a": "h:mm a – h:mm a",
                  "h": "h:mm–h:mm a",
                  "m": "h:mm–h:mm a"
                },
                "hmv": {
                  "a": "h:mm a – h:mm a v",
                  "h": "h:mm–h:mm a v",
                  "m": "h:mm–h:mm a v"
                },
                "hv": {
                  "a": "h a – h a v",
                  "h": "h–h a v"
                },
                "y": {
                  "y": "y–y"
                },
                "yM": {
                  "M": "y-MM – y-MM",
                  "y": "y-MM – y-MM"
                },
                "yMEd": {
                  "M": "y-MM-dd, E – y-MM-dd, E",
                  "d": "y-MM-dd, E – y-MM-dd, E",
                  "y": "y-MM-dd, E – y-MM-dd, E"
                },
                "yMMM": {
                  "M": "y MMM–MMM",
                  "y": "y MMM – y MMM"
                },
                "yMMMEd": {
                  "M": "y MMM d, E – MMM d, E",
                  "d": "y MMM d, E – MMM d, E",
                  "y": "y MMM d, E – y MMM d, E"
                },
                "yMMMM": {
                  "M": "y MMMM–MMMM",
                  "y": "y MMMM – y MMMM"
                },
                "yMMMd": {
                  "M": "y MMM d – MMM d",
                  "d": "y MMM d–d",
                  "y": "y MMM d – y MMM d"
                },
                "yMd": {
                  "M": "y-MM-dd – y-MM-dd",
                  "d": "y-MM-dd – y-MM-dd",
                  "y": "y-MM-dd – y-MM-dd"
                }
              }
            }
          }
        }
      }
    }
  }
}
