{
  "main": {
    "en-GD": {
      "identity": {
        "version": {
          "_cldrVersion": "26",
          "_number": "$Revision: 10712 $"
        },
        "generation": {
          "_date": "$Date: 2014-08-01 12:07:43 -0500 (Fri, 01 Aug 2014) $"
        },
        "language": "en",
        "territory": "001"
      },
      "posix": {
        "messages": {
          "yesstr": "yes:y",
          "nostr": "no:n"
        }
      }
    }
  }
}
